<?xml version="1.0" encoding="UTF-8"?>
<svg xmlns="http://www.w3.org/2000/svg" xmlns:xlink="http://www.w3.org/1999/xlink" width="576pt" height="432pt" viewBox="0 0 576 432" version="1.1">
<defs>
<g>
<symbol overflow="visible" id="glyph0-0">
<path style="stroke:none;" d=""/>
</symbol>
<symbol overflow="visible" id="glyph0-1">
<path style="stroke:none;" d="M 4.453125 -3 C 4.453125 -5.15625 3.78125 -6.234375 2.421875 -6.234375 C 1.078125 -6.234375 0.375 -5.140625 0.375 -3.046875 C 0.375 -0.953125 1.078125 0.125 2.421875 0.125 C 3.734375 0.125 4.453125 -0.953125 4.453125 -3 Z M 3.671875 -3.0625 C 3.671875 -1.296875 3.265625 -0.515625 2.40625 -0.515625 C 1.578125 -0.515625 1.171875 -1.34375 1.171875 -3.046875 C 1.171875 -4.75 1.578125 -5.546875 2.421875 -5.546875 C 3.25 -5.546875 3.671875 -4.734375 3.671875 -3.0625 Z M 3.671875 -3.0625 "/>
</symbol>
<symbol overflow="visible" id="glyph0-2">
<path style="stroke:none;" d="M 1.6875 0 L 1.6875 -0.921875 L 0.765625 -0.921875 L 0.765625 0 Z M 1.6875 0 "/>
</symbol>
<symbol overflow="visible" id="glyph0-3">
<path style="stroke:none;" d="M 4.578125 -1.5 L 4.578125 -2.1875 L 3.65625 -2.1875 L 3.65625 -6.234375 L 3.078125 -6.234375 L 0.25 -2.3125 L 0.25 -1.5 L 2.875 -1.5 L 2.875 0 L 3.65625 0 L 3.65625 -1.5 Z M 2.875 -2.1875 L 0.921875 -2.1875 L 2.875 -4.921875 Z M 2.875 -2.1875 "/>
</symbol>
<symbol overflow="visible" id="glyph0-4">
<path style="stroke:none;" d="M 4.515625 -1.765625 C 4.515625 -2.453125 4.15625 -2.9375 3.4375 -3.28125 C 4.078125 -3.671875 4.296875 -3.984375 4.296875 -4.578125 C 4.296875 -5.546875 3.53125 -6.234375 2.421875 -6.234375 C 1.3125 -6.234375 0.546875 -5.546875 0.546875 -4.578125 C 0.546875 -4 0.75 -3.671875 1.390625 -3.28125 C 0.671875 -2.9375 0.328125 -2.453125 0.328125 -1.765625 C 0.328125 -0.625 1.1875 0.125 2.421875 0.125 C 3.65625 0.125 4.515625 -0.625 4.515625 -1.765625 Z M 3.5 -4.5625 C 3.5 -3.96875 3.0625 -3.59375 2.421875 -3.59375 C 1.765625 -3.59375 1.34375 -3.96875 1.34375 -4.5625 C 1.34375 -5.15625 1.765625 -5.546875 2.421875 -5.546875 C 3.078125 -5.546875 3.5 -5.15625 3.5 -4.5625 Z M 3.71875 -1.75 C 3.71875 -1.015625 3.1875 -0.546875 2.40625 -0.546875 C 1.640625 -0.546875 1.125 -1.015625 1.125 -1.75 C 1.125 -2.484375 1.640625 -2.9375 2.421875 -2.9375 C 3.1875 -2.9375 3.71875 -2.484375 3.71875 -1.75 Z M 3.71875 -1.75 "/>
</symbol>
<symbol overflow="visible" id="glyph0-5">
<path style="stroke:none;" d="M 3.046875 0 L 3.046875 -6.234375 L 2.546875 -6.234375 C 2.265625 -5.28125 2.09375 -5.140625 0.890625 -5 L 0.890625 -4.4375 L 2.28125 -4.4375 L 2.28125 0 Z M 3.046875 0 "/>
</symbol>
<symbol overflow="visible" id="glyph0-6">
<path style="stroke:none;" d="M 4.5 -4.40625 C 4.5 -5.46875 3.671875 -6.234375 2.5 -6.234375 C 1.21875 -6.234375 0.484375 -5.59375 0.4375 -4.078125 L 1.21875 -4.078125 C 1.28125 -5.125 1.703125 -5.5625 2.46875 -5.5625 C 3.171875 -5.5625 3.703125 -5.0625 3.703125 -4.390625 C 3.703125 -3.890625 3.40625 -3.46875 2.859375 -3.15625 L 2.046875 -2.703125 C 0.75 -1.96875 0.375 -1.375 0.296875 0 L 4.453125 0 L 4.453125 -0.765625 L 1.171875 -0.765625 C 1.25 -1.28125 1.53125 -1.59375 2.296875 -2.046875 L 3.171875 -2.53125 C 4.046875 -2.984375 4.5 -3.640625 4.5 -4.40625 Z M 4.5 -4.40625 "/>
</symbol>
<symbol overflow="visible" id="glyph0-7">
<path style="stroke:none;" d="M 2.5 -2.109375 L 2.5 -2.75 L 0.40625 -2.75 L 0.40625 -2.109375 Z M 2.5 -2.109375 "/>
</symbol>
<symbol overflow="visible" id="glyph0-8">
<path style="stroke:none;" d="M 5.46875 -1.765625 C 5.46875 -2.546875 4.96875 -3.125 4.09375 -3.375 L 2.484375 -3.796875 C 1.71875 -4 1.4375 -4.25 1.4375 -4.75 C 1.4375 -5.40625 2 -5.890625 2.875 -5.890625 C 3.890625 -5.890625 4.46875 -5.421875 4.46875 -4.578125 L 5.25 -4.578125 C 5.25 -5.84375 4.375 -6.578125 2.890625 -6.578125 C 1.484375 -6.578125 0.609375 -5.796875 0.609375 -4.640625 C 0.609375 -3.859375 1.03125 -3.359375 1.875 -3.140625 L 3.46875 -2.71875 C 4.28125 -2.5 4.640625 -2.1875 4.640625 -1.6875 C 4.640625 -0.96875 4.109375 -0.5625 3.015625 -0.5625 C 1.796875 -0.5625 1.203125 -1.171875 1.203125 -2.078125 L 0.421875 -2.078125 C 0.421875 -0.578125 1.4375 0.15625 2.953125 0.15625 C 4.578125 0.15625 5.46875 -0.609375 5.46875 -1.765625 Z M 5.46875 -1.765625 "/>
</symbol>
<symbol overflow="visible" id="glyph0-9">
<path style="stroke:none;" d="M 4.703125 -0.015625 L 4.703125 -0.578125 C 4.625 -0.546875 4.59375 -0.546875 4.546875 -0.546875 C 4.296875 -0.546875 4.15625 -0.6875 4.15625 -0.921875 L 4.15625 -3.484375 C 4.15625 -4.296875 3.546875 -4.734375 2.421875 -4.734375 C 1.296875 -4.734375 0.609375 -4.3125 0.578125 -3.25 L 1.3125 -3.25 C 1.375 -3.8125 1.703125 -4.0625 2.390625 -4.0625 C 3.046875 -4.0625 3.421875 -3.8125 3.421875 -3.375 L 3.421875 -3.1875 C 3.421875 -2.875 3.234375 -2.75 2.65625 -2.671875 C 1.625 -2.546875 1.453125 -2.5 1.171875 -2.390625 C 0.640625 -2.171875 0.375 -1.765625 0.375 -1.203125 C 0.375 -0.359375 0.953125 0.125 1.875 0.125 C 2.46875 0.125 3.046875 -0.109375 3.453125 -0.546875 C 3.53125 -0.1875 3.84375 0.0625 4.203125 0.0625 C 4.359375 0.0625 4.46875 0.046875 4.703125 -0.015625 Z M 3.421875 -1.59375 C 3.421875 -0.9375 2.75 -0.515625 2.046875 -0.515625 C 1.46875 -0.515625 1.140625 -0.71875 1.140625 -1.21875 C 1.140625 -1.703125 1.453125 -1.90625 2.25 -2.015625 C 3.015625 -2.125 3.171875 -2.15625 3.421875 -2.28125 Z M 3.421875 -1.59375 "/>
</symbol>
<symbol overflow="visible" id="glyph0-10">
<path style="stroke:none;" d="M 4.28125 0 L 4.28125 -3.484375 C 4.28125 -4.25 3.71875 -4.734375 2.828125 -4.734375 C 2.140625 -4.734375 1.703125 -4.484375 1.296875 -3.828125 L 1.296875 -4.609375 L 0.609375 -4.609375 L 0.609375 0 L 1.34375 0 L 1.34375 -2.546875 C 1.34375 -3.484375 1.859375 -4.09375 2.609375 -4.09375 C 3.1875 -4.09375 3.546875 -3.75 3.546875 -3.1875 L 3.546875 0 Z M 4.28125 0 "/>
</symbol>
<symbol overflow="visible" id="glyph0-11">
<path style="stroke:none;" d="M 4.484375 -2.265625 C 4.484375 -3.859375 3.71875 -4.734375 2.390625 -4.734375 C 1.09375 -4.734375 0.3125 -3.859375 0.3125 -2.3125 C 0.3125 -0.75 1.09375 0.125 2.40625 0.125 C 3.6875 0.125 4.484375 -0.75 4.484375 -2.265625 Z M 3.71875 -2.28125 C 3.71875 -1.203125 3.203125 -0.546875 2.40625 -0.546875 C 1.578125 -0.546875 1.078125 -1.1875 1.078125 -2.3125 C 1.078125 -3.40625 1.578125 -4.0625 2.40625 -4.0625 C 3.234375 -4.0625 3.71875 -3.421875 3.71875 -2.28125 Z M 3.71875 -2.28125 "/>
</symbol>
<symbol overflow="visible" id="glyph0-12">
<path style="stroke:none;" d="M 1.703125 0 L 1.703125 -6.40625 L 0.875 -6.40625 L 0.875 0 Z M 1.703125 0 "/>
</symbol>
<symbol overflow="visible" id="glyph0-13">
<path style="stroke:none;" d="M 5.671875 -6.40625 L 4.796875 -6.40625 L 3.03125 -0.984375 L 1.140625 -6.40625 L 0.265625 -6.40625 L 2.5625 0 L 3.453125 0 Z M 5.671875 -6.40625 "/>
</symbol>
<symbol overflow="visible" id="glyph1-0">
<path style="stroke:none;" d=""/>
</symbol>
<symbol overflow="visible" id="glyph1-1">
<path style="stroke:none;" d="M 7.34375 -4.015625 C 7.34375 -6.5 6.109375 -8.015625 4.0625 -8.015625 L 0.984375 -8.015625 L 0.984375 0 L 4.0625 0 C 6.09375 0 7.34375 -1.515625 7.34375 -4.015625 Z M 6.3125 -4 C 6.3125 -1.984375 5.484375 -0.90625 3.890625 -0.90625 L 2 -0.90625 L 2 -7.109375 L 3.890625 -7.109375 C 5.484375 -7.109375 6.3125 -6.046875 6.3125 -4 Z M 6.3125 -4 "/>
</symbol>
<symbol overflow="visible" id="glyph1-2">
<path style="stroke:none;" d="M 1.6875 0 L 1.6875 -5.765625 L 0.765625 -5.765625 L 0.765625 0 Z M 1.796875 -6.640625 L 1.796875 -7.78125 L 0.65625 -7.78125 L 0.65625 -6.640625 Z M 1.796875 -6.640625 "/>
</symbol>
<symbol overflow="visible" id="glyph1-3">
<path style="stroke:none;" d="M 8.359375 0 L 8.359375 -4.328125 C 8.359375 -5.359375 7.78125 -5.921875 6.703125 -5.921875 C 5.9375 -5.921875 5.484375 -5.703125 4.9375 -5.046875 C 4.59375 -5.671875 4.140625 -5.921875 3.390625 -5.921875 C 2.625 -5.921875 2.109375 -5.640625 1.609375 -4.953125 L 1.609375 -5.765625 L 0.78125 -5.765625 L 0.78125 0 L 1.6875 0 L 1.6875 -3.625 C 1.6875 -4.453125 2.296875 -5.125 3.046875 -5.125 C 3.734375 -5.125 4.109375 -4.703125 4.109375 -3.96875 L 4.109375 0 L 5.03125 0 L 5.03125 -3.625 C 5.03125 -4.453125 5.640625 -5.125 6.390625 -5.125 C 7.0625 -5.125 7.453125 -4.703125 7.453125 -3.96875 L 7.453125 0 Z M 8.359375 0 "/>
</symbol>
<symbol overflow="visible" id="glyph1-4">
<path style="stroke:none;" d="M 2.09375 0 L 2.09375 -1.140625 L 0.953125 -1.140625 L 0.953125 0 Z M 2.09375 0 "/>
</symbol>
<symbol overflow="visible" id="glyph1-5">
<path style="stroke:none;" d="M 3.8125 0 L 3.8125 -7.796875 L 3.171875 -7.796875 C 2.84375 -6.59375 2.625 -6.4375 1.125 -6.25 L 1.125 -5.5625 L 2.84375 -5.5625 L 2.84375 0 Z M 3.8125 0 "/>
</symbol>
<symbol overflow="visible" id="glyph1-6">
<path style="stroke:none;" d="M 6.75 0 L 6.75 -0.90625 L 2.015625 -0.90625 L 2.015625 -3.65625 L 6.375 -3.65625 L 6.375 -4.546875 L 2.015625 -4.546875 L 2.015625 -7.109375 L 6.546875 -7.109375 L 6.546875 -8.015625 L 0.984375 -8.015625 L 0.984375 0 Z M 6.75 0 "/>
</symbol>
<symbol overflow="visible" id="glyph1-7">
<path style="stroke:none;" d="M 5.046875 -1.609375 C 5.046875 -2.46875 4.5625 -2.90625 3.421875 -3.171875 L 2.546875 -3.390625 C 1.796875 -3.5625 1.46875 -3.8125 1.46875 -4.21875 C 1.46875 -4.734375 1.953125 -5.078125 2.6875 -5.078125 C 3.4375 -5.078125 3.828125 -4.765625 3.84375 -4.15625 L 4.8125 -4.15625 C 4.8125 -5.296875 4.0625 -5.921875 2.734375 -5.921875 C 1.390625 -5.921875 0.515625 -5.234375 0.515625 -4.171875 C 0.515625 -3.265625 0.984375 -2.84375 2.34375 -2.515625 L 3.203125 -2.296875 C 3.84375 -2.140625 4.09375 -1.953125 4.09375 -1.546875 C 4.09375 -1 3.546875 -0.6875 2.75 -0.6875 C 1.921875 -0.6875 1.46875 -0.875 1.34375 -1.765625 L 0.375 -1.765625 C 0.421875 -0.421875 1.171875 0.171875 2.671875 0.171875 C 4.125 0.171875 5.046875 -0.5 5.046875 -1.609375 Z M 5.046875 -1.609375 "/>
</symbol>
<symbol overflow="visible" id="glyph1-8">
<path style="stroke:none;" d="M 2.796875 0 L 2.796875 -0.765625 C 2.671875 -0.734375 2.53125 -0.71875 2.359375 -0.71875 C 1.953125 -0.71875 1.84375 -0.84375 1.84375 -1.25 L 1.84375 -5.015625 L 2.796875 -5.015625 L 2.796875 -5.765625 L 1.84375 -5.765625 L 1.84375 -7.34375 L 0.9375 -7.34375 L 0.9375 -5.765625 L 0.15625 -5.765625 L 0.15625 -5.015625 L 0.9375 -5.015625 L 0.9375 -0.84375 C 0.9375 -0.25 1.328125 0.078125 2.046875 0.078125 C 2.265625 0.078125 2.484375 0.0625 2.796875 0 Z M 2.796875 0 "/>
</symbol>
<symbol overflow="visible" id="glyph1-9">
<path style="stroke:none;" d="M 5.890625 -0.015625 L 5.890625 -0.71875 C 5.78125 -0.6875 5.734375 -0.6875 5.6875 -0.6875 C 5.375 -0.6875 5.1875 -0.859375 5.1875 -1.140625 L 5.1875 -4.359375 C 5.1875 -5.375 4.4375 -5.921875 3.03125 -5.921875 C 1.625 -5.921875 0.765625 -5.390625 0.71875 -4.0625 L 1.640625 -4.0625 C 1.71875 -4.765625 2.140625 -5.078125 2.984375 -5.078125 C 3.8125 -5.078125 4.28125 -4.78125 4.28125 -4.21875 L 4.28125 -3.984375 C 4.28125 -3.59375 4.046875 -3.4375 3.328125 -3.34375 C 2.03125 -3.171875 1.828125 -3.140625 1.46875 -2.984375 C 0.796875 -2.71875 0.46875 -2.203125 0.46875 -1.5 C 0.46875 -0.453125 1.1875 0.171875 2.359375 0.171875 C 3.09375 0.171875 3.8125 -0.140625 4.3125 -0.6875 C 4.40625 -0.234375 4.8125 0.078125 5.265625 0.078125 C 5.4375 0.078125 5.59375 0.0625 5.890625 -0.015625 Z M 4.28125 -1.984375 C 4.28125 -1.171875 3.4375 -0.640625 2.546875 -0.640625 C 1.84375 -0.640625 1.421875 -0.890625 1.421875 -1.515625 C 1.421875 -2.125 1.828125 -2.390625 2.8125 -2.53125 C 3.765625 -2.65625 3.96875 -2.703125 4.28125 -2.84375 Z M 4.28125 -1.984375 "/>
</symbol>
<symbol overflow="visible" id="glyph1-10">
<path style="stroke:none;" d="M 5.4375 0 L 5.4375 -8.015625 L 4.53125 -8.015625 L 4.53125 -5.03125 C 4.140625 -5.625 3.53125 -5.921875 2.765625 -5.921875 C 1.265625 -5.921875 0.28125 -4.78125 0.28125 -2.9375 C 0.28125 -0.984375 1.25 0.171875 2.796875 0.171875 C 3.59375 0.171875 4.140625 -0.125 4.625 -0.84375 L 4.625 0 Z M 4.53125 -2.859375 C 4.53125 -1.53125 3.890625 -0.6875 2.921875 -0.6875 C 1.90625 -0.6875 1.25 -1.546875 1.25 -2.875 C 1.25 -4.21875 1.90625 -5.078125 2.921875 -5.078125 C 3.90625 -5.078125 4.53125 -4.1875 4.53125 -2.859375 Z M 4.53125 -2.859375 "/>
</symbol>
<symbol overflow="visible" id="glyph1-11">
<path style="stroke:none;" d="M 5.609375 -2.84375 C 5.609375 -4.828125 4.65625 -5.921875 2.984375 -5.921875 C 1.375 -5.921875 0.390625 -4.8125 0.390625 -2.875 C 0.390625 -0.953125 1.359375 0.171875 3 0.171875 C 4.625 0.171875 5.609375 -0.953125 5.609375 -2.84375 Z M 4.65625 -2.84375 C 4.65625 -1.5 4.015625 -0.6875 3 -0.6875 C 1.984375 -0.6875 1.359375 -1.484375 1.359375 -2.875 C 1.359375 -4.265625 1.984375 -5.078125 3 -5.078125 C 4.03125 -5.078125 4.65625 -4.28125 4.65625 -2.84375 Z M 4.65625 -2.84375 "/>
</symbol>
<symbol overflow="visible" id="glyph2-0">
<path style="stroke:none;" d=""/>
</symbol>
<symbol overflow="visible" id="glyph2-1">
<path style="stroke:none;" d="M 0 -5.4375 L -8.015625 -5.4375 L -8.015625 -4.53125 L -5.03125 -4.53125 C -5.625 -4.140625 -5.921875 -3.53125 -5.921875 -2.765625 C -5.921875 -1.265625 -4.78125 -0.28125 -2.9375 -0.28125 C -0.984375 -0.28125 0.171875 -1.25 0.171875 -2.796875 C 0.171875 -3.59375 -0.125 -4.140625 -0.84375 -4.625 L 0 -4.625 Z M -2.859375 -4.53125 C -1.53125 -4.53125 -0.6875 -3.890625 -0.6875 -2.921875 C -0.6875 -1.90625 -1.546875 -1.25 -2.875 -1.25 C -4.21875 -1.25 -5.078125 -1.90625 -5.078125 -2.921875 C -5.078125 -3.90625 -4.1875 -4.53125 -2.859375 -4.53125 Z M -2.859375 -4.53125 "/>
</symbol>
<symbol overflow="visible" id="glyph2-2">
<path style="stroke:none;" d="M -2.625 -5.640625 C -3.453125 -5.640625 -3.984375 -5.578125 -4.40625 -5.40625 C -5.359375 -5.03125 -5.921875 -4.15625 -5.921875 -3.078125 C -5.921875 -1.46875 -4.734375 -0.4375 -2.84375 -0.4375 C -0.953125 -0.4375 0.171875 -1.4375 0.171875 -3.0625 C 0.171875 -4.375 -0.578125 -5.296875 -1.75 -5.515625 L -1.75 -4.59375 C -0.984375 -4.34375 -0.6875 -3.828125 -0.6875 -3.09375 C -0.6875 -2.140625 -1.296875 -1.421875 -2.625 -1.390625 Z M -3.4375 -4.65625 C -3.4375 -4.65625 -3.390625 -4.65625 -3.359375 -4.65625 L -3.359375 -1.421875 C -4.390625 -1.5 -5.078125 -2.140625 -5.078125 -3.0625 C -5.078125 -3.96875 -4.328125 -4.65625 -3.4375 -4.65625 Z M -3.4375 -4.65625 "/>
</symbol>
<symbol overflow="visible" id="glyph2-3">
<path style="stroke:none;" d="M 0 -5.359375 L -4.359375 -5.359375 C -5.3125 -5.359375 -5.921875 -4.640625 -5.921875 -3.53125 C -5.921875 -2.671875 -5.59375 -2.125 -4.796875 -1.609375 L -5.765625 -1.609375 L -5.765625 -0.765625 L 0 -0.765625 L 0 -1.6875 L -3.171875 -1.6875 C -4.359375 -1.6875 -5.125 -2.328125 -5.125 -3.25 C -5.125 -3.984375 -4.6875 -4.4375 -4 -4.4375 L 0 -4.4375 Z M 0 -5.359375 "/>
</symbol>
<symbol overflow="visible" id="glyph2-4">
<path style="stroke:none;" d="M -1.609375 -5.046875 C -2.46875 -5.046875 -2.90625 -4.5625 -3.171875 -3.421875 L -3.390625 -2.546875 C -3.5625 -1.796875 -3.8125 -1.46875 -4.21875 -1.46875 C -4.734375 -1.46875 -5.078125 -1.953125 -5.078125 -2.6875 C -5.078125 -3.4375 -4.765625 -3.828125 -4.15625 -3.84375 L -4.15625 -4.8125 C -5.296875 -4.8125 -5.921875 -4.0625 -5.921875 -2.734375 C -5.921875 -1.390625 -5.234375 -0.515625 -4.171875 -0.515625 C -3.265625 -0.515625 -2.84375 -0.984375 -2.515625 -2.34375 L -2.296875 -3.203125 C -2.140625 -3.84375 -1.953125 -4.09375 -1.546875 -4.09375 C -1 -4.09375 -0.6875 -3.546875 -0.6875 -2.75 C -0.6875 -1.921875 -0.875 -1.46875 -1.765625 -1.34375 L -1.765625 -0.375 C -0.421875 -0.421875 0.171875 -1.171875 0.171875 -2.671875 C 0.171875 -4.125 -0.5 -5.046875 -1.609375 -5.046875 Z M -1.609375 -5.046875 "/>
</symbol>
<symbol overflow="visible" id="glyph2-5">
<path style="stroke:none;" d="M 0 -1.6875 L -5.765625 -1.6875 L -5.765625 -0.765625 L 0 -0.765625 Z M -6.640625 -1.796875 L -7.78125 -1.796875 L -7.78125 -0.65625 L -6.640625 -0.65625 Z M -6.640625 -1.796875 "/>
</symbol>
<symbol overflow="visible" id="glyph2-6">
<path style="stroke:none;" d="M 0 -2.796875 L -0.765625 -2.796875 C -0.734375 -2.671875 -0.71875 -2.53125 -0.71875 -2.359375 C -0.71875 -1.953125 -0.84375 -1.84375 -1.25 -1.84375 L -5.015625 -1.84375 L -5.015625 -2.796875 L -5.765625 -2.796875 L -5.765625 -1.84375 L -7.34375 -1.84375 L -7.34375 -0.9375 L -5.765625 -0.9375 L -5.765625 -0.15625 L -5.015625 -0.15625 L -5.015625 -0.9375 L -0.84375 -0.9375 C -0.25 -0.9375 0.078125 -1.328125 0.078125 -2.046875 C 0.078125 -2.265625 0.0625 -2.484375 0 -2.796875 Z M 0 -2.796875 "/>
</symbol>
<symbol overflow="visible" id="glyph2-7">
<path style="stroke:none;" d="M -5.765625 -5.265625 L -5.765625 -4.265625 L -1.28125 -2.671875 L -5.765625 -1.203125 L -5.765625 -0.21875 L 0.015625 -2.171875 L 0.9375 -1.8125 C 1.34375 -1.65625 1.5 -1.46875 1.5 -1.078125 C 1.5 -0.953125 1.46875 -0.796875 1.4375 -0.59375 L 2.25 -0.59375 C 2.359375 -0.78125 2.390625 -0.96875 2.390625 -1.203125 C 2.390625 -1.859375 2.03125 -2.390625 1.203125 -2.6875 Z M -5.765625 -5.265625 "/>
</symbol>
<symbol overflow="visible" id="glyph3-0">
<path style="stroke:none;" d=""/>
</symbol>
<symbol overflow="visible" id="glyph3-1">
<path style="stroke:none;" d="M 8.8125 -4.8125 C 8.8125 -7.796875 7.328125 -9.625 4.890625 -9.625 L 1.171875 -9.625 L 1.171875 0 L 4.890625 0 C 7.3125 0 8.8125 -1.828125 8.8125 -4.8125 Z M 7.578125 -4.8125 C 7.578125 -2.375 6.578125 -1.078125 4.671875 -1.078125 L 2.40625 -1.078125 L 2.40625 -8.546875 L 4.671875 -8.546875 C 6.578125 -8.546875 7.578125 -7.265625 7.578125 -4.8125 Z M 7.578125 -4.8125 "/>
</symbol>
<symbol overflow="visible" id="glyph3-2">
<path style="stroke:none;" d="M 2.015625 0 L 2.015625 -6.921875 L 0.921875 -6.921875 L 0.921875 0 Z M 2.171875 -7.96875 L 2.171875 -9.328125 L 0.796875 -9.328125 L 0.796875 -7.96875 Z M 2.171875 -7.96875 "/>
</symbol>
<symbol overflow="visible" id="glyph3-3">
<path style="stroke:none;" d="M 6.0625 -1.9375 C 6.0625 -2.96875 5.484375 -3.484375 4.109375 -3.8125 L 3.046875 -4.0625 C 2.15625 -4.28125 1.765625 -4.5625 1.765625 -5.0625 C 1.765625 -5.6875 2.34375 -6.09375 3.234375 -6.09375 C 4.125 -6.09375 4.59375 -5.71875 4.625 -4.984375 L 5.78125 -4.984375 C 5.765625 -6.34375 4.875 -7.109375 3.28125 -7.109375 C 1.65625 -7.109375 0.625 -6.28125 0.625 -5 C 0.625 -3.921875 1.171875 -3.40625 2.8125 -3.015625 L 3.84375 -2.765625 C 4.609375 -2.578125 4.90625 -2.34375 4.90625 -1.84375 C 4.90625 -1.203125 4.265625 -0.8125 3.296875 -0.8125 C 2.3125 -0.8125 1.75 -1.0625 1.609375 -2.109375 L 0.453125 -2.109375 C 0.5 -0.515625 1.40625 0.203125 3.203125 0.203125 C 4.953125 0.203125 6.0625 -0.609375 6.0625 -1.9375 Z M 6.0625 -1.9375 "/>
</symbol>
<symbol overflow="visible" id="glyph3-4">
<path style="stroke:none;" d="M 3.359375 0 L 3.359375 -0.921875 C 3.203125 -0.890625 3.03125 -0.875 2.828125 -0.875 C 2.34375 -0.875 2.21875 -1 2.21875 -1.484375 L 2.21875 -6.015625 L 3.359375 -6.015625 L 3.359375 -6.921875 L 2.21875 -6.921875 L 2.21875 -8.8125 L 1.125 -8.8125 L 1.125 -6.921875 L 0.1875 -6.921875 L 0.1875 -6.015625 L 1.125 -6.015625 L 1.125 -1 C 1.125 -0.296875 1.59375 0.09375 2.453125 0.09375 C 2.71875 0.09375 2.984375 0.0625 3.359375 0 Z M 3.359375 0 "/>
</symbol>
<symbol overflow="visible" id="glyph3-5">
<path style="stroke:none;" d="M 4.234375 -5.953125 L 4.234375 -7.078125 C 4.046875 -7.109375 3.96875 -7.109375 3.8125 -7.109375 C 3.109375 -7.109375 2.5625 -6.6875 1.921875 -5.671875 L 1.921875 -6.921875 L 0.921875 -6.921875 L 0.921875 0 L 2.015625 0 L 2.015625 -3.59375 C 2.015625 -5.15625 2.53125 -5.921875 4.234375 -5.953125 Z M 4.234375 -5.953125 "/>
</symbol>
<symbol overflow="visible" id="glyph3-6">
<path style="stroke:none;" d="M 6.90625 -3.53125 C 6.90625 -5.78125 5.765625 -7.109375 3.953125 -7.109375 C 3 -7.109375 2.328125 -6.765625 1.8125 -5.984375 L 1.8125 -9.625 L 0.71875 -9.625 L 0.71875 0 L 1.703125 0 L 1.703125 -0.984375 C 2.234375 -0.1875 2.9375 0.203125 3.890625 0.203125 C 5.71875 0.203125 6.90625 -1.296875 6.90625 -3.53125 Z M 5.75 -3.46875 C 5.75 -1.90625 4.9375 -0.828125 3.734375 -0.828125 C 2.578125 -0.828125 1.8125 -1.890625 1.8125 -3.453125 C 1.8125 -5.078125 2.578125 -6.140625 3.734375 -6.09375 C 4.96875 -6.09375 5.75 -5.015625 5.75 -3.46875 Z M 5.75 -3.46875 "/>
</symbol>
<symbol overflow="visible" id="glyph3-7">
<path style="stroke:none;" d="M 6.359375 0 L 6.359375 -6.921875 L 5.265625 -6.921875 L 5.265625 -3.109375 C 5.265625 -1.6875 4.53125 -0.765625 3.375 -0.765625 C 2.515625 -0.765625 1.953125 -1.296875 1.953125 -2.125 L 1.953125 -6.921875 L 0.859375 -6.921875 L 0.859375 -1.6875 C 0.859375 -0.546875 1.71875 0.203125 3.0625 0.203125 C 4.078125 0.203125 4.734375 -0.15625 5.375 -1.0625 L 5.375 0 Z M 6.359375 0 "/>
</symbol>
<symbol overflow="visible" id="glyph3-8">
<path style="stroke:none;" d="M 6.296875 -2.375 L 5.1875 -2.375 C 5 -1.265625 4.4375 -0.8125 3.5 -0.8125 C 2.28125 -0.8125 1.5625 -1.75 1.5625 -3.390625 C 1.5625 -5.125 2.265625 -6.09375 3.46875 -6.09375 C 4.390625 -6.09375 4.984375 -5.5625 5.109375 -4.59375 L 6.21875 -4.59375 C 6.09375 -6.28125 5.03125 -7.109375 3.484375 -7.109375 C 1.625 -7.109375 0.40625 -5.6875 0.40625 -3.390625 C 0.40625 -1.15625 1.59375 0.203125 3.46875 0.203125 C 5.125 0.203125 6.171875 -0.796875 6.296875 -2.375 Z M 6.296875 -2.375 "/>
</symbol>
<symbol overflow="visible" id="glyph3-9">
<path style="stroke:none;" d="M 6.734375 -3.40625 C 6.734375 -5.796875 5.578125 -7.109375 3.59375 -7.109375 C 1.65625 -7.109375 0.46875 -5.78125 0.46875 -3.453125 C 0.46875 -1.140625 1.640625 0.203125 3.609375 0.203125 C 5.546875 0.203125 6.734375 -1.140625 6.734375 -3.40625 Z M 5.578125 -3.421875 C 5.578125 -1.796875 4.8125 -0.8125 3.609375 -0.8125 C 2.375 -0.8125 1.625 -1.78125 1.625 -3.453125 C 1.625 -5.125 2.375 -6.09375 3.609375 -6.09375 C 4.84375 -6.09375 5.578125 -5.140625 5.578125 -3.421875 Z M 5.578125 -3.421875 "/>
</symbol>
<symbol overflow="visible" id="glyph3-10">
<path style="stroke:none;" d="M 6.4375 0 L 6.4375 -5.234375 C 6.4375 -6.375 5.578125 -7.109375 4.234375 -7.109375 C 3.203125 -7.109375 2.546875 -6.71875 1.9375 -5.75 L 1.9375 -6.921875 L 0.921875 -6.921875 L 0.921875 0 L 2.015625 0 L 2.015625 -3.8125 C 2.015625 -5.234375 2.78125 -6.15625 3.90625 -6.15625 C 4.78125 -6.15625 5.328125 -5.625 5.328125 -4.796875 L 5.328125 0 Z M 6.4375 0 "/>
</symbol>
<symbol overflow="visible" id="glyph3-11">
<path style="stroke:none;" d="M 6.765625 -3.140625 C 6.765625 -4.140625 6.6875 -4.78125 6.5 -5.296875 C 6.046875 -6.4375 4.984375 -7.109375 3.703125 -7.109375 C 1.765625 -7.109375 0.53125 -5.6875 0.53125 -3.421875 C 0.53125 -1.15625 1.734375 0.203125 3.671875 0.203125 C 5.25 0.203125 6.34375 -0.703125 6.625 -2.09375 L 5.515625 -2.09375 C 5.21875 -1.1875 4.59375 -0.8125 3.703125 -0.8125 C 2.5625 -0.8125 1.703125 -1.5625 1.671875 -3.140625 Z M 5.59375 -4.125 C 5.59375 -4.125 5.59375 -4.0625 5.578125 -4.046875 L 1.703125 -4.046875 C 1.796875 -5.265625 2.578125 -6.09375 3.6875 -6.09375 C 4.765625 -6.09375 5.59375 -5.203125 5.59375 -4.125 Z M 5.59375 -4.125 "/>
</symbol>
<symbol overflow="visible" id="glyph3-12">
<path style="stroke:none;" d=""/>
</symbol>
<symbol overflow="visible" id="glyph3-13">
<path style="stroke:none;" d="M 6.53125 0 L 6.53125 -9.625 L 5.4375 -9.625 L 5.4375 -6.046875 C 4.984375 -6.75 4.234375 -7.109375 3.3125 -7.109375 C 1.515625 -7.109375 0.34375 -5.734375 0.34375 -3.53125 C 0.34375 -1.1875 1.484375 0.203125 3.359375 0.203125 C 4.296875 0.203125 4.96875 -0.15625 5.5625 -1.015625 L 5.5625 0 Z M 5.4375 -3.4375 C 5.4375 -1.828125 4.671875 -0.828125 3.515625 -0.828125 C 2.296875 -0.828125 1.484375 -1.84375 1.484375 -3.453125 C 1.484375 -5.0625 2.296875 -6.09375 3.5 -6.09375 C 4.6875 -6.09375 5.4375 -5.03125 5.4375 -3.4375 Z M 5.4375 -3.4375 "/>
</symbol>
<symbol overflow="visible" id="glyph3-14">
<path style="stroke:none;" d="M 2 0 L 2 -9.625 L 0.890625 -9.625 L 0.890625 0 Z M 2 0 "/>
</symbol>
<symbol overflow="visible" id="glyph3-15">
<path style="stroke:none;" d="M 6.90625 -3.390625 C 6.90625 -5.71875 5.765625 -7.109375 3.9375 -7.109375 C 3 -7.109375 2.25 -6.6875 1.734375 -5.875 L 1.734375 -6.921875 L 0.71875 -6.921875 L 0.71875 2.875 L 1.828125 2.875 L 1.828125 -0.828125 C 2.40625 -0.125 3.046875 0.203125 3.953125 0.203125 C 5.734375 0.203125 6.90625 -1.1875 6.90625 -3.390625 Z M 5.75 -3.421875 C 5.75 -1.84375 4.953125 -0.828125 3.75 -0.828125 C 2.59375 -0.828125 1.828125 -1.78125 1.828125 -3.40625 C 1.828125 -5.03125 2.59375 -6.09375 3.75 -6.09375 C 4.96875 -6.09375 5.75 -5.0625 5.75 -3.421875 Z M 5.75 -3.421875 "/>
</symbol>
<symbol overflow="visible" id="glyph3-16">
<path style="stroke:none;" d="M 10.03125 0 L 10.03125 -5.1875 C 10.03125 -6.4375 9.34375 -7.109375 8.046875 -7.109375 C 7.125 -7.109375 6.578125 -6.84375 5.921875 -6.0625 C 5.515625 -6.796875 4.96875 -7.109375 4.0625 -7.109375 C 3.140625 -7.109375 2.53125 -6.765625 1.9375 -5.9375 L 1.9375 -6.921875 L 0.9375 -6.921875 L 0.9375 0 L 2.03125 0 L 2.03125 -4.34375 C 2.03125 -5.34375 2.765625 -6.15625 3.65625 -6.15625 C 4.46875 -6.15625 4.9375 -5.65625 4.9375 -4.765625 L 4.9375 0 L 6.03125 0 L 6.03125 -4.34375 C 6.03125 -5.34375 6.765625 -6.15625 7.671875 -6.15625 C 8.46875 -6.15625 8.9375 -5.640625 8.9375 -4.765625 L 8.9375 0 Z M 10.03125 0 "/>
</symbol>
<symbol overflow="visible" id="glyph3-17">
<path style="stroke:none;" d="M 7.0625 -0.03125 L 7.0625 -0.859375 C 6.9375 -0.828125 6.890625 -0.828125 6.828125 -0.828125 C 6.4375 -0.828125 6.234375 -1.03125 6.234375 -1.375 L 6.234375 -5.234375 C 6.234375 -6.453125 5.328125 -7.109375 3.625 -7.109375 C 1.953125 -7.109375 0.921875 -6.46875 0.859375 -4.875 L 1.96875 -4.875 C 2.0625 -5.71875 2.5625 -6.09375 3.59375 -6.09375 C 4.578125 -6.09375 5.140625 -5.734375 5.140625 -5.0625 L 5.140625 -4.78125 C 5.140625 -4.3125 4.859375 -4.125 3.984375 -4.015625 C 2.421875 -3.8125 2.1875 -3.765625 1.765625 -3.59375 C 0.96875 -3.265625 0.546875 -2.640625 0.546875 -1.796875 C 0.546875 -0.546875 1.421875 0.203125 2.828125 0.203125 C 3.703125 0.203125 4.5625 -0.171875 5.171875 -0.8125 C 5.296875 -0.296875 5.765625 0.09375 6.3125 0.09375 C 6.53125 0.09375 6.703125 0.0625 7.0625 -0.03125 Z M 5.140625 -2.390625 C 5.140625 -1.40625 4.125 -0.765625 3.0625 -0.765625 C 2.203125 -0.765625 1.703125 -1.0625 1.703125 -1.828125 C 1.703125 -2.546875 2.1875 -2.859375 3.359375 -3.03125 C 4.53125 -3.1875 4.765625 -3.25 5.140625 -3.421875 Z M 5.140625 -2.390625 "/>
</symbol>
<symbol overflow="visible" id="glyph3-18">
<path style="stroke:none;" d="M 6.453125 -1.140625 L 6.453125 -6.921875 L 5.4375 -6.921875 L 5.4375 -5.921875 C 4.890625 -6.734375 4.21875 -7.109375 3.328125 -7.109375 C 1.578125 -7.109375 0.390625 -5.640625 0.390625 -3.390625 C 0.390625 -1.21875 1.609375 0.203125 3.234375 0.203125 C 4.109375 0.203125 4.71875 -0.171875 5.4375 -1.046875 L 5.4375 -0.578125 C 5.4375 1.25 4.6875 1.953125 3.40625 1.953125 C 2.53125 1.953125 1.859375 1.640625 1.734375 0.796875 L 0.609375 0.796875 C 0.71875 2.09375 1.75 2.875 3.359375 2.875 C 5.53125 2.875 6.453125 1.921875 6.453125 -1.140625 Z M 5.328125 -3.421875 C 5.328125 -1.765625 4.625 -0.8125 3.453125 -0.8125 C 2.25 -0.8125 1.53125 -1.78125 1.53125 -3.453125 C 1.53125 -5.125 2.265625 -6.09375 3.453125 -6.09375 C 4.640625 -6.09375 5.328125 -5.09375 5.328125 -3.421875 Z M 5.328125 -3.421875 "/>
</symbol>
<symbol overflow="visible" id="glyph3-19">
<path style="stroke:none;" d="M 6.359375 0 L 6.359375 -6.921875 L 5.265625 -6.921875 L 5.265625 -3.109375 C 5.265625 -1.6875 4.53125 -0.765625 3.375 -0.765625 C 2.515625 -0.765625 1.953125 -1.296875 1.953125 -2.125 L 1.953125 -6.921875 L 0.859375 -6.921875 L 0.859375 -1.6875 C 0.859375 -0.546875 1.71875 0.203125 3.0625 0.203125 C 4.078125 0.203125 4.734375 -0.15625 5.375 -1.0625 L 5.375 0 Z M 6.03125 -9.625 L 4.546875 -9.625 L 3.28125 -7.671875 L 4.0625 -7.671875 Z M 6.03125 -9.625 "/>
</symbol>
<symbol overflow="visible" id="glyph3-20">
<path style="stroke:none;" d="M 9.359375 0 L 9.359375 -5.078125 L 5.34375 -5.078125 L 5.34375 -4 L 8.28125 -4 L 8.28125 -3.734375 C 8.28125 -2.015625 7.015625 -0.84375 5.25 -0.84375 C 3.078125 -0.84375 1.8125 -2.421875 1.8125 -4.78125 C 1.8125 -7.140625 3.15625 -8.78125 5.1875 -8.78125 C 6.65625 -8.78125 7.703125 -7.953125 7.96875 -6.703125 L 9.234375 -6.703125 C 8.890625 -8.65625 7.40625 -9.859375 5.203125 -9.859375 C 2.25 -9.859375 0.578125 -7.59375 0.578125 -4.71875 C 0.578125 -1.75 2.390625 0.234375 4.984375 0.234375 C 6.296875 0.234375 7.34375 -0.21875 8.28125 -1.265625 L 8.578125 0 Z M 9.359375 0 "/>
</symbol>
</g>
<clipPath id="clip1">
  <path d="M 42.789062 23.597656 L 505 23.597656 L 505 398 L 42.789062 398 Z M 42.789062 23.597656 "/>
</clipPath>
<clipPath id="clip2">
  <path d="M 42.789062 325 L 505.828125 325 L 505.828125 327 L 42.789062 327 Z M 42.789062 325 "/>
</clipPath>
<clipPath id="clip3">
  <path d="M 42.789062 216 L 505.828125 216 L 505.828125 217 L 42.789062 217 Z M 42.789062 216 "/>
</clipPath>
<clipPath id="clip4">
  <path d="M 42.789062 106 L 505.828125 106 L 505.828125 108 L 42.789062 108 Z M 42.789062 106 "/>
</clipPath>
<clipPath id="clip5">
  <path d="M 92 23.597656 L 93 23.597656 L 93 398 L 92 398 Z M 92 23.597656 "/>
</clipPath>
<clipPath id="clip6">
  <path d="M 238 23.597656 L 239 23.597656 L 239 398 L 238 398 Z M 238 23.597656 "/>
</clipPath>
<clipPath id="clip7">
  <path d="M 384 23.597656 L 385 23.597656 L 385 398 L 384 398 Z M 384 23.597656 "/>
</clipPath>
<clipPath id="clip8">
  <path d="M 42.789062 380 L 505.828125 380 L 505.828125 382 L 42.789062 382 Z M 42.789062 380 "/>
</clipPath>
<clipPath id="clip9">
  <path d="M 42.789062 270 L 505.828125 270 L 505.828125 272 L 42.789062 272 Z M 42.789062 270 "/>
</clipPath>
<clipPath id="clip10">
  <path d="M 42.789062 160 L 505.828125 160 L 505.828125 163 L 42.789062 163 Z M 42.789062 160 "/>
</clipPath>
<clipPath id="clip11">
  <path d="M 42.789062 51 L 505.828125 51 L 505.828125 53 L 42.789062 53 Z M 42.789062 51 "/>
</clipPath>
<clipPath id="clip12">
  <path d="M 164 23.597656 L 166 23.597656 L 166 398.566406 L 164 398.566406 Z M 164 23.597656 "/>
</clipPath>
<clipPath id="clip13">
  <path d="M 310 23.597656 L 312 23.597656 L 312 398.566406 L 310 398.566406 Z M 310 23.597656 "/>
</clipPath>
<clipPath id="clip14">
  <path d="M 456 23.597656 L 458 23.597656 L 458 398.566406 L 456 398.566406 Z M 456 23.597656 "/>
</clipPath>
</defs>
<g id="surface157">
<rect x="0" y="0" width="576" height="432" style="fill:rgb(100%,100%,100%);fill-opacity:1;stroke:none;"/>
<rect x="0" y="0" width="576" height="432" style="fill:rgb(100%,100%,100%);fill-opacity:1;stroke:none;"/>
<path style="fill:none;stroke-width:1.066978;stroke-linecap:round;stroke-linejoin:round;stroke:rgb(100%,100%,100%);stroke-opacity:1;stroke-miterlimit:10;" d="M 0 432 L 576 432 L 576 0 L 0 0 Z M 0 432 "/>
<g clip-path="url(#clip1)" clip-rule="nonzero">
<path style=" stroke:none;fill-rule:nonzero;fill:rgb(92.156863%,92.156863%,92.156863%);fill-opacity:1;" d="M 42.789062 397.570312 L 504.828125 397.570312 L 504.828125 23.601562 L 42.789062 23.601562 Z M 42.789062 397.570312 "/>
</g>
<g clip-path="url(#clip2)" clip-rule="nonzero">
<path style="fill:none;stroke-width:0.533489;stroke-linecap:butt;stroke-linejoin:round;stroke:rgb(100%,100%,100%);stroke-opacity:1;stroke-miterlimit:10;" d="M 42.789062 325.8125 L 504.828125 325.8125 "/>
</g>
<g clip-path="url(#clip3)" clip-rule="nonzero">
<path style="fill:none;stroke-width:0.533489;stroke-linecap:butt;stroke-linejoin:round;stroke:rgb(100%,100%,100%);stroke-opacity:1;stroke-miterlimit:10;" d="M 42.789062 216.292969 L 504.828125 216.292969 "/>
</g>
<g clip-path="url(#clip4)" clip-rule="nonzero">
<path style="fill:none;stroke-width:0.533489;stroke-linecap:butt;stroke-linejoin:round;stroke:rgb(100%,100%,100%);stroke-opacity:1;stroke-miterlimit:10;" d="M 42.789062 106.773438 L 504.828125 106.773438 "/>
</g>
<g clip-path="url(#clip5)" clip-rule="nonzero">
<path style="fill:none;stroke-width:0.533489;stroke-linecap:butt;stroke-linejoin:round;stroke:rgb(100%,100%,100%);stroke-opacity:1;stroke-miterlimit:10;" d="M 92.421875 397.570312 L 92.421875 23.597656 "/>
</g>
<g clip-path="url(#clip6)" clip-rule="nonzero">
<path style="fill:none;stroke-width:0.533489;stroke-linecap:butt;stroke-linejoin:round;stroke:rgb(100%,100%,100%);stroke-opacity:1;stroke-miterlimit:10;" d="M 238.359375 397.570312 L 238.359375 23.597656 "/>
</g>
<g clip-path="url(#clip7)" clip-rule="nonzero">
<path style="fill:none;stroke-width:0.533489;stroke-linecap:butt;stroke-linejoin:round;stroke:rgb(100%,100%,100%);stroke-opacity:1;stroke-miterlimit:10;" d="M 384.292969 397.570312 L 384.292969 23.597656 "/>
</g>
<g clip-path="url(#clip8)" clip-rule="nonzero">
<path style="fill:none;stroke-width:1.066978;stroke-linecap:butt;stroke-linejoin:round;stroke:rgb(100%,100%,100%);stroke-opacity:1;stroke-miterlimit:10;" d="M 42.789062 380.570312 L 504.828125 380.570312 "/>
</g>
<g clip-path="url(#clip9)" clip-rule="nonzero">
<path style="fill:none;stroke-width:1.066978;stroke-linecap:butt;stroke-linejoin:round;stroke:rgb(100%,100%,100%);stroke-opacity:1;stroke-miterlimit:10;" d="M 42.789062 271.050781 L 504.828125 271.050781 "/>
</g>
<g clip-path="url(#clip10)" clip-rule="nonzero">
<path style="fill:none;stroke-width:1.066978;stroke-linecap:butt;stroke-linejoin:round;stroke:rgb(100%,100%,100%);stroke-opacity:1;stroke-miterlimit:10;" d="M 42.789062 161.53125 L 504.828125 161.53125 "/>
</g>
<g clip-path="url(#clip11)" clip-rule="nonzero">
<path style="fill:none;stroke-width:1.066978;stroke-linecap:butt;stroke-linejoin:round;stroke:rgb(100%,100%,100%);stroke-opacity:1;stroke-miterlimit:10;" d="M 42.789062 52.011719 L 504.828125 52.011719 "/>
</g>
<g clip-path="url(#clip12)" clip-rule="nonzero">
<path style="fill:none;stroke-width:1.066978;stroke-linecap:butt;stroke-linejoin:round;stroke:rgb(100%,100%,100%);stroke-opacity:1;stroke-miterlimit:10;" d="M 165.390625 397.570312 L 165.390625 23.597656 "/>
</g>
<g clip-path="url(#clip13)" clip-rule="nonzero">
<path style="fill:none;stroke-width:1.066978;stroke-linecap:butt;stroke-linejoin:round;stroke:rgb(100%,100%,100%);stroke-opacity:1;stroke-miterlimit:10;" d="M 311.328125 397.570312 L 311.328125 23.597656 "/>
</g>
<g clip-path="url(#clip14)" clip-rule="nonzero">
<path style="fill:none;stroke-width:1.066978;stroke-linecap:butt;stroke-linejoin:round;stroke:rgb(100%,100%,100%);stroke-opacity:1;stroke-miterlimit:10;" d="M 457.261719 397.570312 L 457.261719 23.597656 "/>
</g>
<path style="fill-rule:nonzero;fill:rgb(97.254902%,46.27451%,42.745098%);fill-opacity:0.501961;stroke-width:1.066978;stroke-linecap:round;stroke-linejoin:round;stroke:rgb(100%,100%,100%);stroke-opacity:1;stroke-miterlimit:10;" d="M 63.792969 380.570312 L 213.394531 380.570312 L 214.214844 380.566406 L 215.859375 380.566406 L 216.679688 380.5625 L 217.503906 380.5625 L 218.324219 380.558594 L 219.148438 380.554688 L 219.96875 380.546875 L 220.792969 380.539062 L 221.613281 380.527344 L 222.433594 380.511719 L 223.257812 380.496094 L 224.078125 380.472656 L 224.902344 380.445312 L 225.722656 380.414062 L 226.546875 380.371094 L 227.367188 380.324219 L 228.1875 380.265625 L 229.011719 380.195312 L 229.832031 380.117188 L 230.65625 380.027344 L 231.476562 379.921875 L 232.300781 379.804688 L 233.121094 379.671875 L 233.941406 379.523438 L 234.765625 379.363281 L 235.585938 379.191406 L 236.410156 379.003906 L 237.230469 378.804688 L 238.054688 378.59375 L 238.875 378.367188 L 239.695312 378.136719 L 240.519531 377.894531 L 241.339844 377.648438 L 242.164062 377.390625 L 242.984375 377.125 L 243.808594 376.851562 L 244.628906 376.566406 L 245.449219 376.269531 L 246.273438 375.953125 L 247.09375 375.621094 L 247.917969 375.265625 L 248.738281 374.878906 L 249.5625 374.453125 L 250.382812 373.976562 L 251.203125 373.445312 L 252.027344 372.851562 L 252.847656 372.183594 L 253.671875 371.429688 L 254.492188 370.585938 L 255.316406 369.640625 L 256.136719 368.566406 L 256.957031 367.363281 L 257.78125 366.035156 L 258.601562 364.570312 L 259.425781 362.964844 L 260.246094 361.222656 L 261.070312 359.335938 L 261.890625 357.296875 L 262.710938 355.109375 L 263.535156 352.789062 L 264.355469 350.347656 L 265.179688 347.792969 L 266 345.132812 L 266.824219 342.382812 L 267.644531 339.550781 L 268.464844 336.640625 L 269.289062 333.683594 L 270.109375 330.691406 L 270.933594 327.675781 L 271.753906 324.652344 L 272.578125 321.625 L 273.398438 318.613281 L 274.21875 315.621094 L 275.042969 312.660156 L 275.863281 309.738281 L 276.6875 306.847656 L 277.507812 303.996094 L 278.332031 301.179688 L 279.152344 298.394531 L 279.972656 295.632812 L 280.796875 292.886719 L 281.617188 290.136719 L 282.441406 287.371094 L 283.261719 284.578125 L 284.085938 281.734375 L 284.90625 278.832031 L 285.726562 275.855469 L 286.550781 272.773438 L 287.371094 269.578125 L 288.195312 266.269531 L 289.015625 262.835938 L 289.839844 259.277344 L 290.660156 255.59375 L 291.480469 251.789062 L 292.304688 247.863281 L 293.125 243.808594 L 293.949219 239.660156 L 294.769531 235.421875 L 295.59375 231.109375 L 296.414062 226.730469 L 297.234375 222.296875 L 298.058594 217.820312 L 298.878906 213.300781 L 299.703125 208.757812 L 300.523438 204.199219 L 301.347656 199.632812 L 302.167969 195.0625 L 302.988281 190.503906 L 303.8125 185.972656 L 304.632812 181.476562 L 305.457031 177.054688 L 306.277344 172.722656 L 307.101562 168.507812 L 307.921875 164.449219 L 308.742188 160.574219 L 309.566406 156.921875 L 310.386719 153.527344 L 311.210938 150.476562 L 312.03125 147.789062 L 312.855469 145.480469 L 313.675781 143.570312 L 314.496094 142.078125 L 315.320312 141.011719 L 316.140625 140.371094 L 316.964844 140.164062 L 317.785156 140.402344 L 318.609375 140.996094 L 319.429688 141.902344 L 320.25 143.082031 L 321.074219 144.480469 L 321.894531 146.050781 L 322.71875 147.738281 L 323.539062 149.496094 L 324.363281 151.257812 L 325.183594 152.988281 L 326.003906 154.652344 L 326.828125 156.226562 L 327.648438 157.703125 L 328.472656 159.066406 L 329.292969 160.320312 L 330.117188 161.464844 L 330.9375 162.539062 L 331.757812 163.566406 L 332.582031 164.570312 L 333.402344 165.578125 L 334.226562 166.617188 L 335.046875 167.71875 L 335.871094 168.917969 L 336.691406 170.234375 L 337.511719 171.671875 L 338.335938 173.242188 L 339.15625 174.945312 L 339.980469 176.777344 L 340.800781 178.738281 L 341.625 180.8125 L 342.445312 182.988281 L 343.265625 185.234375 L 344.089844 187.53125 L 344.910156 189.859375 L 345.734375 192.195312 L 346.554688 194.523438 L 347.378906 196.828125 L 348.199219 199.089844 L 349.019531 201.296875 L 349.84375 203.453125 L 350.664062 205.550781 L 351.488281 207.59375 L 352.308594 209.585938 L 353.132812 211.539062 L 353.953125 213.453125 L 354.773438 215.351562 L 355.597656 217.246094 L 356.417969 219.152344 L 357.242188 221.085938 L 358.0625 223.0625 L 358.886719 225.09375 L 359.707031 227.195312 L 360.527344 229.398438 L 361.351562 231.703125 L 362.171875 234.121094 L 362.996094 236.65625 L 363.816406 239.324219 L 364.640625 242.132812 L 365.460938 245.078125 L 366.28125 248.183594 L 367.105469 251.449219 L 367.925781 254.859375 L 368.75 258.40625 L 369.570312 262.085938 L 370.394531 265.886719 L 371.214844 269.789062 L 372.035156 273.78125 L 372.859375 277.851562 L 373.679688 281.953125 L 374.503906 286.0625 L 375.324219 290.148438 L 376.148438 294.183594 L 376.96875 298.136719 L 377.789062 301.980469 L 378.613281 305.667969 L 379.433594 309.160156 L 380.257812 312.457031 L 381.078125 315.53125 L 381.902344 318.375 L 382.722656 320.976562 L 383.542969 323.328125 L 384.367188 325.433594 L 385.1875 327.257812 L 386.011719 328.855469 L 386.832031 330.242188 L 387.65625 331.4375 L 388.476562 332.464844 L 389.296875 333.34375 L 390.121094 334.097656 L 390.941406 334.746094 L 391.765625 335.316406 L 392.585938 335.84375 L 393.410156 336.34375 L 394.230469 336.835938 L 395.050781 337.332031 L 395.875 337.851562 L 396.695312 338.398438 L 397.519531 338.992188 L 398.339844 339.636719 L 399.164062 340.328125 L 399.984375 341.078125 L 400.804688 341.878906 L 401.628906 342.734375 L 402.449219 343.644531 L 403.273438 344.613281 L 404.09375 345.636719 L 404.917969 346.703125 L 405.738281 347.8125 L 406.558594 348.960938 L 407.382812 350.140625 L 408.203125 351.347656 L 409.027344 352.578125 L 409.847656 353.820312 L 410.671875 355.066406 L 411.492188 356.3125 L 412.3125 357.546875 L 413.136719 358.761719 L 413.957031 359.957031 L 414.78125 361.117188 L 415.601562 362.234375 L 416.425781 363.308594 L 417.246094 364.335938 L 418.066406 365.316406 L 418.890625 366.242188 L 419.710938 367.121094 L 420.535156 367.945312 L 421.355469 368.714844 L 422.175781 369.429688 L 423 370.097656 L 423.820312 370.722656 L 424.644531 371.304688 L 425.464844 371.847656 L 426.289062 372.355469 L 427.109375 372.828125 L 427.929688 373.269531 L 428.753906 373.6875 L 429.574219 374.078125 L 430.398438 374.453125 L 431.21875 374.808594 L 432.042969 375.148438 L 432.863281 375.476562 L 433.683594 375.792969 L 434.507812 376.101562 L 435.328125 376.398438 L 436.152344 376.691406 L 436.972656 376.972656 L 437.796875 377.25 L 438.617188 377.515625 L 439.4375 377.773438 L 440.261719 378.019531 L 441.082031 378.253906 L 441.90625 378.476562 L 442.726562 378.683594 L 443.550781 378.875 L 444.371094 379.046875 L 445.191406 379.203125 L 446.015625 379.339844 L 446.835938 379.453125 L 447.660156 379.546875 L 448.480469 379.621094 L 449.304688 379.675781 L 450.125 379.710938 L 450.945312 379.730469 L 451.769531 379.730469 L 452.589844 379.714844 L 453.414062 379.6875 L 454.234375 379.652344 L 455.058594 379.605469 L 456.699219 379.503906 L 457.523438 379.449219 L 458.34375 379.398438 L 459.167969 379.351562 L 459.988281 379.3125 L 460.8125 379.277344 L 461.632812 379.253906 L 462.453125 379.242188 L 463.277344 379.234375 L 464.097656 379.238281 L 464.921875 379.253906 L 465.742188 379.273438 L 466.566406 379.296875 L 468.207031 379.359375 L 469.03125 379.390625 L 469.851562 379.417969 L 470.675781 379.441406 L 471.496094 379.460938 L 472.320312 379.472656 L 473.140625 379.476562 L 473.960938 379.472656 L 474.785156 379.460938 L 475.605469 379.445312 L 476.429688 379.421875 L 477.25 379.394531 L 478.074219 379.363281 L 478.894531 379.332031 L 479.714844 379.304688 L 480.539062 379.277344 L 481.359375 379.257812 L 482.183594 379.246094 L 483.003906 379.242188 L 483.828125 379.246094 L 483.828125 380.570312 Z M 63.792969 380.570312 "/>
<path style="fill-rule:nonzero;fill:rgb(72.941176%,53.333333%,50.980392%);fill-opacity:0.501961;stroke-width:1.066978;stroke-linecap:round;stroke-linejoin:round;stroke:rgb(100%,100%,100%);stroke-opacity:1;stroke-miterlimit:10;" d="M 63.792969 380.570312 L 187.910156 380.570312 L 188.734375 380.566406 L 191.199219 380.566406 L 192.023438 380.5625 L 192.84375 380.5625 L 193.664062 380.558594 L 194.488281 380.554688 L 195.308594 380.550781 L 196.132812 380.546875 L 196.953125 380.542969 L 197.777344 380.535156 L 198.597656 380.527344 L 199.417969 380.515625 L 200.242188 380.503906 L 201.0625 380.488281 L 201.886719 380.472656 L 202.707031 380.453125 L 203.53125 380.425781 L 204.351562 380.398438 L 205.171875 380.363281 L 205.996094 380.324219 L 206.816406 380.277344 L 207.640625 380.21875 L 208.460938 380.15625 L 209.285156 380.082031 L 210.105469 379.996094 L 210.925781 379.898438 L 211.75 379.785156 L 212.570312 379.65625 L 213.394531 379.511719 L 214.214844 379.351562 L 215.039062 379.167969 L 215.859375 378.957031 L 216.679688 378.726562 L 217.503906 378.472656 L 218.324219 378.191406 L 219.148438 377.875 L 219.96875 377.53125 L 220.792969 377.152344 L 221.613281 376.742188 L 222.433594 376.300781 L 223.257812 375.8125 L 224.078125 375.289062 L 224.902344 374.730469 L 225.722656 374.132812 L 226.546875 373.5 L 227.367188 372.820312 L 228.1875 372.101562 L 229.011719 371.351562 L 229.832031 370.5625 L 230.65625 369.738281 L 231.476562 368.875 L 232.300781 367.980469 L 233.121094 367.058594 L 233.941406 366.109375 L 234.765625 365.128906 L 235.585938 364.125 L 236.410156 363.101562 L 237.230469 362.058594 L 238.054688 360.996094 L 238.875 359.917969 L 239.695312 358.824219 L 240.519531 357.71875 L 241.339844 356.601562 L 242.164062 355.472656 L 242.984375 354.332031 L 243.808594 353.179688 L 244.628906 352.015625 L 245.449219 350.839844 L 246.273438 349.648438 L 247.09375 348.433594 L 247.917969 347.199219 L 248.738281 345.941406 L 249.5625 344.660156 L 250.382812 343.34375 L 251.203125 341.984375 L 252.027344 340.589844 L 252.847656 339.148438 L 253.671875 337.664062 L 254.492188 336.121094 L 255.316406 334.511719 L 256.136719 332.84375 L 256.957031 331.117188 L 257.78125 329.328125 L 258.601562 327.457031 L 259.425781 325.507812 L 260.246094 323.492188 L 261.070312 321.410156 L 261.890625 319.257812 L 262.710938 317.015625 L 263.535156 314.707031 L 264.355469 312.335938 L 265.179688 309.902344 L 266 307.414062 L 266.824219 304.855469 L 267.644531 302.25 L 268.464844 299.605469 L 269.289062 296.925781 L 270.109375 294.210938 L 270.933594 291.46875 L 271.753906 288.714844 L 272.578125 285.953125 L 273.398438 283.183594 L 274.21875 280.425781 L 275.042969 277.679688 L 275.863281 274.953125 L 276.6875 272.253906 L 277.507812 269.582031 L 278.332031 266.957031 L 279.152344 264.378906 L 279.972656 261.851562 L 280.796875 259.371094 L 281.617188 256.945312 L 282.441406 254.59375 L 283.261719 252.300781 L 284.085938 250.070312 L 284.90625 247.898438 L 285.726562 245.789062 L 286.550781 243.753906 L 287.371094 241.773438 L 288.195312 239.847656 L 289.015625 237.964844 L 289.839844 236.136719 L 290.660156 234.351562 L 291.480469 232.597656 L 292.304688 230.863281 L 293.125 229.152344 L 293.949219 227.453125 L 294.769531 225.75 L 295.59375 224.039062 L 296.414062 222.316406 L 297.234375 220.570312 L 298.058594 218.78125 L 298.878906 216.949219 L 299.703125 215.074219 L 300.523438 213.144531 L 301.347656 211.160156 L 302.167969 209.09375 L 302.988281 206.964844 L 303.8125 204.765625 L 304.632812 202.503906 L 305.457031 200.175781 L 306.277344 197.769531 L 307.101562 195.308594 L 307.921875 192.796875 L 308.742188 190.246094 L 309.566406 187.65625 L 310.386719 185.042969 L 311.210938 182.425781 L 312.03125 179.8125 L 312.855469 177.21875 L 313.675781 174.667969 L 314.496094 172.179688 L 315.320312 169.761719 L 316.140625 167.433594 L 316.964844 165.203125 L 317.785156 163.125 L 318.609375 161.199219 L 319.429688 159.425781 L 320.25 157.820312 L 321.074219 156.390625 L 321.894531 155.214844 L 322.71875 154.25 L 323.539062 153.496094 L 324.363281 152.957031 L 325.183594 152.652344 L 326.003906 152.636719 L 326.828125 152.851562 L 327.648438 153.289062 L 328.472656 153.953125 L 329.292969 154.859375 L 330.117188 156.027344 L 330.9375 157.398438 L 331.757812 158.960938 L 332.582031 160.714844 L 333.402344 162.679688 L 334.226562 164.828125 L 335.046875 167.128906 L 335.871094 169.566406 L 336.691406 172.132812 L 337.511719 174.847656 L 338.335938 177.667969 L 339.15625 180.582031 L 339.980469 183.570312 L 340.800781 186.632812 L 341.625 189.777344 L 342.445312 192.96875 L 343.265625 196.203125 L 344.089844 199.476562 L 344.910156 202.777344 L 345.734375 206.109375 L 346.554688 209.457031 L 347.378906 212.820312 L 348.199219 216.191406 L 349.019531 219.570312 L 349.84375 222.949219 L 350.664062 226.324219 L 351.488281 229.699219 L 352.308594 233.0625 L 353.132812 236.414062 L 353.953125 239.75 L 354.773438 243.0625 L 355.597656 246.355469 L 356.417969 249.621094 L 357.242188 252.847656 L 358.0625 256.03125 L 358.886719 259.175781 L 359.707031 262.277344 L 360.527344 265.328125 L 361.351562 268.308594 L 362.171875 271.226562 L 362.996094 274.082031 L 363.816406 276.871094 L 364.640625 279.585938 L 365.460938 282.207031 L 366.28125 284.757812 L 367.105469 287.230469 L 367.925781 289.625 L 368.75 291.9375 L 369.570312 294.15625 L 370.394531 296.304688 L 371.214844 298.382812 L 372.035156 300.390625 L 372.859375 302.324219 L 373.679688 304.191406 L 374.503906 306.003906 L 375.324219 307.769531 L 376.148438 309.492188 L 376.96875 311.164062 L 377.789062 312.800781 L 378.613281 314.414062 L 379.433594 316.003906 L 380.257812 317.574219 L 381.078125 319.128906 L 381.902344 320.675781 L 382.722656 322.21875 L 383.542969 323.757812 L 384.367188 325.292969 L 385.1875 326.832031 L 386.011719 328.375 L 386.832031 329.914062 L 387.65625 331.460938 L 389.296875 334.546875 L 390.121094 336.089844 L 390.941406 337.625 L 391.765625 339.152344 L 392.585938 340.667969 L 393.410156 342.171875 L 394.230469 343.660156 L 395.050781 345.128906 L 395.875 346.578125 L 396.695312 348 L 397.519531 349.394531 L 398.339844 350.761719 L 399.164062 352.097656 L 399.984375 353.410156 L 400.804688 354.675781 L 401.628906 355.910156 L 402.449219 357.113281 L 403.273438 358.285156 L 404.09375 359.417969 L 404.917969 360.507812 L 405.738281 361.566406 L 406.558594 362.59375 L 407.382812 363.585938 L 408.203125 364.542969 L 409.027344 365.460938 L 409.847656 366.347656 L 410.671875 367.203125 L 411.492188 368.03125 L 412.3125 368.820312 L 413.136719 369.574219 L 413.957031 370.304688 L 414.78125 371.003906 L 415.601562 371.671875 L 416.425781 372.308594 L 417.246094 372.914062 L 418.066406 373.492188 L 418.890625 374.042969 L 419.710938 374.566406 L 420.535156 375.054688 L 421.355469 375.519531 L 422.175781 375.957031 L 423 376.367188 L 423.820312 376.753906 L 424.644531 377.109375 L 425.464844 377.441406 L 426.289062 377.75 L 427.109375 378.039062 L 427.929688 378.300781 L 428.753906 378.542969 L 429.574219 378.765625 L 430.398438 378.96875 L 431.21875 379.152344 L 432.042969 379.320312 L 432.863281 379.46875 L 433.683594 379.605469 L 434.507812 379.726562 L 435.328125 379.835938 L 436.152344 379.933594 L 436.972656 380.019531 L 437.796875 380.09375 L 438.617188 380.160156 L 439.4375 380.21875 L 440.261719 380.269531 L 441.082031 380.316406 L 441.90625 380.355469 L 442.726562 380.386719 L 443.550781 380.417969 L 444.371094 380.441406 L 445.191406 380.460938 L 446.015625 380.480469 L 446.835938 380.496094 L 447.660156 380.507812 L 448.480469 380.519531 L 449.304688 380.527344 L 450.945312 380.542969 L 451.769531 380.546875 L 452.589844 380.550781 L 453.414062 380.554688 L 454.234375 380.558594 L 455.058594 380.5625 L 456.699219 380.5625 L 457.523438 380.566406 L 459.988281 380.566406 L 460.8125 380.570312 L 483.828125 380.570312 Z M 63.792969 380.570312 "/>
<path style="fill-rule:nonzero;fill:rgb(48.627451%,60.392157%,59.607843%);fill-opacity:0.501961;stroke-width:1.066978;stroke-linecap:round;stroke-linejoin:round;stroke:rgb(100%,100%,100%);stroke-opacity:1;stroke-miterlimit:10;" d="M 63.792969 380.570312 L 169.007812 380.570312 L 169.828125 380.566406 L 171.472656 380.566406 L 172.292969 380.5625 L 173.117188 380.558594 L 173.9375 380.554688 L 174.761719 380.546875 L 175.582031 380.539062 L 176.40625 380.527344 L 177.226562 380.507812 L 178.046875 380.484375 L 178.871094 380.457031 L 179.691406 380.417969 L 180.515625 380.367188 L 181.335938 380.296875 L 182.15625 380.210938 L 182.980469 380.101562 L 183.800781 379.964844 L 184.625 379.796875 L 185.445312 379.589844 L 186.269531 379.34375 L 187.089844 379.035156 L 187.910156 378.667969 L 188.734375 378.230469 L 189.554688 377.726562 L 190.378906 377.140625 L 191.199219 376.472656 L 192.023438 375.714844 L 192.84375 374.851562 L 193.664062 373.890625 L 194.488281 372.835938 L 195.308594 371.6875 L 196.132812 370.457031 L 196.953125 369.148438 L 197.777344 367.769531 L 198.597656 366.335938 L 199.417969 364.859375 L 200.242188 363.371094 L 201.0625 361.882812 L 201.886719 360.417969 L 202.707031 358.996094 L 203.53125 357.636719 L 204.351562 356.367188 L 205.171875 355.207031 L 205.996094 354.164062 L 206.816406 353.242188 L 207.640625 352.449219 L 208.460938 351.785156 L 209.285156 351.242188 L 210.105469 350.820312 L 210.925781 350.503906 L 211.75 350.253906 L 212.570312 350.050781 L 213.394531 349.859375 L 214.214844 349.652344 L 215.039062 349.402344 L 215.859375 349.058594 L 216.679688 348.574219 L 217.503906 347.929688 L 218.324219 347.097656 L 219.148438 346.050781 L 219.96875 344.765625 L 220.792969 343.226562 L 221.613281 341.402344 L 222.433594 339.257812 L 223.257812 336.835938 L 224.078125 334.136719 L 224.902344 331.164062 L 225.722656 327.9375 L 226.546875 324.464844 L 227.367188 320.761719 L 228.1875 316.835938 L 229.011719 312.742188 L 229.832031 308.511719 L 230.65625 304.175781 L 231.476562 299.757812 L 232.300781 295.292969 L 233.121094 290.808594 L 233.941406 286.339844 L 234.765625 281.921875 L 235.585938 277.566406 L 236.410156 273.292969 L 237.230469 269.117188 L 238.054688 265.046875 L 238.875 261.078125 L 239.695312 257.226562 L 240.519531 253.449219 L 241.339844 249.71875 L 242.164062 246.003906 L 242.984375 242.265625 L 243.808594 238.460938 L 244.628906 234.535156 L 245.449219 230.394531 L 246.273438 225.996094 L 247.09375 221.292969 L 247.917969 216.230469 L 248.738281 210.769531 L 249.5625 204.867188 L 250.382812 198.5 L 251.203125 191.566406 L 252.027344 184.136719 L 252.847656 176.246094 L 253.671875 167.921875 L 254.492188 159.214844 L 255.316406 150.179688 L 256.136719 140.894531 L 256.957031 131.433594 L 257.78125 121.9375 L 258.601562 112.515625 L 259.425781 103.273438 L 260.246094 94.324219 L 261.070312 85.761719 L 261.890625 77.691406 L 262.710938 70.300781 L 263.535156 63.652344 L 264.355469 57.773438 L 265.179688 52.707031 L 266 48.492188 L 266.824219 45.148438 L 267.644531 42.683594 L 268.464844 41.1875 L 269.289062 40.597656 L 270.109375 40.804688 L 270.933594 41.761719 L 271.753906 43.414062 L 272.578125 45.714844 L 273.398438 48.605469 L 274.21875 52.070312 L 275.042969 56.046875 L 275.863281 60.433594 L 276.6875 65.195312 L 277.507812 70.296875 L 278.332031 75.714844 L 279.152344 81.421875 L 279.972656 87.421875 L 280.796875 93.707031 L 281.617188 100.230469 L 282.441406 106.976562 L 283.261719 113.929688 L 284.085938 121.0625 L 284.90625 128.355469 L 285.726562 135.777344 L 286.550781 143.269531 L 287.371094 150.773438 L 288.195312 158.226562 L 289.015625 165.566406 L 289.839844 172.734375 L 290.660156 179.664062 L 291.480469 186.277344 L 292.304688 192.464844 L 293.125 198.222656 L 293.949219 203.519531 L 294.769531 208.335938 L 295.59375 212.660156 L 296.414062 216.5 L 297.234375 219.859375 L 298.058594 222.726562 L 298.878906 225.238281 L 299.703125 227.453125 L 300.523438 229.449219 L 301.347656 231.296875 L 302.167969 233.074219 L 302.988281 234.859375 L 303.8125 236.753906 L 304.632812 238.8125 L 305.457031 241.082031 L 306.277344 243.601562 L 307.101562 246.382812 L 307.921875 249.4375 L 308.742188 252.761719 L 309.566406 256.371094 L 310.386719 260.183594 L 311.210938 264.148438 L 312.03125 268.21875 L 312.855469 272.34375 L 313.675781 276.472656 L 314.496094 280.554688 L 315.320312 284.519531 L 316.140625 288.339844 L 316.964844 291.988281 L 317.785156 295.457031 L 318.609375 298.730469 L 319.429688 301.816406 L 320.25 304.722656 L 321.074219 307.445312 L 321.894531 310.03125 L 322.71875 312.515625 L 323.539062 314.933594 L 324.363281 317.308594 L 325.183594 319.667969 L 326.003906 322.035156 L 326.828125 324.445312 L 327.648438 326.910156 L 328.472656 329.4375 L 329.292969 332.027344 L 330.117188 334.675781 L 330.9375 337.375 L 331.757812 340.121094 L 332.582031 342.890625 L 333.402344 345.660156 L 334.226562 348.410156 L 335.046875 351.121094 L 335.871094 353.769531 L 336.691406 356.335938 L 337.511719 358.804688 L 338.335938 361.140625 L 339.15625 363.335938 L 339.980469 365.386719 L 340.800781 367.289062 L 341.625 369.039062 L 342.445312 370.632812 L 343.265625 372.074219 L 344.089844 373.351562 L 344.910156 374.472656 L 345.734375 375.460938 L 346.554688 376.320312 L 347.378906 377.066406 L 348.199219 377.707031 L 349.019531 378.25 L 349.84375 378.703125 L 350.664062 379.074219 L 351.488281 379.378906 L 352.308594 379.632812 L 353.132812 379.839844 L 353.953125 380.003906 L 354.773438 380.136719 L 355.597656 380.242188 L 356.417969 380.320312 L 357.242188 380.382812 L 358.0625 380.429688 L 358.886719 380.46875 L 359.707031 380.496094 L 360.527344 380.515625 L 361.351562 380.53125 L 362.171875 380.542969 L 362.996094 380.550781 L 363.816406 380.558594 L 364.640625 380.5625 L 365.460938 380.5625 L 366.28125 380.566406 L 367.105469 380.566406 L 367.925781 380.570312 L 483.828125 380.570312 Z M 63.792969 380.570312 "/>
<path style="fill-rule:nonzero;fill:rgb(24.313725%,67.45098%,68.235294%);fill-opacity:0.501961;stroke-width:1.066978;stroke-linecap:round;stroke-linejoin:round;stroke:rgb(100%,100%,100%);stroke-opacity:1;stroke-miterlimit:10;" d="M 63.792969 380.570312 L 64.613281 380.566406 L 67.902344 380.566406 L 68.722656 380.5625 L 69.546875 380.5625 L 70.367188 380.558594 L 71.191406 380.554688 L 72.011719 380.550781 L 72.835938 380.546875 L 73.65625 380.542969 L 74.476562 380.535156 L 75.300781 380.527344 L 76.121094 380.519531 L 76.945312 380.507812 L 77.765625 380.496094 L 78.589844 380.480469 L 80.230469 380.441406 L 81.054688 380.417969 L 81.875 380.386719 L 82.699219 380.351562 L 83.519531 380.3125 L 84.34375 380.269531 L 85.164062 380.21875 L 85.984375 380.15625 L 86.808594 380.089844 L 87.628906 380.011719 L 88.453125 379.925781 L 89.273438 379.828125 L 90.097656 379.714844 L 90.917969 379.59375 L 91.738281 379.457031 L 92.5625 379.304688 L 93.382812 379.136719 L 94.207031 378.953125 L 95.027344 378.75 L 95.851562 378.53125 L 96.671875 378.292969 L 97.492188 378.03125 L 98.316406 377.753906 L 99.136719 377.457031 L 99.960938 377.140625 L 100.78125 376.796875 L 101.605469 376.4375 L 102.425781 376.058594 L 103.246094 375.660156 L 104.070312 375.246094 L 104.890625 374.808594 L 105.714844 374.355469 L 106.535156 373.890625 L 107.359375 373.410156 L 108.179688 372.917969 L 109 372.414062 L 109.824219 371.902344 L 110.644531 371.386719 L 111.46875 370.863281 L 112.289062 370.332031 L 113.113281 369.800781 L 113.933594 369.269531 L 114.753906 368.742188 L 115.578125 368.210938 L 116.398438 367.683594 L 117.222656 367.160156 L 118.042969 366.636719 L 118.867188 366.117188 L 120.507812 365.085938 L 121.332031 364.570312 L 122.152344 364.050781 L 122.976562 363.527344 L 123.796875 363.003906 L 124.621094 362.464844 L 125.441406 361.914062 L 126.261719 361.347656 L 127.085938 360.765625 L 127.90625 360.164062 L 128.730469 359.527344 L 129.550781 358.863281 L 130.375 358.164062 L 131.195312 357.433594 L 132.015625 356.65625 L 132.839844 355.828125 L 133.660156 354.953125 L 134.484375 354.03125 L 135.304688 353.058594 L 136.128906 352.019531 L 136.949219 350.917969 L 137.769531 349.761719 L 138.59375 348.546875 L 139.414062 347.273438 L 140.238281 345.925781 L 141.058594 344.515625 L 141.882812 343.050781 L 142.703125 341.527344 L 143.523438 339.953125 L 144.347656 338.304688 L 145.167969 336.609375 L 145.992188 334.871094 L 146.8125 333.085938 L 147.636719 331.257812 L 148.457031 329.386719 L 149.277344 327.480469 L 150.101562 325.550781 L 150.921875 323.59375 L 151.746094 321.609375 L 152.566406 319.609375 L 153.390625 317.597656 L 154.210938 315.578125 L 155.03125 313.550781 L 155.855469 311.519531 L 156.675781 309.488281 L 157.5 307.457031 L 158.320312 305.433594 L 159.144531 303.410156 L 159.964844 301.398438 L 160.785156 299.390625 L 161.609375 297.386719 L 162.429688 295.390625 L 163.253906 293.398438 L 164.074219 291.414062 L 164.898438 289.425781 L 165.71875 287.441406 L 166.539062 285.449219 L 167.363281 283.453125 L 168.183594 281.449219 L 169.007812 279.429688 L 169.828125 277.394531 L 170.652344 275.347656 L 171.472656 273.273438 L 172.292969 271.175781 L 173.117188 269.046875 L 173.9375 266.894531 L 174.761719 264.710938 L 175.582031 262.488281 L 176.40625 260.222656 L 177.226562 257.925781 L 178.046875 255.59375 L 178.871094 253.21875 L 179.691406 250.800781 L 180.515625 248.339844 L 181.335938 245.839844 L 182.15625 243.304688 L 182.980469 240.734375 L 183.800781 238.117188 L 184.625 235.46875 L 185.445312 232.789062 L 186.269531 230.085938 L 187.089844 227.351562 L 187.910156 224.59375 L 188.734375 221.820312 L 189.554688 219.035156 L 190.378906 216.242188 L 191.199219 213.445312 L 192.023438 210.65625 L 192.84375 207.875 L 193.664062 205.109375 L 194.488281 202.367188 L 195.308594 199.65625 L 196.132812 196.992188 L 196.953125 194.371094 L 197.777344 191.804688 L 198.597656 189.292969 L 199.417969 186.863281 L 200.242188 184.519531 L 201.0625 182.253906 L 201.886719 180.078125 L 202.707031 177.996094 L 203.53125 176.046875 L 204.351562 174.207031 L 205.171875 172.480469 L 205.996094 170.863281 L 206.816406 169.375 L 207.640625 168.042969 L 208.460938 166.835938 L 209.285156 165.75 L 210.105469 164.789062 L 210.925781 163.96875 L 211.75 163.300781 L 212.570312 162.75 L 213.394531 162.316406 L 214.214844 161.996094 L 215.039062 161.8125 L 215.859375 161.75 L 216.679688 161.789062 L 217.503906 161.925781 L 218.324219 162.15625 L 219.148438 162.496094 L 219.96875 162.925781 L 220.792969 163.433594 L 221.613281 164.019531 L 222.433594 164.671875 L 223.257812 165.414062 L 224.078125 166.222656 L 224.902344 167.09375 L 225.722656 168.023438 L 226.546875 169.011719 L 227.367188 170.078125 L 228.1875 171.199219 L 229.011719 172.378906 L 229.832031 173.613281 L 230.65625 174.917969 L 231.476562 176.296875 L 232.300781 177.734375 L 233.121094 179.242188 L 233.941406 180.8125 L 234.765625 182.46875 L 235.585938 184.210938 L 236.410156 186.027344 L 237.230469 187.925781 L 238.054688 189.902344 L 238.875 191.984375 L 239.695312 194.167969 L 240.519531 196.4375 L 241.339844 198.800781 L 242.164062 201.261719 L 242.984375 203.851562 L 243.808594 206.539062 L 244.628906 209.332031 L 245.449219 212.222656 L 246.273438 215.21875 L 247.09375 218.351562 L 247.917969 221.582031 L 248.738281 224.914062 L 249.5625 228.34375 L 250.382812 231.878906 L 251.203125 235.527344 L 252.027344 239.265625 L 252.847656 243.082031 L 253.671875 246.980469 L 254.492188 250.964844 L 255.316406 255.023438 L 256.136719 259.136719 L 256.957031 263.296875 L 257.78125 267.496094 L 258.601562 271.734375 L 259.425781 275.988281 L 260.246094 280.246094 L 261.070312 284.5 L 261.890625 288.738281 L 262.710938 292.9375 L 263.535156 297.089844 L 264.355469 301.1875 L 265.179688 305.21875 L 266 309.171875 L 266.824219 313.007812 L 267.644531 316.742188 L 268.464844 320.367188 L 269.289062 323.871094 L 270.109375 327.238281 L 270.933594 330.4375 L 271.753906 333.496094 L 272.578125 336.410156 L 273.398438 339.179688 L 274.21875 341.769531 L 275.042969 344.179688 L 275.863281 346.441406 L 276.6875 348.554688 L 277.507812 350.519531 L 278.332031 352.304688 L 279.152344 353.9375 L 279.972656 355.441406 L 280.796875 356.816406 L 281.617188 358.074219 L 282.441406 359.183594 L 283.261719 360.1875 L 284.085938 361.101562 L 284.90625 361.929688 L 285.726562 362.675781 L 286.550781 363.332031 L 287.371094 363.933594 L 288.195312 364.484375 L 289.015625 364.992188 L 289.839844 365.460938 L 290.660156 365.898438 L 291.480469 366.3125 L 292.304688 366.710938 L 293.125 367.101562 L 293.949219 367.484375 L 294.769531 367.863281 L 295.59375 368.246094 L 296.414062 368.632812 L 297.234375 369.023438 L 298.058594 369.421875 L 298.878906 369.828125 L 299.703125 370.242188 L 300.523438 370.664062 L 301.347656 371.089844 L 302.988281 371.964844 L 303.8125 372.402344 L 304.632812 372.84375 L 305.457031 373.28125 L 306.277344 373.71875 L 307.101562 374.144531 L 307.921875 374.566406 L 308.742188 374.980469 L 309.566406 375.382812 L 310.386719 375.769531 L 311.210938 376.144531 L 312.03125 376.503906 L 312.855469 376.847656 L 313.675781 377.171875 L 314.496094 377.476562 L 315.320312 377.765625 L 316.140625 378.039062 L 316.964844 378.292969 L 317.785156 378.527344 L 318.609375 378.742188 L 319.429688 378.941406 L 320.25 379.125 L 321.074219 379.292969 L 321.894531 379.441406 L 322.71875 379.578125 L 323.539062 379.703125 L 324.363281 379.8125 L 325.183594 379.914062 L 326.003906 380 L 326.828125 380.078125 L 327.648438 380.148438 L 328.472656 380.207031 L 329.292969 380.261719 L 330.117188 380.308594 L 330.9375 380.347656 L 331.757812 380.382812 L 332.582031 380.410156 L 333.402344 380.4375 L 334.226562 380.460938 L 335.046875 380.476562 L 335.871094 380.492188 L 336.691406 380.507812 L 337.511719 380.519531 L 338.335938 380.527344 L 339.15625 380.535156 L 339.980469 380.542969 L 340.800781 380.546875 L 341.625 380.550781 L 343.265625 380.558594 L 344.089844 380.5625 L 345.734375 380.5625 L 346.554688 380.566406 L 349.019531 380.566406 L 349.84375 380.570312 L 483.828125 380.570312 Z M 63.792969 380.570312 "/>
<path style="fill-rule:nonzero;fill:rgb(0%,74.901961%,76.862745%);fill-opacity:0.501961;stroke-width:1.066978;stroke-linecap:round;stroke-linejoin:round;stroke:rgb(100%,100%,100%);stroke-opacity:1;stroke-miterlimit:10;" d="M 63.792969 351.234375 L 64.613281 350.214844 L 65.4375 349.183594 L 66.257812 348.128906 L 67.082031 347.0625 L 67.902344 345.980469 L 68.722656 344.878906 L 69.546875 343.753906 L 70.367188 342.609375 L 71.191406 341.445312 L 72.011719 340.257812 L 72.835938 339.042969 L 73.65625 337.804688 L 74.476562 336.542969 L 75.300781 335.25 L 76.121094 333.921875 L 76.945312 332.570312 L 77.765625 331.1875 L 78.589844 329.765625 L 79.410156 328.308594 L 80.230469 326.820312 L 81.054688 325.300781 L 81.875 323.730469 L 82.699219 322.128906 L 83.519531 320.496094 L 84.34375 318.820312 L 85.164062 317.101562 L 85.984375 315.347656 L 86.808594 313.5625 L 87.628906 311.734375 L 88.453125 309.867188 L 89.273438 307.96875 L 90.097656 306.042969 L 90.917969 304.074219 L 91.738281 302.074219 L 92.5625 300.050781 L 93.382812 298.003906 L 94.207031 295.921875 L 95.027344 293.820312 L 95.851562 291.703125 L 96.671875 289.566406 L 97.492188 287.410156 L 98.316406 285.246094 L 99.136719 283.074219 L 99.960938 280.894531 L 100.78125 278.714844 L 101.605469 276.53125 L 102.425781 274.355469 L 103.246094 272.183594 L 104.070312 270.027344 L 104.890625 267.878906 L 105.714844 265.746094 L 106.535156 263.636719 L 107.359375 261.550781 L 108.179688 259.488281 L 109 257.449219 L 109.824219 255.453125 L 110.644531 253.484375 L 111.46875 251.550781 L 112.289062 249.65625 L 113.113281 247.8125 L 113.933594 246.007812 L 114.753906 244.246094 L 115.578125 242.535156 L 116.398438 240.878906 L 117.222656 239.273438 L 118.042969 237.710938 L 118.867188 236.21875 L 119.6875 234.785156 L 120.507812 233.402344 L 121.332031 232.070312 L 122.152344 230.820312 L 122.976562 229.628906 L 123.796875 228.492188 L 124.621094 227.410156 L 125.441406 226.417969 L 126.261719 225.480469 L 127.085938 224.601562 L 127.90625 223.792969 L 128.730469 223.0625 L 129.550781 222.394531 L 130.375 221.78125 L 131.195312 221.246094 L 132.015625 220.789062 L 132.839844 220.386719 L 133.660156 220.046875 L 134.484375 219.789062 L 135.304688 219.601562 L 136.128906 219.46875 L 136.949219 219.398438 L 137.769531 219.417969 L 138.59375 219.492188 L 139.414062 219.628906 L 140.238281 219.824219 L 141.058594 220.101562 L 141.882812 220.4375 L 142.703125 220.824219 L 143.523438 221.277344 L 144.347656 221.800781 L 145.167969 222.378906 L 145.992188 223.003906 L 146.8125 223.695312 L 147.636719 224.441406 L 148.457031 225.238281 L 149.277344 226.074219 L 150.101562 226.976562 L 150.921875 227.921875 L 151.746094 228.902344 L 152.566406 229.925781 L 153.390625 230.996094 L 154.210938 232.101562 L 155.03125 233.234375 L 155.855469 234.398438 L 156.675781 235.597656 L 157.5 236.8125 L 158.320312 238.050781 L 159.144531 239.308594 L 159.964844 240.582031 L 160.785156 241.863281 L 161.609375 243.152344 L 162.429688 244.445312 L 163.253906 245.742188 L 164.074219 247.03125 L 164.898438 248.320312 L 165.71875 249.59375 L 166.539062 250.851562 L 167.363281 252.097656 L 168.183594 253.324219 L 169.007812 254.523438 L 169.828125 255.695312 L 170.652344 256.847656 L 171.472656 257.964844 L 172.292969 259.039062 L 173.117188 260.082031 L 173.9375 261.09375 L 174.761719 262.058594 L 175.582031 262.980469 L 176.40625 263.863281 L 177.226562 264.707031 L 178.046875 265.492188 L 178.871094 266.234375 L 179.691406 266.941406 L 180.515625 267.605469 L 181.335938 268.207031 L 182.15625 268.773438 L 182.980469 269.304688 L 183.800781 269.792969 L 184.625 270.230469 L 185.445312 270.636719 L 186.269531 271.015625 L 187.089844 271.355469 L 187.910156 271.667969 L 188.734375 271.953125 L 189.554688 272.222656 L 190.378906 272.46875 L 191.199219 272.699219 L 192.023438 272.921875 L 192.84375 273.140625 L 193.664062 273.355469 L 194.488281 273.574219 L 195.308594 273.800781 L 196.132812 274.039062 L 196.953125 274.296875 L 197.777344 274.574219 L 198.597656 274.875 L 199.417969 275.203125 L 200.242188 275.574219 L 201.0625 275.980469 L 201.886719 276.425781 L 202.707031 276.917969 L 203.53125 277.464844 L 204.351562 278.058594 L 205.171875 278.695312 L 205.996094 279.40625 L 206.816406 280.171875 L 207.640625 280.992188 L 208.460938 281.863281 L 209.285156 282.820312 L 210.105469 283.832031 L 210.925781 284.898438 L 211.75 286.019531 L 212.570312 287.222656 L 213.394531 288.476562 L 214.214844 289.78125 L 215.039062 291.144531 L 215.859375 292.570312 L 216.679688 294.039062 L 217.503906 295.550781 L 218.324219 297.117188 L 219.148438 298.726562 L 219.96875 300.371094 L 220.792969 302.042969 L 221.613281 303.753906 L 222.433594 305.492188 L 223.257812 307.246094 L 224.078125 309.019531 L 224.902344 310.8125 L 225.722656 312.613281 L 226.546875 314.417969 L 227.367188 316.226562 L 228.1875 318.03125 L 229.011719 319.832031 L 229.832031 321.625 L 230.65625 323.402344 L 231.476562 325.160156 L 232.300781 326.902344 L 233.121094 328.625 L 233.941406 330.316406 L 234.765625 331.980469 L 235.585938 333.613281 L 236.410156 335.222656 L 237.230469 336.78125 L 238.054688 338.308594 L 238.875 339.804688 L 239.695312 341.261719 L 240.519531 342.664062 L 241.339844 344.03125 L 242.164062 345.363281 L 242.984375 346.648438 L 243.808594 347.882812 L 244.628906 349.078125 L 245.449219 350.234375 L 246.273438 351.339844 L 247.09375 352.398438 L 247.917969 353.417969 L 248.738281 354.402344 L 249.5625 355.332031 L 250.382812 356.222656 L 251.203125 357.078125 L 252.027344 357.894531 L 252.847656 358.664062 L 253.671875 359.394531 L 254.492188 360.097656 L 255.316406 360.761719 L 256.136719 361.386719 L 256.957031 361.984375 L 257.78125 362.550781 L 258.601562 363.085938 L 259.425781 363.589844 L 260.246094 364.066406 L 261.070312 364.527344 L 261.890625 364.953125 L 262.710938 365.359375 L 263.535156 365.75 L 264.355469 366.121094 L 265.179688 366.46875 L 266 366.804688 L 266.824219 367.125 L 267.644531 367.433594 L 268.464844 367.730469 L 269.289062 368.015625 L 270.109375 368.292969 L 270.933594 368.566406 L 271.753906 368.828125 L 272.578125 369.085938 L 273.398438 369.34375 L 274.21875 369.59375 L 275.042969 369.84375 L 275.863281 370.089844 L 276.6875 370.335938 L 277.507812 370.582031 L 278.332031 370.828125 L 279.152344 371.074219 L 279.972656 371.324219 L 280.796875 371.574219 L 281.617188 371.824219 L 282.441406 372.074219 L 283.261719 372.328125 L 284.085938 372.582031 L 284.90625 372.835938 L 285.726562 373.09375 L 286.550781 373.351562 L 287.371094 373.605469 L 288.195312 373.863281 L 289.015625 374.117188 L 289.839844 374.375 L 290.660156 374.628906 L 291.480469 374.878906 L 292.304688 375.128906 L 293.125 375.375 L 293.949219 375.617188 L 294.769531 375.855469 L 295.59375 376.089844 L 296.414062 376.320312 L 297.234375 376.542969 L 298.058594 376.765625 L 298.878906 376.976562 L 299.703125 377.183594 L 300.523438 377.382812 L 301.347656 377.578125 L 302.167969 377.765625 L 302.988281 377.945312 L 303.8125 378.117188 L 304.632812 378.285156 L 305.457031 378.441406 L 306.277344 378.59375 L 307.101562 378.734375 L 307.921875 378.871094 L 308.742188 379 L 309.566406 379.121094 L 310.386719 379.238281 L 311.210938 379.34375 L 312.03125 379.445312 L 312.855469 379.539062 L 313.675781 379.628906 L 314.496094 379.710938 L 315.320312 379.789062 L 316.140625 379.859375 L 316.964844 379.925781 L 317.785156 379.988281 L 318.609375 380.042969 L 319.429688 380.09375 L 320.25 380.140625 L 321.074219 380.183594 L 321.894531 380.222656 L 322.71875 380.261719 L 323.539062 380.292969 L 324.363281 380.324219 L 325.183594 380.351562 L 326.003906 380.375 L 326.828125 380.398438 L 327.648438 380.417969 L 328.472656 380.433594 L 329.292969 380.449219 L 330.117188 380.464844 L 331.757812 380.488281 L 332.582031 380.5 L 333.402344 380.507812 L 334.226562 380.515625 L 335.046875 380.523438 L 335.871094 380.53125 L 337.511719 380.539062 L 338.335938 380.542969 L 339.15625 380.546875 L 339.980469 380.550781 L 340.800781 380.554688 L 341.625 380.554688 L 342.445312 380.558594 L 343.265625 380.558594 L 344.089844 380.5625 L 345.734375 380.5625 L 346.554688 380.566406 L 350.664062 380.566406 L 351.488281 380.570312 L 483.828125 380.570312 L 63.792969 380.570312 Z M 63.792969 351.234375 "/>
<g style="fill:rgb(30.196078%,30.196078%,30.196078%);fill-opacity:1;">
  <use xlink:href="#glyph0-1" x="19.859375" y="383.172852"/>
  <use xlink:href="#glyph0-2" x="24.751953" y="383.172852"/>
  <use xlink:href="#glyph0-1" x="27.198242" y="383.172852"/>
  <use xlink:href="#glyph0-1" x="32.09082" y="383.172852"/>
</g>
<g style="fill:rgb(30.196078%,30.196078%,30.196078%);fill-opacity:1;">
  <use xlink:href="#glyph0-1" x="19.859375" y="273.65332"/>
  <use xlink:href="#glyph0-2" x="24.751953" y="273.65332"/>
  <use xlink:href="#glyph0-1" x="27.198242" y="273.65332"/>
  <use xlink:href="#glyph0-3" x="32.09082" y="273.65332"/>
</g>
<g style="fill:rgb(30.196078%,30.196078%,30.196078%);fill-opacity:1;">
  <use xlink:href="#glyph0-1" x="19.859375" y="164.133789"/>
  <use xlink:href="#glyph0-2" x="24.751953" y="164.133789"/>
  <use xlink:href="#glyph0-1" x="27.198242" y="164.133789"/>
  <use xlink:href="#glyph0-4" x="32.09082" y="164.133789"/>
</g>
<g style="fill:rgb(30.196078%,30.196078%,30.196078%);fill-opacity:1;">
  <use xlink:href="#glyph0-1" x="19.859375" y="54.614258"/>
  <use xlink:href="#glyph0-2" x="24.751953" y="54.614258"/>
  <use xlink:href="#glyph0-5" x="27.198242" y="54.614258"/>
  <use xlink:href="#glyph0-6" x="32.09082" y="54.614258"/>
</g>
<path style="fill:none;stroke-width:1.066978;stroke-linecap:butt;stroke-linejoin:round;stroke:rgb(20%,20%,20%);stroke-opacity:1;stroke-miterlimit:10;" d="M 40.050781 380.570312 L 42.789062 380.570312 "/>
<path style="fill:none;stroke-width:1.066978;stroke-linecap:butt;stroke-linejoin:round;stroke:rgb(20%,20%,20%);stroke-opacity:1;stroke-miterlimit:10;" d="M 40.050781 271.050781 L 42.789062 271.050781 "/>
<path style="fill:none;stroke-width:1.066978;stroke-linecap:butt;stroke-linejoin:round;stroke:rgb(20%,20%,20%);stroke-opacity:1;stroke-miterlimit:10;" d="M 40.050781 161.53125 L 42.789062 161.53125 "/>
<path style="fill:none;stroke-width:1.066978;stroke-linecap:butt;stroke-linejoin:round;stroke:rgb(20%,20%,20%);stroke-opacity:1;stroke-miterlimit:10;" d="M 40.050781 52.011719 L 42.789062 52.011719 "/>
<path style="fill:none;stroke-width:1.066978;stroke-linecap:butt;stroke-linejoin:round;stroke:rgb(20%,20%,20%);stroke-opacity:1;stroke-miterlimit:10;" d="M 165.390625 400.308594 L 165.390625 397.570312 "/>
<path style="fill:none;stroke-width:1.066978;stroke-linecap:butt;stroke-linejoin:round;stroke:rgb(20%,20%,20%);stroke-opacity:1;stroke-miterlimit:10;" d="M 311.328125 400.308594 L 311.328125 397.570312 "/>
<path style="fill:none;stroke-width:1.066978;stroke-linecap:butt;stroke-linejoin:round;stroke:rgb(20%,20%,20%);stroke-opacity:1;stroke-miterlimit:10;" d="M 457.261719 400.308594 L 457.261719 397.570312 "/>
<g style="fill:rgb(30.196078%,30.196078%,30.196078%);fill-opacity:1;">
  <use xlink:href="#glyph0-7" x="158.890625" y="408.602539"/>
  <use xlink:href="#glyph0-6" x="161.821289" y="408.602539"/>
  <use xlink:href="#glyph0-1" x="166.713867" y="408.602539"/>
</g>
<g style="fill:rgb(30.196078%,30.196078%,30.196078%);fill-opacity:1;">
  <use xlink:href="#glyph0-1" x="308.828125" y="408.602539"/>
</g>
<g style="fill:rgb(30.196078%,30.196078%,30.196078%);fill-opacity:1;">
  <use xlink:href="#glyph0-6" x="452.261719" y="408.602539"/>
  <use xlink:href="#glyph0-1" x="457.154297" y="408.602539"/>
</g>
<g style="fill:rgb(0%,0%,0%);fill-opacity:1;">
  <use xlink:href="#glyph1-1" x="259.308594" y="423.506836"/>
  <use xlink:href="#glyph1-2" x="267.250977" y="423.506836"/>
  <use xlink:href="#glyph1-3" x="269.693359" y="423.506836"/>
  <use xlink:href="#glyph1-4" x="278.856445" y="423.506836"/>
  <use xlink:href="#glyph1-5" x="281.914062" y="423.506836"/>
</g>
<g style="fill:rgb(0%,0%,0%);fill-opacity:1;">
  <use xlink:href="#glyph2-1" x="14.108398" y="228.085938"/>
  <use xlink:href="#glyph2-2" x="14.108398" y="221.969727"/>
  <use xlink:href="#glyph2-3" x="14.108398" y="215.853516"/>
  <use xlink:href="#glyph2-4" x="14.108398" y="209.737305"/>
  <use xlink:href="#glyph2-5" x="14.108398" y="204.237305"/>
  <use xlink:href="#glyph2-6" x="14.108398" y="201.794922"/>
  <use xlink:href="#glyph2-7" x="14.108398" y="198.737305"/>
</g>
<path style=" stroke:none;fill-rule:nonzero;fill:rgb(100%,100%,100%);fill-opacity:1;" d="M 515.789062 267.273438 L 570.523438 267.273438 L 570.523438 153.898438 L 515.789062 153.898438 Z M 515.789062 267.273438 "/>
<g style="fill:rgb(0%,0%,0%);fill-opacity:1;">
  <use xlink:href="#glyph1-6" x="521.265625" y="168.772461"/>
  <use xlink:href="#glyph1-7" x="528.602539" y="168.772461"/>
  <use xlink:href="#glyph1-8" x="534.047852" y="168.772461"/>
  <use xlink:href="#glyph1-9" x="537.105469" y="168.772461"/>
  <use xlink:href="#glyph1-10" x="543.22168" y="168.772461"/>
  <use xlink:href="#glyph1-2" x="549.337891" y="168.772461"/>
  <use xlink:href="#glyph1-11" x="551.780273" y="168.772461"/>
</g>
<path style="fill-rule:nonzero;fill:rgb(94.901961%,94.901961%,94.901961%);fill-opacity:1;stroke-width:1.066978;stroke-linecap:round;stroke-linejoin:round;stroke:rgb(100%,100%,100%);stroke-opacity:1;stroke-miterlimit:10;" d="M 521.265625 192.671875 L 538.546875 192.671875 L 538.546875 175.390625 L 521.265625 175.390625 Z M 521.265625 192.671875 "/>
<path style="fill-rule:nonzero;fill:rgb(97.254902%,46.27451%,42.745098%);fill-opacity:0.501961;stroke-width:1.066978;stroke-linecap:round;stroke-linejoin:miter;stroke:rgb(100%,100%,100%);stroke-opacity:1;stroke-miterlimit:10;" d="M 521.976562 191.964844 L 537.839844 191.964844 L 537.839844 176.101562 L 521.976562 176.101562 Z M 521.976562 191.964844 "/>
<path style="fill-rule:nonzero;fill:rgb(94.901961%,94.901961%,94.901961%);fill-opacity:1;stroke-width:1.066978;stroke-linecap:round;stroke-linejoin:round;stroke:rgb(100%,100%,100%);stroke-opacity:1;stroke-miterlimit:10;" d="M 521.265625 209.953125 L 538.546875 209.953125 L 538.546875 192.671875 L 521.265625 192.671875 Z M 521.265625 209.953125 "/>
<path style="fill-rule:nonzero;fill:rgb(72.941176%,53.333333%,50.980392%);fill-opacity:0.501961;stroke-width:1.066978;stroke-linecap:round;stroke-linejoin:miter;stroke:rgb(100%,100%,100%);stroke-opacity:1;stroke-miterlimit:10;" d="M 521.976562 209.246094 L 537.839844 209.246094 L 537.839844 193.382812 L 521.976562 193.382812 Z M 521.976562 209.246094 "/>
<path style="fill-rule:nonzero;fill:rgb(94.901961%,94.901961%,94.901961%);fill-opacity:1;stroke-width:1.066978;stroke-linecap:round;stroke-linejoin:round;stroke:rgb(100%,100%,100%);stroke-opacity:1;stroke-miterlimit:10;" d="M 521.265625 227.234375 L 538.546875 227.234375 L 538.546875 209.953125 L 521.265625 209.953125 Z M 521.265625 227.234375 "/>
<path style="fill-rule:nonzero;fill:rgb(48.627451%,60.392157%,59.607843%);fill-opacity:0.501961;stroke-width:1.066978;stroke-linecap:round;stroke-linejoin:miter;stroke:rgb(100%,100%,100%);stroke-opacity:1;stroke-miterlimit:10;" d="M 521.976562 226.523438 L 537.839844 226.523438 L 537.839844 210.660156 L 521.976562 210.660156 Z M 521.976562 226.523438 "/>
<path style="fill-rule:nonzero;fill:rgb(94.901961%,94.901961%,94.901961%);fill-opacity:1;stroke-width:1.066978;stroke-linecap:round;stroke-linejoin:round;stroke:rgb(100%,100%,100%);stroke-opacity:1;stroke-miterlimit:10;" d="M 521.265625 244.511719 L 538.546875 244.511719 L 538.546875 227.230469 L 521.265625 227.230469 Z M 521.265625 244.511719 "/>
<path style="fill-rule:nonzero;fill:rgb(24.313725%,67.45098%,68.235294%);fill-opacity:0.501961;stroke-width:1.066978;stroke-linecap:round;stroke-linejoin:miter;stroke:rgb(100%,100%,100%);stroke-opacity:1;stroke-miterlimit:10;" d="M 521.976562 243.804688 L 537.839844 243.804688 L 537.839844 227.941406 L 521.976562 227.941406 Z M 521.976562 243.804688 "/>
<path style="fill-rule:nonzero;fill:rgb(94.901961%,94.901961%,94.901961%);fill-opacity:1;stroke-width:1.066978;stroke-linecap:round;stroke-linejoin:round;stroke:rgb(100%,100%,100%);stroke-opacity:1;stroke-miterlimit:10;" d="M 521.265625 261.792969 L 538.546875 261.792969 L 538.546875 244.511719 L 521.265625 244.511719 Z M 521.265625 261.792969 "/>
<path style="fill-rule:nonzero;fill:rgb(0%,74.901961%,76.862745%);fill-opacity:0.501961;stroke-width:1.066978;stroke-linecap:round;stroke-linejoin:miter;stroke:rgb(100%,100%,100%);stroke-opacity:1;stroke-miterlimit:10;" d="M 521.976562 261.085938 L 537.839844 261.085938 L 537.839844 245.222656 L 521.976562 245.222656 Z M 521.976562 261.085938 "/>
<g style="fill:rgb(0%,0%,0%);fill-opacity:1;">
  <use xlink:href="#glyph0-8" x="544.027344" y="186.633789"/>
  <use xlink:href="#glyph0-9" x="549.896484" y="186.633789"/>
  <use xlink:href="#glyph0-10" x="554.789062" y="186.633789"/>
  <use xlink:href="#glyph0-11" x="559.681641" y="186.633789"/>
</g>
<g style="fill:rgb(0%,0%,0%);fill-opacity:1;">
  <use xlink:href="#glyph0-12" x="544.027344" y="203.915039"/>
</g>
<g style="fill:rgb(0%,0%,0%);fill-opacity:1;">
  <use xlink:href="#glyph0-12" x="544.027344" y="221.196289"/>
  <use xlink:href="#glyph0-12" x="546.473633" y="221.196289"/>
</g>
<g style="fill:rgb(0%,0%,0%);fill-opacity:1;">
  <use xlink:href="#glyph0-12" x="544.027344" y="238.473633"/>
  <use xlink:href="#glyph0-12" x="546.473633" y="238.473633"/>
  <use xlink:href="#glyph0-12" x="548.919922" y="238.473633"/>
</g>
<g style="fill:rgb(0%,0%,0%);fill-opacity:1;">
  <use xlink:href="#glyph0-12" x="544.027344" y="255.754883"/>
  <use xlink:href="#glyph0-13" x="546.473633" y="255.754883"/>
</g>
<g style="fill:rgb(0%,0%,0%);fill-opacity:1;">
  <use xlink:href="#glyph3-1" x="42.789062" y="14.632812"/>
  <use xlink:href="#glyph3-2" x="52.319336" y="14.632812"/>
  <use xlink:href="#glyph3-3" x="55.25" y="14.632812"/>
  <use xlink:href="#glyph3-4" x="61.783203" y="14.632812"/>
  <use xlink:href="#glyph3-5" x="65.452148" y="14.632812"/>
  <use xlink:href="#glyph3-2" x="69.847656" y="14.632812"/>
  <use xlink:href="#glyph3-6" x="72.77832" y="14.632812"/>
  <use xlink:href="#glyph3-7" x="80.117188" y="14.632812"/>
  <use xlink:href="#glyph3-8" x="87.456055" y="14.632812"/>
  <use xlink:href="#glyph3-2" x="94.055664" y="14.632812"/>
  <use xlink:href="#glyph3-9" x="96.986328" y="14.632812"/>
  <use xlink:href="#glyph3-10" x="104.325195" y="14.632812"/>
  <use xlink:href="#glyph3-11" x="111.664062" y="14.632812"/>
  <use xlink:href="#glyph3-3" x="119.00293" y="14.632812"/>
  <use xlink:href="#glyph3-12" x="125.602539" y="14.632812"/>
  <use xlink:href="#glyph3-13" x="129.271484" y="14.632812"/>
  <use xlink:href="#glyph3-11" x="136.610352" y="14.632812"/>
  <use xlink:href="#glyph3-14" x="143.949219" y="14.632812"/>
  <use xlink:href="#glyph3-12" x="146.879883" y="14.632812"/>
  <use xlink:href="#glyph3-15" x="150.548828" y="14.632812"/>
  <use xlink:href="#glyph3-5" x="157.887695" y="14.632812"/>
  <use xlink:href="#glyph3-2" x="162.283203" y="14.632812"/>
  <use xlink:href="#glyph3-16" x="165.213867" y="14.632812"/>
  <use xlink:href="#glyph3-11" x="176.208984" y="14.632812"/>
  <use xlink:href="#glyph3-5" x="183.547852" y="14.632812"/>
  <use xlink:href="#glyph3-12" x="187.943359" y="14.632812"/>
  <use xlink:href="#glyph3-8" x="191.612305" y="14.632812"/>
  <use xlink:href="#glyph3-9" x="198.211914" y="14.632812"/>
  <use xlink:href="#glyph3-16" x="205.550781" y="14.632812"/>
  <use xlink:href="#glyph3-15" x="216.612305" y="14.632812"/>
  <use xlink:href="#glyph3-9" x="223.951172" y="14.632812"/>
  <use xlink:href="#glyph3-10" x="231.290039" y="14.632812"/>
  <use xlink:href="#glyph3-11" x="238.628906" y="14.632812"/>
  <use xlink:href="#glyph3-10" x="245.967773" y="14.632812"/>
  <use xlink:href="#glyph3-4" x="253.306641" y="14.632812"/>
  <use xlink:href="#glyph3-11" x="256.777344" y="14.632812"/>
  <use xlink:href="#glyph3-12" x="264.116211" y="14.632812"/>
  <use xlink:href="#glyph3-15" x="267.785156" y="14.632812"/>
  <use xlink:href="#glyph3-5" x="275.124023" y="14.632812"/>
  <use xlink:href="#glyph3-2" x="279.519531" y="14.632812"/>
  <use xlink:href="#glyph3-10" x="282.450195" y="14.632812"/>
  <use xlink:href="#glyph3-8" x="289.789062" y="14.632812"/>
  <use xlink:href="#glyph3-2" x="296.388672" y="14.632812"/>
  <use xlink:href="#glyph3-15" x="299.319336" y="14.632812"/>
  <use xlink:href="#glyph3-17" x="306.658203" y="14.632812"/>
  <use xlink:href="#glyph3-14" x="313.99707" y="14.632812"/>
  <use xlink:href="#glyph3-12" x="316.927734" y="14.632812"/>
  <use xlink:href="#glyph3-3" x="320.59668" y="14.632812"/>
  <use xlink:href="#glyph3-11" x="327.196289" y="14.632812"/>
  <use xlink:href="#glyph3-18" x="334.535156" y="14.632812"/>
  <use xlink:href="#glyph3-19" x="341.874023" y="14.632812"/>
  <use xlink:href="#glyph3-10" x="349.212891" y="14.632812"/>
  <use xlink:href="#glyph3-12" x="356.551758" y="14.632812"/>
  <use xlink:href="#glyph3-11" x="360.220703" y="14.632812"/>
  <use xlink:href="#glyph3-3" x="367.55957" y="14.632812"/>
  <use xlink:href="#glyph3-4" x="374.092773" y="14.632812"/>
  <use xlink:href="#glyph3-17" x="377.761719" y="14.632812"/>
  <use xlink:href="#glyph3-13" x="385.100586" y="14.632812"/>
  <use xlink:href="#glyph3-2" x="392.439453" y="14.632812"/>
  <use xlink:href="#glyph3-9" x="395.370117" y="14.632812"/>
  <use xlink:href="#glyph3-3" x="402.708984" y="14.632812"/>
  <use xlink:href="#glyph3-12" x="409.308594" y="14.632812"/>
  <use xlink:href="#glyph3-13" x="412.977539" y="14.632812"/>
  <use xlink:href="#glyph3-11" x="420.316406" y="14.632812"/>
  <use xlink:href="#glyph3-12" x="427.655273" y="14.632812"/>
  <use xlink:href="#glyph3-20" x="431.324219" y="14.632812"/>
  <use xlink:href="#glyph3-17" x="441.592773" y="14.632812"/>
  <use xlink:href="#glyph3-14" x="448.931641" y="14.632812"/>
  <use xlink:href="#glyph3-7" x="451.862305" y="14.632812"/>
  <use xlink:href="#glyph3-8" x="459.201172" y="14.632812"/>
  <use xlink:href="#glyph3-9" x="465.800781" y="14.632812"/>
  <use xlink:href="#glyph3-16" x="473.139648" y="14.632812"/>
  <use xlink:href="#glyph3-17" x="484.134766" y="14.632812"/>
</g>
</g>
</svg>
