<?xml version="1.0" encoding="UTF-8"?>
<svg xmlns="http://www.w3.org/2000/svg" xmlns:xlink="http://www.w3.org/1999/xlink" width="576pt" height="432pt" viewBox="0 0 576 432" version="1.1">
<defs>
<g>
<symbol overflow="visible" id="glyph0-0">
<path style="stroke:none;" d=""/>
</symbol>
<symbol overflow="visible" id="glyph0-1">
<path style="stroke:none;" d="M 4.453125 -3 C 4.453125 -5.15625 3.78125 -6.234375 2.421875 -6.234375 C 1.078125 -6.234375 0.375 -5.140625 0.375 -3.046875 C 0.375 -0.953125 1.078125 0.125 2.421875 0.125 C 3.734375 0.125 4.453125 -0.953125 4.453125 -3 Z M 3.671875 -3.0625 C 3.671875 -1.296875 3.265625 -0.515625 2.40625 -0.515625 C 1.578125 -0.515625 1.171875 -1.34375 1.171875 -3.046875 C 1.171875 -4.75 1.578125 -5.546875 2.421875 -5.546875 C 3.25 -5.546875 3.671875 -4.734375 3.671875 -3.0625 Z M 3.671875 -3.0625 "/>
</symbol>
<symbol overflow="visible" id="glyph0-2">
<path style="stroke:none;" d="M 1.6875 0 L 1.6875 -0.921875 L 0.765625 -0.921875 L 0.765625 0 Z M 1.6875 0 "/>
</symbol>
<symbol overflow="visible" id="glyph0-3">
<path style="stroke:none;" d="M 4.515625 -2.0625 C 4.515625 -3.296875 3.6875 -4.109375 2.5 -4.109375 C 2.0625 -4.109375 1.703125 -4 1.34375 -3.734375 L 1.59375 -5.34375 L 4.1875 -5.34375 L 4.1875 -6.109375 L 0.96875 -6.109375 L 0.5 -2.84375 L 1.21875 -2.84375 C 1.578125 -3.265625 1.875 -3.421875 2.359375 -3.421875 C 3.1875 -3.421875 3.71875 -2.890625 3.71875 -1.96875 C 3.71875 -1.0625 3.203125 -0.546875 2.359375 -0.546875 C 1.6875 -0.546875 1.265625 -0.890625 1.078125 -1.59375 L 0.3125 -1.59375 C 0.5625 -0.359375 1.265625 0.125 2.375 0.125 C 3.640625 0.125 4.515625 -0.75 4.515625 -2.0625 Z M 4.515625 -2.0625 "/>
</symbol>
<symbol overflow="visible" id="glyph0-4">
<path style="stroke:none;" d="M 3.046875 0 L 3.046875 -6.234375 L 2.546875 -6.234375 C 2.265625 -5.28125 2.09375 -5.140625 0.890625 -5 L 0.890625 -4.4375 L 2.28125 -4.4375 L 2.28125 0 Z M 3.046875 0 "/>
</symbol>
<symbol overflow="visible" id="glyph0-5">
<path style="stroke:none;" d="M 4.5 -4.40625 C 4.5 -5.46875 3.671875 -6.234375 2.5 -6.234375 C 1.21875 -6.234375 0.484375 -5.59375 0.4375 -4.078125 L 1.21875 -4.078125 C 1.28125 -5.125 1.703125 -5.5625 2.46875 -5.5625 C 3.171875 -5.5625 3.703125 -5.0625 3.703125 -4.390625 C 3.703125 -3.890625 3.40625 -3.46875 2.859375 -3.15625 L 2.046875 -2.703125 C 0.75 -1.96875 0.375 -1.375 0.296875 0 L 4.453125 0 L 4.453125 -0.765625 L 1.171875 -0.765625 C 1.25 -1.28125 1.53125 -1.59375 2.296875 -2.046875 L 3.171875 -2.53125 C 4.046875 -2.984375 4.5 -3.640625 4.5 -4.40625 Z M 4.5 -4.40625 "/>
</symbol>
<symbol overflow="visible" id="glyph0-6">
<path style="stroke:none;" d="M 2.5 -2.109375 L 2.5 -2.75 L 0.40625 -2.75 L 0.40625 -2.109375 Z M 2.5 -2.109375 "/>
</symbol>
<symbol overflow="visible" id="glyph0-7">
<path style="stroke:none;" d="M 5.46875 -1.765625 C 5.46875 -2.546875 4.96875 -3.125 4.09375 -3.375 L 2.484375 -3.796875 C 1.71875 -4 1.4375 -4.25 1.4375 -4.75 C 1.4375 -5.40625 2 -5.890625 2.875 -5.890625 C 3.890625 -5.890625 4.46875 -5.421875 4.46875 -4.578125 L 5.25 -4.578125 C 5.25 -5.84375 4.375 -6.578125 2.890625 -6.578125 C 1.484375 -6.578125 0.609375 -5.796875 0.609375 -4.640625 C 0.609375 -3.859375 1.03125 -3.359375 1.875 -3.140625 L 3.46875 -2.71875 C 4.28125 -2.5 4.640625 -2.1875 4.640625 -1.6875 C 4.640625 -0.96875 4.109375 -0.5625 3.015625 -0.5625 C 1.796875 -0.5625 1.203125 -1.171875 1.203125 -2.078125 L 0.421875 -2.078125 C 0.421875 -0.578125 1.4375 0.15625 2.953125 0.15625 C 4.578125 0.15625 5.46875 -0.609375 5.46875 -1.765625 Z M 5.46875 -1.765625 "/>
</symbol>
<symbol overflow="visible" id="glyph0-8">
<path style="stroke:none;" d="M 4.703125 -0.015625 L 4.703125 -0.578125 C 4.625 -0.546875 4.59375 -0.546875 4.546875 -0.546875 C 4.296875 -0.546875 4.15625 -0.6875 4.15625 -0.921875 L 4.15625 -3.484375 C 4.15625 -4.296875 3.546875 -4.734375 2.421875 -4.734375 C 1.296875 -4.734375 0.609375 -4.3125 0.578125 -3.25 L 1.3125 -3.25 C 1.375 -3.8125 1.703125 -4.0625 2.390625 -4.0625 C 3.046875 -4.0625 3.421875 -3.8125 3.421875 -3.375 L 3.421875 -3.1875 C 3.421875 -2.875 3.234375 -2.75 2.65625 -2.671875 C 1.625 -2.546875 1.453125 -2.5 1.171875 -2.390625 C 0.640625 -2.171875 0.375 -1.765625 0.375 -1.203125 C 0.375 -0.359375 0.953125 0.125 1.875 0.125 C 2.46875 0.125 3.046875 -0.109375 3.453125 -0.546875 C 3.53125 -0.1875 3.84375 0.0625 4.203125 0.0625 C 4.359375 0.0625 4.46875 0.046875 4.703125 -0.015625 Z M 3.421875 -1.59375 C 3.421875 -0.9375 2.75 -0.515625 2.046875 -0.515625 C 1.46875 -0.515625 1.140625 -0.71875 1.140625 -1.21875 C 1.140625 -1.703125 1.453125 -1.90625 2.25 -2.015625 C 3.015625 -2.125 3.171875 -2.15625 3.421875 -2.28125 Z M 3.421875 -1.59375 "/>
</symbol>
<symbol overflow="visible" id="glyph0-9">
<path style="stroke:none;" d="M 4.28125 0 L 4.28125 -3.484375 C 4.28125 -4.25 3.71875 -4.734375 2.828125 -4.734375 C 2.140625 -4.734375 1.703125 -4.484375 1.296875 -3.828125 L 1.296875 -4.609375 L 0.609375 -4.609375 L 0.609375 0 L 1.34375 0 L 1.34375 -2.546875 C 1.34375 -3.484375 1.859375 -4.09375 2.609375 -4.09375 C 3.1875 -4.09375 3.546875 -3.75 3.546875 -3.1875 L 3.546875 0 Z M 4.28125 0 "/>
</symbol>
<symbol overflow="visible" id="glyph0-10">
<path style="stroke:none;" d="M 4.484375 -2.265625 C 4.484375 -3.859375 3.71875 -4.734375 2.390625 -4.734375 C 1.09375 -4.734375 0.3125 -3.859375 0.3125 -2.3125 C 0.3125 -0.75 1.09375 0.125 2.40625 0.125 C 3.6875 0.125 4.484375 -0.75 4.484375 -2.265625 Z M 3.71875 -2.28125 C 3.71875 -1.203125 3.203125 -0.546875 2.40625 -0.546875 C 1.578125 -0.546875 1.078125 -1.1875 1.078125 -2.3125 C 1.078125 -3.40625 1.578125 -4.0625 2.40625 -4.0625 C 3.234375 -4.0625 3.71875 -3.421875 3.71875 -2.28125 Z M 3.71875 -2.28125 "/>
</symbol>
<symbol overflow="visible" id="glyph0-11">
<path style="stroke:none;" d="M 1.703125 0 L 1.703125 -6.40625 L 0.875 -6.40625 L 0.875 0 Z M 1.703125 0 "/>
</symbol>
<symbol overflow="visible" id="glyph0-12">
<path style="stroke:none;" d="M 5.671875 -6.40625 L 4.796875 -6.40625 L 3.03125 -0.984375 L 1.140625 -6.40625 L 0.265625 -6.40625 L 2.5625 0 L 3.453125 0 Z M 5.671875 -6.40625 "/>
</symbol>
<symbol overflow="visible" id="glyph1-0">
<path style="stroke:none;" d=""/>
</symbol>
<symbol overflow="visible" id="glyph1-1">
<path style="stroke:none;" d="M 7.34375 -4.015625 C 7.34375 -6.5 6.109375 -8.015625 4.0625 -8.015625 L 0.984375 -8.015625 L 0.984375 0 L 4.0625 0 C 6.09375 0 7.34375 -1.515625 7.34375 -4.015625 Z M 6.3125 -4 C 6.3125 -1.984375 5.484375 -0.90625 3.890625 -0.90625 L 2 -0.90625 L 2 -7.109375 L 3.890625 -7.109375 C 5.484375 -7.109375 6.3125 -6.046875 6.3125 -4 Z M 6.3125 -4 "/>
</symbol>
<symbol overflow="visible" id="glyph1-2">
<path style="stroke:none;" d="M 1.6875 0 L 1.6875 -5.765625 L 0.765625 -5.765625 L 0.765625 0 Z M 1.796875 -6.640625 L 1.796875 -7.78125 L 0.65625 -7.78125 L 0.65625 -6.640625 Z M 1.796875 -6.640625 "/>
</symbol>
<symbol overflow="visible" id="glyph1-3">
<path style="stroke:none;" d="M 8.359375 0 L 8.359375 -4.328125 C 8.359375 -5.359375 7.78125 -5.921875 6.703125 -5.921875 C 5.9375 -5.921875 5.484375 -5.703125 4.9375 -5.046875 C 4.59375 -5.671875 4.140625 -5.921875 3.390625 -5.921875 C 2.625 -5.921875 2.109375 -5.640625 1.609375 -4.953125 L 1.609375 -5.765625 L 0.78125 -5.765625 L 0.78125 0 L 1.6875 0 L 1.6875 -3.625 C 1.6875 -4.453125 2.296875 -5.125 3.046875 -5.125 C 3.734375 -5.125 4.109375 -4.703125 4.109375 -3.96875 L 4.109375 0 L 5.03125 0 L 5.03125 -3.625 C 5.03125 -4.453125 5.640625 -5.125 6.390625 -5.125 C 7.0625 -5.125 7.453125 -4.703125 7.453125 -3.96875 L 7.453125 0 Z M 8.359375 0 "/>
</symbol>
<symbol overflow="visible" id="glyph1-4">
<path style="stroke:none;" d="M 2.09375 0 L 2.09375 -1.140625 L 0.953125 -1.140625 L 0.953125 0 Z M 2.09375 0 "/>
</symbol>
<symbol overflow="visible" id="glyph1-5">
<path style="stroke:none;" d="M 3.8125 0 L 3.8125 -7.796875 L 3.171875 -7.796875 C 2.84375 -6.59375 2.625 -6.4375 1.125 -6.25 L 1.125 -5.5625 L 2.84375 -5.5625 L 2.84375 0 Z M 3.8125 0 "/>
</symbol>
<symbol overflow="visible" id="glyph1-6">
<path style="stroke:none;" d="M 6.75 0 L 6.75 -0.90625 L 2.015625 -0.90625 L 2.015625 -3.65625 L 6.375 -3.65625 L 6.375 -4.546875 L 2.015625 -4.546875 L 2.015625 -7.109375 L 6.546875 -7.109375 L 6.546875 -8.015625 L 0.984375 -8.015625 L 0.984375 0 Z M 6.75 0 "/>
</symbol>
<symbol overflow="visible" id="glyph1-7">
<path style="stroke:none;" d="M 5.046875 -1.609375 C 5.046875 -2.46875 4.5625 -2.90625 3.421875 -3.171875 L 2.546875 -3.390625 C 1.796875 -3.5625 1.46875 -3.8125 1.46875 -4.21875 C 1.46875 -4.734375 1.953125 -5.078125 2.6875 -5.078125 C 3.4375 -5.078125 3.828125 -4.765625 3.84375 -4.15625 L 4.8125 -4.15625 C 4.8125 -5.296875 4.0625 -5.921875 2.734375 -5.921875 C 1.390625 -5.921875 0.515625 -5.234375 0.515625 -4.171875 C 0.515625 -3.265625 0.984375 -2.84375 2.34375 -2.515625 L 3.203125 -2.296875 C 3.84375 -2.140625 4.09375 -1.953125 4.09375 -1.546875 C 4.09375 -1 3.546875 -0.6875 2.75 -0.6875 C 1.921875 -0.6875 1.46875 -0.875 1.34375 -1.765625 L 0.375 -1.765625 C 0.421875 -0.421875 1.171875 0.171875 2.671875 0.171875 C 4.125 0.171875 5.046875 -0.5 5.046875 -1.609375 Z M 5.046875 -1.609375 "/>
</symbol>
<symbol overflow="visible" id="glyph1-8">
<path style="stroke:none;" d="M 2.796875 0 L 2.796875 -0.765625 C 2.671875 -0.734375 2.53125 -0.71875 2.359375 -0.71875 C 1.953125 -0.71875 1.84375 -0.84375 1.84375 -1.25 L 1.84375 -5.015625 L 2.796875 -5.015625 L 2.796875 -5.765625 L 1.84375 -5.765625 L 1.84375 -7.34375 L 0.9375 -7.34375 L 0.9375 -5.765625 L 0.15625 -5.765625 L 0.15625 -5.015625 L 0.9375 -5.015625 L 0.9375 -0.84375 C 0.9375 -0.25 1.328125 0.078125 2.046875 0.078125 C 2.265625 0.078125 2.484375 0.0625 2.796875 0 Z M 2.796875 0 "/>
</symbol>
<symbol overflow="visible" id="glyph1-9">
<path style="stroke:none;" d="M 5.890625 -0.015625 L 5.890625 -0.71875 C 5.78125 -0.6875 5.734375 -0.6875 5.6875 -0.6875 C 5.375 -0.6875 5.1875 -0.859375 5.1875 -1.140625 L 5.1875 -4.359375 C 5.1875 -5.375 4.4375 -5.921875 3.03125 -5.921875 C 1.625 -5.921875 0.765625 -5.390625 0.71875 -4.0625 L 1.640625 -4.0625 C 1.71875 -4.765625 2.140625 -5.078125 2.984375 -5.078125 C 3.8125 -5.078125 4.28125 -4.78125 4.28125 -4.21875 L 4.28125 -3.984375 C 4.28125 -3.59375 4.046875 -3.4375 3.328125 -3.34375 C 2.03125 -3.171875 1.828125 -3.140625 1.46875 -2.984375 C 0.796875 -2.71875 0.46875 -2.203125 0.46875 -1.5 C 0.46875 -0.453125 1.1875 0.171875 2.359375 0.171875 C 3.09375 0.171875 3.8125 -0.140625 4.3125 -0.6875 C 4.40625 -0.234375 4.8125 0.078125 5.265625 0.078125 C 5.4375 0.078125 5.59375 0.0625 5.890625 -0.015625 Z M 4.28125 -1.984375 C 4.28125 -1.171875 3.4375 -0.640625 2.546875 -0.640625 C 1.84375 -0.640625 1.421875 -0.890625 1.421875 -1.515625 C 1.421875 -2.125 1.828125 -2.390625 2.8125 -2.53125 C 3.765625 -2.65625 3.96875 -2.703125 4.28125 -2.84375 Z M 4.28125 -1.984375 "/>
</symbol>
<symbol overflow="visible" id="glyph1-10">
<path style="stroke:none;" d="M 5.4375 0 L 5.4375 -8.015625 L 4.53125 -8.015625 L 4.53125 -5.03125 C 4.140625 -5.625 3.53125 -5.921875 2.765625 -5.921875 C 1.265625 -5.921875 0.28125 -4.78125 0.28125 -2.9375 C 0.28125 -0.984375 1.25 0.171875 2.796875 0.171875 C 3.59375 0.171875 4.140625 -0.125 4.625 -0.84375 L 4.625 0 Z M 4.53125 -2.859375 C 4.53125 -1.53125 3.890625 -0.6875 2.921875 -0.6875 C 1.90625 -0.6875 1.25 -1.546875 1.25 -2.875 C 1.25 -4.21875 1.90625 -5.078125 2.921875 -5.078125 C 3.90625 -5.078125 4.53125 -4.1875 4.53125 -2.859375 Z M 4.53125 -2.859375 "/>
</symbol>
<symbol overflow="visible" id="glyph1-11">
<path style="stroke:none;" d="M 5.609375 -2.84375 C 5.609375 -4.828125 4.65625 -5.921875 2.984375 -5.921875 C 1.375 -5.921875 0.390625 -4.8125 0.390625 -2.875 C 0.390625 -0.953125 1.359375 0.171875 3 0.171875 C 4.625 0.171875 5.609375 -0.953125 5.609375 -2.84375 Z M 4.65625 -2.84375 C 4.65625 -1.5 4.015625 -0.6875 3 -0.6875 C 1.984375 -0.6875 1.359375 -1.484375 1.359375 -2.875 C 1.359375 -4.265625 1.984375 -5.078125 3 -5.078125 C 4.03125 -5.078125 4.65625 -4.28125 4.65625 -2.84375 Z M 4.65625 -2.84375 "/>
</symbol>
<symbol overflow="visible" id="glyph2-0">
<path style="stroke:none;" d=""/>
</symbol>
<symbol overflow="visible" id="glyph2-1">
<path style="stroke:none;" d="M 0 -5.4375 L -8.015625 -5.4375 L -8.015625 -4.53125 L -5.03125 -4.53125 C -5.625 -4.140625 -5.921875 -3.53125 -5.921875 -2.765625 C -5.921875 -1.265625 -4.78125 -0.28125 -2.9375 -0.28125 C -0.984375 -0.28125 0.171875 -1.25 0.171875 -2.796875 C 0.171875 -3.59375 -0.125 -4.140625 -0.84375 -4.625 L 0 -4.625 Z M -2.859375 -4.53125 C -1.53125 -4.53125 -0.6875 -3.890625 -0.6875 -2.921875 C -0.6875 -1.90625 -1.546875 -1.25 -2.875 -1.25 C -4.21875 -1.25 -5.078125 -1.90625 -5.078125 -2.921875 C -5.078125 -3.90625 -4.1875 -4.53125 -2.859375 -4.53125 Z M -2.859375 -4.53125 "/>
</symbol>
<symbol overflow="visible" id="glyph2-2">
<path style="stroke:none;" d="M -2.625 -5.640625 C -3.453125 -5.640625 -3.984375 -5.578125 -4.40625 -5.40625 C -5.359375 -5.03125 -5.921875 -4.15625 -5.921875 -3.078125 C -5.921875 -1.46875 -4.734375 -0.4375 -2.84375 -0.4375 C -0.953125 -0.4375 0.171875 -1.4375 0.171875 -3.0625 C 0.171875 -4.375 -0.578125 -5.296875 -1.75 -5.515625 L -1.75 -4.59375 C -0.984375 -4.34375 -0.6875 -3.828125 -0.6875 -3.09375 C -0.6875 -2.140625 -1.296875 -1.421875 -2.625 -1.390625 Z M -3.4375 -4.65625 C -3.4375 -4.65625 -3.390625 -4.65625 -3.359375 -4.65625 L -3.359375 -1.421875 C -4.390625 -1.5 -5.078125 -2.140625 -5.078125 -3.0625 C -5.078125 -3.96875 -4.328125 -4.65625 -3.4375 -4.65625 Z M -3.4375 -4.65625 "/>
</symbol>
<symbol overflow="visible" id="glyph2-3">
<path style="stroke:none;" d="M 0 -5.359375 L -4.359375 -5.359375 C -5.3125 -5.359375 -5.921875 -4.640625 -5.921875 -3.53125 C -5.921875 -2.671875 -5.59375 -2.125 -4.796875 -1.609375 L -5.765625 -1.609375 L -5.765625 -0.765625 L 0 -0.765625 L 0 -1.6875 L -3.171875 -1.6875 C -4.359375 -1.6875 -5.125 -2.328125 -5.125 -3.25 C -5.125 -3.984375 -4.6875 -4.4375 -4 -4.4375 L 0 -4.4375 Z M 0 -5.359375 "/>
</symbol>
<symbol overflow="visible" id="glyph2-4">
<path style="stroke:none;" d="M -1.609375 -5.046875 C -2.46875 -5.046875 -2.90625 -4.5625 -3.171875 -3.421875 L -3.390625 -2.546875 C -3.5625 -1.796875 -3.8125 -1.46875 -4.21875 -1.46875 C -4.734375 -1.46875 -5.078125 -1.953125 -5.078125 -2.6875 C -5.078125 -3.4375 -4.765625 -3.828125 -4.15625 -3.84375 L -4.15625 -4.8125 C -5.296875 -4.8125 -5.921875 -4.0625 -5.921875 -2.734375 C -5.921875 -1.390625 -5.234375 -0.515625 -4.171875 -0.515625 C -3.265625 -0.515625 -2.84375 -0.984375 -2.515625 -2.34375 L -2.296875 -3.203125 C -2.140625 -3.84375 -1.953125 -4.09375 -1.546875 -4.09375 C -1 -4.09375 -0.6875 -3.546875 -0.6875 -2.75 C -0.6875 -1.921875 -0.875 -1.46875 -1.765625 -1.34375 L -1.765625 -0.375 C -0.421875 -0.421875 0.171875 -1.171875 0.171875 -2.671875 C 0.171875 -4.125 -0.5 -5.046875 -1.609375 -5.046875 Z M -1.609375 -5.046875 "/>
</symbol>
<symbol overflow="visible" id="glyph2-5">
<path style="stroke:none;" d="M 0 -1.6875 L -5.765625 -1.6875 L -5.765625 -0.765625 L 0 -0.765625 Z M -6.640625 -1.796875 L -7.78125 -1.796875 L -7.78125 -0.65625 L -6.640625 -0.65625 Z M -6.640625 -1.796875 "/>
</symbol>
<symbol overflow="visible" id="glyph2-6">
<path style="stroke:none;" d="M 0 -2.796875 L -0.765625 -2.796875 C -0.734375 -2.671875 -0.71875 -2.53125 -0.71875 -2.359375 C -0.71875 -1.953125 -0.84375 -1.84375 -1.25 -1.84375 L -5.015625 -1.84375 L -5.015625 -2.796875 L -5.765625 -2.796875 L -5.765625 -1.84375 L -7.34375 -1.84375 L -7.34375 -0.9375 L -5.765625 -0.9375 L -5.765625 -0.15625 L -5.015625 -0.15625 L -5.015625 -0.9375 L -0.84375 -0.9375 C -0.25 -0.9375 0.078125 -1.328125 0.078125 -2.046875 C 0.078125 -2.265625 0.0625 -2.484375 0 -2.796875 Z M 0 -2.796875 "/>
</symbol>
<symbol overflow="visible" id="glyph2-7">
<path style="stroke:none;" d="M -5.765625 -5.265625 L -5.765625 -4.265625 L -1.28125 -2.671875 L -5.765625 -1.203125 L -5.765625 -0.21875 L 0.015625 -2.171875 L 0.9375 -1.8125 C 1.34375 -1.65625 1.5 -1.46875 1.5 -1.078125 C 1.5 -0.953125 1.46875 -0.796875 1.4375 -0.59375 L 2.25 -0.59375 C 2.359375 -0.78125 2.390625 -0.96875 2.390625 -1.203125 C 2.390625 -1.859375 2.03125 -2.390625 1.203125 -2.6875 Z M -5.765625 -5.265625 "/>
</symbol>
<symbol overflow="visible" id="glyph3-0">
<path style="stroke:none;" d=""/>
</symbol>
<symbol overflow="visible" id="glyph3-1">
<path style="stroke:none;" d="M 8.8125 -4.8125 C 8.8125 -7.796875 7.328125 -9.625 4.890625 -9.625 L 1.171875 -9.625 L 1.171875 0 L 4.890625 0 C 7.3125 0 8.8125 -1.828125 8.8125 -4.8125 Z M 7.578125 -4.8125 C 7.578125 -2.375 6.578125 -1.078125 4.671875 -1.078125 L 2.40625 -1.078125 L 2.40625 -8.546875 L 4.671875 -8.546875 C 6.578125 -8.546875 7.578125 -7.265625 7.578125 -4.8125 Z M 7.578125 -4.8125 "/>
</symbol>
<symbol overflow="visible" id="glyph3-2">
<path style="stroke:none;" d="M 2.015625 0 L 2.015625 -6.921875 L 0.921875 -6.921875 L 0.921875 0 Z M 2.171875 -7.96875 L 2.171875 -9.328125 L 0.796875 -9.328125 L 0.796875 -7.96875 Z M 2.171875 -7.96875 "/>
</symbol>
<symbol overflow="visible" id="glyph3-3">
<path style="stroke:none;" d="M 6.0625 -1.9375 C 6.0625 -2.96875 5.484375 -3.484375 4.109375 -3.8125 L 3.046875 -4.0625 C 2.15625 -4.28125 1.765625 -4.5625 1.765625 -5.0625 C 1.765625 -5.6875 2.34375 -6.09375 3.234375 -6.09375 C 4.125 -6.09375 4.59375 -5.71875 4.625 -4.984375 L 5.78125 -4.984375 C 5.765625 -6.34375 4.875 -7.109375 3.28125 -7.109375 C 1.65625 -7.109375 0.625 -6.28125 0.625 -5 C 0.625 -3.921875 1.171875 -3.40625 2.8125 -3.015625 L 3.84375 -2.765625 C 4.609375 -2.578125 4.90625 -2.34375 4.90625 -1.84375 C 4.90625 -1.203125 4.265625 -0.8125 3.296875 -0.8125 C 2.3125 -0.8125 1.75 -1.0625 1.609375 -2.109375 L 0.453125 -2.109375 C 0.5 -0.515625 1.40625 0.203125 3.203125 0.203125 C 4.953125 0.203125 6.0625 -0.609375 6.0625 -1.9375 Z M 6.0625 -1.9375 "/>
</symbol>
<symbol overflow="visible" id="glyph3-4">
<path style="stroke:none;" d="M 3.359375 0 L 3.359375 -0.921875 C 3.203125 -0.890625 3.03125 -0.875 2.828125 -0.875 C 2.34375 -0.875 2.21875 -1 2.21875 -1.484375 L 2.21875 -6.015625 L 3.359375 -6.015625 L 3.359375 -6.921875 L 2.21875 -6.921875 L 2.21875 -8.8125 L 1.125 -8.8125 L 1.125 -6.921875 L 0.1875 -6.921875 L 0.1875 -6.015625 L 1.125 -6.015625 L 1.125 -1 C 1.125 -0.296875 1.59375 0.09375 2.453125 0.09375 C 2.71875 0.09375 2.984375 0.0625 3.359375 0 Z M 3.359375 0 "/>
</symbol>
<symbol overflow="visible" id="glyph3-5">
<path style="stroke:none;" d="M 4.234375 -5.953125 L 4.234375 -7.078125 C 4.046875 -7.109375 3.96875 -7.109375 3.8125 -7.109375 C 3.109375 -7.109375 2.5625 -6.6875 1.921875 -5.671875 L 1.921875 -6.921875 L 0.921875 -6.921875 L 0.921875 0 L 2.015625 0 L 2.015625 -3.59375 C 2.015625 -5.15625 2.53125 -5.921875 4.234375 -5.953125 Z M 4.234375 -5.953125 "/>
</symbol>
<symbol overflow="visible" id="glyph3-6">
<path style="stroke:none;" d="M 6.90625 -3.53125 C 6.90625 -5.78125 5.765625 -7.109375 3.953125 -7.109375 C 3 -7.109375 2.328125 -6.765625 1.8125 -5.984375 L 1.8125 -9.625 L 0.71875 -9.625 L 0.71875 0 L 1.703125 0 L 1.703125 -0.984375 C 2.234375 -0.1875 2.9375 0.203125 3.890625 0.203125 C 5.71875 0.203125 6.90625 -1.296875 6.90625 -3.53125 Z M 5.75 -3.46875 C 5.75 -1.90625 4.9375 -0.828125 3.734375 -0.828125 C 2.578125 -0.828125 1.8125 -1.890625 1.8125 -3.453125 C 1.8125 -5.078125 2.578125 -6.140625 3.734375 -6.09375 C 4.96875 -6.09375 5.75 -5.015625 5.75 -3.46875 Z M 5.75 -3.46875 "/>
</symbol>
<symbol overflow="visible" id="glyph3-7">
<path style="stroke:none;" d="M 6.359375 0 L 6.359375 -6.921875 L 5.265625 -6.921875 L 5.265625 -3.109375 C 5.265625 -1.6875 4.53125 -0.765625 3.375 -0.765625 C 2.515625 -0.765625 1.953125 -1.296875 1.953125 -2.125 L 1.953125 -6.921875 L 0.859375 -6.921875 L 0.859375 -1.6875 C 0.859375 -0.546875 1.71875 0.203125 3.0625 0.203125 C 4.078125 0.203125 4.734375 -0.15625 5.375 -1.0625 L 5.375 0 Z M 6.359375 0 "/>
</symbol>
<symbol overflow="visible" id="glyph3-8">
<path style="stroke:none;" d="M 6.296875 -2.375 L 5.1875 -2.375 C 5 -1.265625 4.4375 -0.8125 3.5 -0.8125 C 2.28125 -0.8125 1.5625 -1.75 1.5625 -3.390625 C 1.5625 -5.125 2.265625 -6.09375 3.46875 -6.09375 C 4.390625 -6.09375 4.984375 -5.5625 5.109375 -4.59375 L 6.21875 -4.59375 C 6.09375 -6.28125 5.03125 -7.109375 3.484375 -7.109375 C 1.625 -7.109375 0.40625 -5.6875 0.40625 -3.390625 C 0.40625 -1.15625 1.59375 0.203125 3.46875 0.203125 C 5.125 0.203125 6.171875 -0.796875 6.296875 -2.375 Z M 6.296875 -2.375 "/>
</symbol>
<symbol overflow="visible" id="glyph3-9">
<path style="stroke:none;" d="M 6.734375 -3.40625 C 6.734375 -5.796875 5.578125 -7.109375 3.59375 -7.109375 C 1.65625 -7.109375 0.46875 -5.78125 0.46875 -3.453125 C 0.46875 -1.140625 1.640625 0.203125 3.609375 0.203125 C 5.546875 0.203125 6.734375 -1.140625 6.734375 -3.40625 Z M 5.578125 -3.421875 C 5.578125 -1.796875 4.8125 -0.8125 3.609375 -0.8125 C 2.375 -0.8125 1.625 -1.78125 1.625 -3.453125 C 1.625 -5.125 2.375 -6.09375 3.609375 -6.09375 C 4.84375 -6.09375 5.578125 -5.140625 5.578125 -3.421875 Z M 5.578125 -3.421875 "/>
</symbol>
<symbol overflow="visible" id="glyph3-10">
<path style="stroke:none;" d="M 6.4375 0 L 6.4375 -5.234375 C 6.4375 -6.375 5.578125 -7.109375 4.234375 -7.109375 C 3.203125 -7.109375 2.546875 -6.71875 1.9375 -5.75 L 1.9375 -6.921875 L 0.921875 -6.921875 L 0.921875 0 L 2.015625 0 L 2.015625 -3.8125 C 2.015625 -5.234375 2.78125 -6.15625 3.90625 -6.15625 C 4.78125 -6.15625 5.328125 -5.625 5.328125 -4.796875 L 5.328125 0 Z M 6.4375 0 "/>
</symbol>
<symbol overflow="visible" id="glyph3-11">
<path style="stroke:none;" d="M 6.765625 -3.140625 C 6.765625 -4.140625 6.6875 -4.78125 6.5 -5.296875 C 6.046875 -6.4375 4.984375 -7.109375 3.703125 -7.109375 C 1.765625 -7.109375 0.53125 -5.6875 0.53125 -3.421875 C 0.53125 -1.15625 1.734375 0.203125 3.671875 0.203125 C 5.25 0.203125 6.34375 -0.703125 6.625 -2.09375 L 5.515625 -2.09375 C 5.21875 -1.1875 4.59375 -0.8125 3.703125 -0.8125 C 2.5625 -0.8125 1.703125 -1.5625 1.671875 -3.140625 Z M 5.59375 -4.125 C 5.59375 -4.125 5.59375 -4.0625 5.578125 -4.046875 L 1.703125 -4.046875 C 1.796875 -5.265625 2.578125 -6.09375 3.6875 -6.09375 C 4.765625 -6.09375 5.59375 -5.203125 5.59375 -4.125 Z M 5.59375 -4.125 "/>
</symbol>
<symbol overflow="visible" id="glyph3-12">
<path style="stroke:none;" d=""/>
</symbol>
<symbol overflow="visible" id="glyph3-13">
<path style="stroke:none;" d="M 6.53125 0 L 6.53125 -9.625 L 5.4375 -9.625 L 5.4375 -6.046875 C 4.984375 -6.75 4.234375 -7.109375 3.3125 -7.109375 C 1.515625 -7.109375 0.34375 -5.734375 0.34375 -3.53125 C 0.34375 -1.1875 1.484375 0.203125 3.359375 0.203125 C 4.296875 0.203125 4.96875 -0.15625 5.5625 -1.015625 L 5.5625 0 Z M 5.4375 -3.4375 C 5.4375 -1.828125 4.671875 -0.828125 3.515625 -0.828125 C 2.296875 -0.828125 1.484375 -1.84375 1.484375 -3.453125 C 1.484375 -5.0625 2.296875 -6.09375 3.5 -6.09375 C 4.6875 -6.09375 5.4375 -5.03125 5.4375 -3.4375 Z M 5.4375 -3.4375 "/>
</symbol>
<symbol overflow="visible" id="glyph3-14">
<path style="stroke:none;" d="M 2 0 L 2 -9.625 L 0.890625 -9.625 L 0.890625 0 Z M 2 0 "/>
</symbol>
<symbol overflow="visible" id="glyph3-15">
<path style="stroke:none;" d="M 6.90625 -3.390625 C 6.90625 -5.71875 5.765625 -7.109375 3.9375 -7.109375 C 3 -7.109375 2.25 -6.6875 1.734375 -5.875 L 1.734375 -6.921875 L 0.71875 -6.921875 L 0.71875 2.875 L 1.828125 2.875 L 1.828125 -0.828125 C 2.40625 -0.125 3.046875 0.203125 3.953125 0.203125 C 5.734375 0.203125 6.90625 -1.1875 6.90625 -3.390625 Z M 5.75 -3.421875 C 5.75 -1.84375 4.953125 -0.828125 3.75 -0.828125 C 2.59375 -0.828125 1.828125 -1.78125 1.828125 -3.40625 C 1.828125 -5.03125 2.59375 -6.09375 3.75 -6.09375 C 4.96875 -6.09375 5.75 -5.0625 5.75 -3.421875 Z M 5.75 -3.421875 "/>
</symbol>
<symbol overflow="visible" id="glyph3-16">
<path style="stroke:none;" d="M 10.03125 0 L 10.03125 -5.1875 C 10.03125 -6.4375 9.34375 -7.109375 8.046875 -7.109375 C 7.125 -7.109375 6.578125 -6.84375 5.921875 -6.0625 C 5.515625 -6.796875 4.96875 -7.109375 4.0625 -7.109375 C 3.140625 -7.109375 2.53125 -6.765625 1.9375 -5.9375 L 1.9375 -6.921875 L 0.9375 -6.921875 L 0.9375 0 L 2.03125 0 L 2.03125 -4.34375 C 2.03125 -5.34375 2.765625 -6.15625 3.65625 -6.15625 C 4.46875 -6.15625 4.9375 -5.65625 4.9375 -4.765625 L 4.9375 0 L 6.03125 0 L 6.03125 -4.34375 C 6.03125 -5.34375 6.765625 -6.15625 7.671875 -6.15625 C 8.46875 -6.15625 8.9375 -5.640625 8.9375 -4.765625 L 8.9375 0 Z M 10.03125 0 "/>
</symbol>
<symbol overflow="visible" id="glyph3-17">
<path style="stroke:none;" d="M 7.0625 -0.03125 L 7.0625 -0.859375 C 6.9375 -0.828125 6.890625 -0.828125 6.828125 -0.828125 C 6.4375 -0.828125 6.234375 -1.03125 6.234375 -1.375 L 6.234375 -5.234375 C 6.234375 -6.453125 5.328125 -7.109375 3.625 -7.109375 C 1.953125 -7.109375 0.921875 -6.46875 0.859375 -4.875 L 1.96875 -4.875 C 2.0625 -5.71875 2.5625 -6.09375 3.59375 -6.09375 C 4.578125 -6.09375 5.140625 -5.734375 5.140625 -5.0625 L 5.140625 -4.78125 C 5.140625 -4.3125 4.859375 -4.125 3.984375 -4.015625 C 2.421875 -3.8125 2.1875 -3.765625 1.765625 -3.59375 C 0.96875 -3.265625 0.546875 -2.640625 0.546875 -1.796875 C 0.546875 -0.546875 1.421875 0.203125 2.828125 0.203125 C 3.703125 0.203125 4.5625 -0.171875 5.171875 -0.8125 C 5.296875 -0.296875 5.765625 0.09375 6.3125 0.09375 C 6.53125 0.09375 6.703125 0.0625 7.0625 -0.03125 Z M 5.140625 -2.390625 C 5.140625 -1.40625 4.125 -0.765625 3.0625 -0.765625 C 2.203125 -0.765625 1.703125 -1.0625 1.703125 -1.828125 C 1.703125 -2.546875 2.1875 -2.859375 3.359375 -3.03125 C 4.53125 -3.1875 4.765625 -3.25 5.140625 -3.421875 Z M 5.140625 -2.390625 "/>
</symbol>
<symbol overflow="visible" id="glyph3-18">
<path style="stroke:none;" d="M 6.453125 -1.140625 L 6.453125 -6.921875 L 5.4375 -6.921875 L 5.4375 -5.921875 C 4.890625 -6.734375 4.21875 -7.109375 3.328125 -7.109375 C 1.578125 -7.109375 0.390625 -5.640625 0.390625 -3.390625 C 0.390625 -1.21875 1.609375 0.203125 3.234375 0.203125 C 4.109375 0.203125 4.71875 -0.171875 5.4375 -1.046875 L 5.4375 -0.578125 C 5.4375 1.25 4.6875 1.953125 3.40625 1.953125 C 2.53125 1.953125 1.859375 1.640625 1.734375 0.796875 L 0.609375 0.796875 C 0.71875 2.09375 1.75 2.875 3.359375 2.875 C 5.53125 2.875 6.453125 1.921875 6.453125 -1.140625 Z M 5.328125 -3.421875 C 5.328125 -1.765625 4.625 -0.8125 3.453125 -0.8125 C 2.25 -0.8125 1.53125 -1.78125 1.53125 -3.453125 C 1.53125 -5.125 2.265625 -6.09375 3.453125 -6.09375 C 4.640625 -6.09375 5.328125 -5.09375 5.328125 -3.421875 Z M 5.328125 -3.421875 "/>
</symbol>
<symbol overflow="visible" id="glyph3-19">
<path style="stroke:none;" d="M 6.359375 0 L 6.359375 -6.921875 L 5.265625 -6.921875 L 5.265625 -3.109375 C 5.265625 -1.6875 4.53125 -0.765625 3.375 -0.765625 C 2.515625 -0.765625 1.953125 -1.296875 1.953125 -2.125 L 1.953125 -6.921875 L 0.859375 -6.921875 L 0.859375 -1.6875 C 0.859375 -0.546875 1.71875 0.203125 3.0625 0.203125 C 4.078125 0.203125 4.734375 -0.15625 5.375 -1.0625 L 5.375 0 Z M 6.03125 -9.625 L 4.546875 -9.625 L 3.28125 -7.671875 L 4.0625 -7.671875 Z M 6.03125 -9.625 "/>
</symbol>
<symbol overflow="visible" id="glyph3-20">
<path style="stroke:none;" d="M 9.359375 0 L 9.359375 -5.078125 L 5.34375 -5.078125 L 5.34375 -4 L 8.28125 -4 L 8.28125 -3.734375 C 8.28125 -2.015625 7.015625 -0.84375 5.25 -0.84375 C 3.078125 -0.84375 1.8125 -2.421875 1.8125 -4.78125 C 1.8125 -7.140625 3.15625 -8.78125 5.1875 -8.78125 C 6.65625 -8.78125 7.703125 -7.953125 7.96875 -6.703125 L 9.234375 -6.703125 C 8.890625 -8.65625 7.40625 -9.859375 5.203125 -9.859375 C 2.25 -9.859375 0.578125 -7.59375 0.578125 -4.71875 C 0.578125 -1.75 2.390625 0.234375 4.984375 0.234375 C 6.296875 0.234375 7.34375 -0.21875 8.28125 -1.265625 L 8.578125 0 Z M 9.359375 0 "/>
</symbol>
</g>
<clipPath id="clip1">
  <path d="M 42.789062 23.597656 L 505 23.597656 L 505 398 L 42.789062 398 Z M 42.789062 23.597656 "/>
</clipPath>
<clipPath id="clip2">
  <path d="M 42.789062 338 L 505.828125 338 L 505.828125 340 L 42.789062 340 Z M 42.789062 338 "/>
</clipPath>
<clipPath id="clip3">
  <path d="M 42.789062 255 L 505.828125 255 L 505.828125 257 L 42.789062 257 Z M 42.789062 255 "/>
</clipPath>
<clipPath id="clip4">
  <path d="M 42.789062 172 L 505.828125 172 L 505.828125 174 L 42.789062 174 Z M 42.789062 172 "/>
</clipPath>
<clipPath id="clip5">
  <path d="M 42.789062 89 L 505.828125 89 L 505.828125 91 L 42.789062 91 Z M 42.789062 89 "/>
</clipPath>
<clipPath id="clip6">
  <path d="M 53 23.597656 L 54 23.597656 L 54 398 L 53 398 Z M 53 23.597656 "/>
</clipPath>
<clipPath id="clip7">
  <path d="M 156 23.597656 L 157 23.597656 L 157 398 L 156 398 Z M 156 23.597656 "/>
</clipPath>
<clipPath id="clip8">
  <path d="M 259 23.597656 L 260 23.597656 L 260 398 L 259 398 Z M 259 23.597656 "/>
</clipPath>
<clipPath id="clip9">
  <path d="M 362 23.597656 L 364 23.597656 L 364 398 L 362 398 Z M 362 23.597656 "/>
</clipPath>
<clipPath id="clip10">
  <path d="M 465 23.597656 L 467 23.597656 L 467 398 L 465 398 Z M 465 23.597656 "/>
</clipPath>
<clipPath id="clip11">
  <path d="M 42.789062 380 L 505.828125 380 L 505.828125 382 L 42.789062 382 Z M 42.789062 380 "/>
</clipPath>
<clipPath id="clip12">
  <path d="M 42.789062 297 L 505.828125 297 L 505.828125 299 L 42.789062 299 Z M 42.789062 297 "/>
</clipPath>
<clipPath id="clip13">
  <path d="M 42.789062 214 L 505.828125 214 L 505.828125 216 L 42.789062 216 Z M 42.789062 214 "/>
</clipPath>
<clipPath id="clip14">
  <path d="M 42.789062 131 L 505.828125 131 L 505.828125 133 L 42.789062 133 Z M 42.789062 131 "/>
</clipPath>
<clipPath id="clip15">
  <path d="M 42.789062 48 L 505.828125 48 L 505.828125 50 L 42.789062 50 Z M 42.789062 48 "/>
</clipPath>
<clipPath id="clip16">
  <path d="M 104 23.597656 L 106 23.597656 L 106 398.566406 L 104 398.566406 Z M 104 23.597656 "/>
</clipPath>
<clipPath id="clip17">
  <path d="M 207 23.597656 L 209 23.597656 L 209 398.566406 L 207 398.566406 Z M 207 23.597656 "/>
</clipPath>
<clipPath id="clip18">
  <path d="M 310 23.597656 L 312 23.597656 L 312 398.566406 L 310 398.566406 Z M 310 23.597656 "/>
</clipPath>
<clipPath id="clip19">
  <path d="M 413 23.597656 L 416 23.597656 L 416 398.566406 L 413 398.566406 Z M 413 23.597656 "/>
</clipPath>
</defs>
<g id="surface77">
<rect x="0" y="0" width="576" height="432" style="fill:rgb(100%,100%,100%);fill-opacity:1;stroke:none;"/>
<rect x="0" y="0" width="576" height="432" style="fill:rgb(100%,100%,100%);fill-opacity:1;stroke:none;"/>
<path style="fill:none;stroke-width:1.066978;stroke-linecap:round;stroke-linejoin:round;stroke:rgb(100%,100%,100%);stroke-opacity:1;stroke-miterlimit:10;" d="M 0 432 L 576 432 L 576 0 L 0 0 Z M 0 432 "/>
<g clip-path="url(#clip1)" clip-rule="nonzero">
<path style=" stroke:none;fill-rule:nonzero;fill:rgb(92.156863%,92.156863%,92.156863%);fill-opacity:1;" d="M 42.789062 397.570312 L 504.828125 397.570312 L 504.828125 23.601562 L 42.789062 23.601562 Z M 42.789062 397.570312 "/>
</g>
<g clip-path="url(#clip2)" clip-rule="nonzero">
<path style="fill:none;stroke-width:0.533489;stroke-linecap:butt;stroke-linejoin:round;stroke:rgb(100%,100%,100%);stroke-opacity:1;stroke-miterlimit:10;" d="M 42.789062 339.089844 L 504.828125 339.089844 "/>
</g>
<g clip-path="url(#clip3)" clip-rule="nonzero">
<path style="fill:none;stroke-width:0.533489;stroke-linecap:butt;stroke-linejoin:round;stroke:rgb(100%,100%,100%);stroke-opacity:1;stroke-miterlimit:10;" d="M 42.789062 256.132812 L 504.828125 256.132812 "/>
</g>
<g clip-path="url(#clip4)" clip-rule="nonzero">
<path style="fill:none;stroke-width:0.533489;stroke-linecap:butt;stroke-linejoin:round;stroke:rgb(100%,100%,100%);stroke-opacity:1;stroke-miterlimit:10;" d="M 42.789062 173.171875 L 504.828125 173.171875 "/>
</g>
<g clip-path="url(#clip5)" clip-rule="nonzero">
<path style="fill:none;stroke-width:0.533489;stroke-linecap:butt;stroke-linejoin:round;stroke:rgb(100%,100%,100%);stroke-opacity:1;stroke-miterlimit:10;" d="M 42.789062 90.210938 L 504.828125 90.210938 "/>
</g>
<g clip-path="url(#clip6)" clip-rule="nonzero">
<path style="fill:none;stroke-width:0.533489;stroke-linecap:butt;stroke-linejoin:round;stroke:rgb(100%,100%,100%);stroke-opacity:1;stroke-miterlimit:10;" d="M 53.34375 397.570312 L 53.34375 23.597656 "/>
</g>
<g clip-path="url(#clip7)" clip-rule="nonzero">
<path style="fill:none;stroke-width:0.533489;stroke-linecap:butt;stroke-linejoin:round;stroke:rgb(100%,100%,100%);stroke-opacity:1;stroke-miterlimit:10;" d="M 156.539062 397.570312 L 156.539062 23.597656 "/>
</g>
<g clip-path="url(#clip8)" clip-rule="nonzero">
<path style="fill:none;stroke-width:0.533489;stroke-linecap:butt;stroke-linejoin:round;stroke:rgb(100%,100%,100%);stroke-opacity:1;stroke-miterlimit:10;" d="M 259.730469 397.570312 L 259.730469 23.597656 "/>
</g>
<g clip-path="url(#clip9)" clip-rule="nonzero">
<path style="fill:none;stroke-width:0.533489;stroke-linecap:butt;stroke-linejoin:round;stroke:rgb(100%,100%,100%);stroke-opacity:1;stroke-miterlimit:10;" d="M 362.921875 397.570312 L 362.921875 23.597656 "/>
</g>
<g clip-path="url(#clip10)" clip-rule="nonzero">
<path style="fill:none;stroke-width:0.533489;stroke-linecap:butt;stroke-linejoin:round;stroke:rgb(100%,100%,100%);stroke-opacity:1;stroke-miterlimit:10;" d="M 466.117188 397.570312 L 466.117188 23.597656 "/>
</g>
<g clip-path="url(#clip11)" clip-rule="nonzero">
<path style="fill:none;stroke-width:1.066978;stroke-linecap:butt;stroke-linejoin:round;stroke:rgb(100%,100%,100%);stroke-opacity:1;stroke-miterlimit:10;" d="M 42.789062 380.570312 L 504.828125 380.570312 "/>
</g>
<g clip-path="url(#clip12)" clip-rule="nonzero">
<path style="fill:none;stroke-width:1.066978;stroke-linecap:butt;stroke-linejoin:round;stroke:rgb(100%,100%,100%);stroke-opacity:1;stroke-miterlimit:10;" d="M 42.789062 297.609375 L 504.828125 297.609375 "/>
</g>
<g clip-path="url(#clip13)" clip-rule="nonzero">
<path style="fill:none;stroke-width:1.066978;stroke-linecap:butt;stroke-linejoin:round;stroke:rgb(100%,100%,100%);stroke-opacity:1;stroke-miterlimit:10;" d="M 42.789062 214.652344 L 504.828125 214.652344 "/>
</g>
<g clip-path="url(#clip14)" clip-rule="nonzero">
<path style="fill:none;stroke-width:1.066978;stroke-linecap:butt;stroke-linejoin:round;stroke:rgb(100%,100%,100%);stroke-opacity:1;stroke-miterlimit:10;" d="M 42.789062 131.691406 L 504.828125 131.691406 "/>
</g>
<g clip-path="url(#clip15)" clip-rule="nonzero">
<path style="fill:none;stroke-width:1.066978;stroke-linecap:butt;stroke-linejoin:round;stroke:rgb(100%,100%,100%);stroke-opacity:1;stroke-miterlimit:10;" d="M 42.789062 48.730469 L 504.828125 48.730469 "/>
</g>
<g clip-path="url(#clip16)" clip-rule="nonzero">
<path style="fill:none;stroke-width:1.066978;stroke-linecap:butt;stroke-linejoin:round;stroke:rgb(100%,100%,100%);stroke-opacity:1;stroke-miterlimit:10;" d="M 104.941406 397.570312 L 104.941406 23.597656 "/>
</g>
<g clip-path="url(#clip17)" clip-rule="nonzero">
<path style="fill:none;stroke-width:1.066978;stroke-linecap:butt;stroke-linejoin:round;stroke:rgb(100%,100%,100%);stroke-opacity:1;stroke-miterlimit:10;" d="M 208.132812 397.570312 L 208.132812 23.597656 "/>
</g>
<g clip-path="url(#clip18)" clip-rule="nonzero">
<path style="fill:none;stroke-width:1.066978;stroke-linecap:butt;stroke-linejoin:round;stroke:rgb(100%,100%,100%);stroke-opacity:1;stroke-miterlimit:10;" d="M 311.328125 397.570312 L 311.328125 23.597656 "/>
</g>
<g clip-path="url(#clip19)" clip-rule="nonzero">
<path style="fill:none;stroke-width:1.066978;stroke-linecap:butt;stroke-linejoin:round;stroke:rgb(100%,100%,100%);stroke-opacity:1;stroke-miterlimit:10;" d="M 414.519531 397.570312 L 414.519531 23.597656 "/>
</g>
<path style="fill-rule:nonzero;fill:rgb(97.254902%,46.27451%,42.745098%);fill-opacity:0.501961;stroke-width:1.066978;stroke-linecap:round;stroke-linejoin:round;stroke:rgb(100%,100%,100%);stroke-opacity:1;stroke-miterlimit:10;" d="M 63.792969 380.570312 L 214.214844 380.570312 L 215.039062 380.566406 L 216.679688 380.566406 L 217.503906 380.5625 L 218.324219 380.558594 L 219.148438 380.554688 L 219.96875 380.550781 L 220.792969 380.542969 L 222.433594 380.519531 L 223.257812 380.507812 L 224.078125 380.488281 L 224.902344 380.464844 L 225.722656 380.4375 L 226.546875 380.402344 L 227.367188 380.359375 L 228.1875 380.308594 L 229.011719 380.25 L 229.832031 380.183594 L 230.65625 380.105469 L 231.476562 380.015625 L 232.300781 379.914062 L 233.121094 379.800781 L 233.941406 379.671875 L 234.765625 379.535156 L 235.585938 379.386719 L 236.410156 379.226562 L 237.230469 379.058594 L 238.054688 378.875 L 238.875 378.683594 L 239.695312 378.484375 L 240.519531 378.277344 L 241.339844 378.066406 L 242.164062 377.84375 L 242.984375 377.617188 L 243.808594 377.382812 L 244.628906 377.136719 L 245.449219 376.882812 L 246.273438 376.613281 L 247.09375 376.328125 L 247.917969 376.023438 L 248.738281 375.691406 L 249.5625 375.328125 L 250.382812 374.921875 L 251.203125 374.464844 L 252.027344 373.953125 L 252.847656 373.382812 L 253.671875 372.738281 L 254.492188 372.015625 L 255.316406 371.203125 L 256.136719 370.28125 L 256.957031 369.253906 L 257.78125 368.113281 L 258.601562 366.859375 L 259.425781 365.484375 L 260.246094 363.988281 L 261.070312 362.371094 L 261.890625 360.625 L 262.710938 358.75 L 263.535156 356.761719 L 264.355469 354.667969 L 265.179688 352.480469 L 266 350.199219 L 266.824219 347.84375 L 267.644531 345.414062 L 268.464844 342.921875 L 269.289062 340.390625 L 270.109375 337.824219 L 270.933594 335.242188 L 271.753906 332.648438 L 272.578125 330.054688 L 273.398438 327.472656 L 274.21875 324.910156 L 275.042969 322.371094 L 275.863281 319.867188 L 276.6875 317.390625 L 277.507812 314.945312 L 278.332031 312.535156 L 279.152344 310.144531 L 279.972656 307.777344 L 280.796875 305.425781 L 281.617188 303.070312 L 282.441406 300.699219 L 283.261719 298.304688 L 284.085938 295.867188 L 284.90625 293.382812 L 285.726562 290.828125 L 286.550781 288.1875 L 287.371094 285.449219 L 288.195312 282.613281 L 289.015625 279.671875 L 289.839844 276.625 L 290.660156 273.464844 L 291.480469 270.203125 L 292.304688 266.839844 L 293.125 263.367188 L 293.949219 259.808594 L 294.769531 256.175781 L 295.59375 252.480469 L 296.414062 248.730469 L 297.234375 244.929688 L 298.058594 241.09375 L 298.878906 237.222656 L 299.703125 233.328125 L 300.523438 229.421875 L 301.347656 225.503906 L 302.167969 221.589844 L 302.988281 217.683594 L 303.8125 213.796875 L 304.632812 209.945312 L 305.457031 206.15625 L 306.277344 202.445312 L 307.101562 198.832031 L 307.921875 195.351562 L 308.742188 192.03125 L 309.566406 188.902344 L 310.386719 185.992188 L 311.210938 183.378906 L 312.03125 181.078125 L 312.855469 179.097656 L 313.675781 177.460938 L 314.496094 176.183594 L 315.320312 175.269531 L 316.140625 174.71875 L 316.964844 174.542969 L 317.785156 174.746094 L 318.609375 175.253906 L 319.429688 176.03125 L 320.25 177.042969 L 321.074219 178.242188 L 321.894531 179.585938 L 322.71875 181.03125 L 323.539062 182.539062 L 324.363281 184.050781 L 325.183594 185.53125 L 326.003906 186.957031 L 326.828125 188.308594 L 327.648438 189.570312 L 328.472656 190.742188 L 329.292969 191.816406 L 330.117188 192.796875 L 330.9375 193.71875 L 331.757812 194.597656 L 332.582031 195.457031 L 333.402344 196.320312 L 334.226562 197.214844 L 335.046875 198.15625 L 335.871094 199.183594 L 336.691406 200.3125 L 337.511719 201.546875 L 338.335938 202.890625 L 339.15625 204.347656 L 339.980469 205.921875 L 340.800781 207.597656 L 341.625 209.375 L 342.445312 211.242188 L 343.265625 213.167969 L 344.089844 215.136719 L 344.910156 217.128906 L 345.734375 219.132812 L 346.554688 221.128906 L 347.378906 223.105469 L 348.199219 225.042969 L 349.019531 226.933594 L 349.84375 228.78125 L 350.664062 230.578125 L 351.488281 232.328125 L 352.308594 234.039062 L 353.132812 235.710938 L 353.953125 237.351562 L 354.773438 238.976562 L 355.597656 240.601562 L 356.417969 242.234375 L 357.242188 243.894531 L 358.0625 245.585938 L 358.886719 247.328125 L 359.707031 249.128906 L 360.527344 251.015625 L 361.351562 252.992188 L 362.171875 255.0625 L 362.996094 257.238281 L 363.816406 259.523438 L 364.640625 261.929688 L 365.460938 264.453125 L 366.28125 267.113281 L 367.105469 269.914062 L 367.925781 272.835938 L 368.75 275.875 L 369.570312 279.03125 L 370.394531 282.285156 L 371.214844 285.628906 L 372.035156 289.054688 L 372.859375 292.539062 L 373.679688 296.054688 L 374.503906 299.574219 L 375.324219 303.078125 L 376.148438 306.539062 L 376.96875 309.925781 L 377.789062 313.21875 L 378.613281 316.378906 L 379.433594 319.371094 L 380.257812 322.195312 L 381.078125 324.832031 L 381.902344 327.269531 L 382.722656 329.496094 L 383.542969 331.515625 L 384.367188 333.316406 L 385.1875 334.878906 L 386.011719 336.25 L 386.832031 337.4375 L 387.65625 338.464844 L 388.476562 339.34375 L 389.296875 340.097656 L 390.121094 340.742188 L 390.941406 341.296875 L 391.765625 341.789062 L 392.585938 342.238281 L 393.410156 342.667969 L 394.230469 343.089844 L 395.050781 343.515625 L 395.875 343.960938 L 396.695312 344.429688 L 397.519531 344.941406 L 398.339844 345.488281 L 399.164062 346.085938 L 399.984375 346.722656 L 400.804688 347.410156 L 401.628906 348.144531 L 402.449219 348.925781 L 403.273438 349.753906 L 404.09375 350.628906 L 404.917969 351.546875 L 405.738281 352.496094 L 406.558594 353.480469 L 407.382812 354.492188 L 408.203125 355.527344 L 409.027344 356.578125 L 409.847656 357.644531 L 410.671875 358.714844 L 411.492188 359.78125 L 412.3125 360.839844 L 413.136719 361.882812 L 413.957031 362.902344 L 414.78125 363.898438 L 415.601562 364.859375 L 416.425781 365.777344 L 417.246094 366.660156 L 418.066406 367.496094 L 418.890625 368.292969 L 419.710938 369.042969 L 420.535156 369.75 L 421.355469 370.410156 L 422.175781 371.023438 L 423 371.59375 L 423.820312 372.128906 L 424.644531 372.628906 L 425.464844 373.09375 L 426.289062 373.53125 L 427.109375 373.9375 L 427.929688 374.316406 L 428.753906 374.671875 L 429.574219 375.007812 L 430.398438 375.328125 L 431.21875 375.632812 L 432.042969 375.925781 L 432.863281 376.207031 L 433.683594 376.476562 L 434.507812 376.738281 L 435.328125 376.996094 L 436.152344 377.246094 L 436.972656 377.488281 L 437.796875 377.722656 L 438.617188 377.953125 L 439.4375 378.171875 L 440.261719 378.386719 L 441.082031 378.585938 L 441.90625 378.777344 L 442.726562 378.953125 L 443.550781 379.117188 L 444.371094 379.265625 L 445.191406 379.398438 L 446.015625 379.515625 L 446.835938 379.613281 L 447.660156 379.695312 L 448.480469 379.757812 L 449.304688 379.804688 L 450.125 379.835938 L 450.945312 379.851562 L 451.769531 379.851562 L 452.589844 379.839844 L 453.414062 379.816406 L 454.234375 379.78125 L 455.058594 379.746094 L 455.878906 379.703125 L 456.699219 379.65625 L 457.523438 379.609375 L 458.34375 379.566406 L 459.167969 379.527344 L 459.988281 379.492188 L 460.8125 379.464844 L 461.632812 379.445312 L 462.453125 379.429688 L 463.277344 379.425781 L 464.097656 379.429688 L 464.921875 379.441406 L 465.742188 379.457031 L 466.566406 379.480469 L 467.386719 379.503906 L 468.207031 379.53125 L 469.03125 379.558594 L 469.851562 379.582031 L 470.675781 379.605469 L 471.496094 379.621094 L 472.320312 379.628906 L 473.140625 379.632812 L 473.960938 379.628906 L 474.785156 379.621094 L 475.605469 379.605469 L 476.429688 379.585938 L 477.25 379.5625 L 478.074219 379.535156 L 478.894531 379.507812 L 479.714844 379.484375 L 480.539062 379.460938 L 481.359375 379.445312 L 482.183594 379.433594 L 483.003906 379.429688 L 483.828125 379.4375 L 483.828125 380.570312 Z M 63.792969 380.570312 "/>
<path style="fill-rule:nonzero;fill:rgb(72.941176%,53.333333%,50.980392%);fill-opacity:0.501961;stroke-width:1.066978;stroke-linecap:round;stroke-linejoin:round;stroke:rgb(100%,100%,100%);stroke-opacity:1;stroke-miterlimit:10;" d="M 63.792969 380.570312 L 263.535156 380.570312 L 264.355469 380.566406 L 265.179688 380.566406 L 266 380.5625 L 266.824219 380.558594 L 268.464844 380.550781 L 269.289062 380.539062 L 270.109375 380.527344 L 270.933594 380.507812 L 271.753906 380.484375 L 272.578125 380.449219 L 273.398438 380.40625 L 274.21875 380.34375 L 275.042969 380.261719 L 275.863281 380.15625 L 276.6875 380.015625 L 277.507812 379.835938 L 278.332031 379.609375 L 279.152344 379.320312 L 279.972656 378.941406 L 280.796875 378.46875 L 281.617188 377.878906 L 282.441406 377.15625 L 283.261719 376.273438 L 284.085938 375.210938 L 284.90625 373.929688 L 285.726562 372.355469 L 286.550781 370.496094 L 287.371094 368.316406 L 288.195312 365.785156 L 289.015625 362.867188 L 289.839844 359.527344 L 290.660156 355.675781 L 291.480469 351.289062 L 292.304688 346.382812 L 293.125 340.949219 L 293.949219 334.964844 L 294.769531 328.429688 L 295.59375 321.34375 L 296.414062 313.601562 L 297.234375 305.339844 L 298.058594 296.597656 L 298.878906 287.402344 L 299.703125 277.800781 L 300.523438 267.839844 L 301.347656 257.550781 L 302.167969 247.003906 L 302.988281 236.296875 L 303.8125 225.492188 L 304.632812 214.648438 L 305.457031 203.820312 L 306.277344 193.066406 L 307.101562 182.457031 L 307.921875 172.050781 L 308.742188 161.863281 L 309.566406 151.9375 L 310.386719 142.300781 L 311.210938 132.976562 L 312.03125 123.996094 L 312.855469 115.449219 L 313.675781 107.292969 L 314.496094 99.554688 L 315.320312 92.253906 L 316.140625 85.417969 L 316.964844 79.078125 L 317.785156 73.328125 L 318.609375 68.226562 L 319.429688 63.75 L 320.25 59.9375 L 321.074219 56.832031 L 321.894531 54.46875 L 322.71875 52.878906 L 323.539062 52.246094 L 324.363281 52.472656 L 325.183594 53.535156 L 326.003906 55.429688 L 326.828125 58.144531 L 327.648438 61.652344 L 328.472656 65.949219 L 329.292969 71.054688 L 330.117188 76.769531 L 330.9375 83.019531 L 331.757812 89.726562 L 332.582031 96.808594 L 333.402344 104.171875 L 334.226562 111.738281 L 335.046875 119.375 L 335.871094 126.992188 L 336.691406 134.503906 L 337.511719 141.851562 L 338.335938 148.964844 L 339.15625 155.800781 L 339.980469 162.242188 L 340.800781 168.324219 L 341.625 174.039062 L 342.445312 179.386719 L 343.265625 184.386719 L 344.089844 189.046875 L 344.910156 193.382812 L 345.734375 197.421875 L 346.554688 201.25 L 347.378906 204.910156 L 348.199219 208.453125 L 349.019531 211.917969 L 349.84375 215.347656 L 350.664062 218.800781 L 351.488281 222.3125 L 352.308594 225.914062 L 353.132812 229.625 L 353.953125 233.457031 L 354.773438 237.421875 L 355.597656 241.519531 L 356.417969 245.761719 L 357.242188 250.109375 L 358.0625 254.535156 L 358.886719 259.015625 L 359.707031 263.511719 L 360.527344 267.992188 L 361.351562 272.410156 L 362.171875 276.710938 L 362.996094 280.855469 L 363.816406 284.816406 L 364.640625 288.554688 L 365.460938 292.039062 L 366.28125 295.242188 L 367.105469 298.089844 L 367.925781 300.605469 L 368.75 302.792969 L 369.570312 304.660156 L 370.394531 306.21875 L 371.214844 307.484375 L 372.035156 308.46875 L 372.859375 309.179688 L 373.679688 309.707031 L 374.503906 310.09375 L 375.324219 310.382812 L 376.148438 310.617188 L 376.96875 310.847656 L 377.789062 311.125 L 378.613281 311.511719 L 379.433594 312.035156 L 380.257812 312.726562 L 381.078125 313.605469 L 381.902344 314.691406 L 382.722656 315.996094 L 383.542969 317.558594 L 384.367188 319.332031 L 385.1875 321.296875 L 386.011719 323.429688 L 386.832031 325.707031 L 387.65625 328.09375 L 388.476562 330.5625 L 389.296875 333.070312 L 390.121094 335.574219 L 390.941406 338.039062 L 391.765625 340.4375 L 392.585938 342.746094 L 393.410156 344.941406 L 394.230469 346.984375 L 395.050781 348.871094 L 395.875 350.613281 L 396.695312 352.207031 L 397.519531 353.660156 L 398.339844 354.984375 L 399.164062 356.183594 L 399.984375 357.261719 L 400.804688 358.261719 L 401.628906 359.195312 L 402.449219 360.082031 L 403.273438 360.933594 L 404.09375 361.769531 L 404.917969 362.597656 L 405.738281 363.433594 L 406.558594 364.28125 L 407.382812 365.148438 L 408.203125 366.027344 L 409.027344 366.925781 L 409.847656 367.835938 L 410.671875 368.75 L 411.492188 369.667969 L 412.3125 370.574219 L 413.136719 371.464844 L 413.957031 372.335938 L 414.78125 373.171875 L 415.601562 373.972656 L 416.425781 374.722656 L 417.246094 375.425781 L 418.066406 376.078125 L 418.890625 376.675781 L 419.710938 377.222656 L 420.535156 377.71875 L 421.355469 378.152344 L 422.175781 378.535156 L 423 378.871094 L 423.820312 379.160156 L 424.644531 379.414062 L 425.464844 379.628906 L 426.289062 379.808594 L 427.109375 379.957031 L 427.929688 380.082031 L 428.753906 380.183594 L 429.574219 380.265625 L 430.398438 380.335938 L 431.21875 380.386719 L 432.042969 380.429688 L 432.863281 380.464844 L 433.683594 380.488281 L 434.507812 380.511719 L 435.328125 380.527344 L 436.152344 380.539062 L 436.972656 380.546875 L 437.796875 380.554688 L 439.4375 380.5625 L 440.261719 380.5625 L 441.082031 380.566406 L 441.90625 380.566406 L 442.726562 380.570312 L 483.828125 380.570312 Z M 63.792969 380.570312 "/>
<path style="fill-rule:nonzero;fill:rgb(48.627451%,60.392157%,59.607843%);fill-opacity:0.501961;stroke-width:1.066978;stroke-linecap:round;stroke-linejoin:round;stroke:rgb(100%,100%,100%);stroke-opacity:1;stroke-miterlimit:10;" d="M 63.792969 380.570312 L 213.394531 380.570312 L 214.214844 380.566406 L 215.039062 380.5625 L 215.859375 380.558594 L 216.679688 380.550781 L 217.503906 380.539062 L 218.324219 380.523438 L 219.148438 380.492188 L 219.96875 380.453125 L 220.792969 380.386719 L 221.613281 380.289062 L 222.433594 380.144531 L 223.257812 379.9375 L 224.078125 379.644531 L 224.902344 379.238281 L 225.722656 378.6875 L 226.546875 377.949219 L 227.367188 376.972656 L 228.1875 375.703125 L 229.011719 374.023438 L 229.832031 371.890625 L 230.65625 369.238281 L 231.476562 365.988281 L 232.300781 362.074219 L 233.121094 357.429688 L 233.941406 352.007812 L 234.765625 345.777344 L 235.585938 338.722656 L 236.410156 330.78125 L 237.230469 322.066406 L 238.054688 312.6875 L 238.875 302.757812 L 239.695312 292.410156 L 240.519531 281.789062 L 241.339844 271.054688 L 242.164062 260.359375 L 242.984375 249.84375 L 243.808594 239.664062 L 244.628906 229.917969 L 245.449219 220.632812 L 246.273438 211.804688 L 247.09375 203.394531 L 247.917969 195.34375 L 248.738281 187.566406 L 249.5625 179.960938 L 250.382812 172.421875 L 251.203125 164.859375 L 252.027344 157.179688 L 252.847656 149.34375 L 253.671875 141.347656 L 254.492188 133.214844 L 255.316406 124.984375 L 256.136719 116.71875 L 256.957031 108.496094 L 257.78125 100.394531 L 258.601562 92.507812 L 259.425781 84.960938 L 260.246094 77.808594 L 261.070312 71.121094 L 261.890625 64.957031 L 262.710938 59.382812 L 263.535156 54.445312 L 264.355469 50.199219 L 265.179688 46.683594 L 266 43.929688 L 266.824219 42.035156 L 267.644531 40.941406 L 268.464844 40.597656 L 269.289062 40.953125 L 270.109375 41.945312 L 270.933594 43.496094 L 271.753906 45.515625 L 272.578125 47.910156 L 273.398438 50.582031 L 274.21875 53.445312 L 275.042969 56.390625 L 275.863281 59.339844 L 276.6875 62.242188 L 277.507812 65.058594 L 278.332031 67.765625 L 279.152344 70.355469 L 279.972656 72.847656 L 280.796875 75.269531 L 281.617188 77.667969 L 282.441406 80.140625 L 283.261719 82.777344 L 284.085938 85.671875 L 284.90625 88.933594 L 285.726562 92.65625 L 286.550781 96.929688 L 287.371094 101.820312 L 288.195312 107.371094 L 289.015625 113.597656 L 289.839844 120.554688 L 290.660156 128.085938 L 291.480469 136.101562 L 292.304688 144.5 L 293.125 153.171875 L 293.949219 162.015625 L 294.769531 170.945312 L 295.59375 179.894531 L 296.414062 188.824219 L 297.234375 197.714844 L 298.058594 206.589844 L 298.878906 215.480469 L 299.703125 224.429688 L 300.523438 233.464844 L 301.347656 242.609375 L 302.167969 251.867188 L 302.988281 261.222656 L 303.8125 270.636719 L 304.632812 280.039062 L 305.457031 289.335938 L 306.277344 298.429688 L 307.101562 307.238281 L 307.921875 315.664062 L 308.742188 323.636719 L 309.566406 331.089844 L 310.386719 337.96875 L 311.210938 344.246094 L 312.03125 349.878906 L 312.855469 354.839844 L 313.675781 359.203125 L 314.496094 363.003906 L 315.320312 366.277344 L 316.140625 369.066406 L 316.964844 371.414062 L 317.785156 373.367188 L 318.609375 374.972656 L 319.429688 376.273438 L 320.25 377.289062 L 321.074219 378.097656 L 321.894531 378.730469 L 322.71875 379.21875 L 323.539062 379.59375 L 324.363281 379.875 L 325.183594 380.082031 L 326.003906 380.234375 L 326.828125 380.34375 L 327.648438 380.417969 L 328.472656 380.46875 L 329.292969 380.503906 L 330.117188 380.527344 L 330.9375 380.542969 L 331.757812 380.554688 L 332.582031 380.558594 L 333.402344 380.5625 L 334.226562 380.566406 L 335.046875 380.570312 L 483.828125 380.570312 Z M 63.792969 380.570312 "/>
<path style="fill-rule:nonzero;fill:rgb(24.313725%,67.45098%,68.235294%);fill-opacity:0.501961;stroke-width:1.066978;stroke-linecap:round;stroke-linejoin:round;stroke:rgb(100%,100%,100%);stroke-opacity:1;stroke-miterlimit:10;" d="M 63.792969 380.570312 L 139.414062 380.570312 L 140.238281 380.566406 L 141.058594 380.566406 L 141.882812 380.5625 L 142.703125 380.5625 L 143.523438 380.554688 L 144.347656 380.546875 L 145.167969 380.539062 L 145.992188 380.523438 L 146.8125 380.5 L 147.636719 380.464844 L 148.457031 380.417969 L 149.277344 380.355469 L 150.101562 380.265625 L 150.921875 380.148438 L 151.746094 379.992188 L 152.566406 379.785156 L 153.390625 379.503906 L 154.210938 379.140625 L 155.03125 378.675781 L 155.855469 378.089844 L 156.675781 377.355469 L 157.5 376.453125 L 158.320312 375.347656 L 159.144531 373.984375 L 159.964844 372.324219 L 160.785156 370.355469 L 161.609375 368.042969 L 162.429688 365.355469 L 163.253906 362.265625 L 164.074219 358.746094 L 164.898438 354.78125 L 165.71875 350.292969 L 166.539062 345.316406 L 167.363281 339.882812 L 168.183594 334.011719 L 169.007812 327.730469 L 169.828125 321.082031 L 170.652344 314.113281 L 171.472656 306.886719 L 172.292969 299.460938 L 173.117188 291.953125 L 173.9375 284.457031 L 174.761719 277.054688 L 175.582031 269.828125 L 176.40625 262.859375 L 177.226562 256.21875 L 178.046875 249.984375 L 178.871094 244.265625 L 179.691406 239.023438 L 180.515625 234.261719 L 181.335938 229.976562 L 182.15625 226.125 L 182.980469 222.667969 L 183.800781 219.539062 L 184.625 216.679688 L 185.445312 213.972656 L 186.269531 211.308594 L 187.089844 208.589844 L 187.910156 205.726562 L 188.734375 202.644531 L 189.554688 199.265625 L 190.378906 195.53125 L 191.199219 191.339844 L 192.023438 186.671875 L 192.84375 181.546875 L 193.664062 175.96875 L 194.488281 169.949219 L 195.308594 163.519531 L 196.132812 156.71875 L 196.953125 149.59375 L 197.777344 142.175781 L 198.597656 134.585938 L 199.417969 126.902344 L 200.242188 119.222656 L 201.0625 111.628906 L 201.886719 104.21875 L 202.707031 97.101562 L 203.53125 90.386719 L 204.351562 84.285156 L 205.171875 78.839844 L 205.996094 74.148438 L 206.816406 70.3125 L 207.640625 67.402344 L 208.460938 65.488281 L 209.285156 64.617188 L 210.105469 64.867188 L 210.925781 66.304688 L 211.75 68.757812 L 212.570312 72.148438 L 213.394531 76.382812 L 214.214844 81.335938 L 215.039062 86.878906 L 215.859375 92.847656 L 216.679688 99.085938 L 217.503906 105.378906 L 218.324219 111.539062 L 219.148438 117.421875 L 219.96875 122.902344 L 220.792969 127.875 L 221.613281 132.257812 L 222.433594 136 L 223.257812 138.984375 L 224.078125 141.292969 L 224.902344 142.996094 L 225.722656 144.171875 L 226.546875 144.90625 L 227.367188 145.304688 L 228.1875 145.484375 L 229.011719 145.570312 L 229.832031 145.730469 L 230.65625 146.105469 L 231.476562 146.828125 L 232.300781 148.003906 L 233.121094 149.742188 L 233.941406 152.132812 L 234.765625 155.253906 L 235.585938 159.199219 L 236.410156 164.109375 L 237.230469 169.882812 L 238.054688 176.519531 L 238.875 183.988281 L 239.695312 192.246094 L 240.519531 201.230469 L 241.339844 210.863281 L 242.164062 221.074219 L 242.984375 231.734375 L 243.808594 242.65625 L 244.628906 253.71875 L 245.449219 264.785156 L 246.273438 275.726562 L 247.09375 286.421875 L 247.917969 296.757812 L 248.738281 306.566406 L 249.5625 315.765625 L 250.382812 324.328125 L 251.203125 332.203125 L 252.027344 339.375 L 252.847656 345.828125 L 253.671875 351.566406 L 254.492188 356.613281 L 255.316406 360.90625 L 256.136719 364.582031 L 256.957031 367.703125 L 257.78125 370.328125 L 258.601562 372.507812 L 259.425781 374.292969 L 260.246094 375.742188 L 261.070312 376.898438 L 261.890625 377.78125 L 262.710938 378.476562 L 263.535156 379.019531 L 264.355469 379.433594 L 265.179688 379.746094 L 266 379.980469 L 266.824219 380.15625 L 267.644531 380.28125 L 268.464844 380.367188 L 269.289062 380.429688 L 270.109375 380.476562 L 270.933594 380.507812 L 271.753906 380.527344 L 272.578125 380.542969 L 274.21875 380.558594 L 275.042969 380.5625 L 275.863281 380.566406 L 276.6875 380.566406 L 277.507812 380.570312 L 483.828125 380.570312 Z M 63.792969 380.570312 "/>
<path style="fill-rule:nonzero;fill:rgb(0%,74.901961%,76.862745%);fill-opacity:0.501961;stroke-width:1.066978;stroke-linecap:round;stroke-linejoin:round;stroke:rgb(100%,100%,100%);stroke-opacity:1;stroke-miterlimit:10;" d="M 63.792969 347.257812 L 64.613281 345.984375 L 65.4375 344.773438 L 66.257812 343.648438 L 67.082031 342.609375 L 67.902344 341.652344 L 68.722656 340.78125 L 69.546875 339.988281 L 70.367188 339.273438 L 71.191406 338.652344 L 72.011719 338.09375 L 72.835938 337.59375 L 73.65625 337.132812 L 74.476562 336.707031 L 75.300781 336.296875 L 76.121094 335.882812 L 76.945312 335.441406 L 77.765625 334.960938 L 78.589844 334.417969 L 79.410156 333.796875 L 80.230469 333.050781 L 81.054688 332.179688 L 81.875 331.171875 L 82.699219 330.015625 L 83.519531 328.695312 L 84.34375 327.179688 L 85.164062 325.449219 L 85.984375 323.535156 L 86.808594 321.433594 L 87.628906 319.144531 L 88.453125 316.671875 L 89.273438 313.976562 L 90.097656 311.121094 L 90.917969 308.113281 L 91.738281 304.972656 L 92.5625 301.707031 L 93.382812 298.328125 L 94.207031 294.851562 L 95.027344 291.308594 L 95.851562 287.722656 L 96.671875 284.101562 L 97.492188 280.457031 L 98.316406 276.8125 L 99.136719 273.179688 L 99.960938 269.5625 L 100.78125 265.96875 L 101.605469 262.40625 L 102.425781 258.882812 L 103.246094 255.402344 L 104.070312 251.953125 L 104.890625 248.539062 L 105.714844 245.160156 L 106.535156 241.808594 L 107.359375 238.492188 L 108.179688 235.203125 L 109 231.941406 L 109.824219 228.707031 L 110.644531 225.496094 L 111.46875 222.324219 L 112.289062 219.195312 L 113.113281 216.109375 L 113.933594 213.074219 L 114.753906 210.101562 L 115.578125 207.195312 L 116.398438 204.394531 L 117.222656 201.6875 L 118.042969 199.085938 L 118.867188 196.59375 L 119.6875 194.222656 L 120.507812 191.996094 L 121.332031 189.917969 L 122.152344 187.976562 L 122.976562 186.167969 L 123.796875 184.492188 L 124.621094 182.945312 L 125.441406 181.546875 L 126.261719 180.257812 L 127.085938 179.066406 L 127.90625 177.957031 L 128.730469 176.917969 L 129.550781 175.945312 L 130.375 175.011719 L 131.195312 174.101562 L 132.015625 173.195312 L 132.839844 172.289062 L 133.660156 171.367188 L 134.484375 170.414062 L 135.304688 169.421875 L 136.128906 168.394531 L 136.949219 167.320312 L 137.769531 166.210938 L 138.59375 165.054688 L 139.414062 163.863281 L 140.238281 162.652344 L 141.058594 161.429688 L 141.882812 160.210938 L 142.703125 159.003906 L 143.523438 157.839844 L 144.347656 156.738281 L 145.167969 155.714844 L 145.992188 154.785156 L 146.8125 153.976562 L 147.636719 153.320312 L 148.457031 152.855469 L 149.277344 152.582031 L 150.101562 152.519531 L 150.921875 152.683594 L 151.746094 153.09375 L 152.566406 153.847656 L 153.390625 154.894531 L 154.210938 156.246094 L 155.03125 157.910156 L 155.855469 159.898438 L 156.675781 162.269531 L 157.5 165.035156 L 158.320312 168.144531 L 159.144531 171.597656 L 159.964844 175.398438 L 160.785156 179.535156 L 161.609375 184.089844 L 162.429688 188.960938 L 163.253906 194.128906 L 164.074219 199.578125 L 164.898438 205.292969 L 165.71875 211.277344 L 166.539062 217.503906 L 167.363281 223.90625 L 168.183594 230.457031 L 169.007812 237.136719 L 169.828125 243.90625 L 170.652344 250.75 L 171.472656 257.609375 L 172.292969 264.457031 L 173.117188 271.261719 L 173.9375 277.996094 L 174.761719 284.621094 L 175.582031 291.089844 L 176.40625 297.398438 L 177.226562 303.527344 L 178.046875 309.457031 L 178.871094 315.171875 L 179.691406 320.585938 L 180.515625 325.75 L 181.335938 330.65625 L 182.15625 335.300781 L 182.980469 339.675781 L 183.800781 343.746094 L 184.625 347.511719 L 185.445312 351.007812 L 186.269531 354.25 L 187.089844 357.234375 L 187.910156 359.976562 L 188.734375 362.421875 L 189.554688 364.644531 L 190.378906 366.660156 L 191.199219 368.476562 L 192.023438 370.109375 L 192.84375 371.542969 L 193.664062 372.800781 L 194.488281 373.917969 L 195.308594 374.902344 L 196.132812 375.765625 L 196.953125 376.519531 L 197.777344 377.152344 L 198.597656 377.699219 L 199.417969 378.175781 L 200.242188 378.582031 L 201.0625 378.929688 L 201.886719 379.21875 L 202.707031 379.457031 L 203.53125 379.660156 L 204.351562 379.832031 L 205.171875 379.972656 L 205.996094 380.09375 L 206.816406 380.183594 L 207.640625 380.261719 L 208.460938 380.324219 L 209.285156 380.375 L 210.105469 380.417969 L 210.925781 380.449219 L 211.75 380.476562 L 212.570312 380.496094 L 213.394531 380.515625 L 214.214844 380.527344 L 215.039062 380.539062 L 215.859375 380.546875 L 216.679688 380.550781 L 217.503906 380.554688 L 218.324219 380.558594 L 219.148438 380.5625 L 219.96875 380.566406 L 222.433594 380.566406 L 223.257812 380.570312 L 483.828125 380.570312 L 63.792969 380.570312 Z M 63.792969 347.257812 "/>
<g style="fill:rgb(30.196078%,30.196078%,30.196078%);fill-opacity:1;">
  <use xlink:href="#glyph0-1" x="19.859375" y="383.172852"/>
  <use xlink:href="#glyph0-2" x="24.751953" y="383.172852"/>
  <use xlink:href="#glyph0-1" x="27.198242" y="383.172852"/>
  <use xlink:href="#glyph0-1" x="32.09082" y="383.172852"/>
</g>
<g style="fill:rgb(30.196078%,30.196078%,30.196078%);fill-opacity:1;">
  <use xlink:href="#glyph0-1" x="19.859375" y="300.211914"/>
  <use xlink:href="#glyph0-2" x="24.751953" y="300.211914"/>
  <use xlink:href="#glyph0-1" x="27.198242" y="300.211914"/>
  <use xlink:href="#glyph0-3" x="32.09082" y="300.211914"/>
</g>
<g style="fill:rgb(30.196078%,30.196078%,30.196078%);fill-opacity:1;">
  <use xlink:href="#glyph0-1" x="19.859375" y="217.254883"/>
  <use xlink:href="#glyph0-2" x="24.751953" y="217.254883"/>
  <use xlink:href="#glyph0-4" x="27.198242" y="217.254883"/>
  <use xlink:href="#glyph0-1" x="32.09082" y="217.254883"/>
</g>
<g style="fill:rgb(30.196078%,30.196078%,30.196078%);fill-opacity:1;">
  <use xlink:href="#glyph0-1" x="19.859375" y="134.293945"/>
  <use xlink:href="#glyph0-2" x="24.751953" y="134.293945"/>
  <use xlink:href="#glyph0-4" x="27.198242" y="134.293945"/>
  <use xlink:href="#glyph0-3" x="32.09082" y="134.293945"/>
</g>
<g style="fill:rgb(30.196078%,30.196078%,30.196078%);fill-opacity:1;">
  <use xlink:href="#glyph0-1" x="19.859375" y="51.333008"/>
  <use xlink:href="#glyph0-2" x="24.751953" y="51.333008"/>
  <use xlink:href="#glyph0-5" x="27.198242" y="51.333008"/>
  <use xlink:href="#glyph0-1" x="32.09082" y="51.333008"/>
</g>
<path style="fill:none;stroke-width:1.066978;stroke-linecap:butt;stroke-linejoin:round;stroke:rgb(20%,20%,20%);stroke-opacity:1;stroke-miterlimit:10;" d="M 40.050781 380.570312 L 42.789062 380.570312 "/>
<path style="fill:none;stroke-width:1.066978;stroke-linecap:butt;stroke-linejoin:round;stroke:rgb(20%,20%,20%);stroke-opacity:1;stroke-miterlimit:10;" d="M 40.050781 297.609375 L 42.789062 297.609375 "/>
<path style="fill:none;stroke-width:1.066978;stroke-linecap:butt;stroke-linejoin:round;stroke:rgb(20%,20%,20%);stroke-opacity:1;stroke-miterlimit:10;" d="M 40.050781 214.652344 L 42.789062 214.652344 "/>
<path style="fill:none;stroke-width:1.066978;stroke-linecap:butt;stroke-linejoin:round;stroke:rgb(20%,20%,20%);stroke-opacity:1;stroke-miterlimit:10;" d="M 40.050781 131.691406 L 42.789062 131.691406 "/>
<path style="fill:none;stroke-width:1.066978;stroke-linecap:butt;stroke-linejoin:round;stroke:rgb(20%,20%,20%);stroke-opacity:1;stroke-miterlimit:10;" d="M 40.050781 48.730469 L 42.789062 48.730469 "/>
<path style="fill:none;stroke-width:1.066978;stroke-linecap:butt;stroke-linejoin:round;stroke:rgb(20%,20%,20%);stroke-opacity:1;stroke-miterlimit:10;" d="M 104.941406 400.308594 L 104.941406 397.570312 "/>
<path style="fill:none;stroke-width:1.066978;stroke-linecap:butt;stroke-linejoin:round;stroke:rgb(20%,20%,20%);stroke-opacity:1;stroke-miterlimit:10;" d="M 208.132812 400.308594 L 208.132812 397.570312 "/>
<path style="fill:none;stroke-width:1.066978;stroke-linecap:butt;stroke-linejoin:round;stroke:rgb(20%,20%,20%);stroke-opacity:1;stroke-miterlimit:10;" d="M 311.328125 400.308594 L 311.328125 397.570312 "/>
<path style="fill:none;stroke-width:1.066978;stroke-linecap:butt;stroke-linejoin:round;stroke:rgb(20%,20%,20%);stroke-opacity:1;stroke-miterlimit:10;" d="M 414.519531 400.308594 L 414.519531 397.570312 "/>
<g style="fill:rgb(30.196078%,30.196078%,30.196078%);fill-opacity:1;">
  <use xlink:href="#glyph0-6" x="98.441406" y="408.602539"/>
  <use xlink:href="#glyph0-5" x="101.37207" y="408.602539"/>
  <use xlink:href="#glyph0-1" x="106.264648" y="408.602539"/>
</g>
<g style="fill:rgb(30.196078%,30.196078%,30.196078%);fill-opacity:1;">
  <use xlink:href="#glyph0-6" x="201.632812" y="408.602539"/>
  <use xlink:href="#glyph0-4" x="204.563477" y="408.602539"/>
  <use xlink:href="#glyph0-1" x="209.456055" y="408.602539"/>
</g>
<g style="fill:rgb(30.196078%,30.196078%,30.196078%);fill-opacity:1;">
  <use xlink:href="#glyph0-1" x="308.828125" y="408.602539"/>
</g>
<g style="fill:rgb(30.196078%,30.196078%,30.196078%);fill-opacity:1;">
  <use xlink:href="#glyph0-4" x="409.519531" y="408.602539"/>
  <use xlink:href="#glyph0-1" x="414.412109" y="408.602539"/>
</g>
<g style="fill:rgb(0%,0%,0%);fill-opacity:1;">
  <use xlink:href="#glyph1-1" x="259.308594" y="423.506836"/>
  <use xlink:href="#glyph1-2" x="267.250977" y="423.506836"/>
  <use xlink:href="#glyph1-3" x="269.693359" y="423.506836"/>
  <use xlink:href="#glyph1-4" x="278.856445" y="423.506836"/>
  <use xlink:href="#glyph1-5" x="281.914062" y="423.506836"/>
</g>
<g style="fill:rgb(0%,0%,0%);fill-opacity:1;">
  <use xlink:href="#glyph2-1" x="14.108398" y="228.085938"/>
  <use xlink:href="#glyph2-2" x="14.108398" y="221.969727"/>
  <use xlink:href="#glyph2-3" x="14.108398" y="215.853516"/>
  <use xlink:href="#glyph2-4" x="14.108398" y="209.737305"/>
  <use xlink:href="#glyph2-5" x="14.108398" y="204.237305"/>
  <use xlink:href="#glyph2-6" x="14.108398" y="201.794922"/>
  <use xlink:href="#glyph2-7" x="14.108398" y="198.737305"/>
</g>
<path style=" stroke:none;fill-rule:nonzero;fill:rgb(100%,100%,100%);fill-opacity:1;" d="M 515.789062 267.273438 L 570.523438 267.273438 L 570.523438 153.898438 L 515.789062 153.898438 Z M 515.789062 267.273438 "/>
<g style="fill:rgb(0%,0%,0%);fill-opacity:1;">
  <use xlink:href="#glyph1-6" x="521.265625" y="168.772461"/>
  <use xlink:href="#glyph1-7" x="528.602539" y="168.772461"/>
  <use xlink:href="#glyph1-8" x="534.047852" y="168.772461"/>
  <use xlink:href="#glyph1-9" x="537.105469" y="168.772461"/>
  <use xlink:href="#glyph1-10" x="543.22168" y="168.772461"/>
  <use xlink:href="#glyph1-2" x="549.337891" y="168.772461"/>
  <use xlink:href="#glyph1-11" x="551.780273" y="168.772461"/>
</g>
<path style="fill-rule:nonzero;fill:rgb(94.901961%,94.901961%,94.901961%);fill-opacity:1;stroke-width:1.066978;stroke-linecap:round;stroke-linejoin:round;stroke:rgb(100%,100%,100%);stroke-opacity:1;stroke-miterlimit:10;" d="M 521.265625 192.671875 L 538.546875 192.671875 L 538.546875 175.390625 L 521.265625 175.390625 Z M 521.265625 192.671875 "/>
<path style="fill-rule:nonzero;fill:rgb(97.254902%,46.27451%,42.745098%);fill-opacity:0.501961;stroke-width:1.066978;stroke-linecap:round;stroke-linejoin:miter;stroke:rgb(100%,100%,100%);stroke-opacity:1;stroke-miterlimit:10;" d="M 521.976562 191.964844 L 537.839844 191.964844 L 537.839844 176.101562 L 521.976562 176.101562 Z M 521.976562 191.964844 "/>
<path style="fill-rule:nonzero;fill:rgb(94.901961%,94.901961%,94.901961%);fill-opacity:1;stroke-width:1.066978;stroke-linecap:round;stroke-linejoin:round;stroke:rgb(100%,100%,100%);stroke-opacity:1;stroke-miterlimit:10;" d="M 521.265625 209.953125 L 538.546875 209.953125 L 538.546875 192.671875 L 521.265625 192.671875 Z M 521.265625 209.953125 "/>
<path style="fill-rule:nonzero;fill:rgb(72.941176%,53.333333%,50.980392%);fill-opacity:0.501961;stroke-width:1.066978;stroke-linecap:round;stroke-linejoin:miter;stroke:rgb(100%,100%,100%);stroke-opacity:1;stroke-miterlimit:10;" d="M 521.976562 209.246094 L 537.839844 209.246094 L 537.839844 193.382812 L 521.976562 193.382812 Z M 521.976562 209.246094 "/>
<path style="fill-rule:nonzero;fill:rgb(94.901961%,94.901961%,94.901961%);fill-opacity:1;stroke-width:1.066978;stroke-linecap:round;stroke-linejoin:round;stroke:rgb(100%,100%,100%);stroke-opacity:1;stroke-miterlimit:10;" d="M 521.265625 227.234375 L 538.546875 227.234375 L 538.546875 209.953125 L 521.265625 209.953125 Z M 521.265625 227.234375 "/>
<path style="fill-rule:nonzero;fill:rgb(48.627451%,60.392157%,59.607843%);fill-opacity:0.501961;stroke-width:1.066978;stroke-linecap:round;stroke-linejoin:miter;stroke:rgb(100%,100%,100%);stroke-opacity:1;stroke-miterlimit:10;" d="M 521.976562 226.523438 L 537.839844 226.523438 L 537.839844 210.660156 L 521.976562 210.660156 Z M 521.976562 226.523438 "/>
<path style="fill-rule:nonzero;fill:rgb(94.901961%,94.901961%,94.901961%);fill-opacity:1;stroke-width:1.066978;stroke-linecap:round;stroke-linejoin:round;stroke:rgb(100%,100%,100%);stroke-opacity:1;stroke-miterlimit:10;" d="M 521.265625 244.511719 L 538.546875 244.511719 L 538.546875 227.230469 L 521.265625 227.230469 Z M 521.265625 244.511719 "/>
<path style="fill-rule:nonzero;fill:rgb(24.313725%,67.45098%,68.235294%);fill-opacity:0.501961;stroke-width:1.066978;stroke-linecap:round;stroke-linejoin:miter;stroke:rgb(100%,100%,100%);stroke-opacity:1;stroke-miterlimit:10;" d="M 521.976562 243.804688 L 537.839844 243.804688 L 537.839844 227.941406 L 521.976562 227.941406 Z M 521.976562 243.804688 "/>
<path style="fill-rule:nonzero;fill:rgb(94.901961%,94.901961%,94.901961%);fill-opacity:1;stroke-width:1.066978;stroke-linecap:round;stroke-linejoin:round;stroke:rgb(100%,100%,100%);stroke-opacity:1;stroke-miterlimit:10;" d="M 521.265625 261.792969 L 538.546875 261.792969 L 538.546875 244.511719 L 521.265625 244.511719 Z M 521.265625 261.792969 "/>
<path style="fill-rule:nonzero;fill:rgb(0%,74.901961%,76.862745%);fill-opacity:0.501961;stroke-width:1.066978;stroke-linecap:round;stroke-linejoin:miter;stroke:rgb(100%,100%,100%);stroke-opacity:1;stroke-miterlimit:10;" d="M 521.976562 261.085938 L 537.839844 261.085938 L 537.839844 245.222656 L 521.976562 245.222656 Z M 521.976562 261.085938 "/>
<g style="fill:rgb(0%,0%,0%);fill-opacity:1;">
  <use xlink:href="#glyph0-7" x="544.027344" y="186.633789"/>
  <use xlink:href="#glyph0-8" x="549.896484" y="186.633789"/>
  <use xlink:href="#glyph0-9" x="554.789062" y="186.633789"/>
  <use xlink:href="#glyph0-10" x="559.681641" y="186.633789"/>
</g>
<g style="fill:rgb(0%,0%,0%);fill-opacity:1;">
  <use xlink:href="#glyph0-11" x="544.027344" y="203.915039"/>
</g>
<g style="fill:rgb(0%,0%,0%);fill-opacity:1;">
  <use xlink:href="#glyph0-11" x="544.027344" y="221.196289"/>
  <use xlink:href="#glyph0-11" x="546.473633" y="221.196289"/>
</g>
<g style="fill:rgb(0%,0%,0%);fill-opacity:1;">
  <use xlink:href="#glyph0-11" x="544.027344" y="238.473633"/>
  <use xlink:href="#glyph0-11" x="546.473633" y="238.473633"/>
  <use xlink:href="#glyph0-11" x="548.919922" y="238.473633"/>
</g>
<g style="fill:rgb(0%,0%,0%);fill-opacity:1;">
  <use xlink:href="#glyph0-11" x="544.027344" y="255.754883"/>
  <use xlink:href="#glyph0-12" x="546.473633" y="255.754883"/>
</g>
<g style="fill:rgb(0%,0%,0%);fill-opacity:1;">
  <use xlink:href="#glyph3-1" x="42.789062" y="14.632812"/>
  <use xlink:href="#glyph3-2" x="52.319336" y="14.632812"/>
  <use xlink:href="#glyph3-3" x="55.25" y="14.632812"/>
  <use xlink:href="#glyph3-4" x="61.783203" y="14.632812"/>
  <use xlink:href="#glyph3-5" x="65.452148" y="14.632812"/>
  <use xlink:href="#glyph3-2" x="69.847656" y="14.632812"/>
  <use xlink:href="#glyph3-6" x="72.77832" y="14.632812"/>
  <use xlink:href="#glyph3-7" x="80.117188" y="14.632812"/>
  <use xlink:href="#glyph3-8" x="87.456055" y="14.632812"/>
  <use xlink:href="#glyph3-2" x="94.055664" y="14.632812"/>
  <use xlink:href="#glyph3-9" x="96.986328" y="14.632812"/>
  <use xlink:href="#glyph3-10" x="104.325195" y="14.632812"/>
  <use xlink:href="#glyph3-11" x="111.664062" y="14.632812"/>
  <use xlink:href="#glyph3-3" x="119.00293" y="14.632812"/>
  <use xlink:href="#glyph3-12" x="125.602539" y="14.632812"/>
  <use xlink:href="#glyph3-13" x="129.271484" y="14.632812"/>
  <use xlink:href="#glyph3-11" x="136.610352" y="14.632812"/>
  <use xlink:href="#glyph3-14" x="143.949219" y="14.632812"/>
  <use xlink:href="#glyph3-12" x="146.879883" y="14.632812"/>
  <use xlink:href="#glyph3-15" x="150.548828" y="14.632812"/>
  <use xlink:href="#glyph3-5" x="157.887695" y="14.632812"/>
  <use xlink:href="#glyph3-2" x="162.283203" y="14.632812"/>
  <use xlink:href="#glyph3-16" x="165.213867" y="14.632812"/>
  <use xlink:href="#glyph3-11" x="176.208984" y="14.632812"/>
  <use xlink:href="#glyph3-5" x="183.547852" y="14.632812"/>
  <use xlink:href="#glyph3-12" x="187.943359" y="14.632812"/>
  <use xlink:href="#glyph3-8" x="191.612305" y="14.632812"/>
  <use xlink:href="#glyph3-9" x="198.211914" y="14.632812"/>
  <use xlink:href="#glyph3-16" x="205.550781" y="14.632812"/>
  <use xlink:href="#glyph3-15" x="216.612305" y="14.632812"/>
  <use xlink:href="#glyph3-9" x="223.951172" y="14.632812"/>
  <use xlink:href="#glyph3-10" x="231.290039" y="14.632812"/>
  <use xlink:href="#glyph3-11" x="238.628906" y="14.632812"/>
  <use xlink:href="#glyph3-10" x="245.967773" y="14.632812"/>
  <use xlink:href="#glyph3-4" x="253.306641" y="14.632812"/>
  <use xlink:href="#glyph3-11" x="256.777344" y="14.632812"/>
  <use xlink:href="#glyph3-12" x="264.116211" y="14.632812"/>
  <use xlink:href="#glyph3-15" x="267.785156" y="14.632812"/>
  <use xlink:href="#glyph3-5" x="275.124023" y="14.632812"/>
  <use xlink:href="#glyph3-2" x="279.519531" y="14.632812"/>
  <use xlink:href="#glyph3-10" x="282.450195" y="14.632812"/>
  <use xlink:href="#glyph3-8" x="289.789062" y="14.632812"/>
  <use xlink:href="#glyph3-2" x="296.388672" y="14.632812"/>
  <use xlink:href="#glyph3-15" x="299.319336" y="14.632812"/>
  <use xlink:href="#glyph3-17" x="306.658203" y="14.632812"/>
  <use xlink:href="#glyph3-14" x="313.99707" y="14.632812"/>
  <use xlink:href="#glyph3-12" x="316.927734" y="14.632812"/>
  <use xlink:href="#glyph3-3" x="320.59668" y="14.632812"/>
  <use xlink:href="#glyph3-11" x="327.196289" y="14.632812"/>
  <use xlink:href="#glyph3-18" x="334.535156" y="14.632812"/>
  <use xlink:href="#glyph3-19" x="341.874023" y="14.632812"/>
  <use xlink:href="#glyph3-10" x="349.212891" y="14.632812"/>
  <use xlink:href="#glyph3-12" x="356.551758" y="14.632812"/>
  <use xlink:href="#glyph3-11" x="360.220703" y="14.632812"/>
  <use xlink:href="#glyph3-3" x="367.55957" y="14.632812"/>
  <use xlink:href="#glyph3-4" x="374.092773" y="14.632812"/>
  <use xlink:href="#glyph3-17" x="377.761719" y="14.632812"/>
  <use xlink:href="#glyph3-13" x="385.100586" y="14.632812"/>
  <use xlink:href="#glyph3-2" x="392.439453" y="14.632812"/>
  <use xlink:href="#glyph3-9" x="395.370117" y="14.632812"/>
  <use xlink:href="#glyph3-3" x="402.708984" y="14.632812"/>
  <use xlink:href="#glyph3-12" x="409.308594" y="14.632812"/>
  <use xlink:href="#glyph3-13" x="412.977539" y="14.632812"/>
  <use xlink:href="#glyph3-11" x="420.316406" y="14.632812"/>
  <use xlink:href="#glyph3-12" x="427.655273" y="14.632812"/>
  <use xlink:href="#glyph3-20" x="431.324219" y="14.632812"/>
  <use xlink:href="#glyph3-17" x="441.592773" y="14.632812"/>
  <use xlink:href="#glyph3-14" x="448.931641" y="14.632812"/>
  <use xlink:href="#glyph3-7" x="451.862305" y="14.632812"/>
  <use xlink:href="#glyph3-8" x="459.201172" y="14.632812"/>
  <use xlink:href="#glyph3-9" x="465.800781" y="14.632812"/>
  <use xlink:href="#glyph3-16" x="473.139648" y="14.632812"/>
  <use xlink:href="#glyph3-17" x="484.134766" y="14.632812"/>
</g>
</g>
</svg>
