<?xml version="1.0" encoding="UTF-8"?>
<svg xmlns="http://www.w3.org/2000/svg" xmlns:xlink="http://www.w3.org/1999/xlink" width="576pt" height="432pt" viewBox="0 0 576 432" version="1.1">
<defs>
<g>
<symbol overflow="visible" id="glyph0-0">
<path style="stroke:none;" d=""/>
</symbol>
<symbol overflow="visible" id="glyph0-1">
<path style="stroke:none;" d="M 2.5 -2.109375 L 2.5 -2.75 L 0.40625 -2.75 L 0.40625 -2.109375 Z M 2.5 -2.109375 "/>
</symbol>
<symbol overflow="visible" id="glyph0-2">
<path style="stroke:none;" d="M 4.515625 -1.9375 C 4.515625 -3.09375 3.71875 -3.875 2.609375 -3.875 C 1.984375 -3.875 1.5 -3.640625 1.171875 -3.1875 C 1.171875 -4.703125 1.671875 -5.546875 2.5625 -5.546875 C 3.109375 -5.546875 3.484375 -5.203125 3.609375 -4.609375 L 4.375 -4.609375 C 4.234375 -5.625 3.5625 -6.234375 2.609375 -6.234375 C 1.15625 -6.234375 0.375 -5.015625 0.375 -2.84375 C 0.375 -0.890625 1.046875 0.125 2.46875 0.125 C 3.65625 0.125 4.515625 -0.71875 4.515625 -1.9375 Z M 3.71875 -1.875 C 3.71875 -1.09375 3.1875 -0.546875 2.484375 -0.546875 C 1.765625 -0.546875 1.21875 -1.125 1.21875 -1.921875 C 1.21875 -2.6875 1.734375 -3.1875 2.5 -3.1875 C 3.25 -3.1875 3.71875 -2.703125 3.71875 -1.875 Z M 3.71875 -1.875 "/>
</symbol>
<symbol overflow="visible" id="glyph0-3">
<path style="stroke:none;" d="M 4.578125 -1.5 L 4.578125 -2.1875 L 3.65625 -2.1875 L 3.65625 -6.234375 L 3.078125 -6.234375 L 0.25 -2.3125 L 0.25 -1.5 L 2.875 -1.5 L 2.875 0 L 3.65625 0 L 3.65625 -1.5 Z M 2.875 -2.1875 L 0.921875 -2.1875 L 2.875 -4.921875 Z M 2.875 -2.1875 "/>
</symbol>
<symbol overflow="visible" id="glyph0-4">
<path style="stroke:none;" d="M 4.5 -4.40625 C 4.5 -5.46875 3.671875 -6.234375 2.5 -6.234375 C 1.21875 -6.234375 0.484375 -5.59375 0.4375 -4.078125 L 1.21875 -4.078125 C 1.28125 -5.125 1.703125 -5.5625 2.46875 -5.5625 C 3.171875 -5.5625 3.703125 -5.0625 3.703125 -4.390625 C 3.703125 -3.890625 3.40625 -3.46875 2.859375 -3.15625 L 2.046875 -2.703125 C 0.75 -1.96875 0.375 -1.375 0.296875 0 L 4.453125 0 L 4.453125 -0.765625 L 1.171875 -0.765625 C 1.25 -1.28125 1.53125 -1.59375 2.296875 -2.046875 L 3.171875 -2.53125 C 4.046875 -2.984375 4.5 -3.640625 4.5 -4.40625 Z M 4.5 -4.40625 "/>
</symbol>
<symbol overflow="visible" id="glyph0-5">
<path style="stroke:none;" d="M 4.453125 -3 C 4.453125 -5.15625 3.78125 -6.234375 2.421875 -6.234375 C 1.078125 -6.234375 0.375 -5.140625 0.375 -3.046875 C 0.375 -0.953125 1.078125 0.125 2.421875 0.125 C 3.734375 0.125 4.453125 -0.953125 4.453125 -3 Z M 3.671875 -3.0625 C 3.671875 -1.296875 3.265625 -0.515625 2.40625 -0.515625 C 1.578125 -0.515625 1.171875 -1.34375 1.171875 -3.046875 C 1.171875 -4.75 1.578125 -5.546875 2.421875 -5.546875 C 3.25 -5.546875 3.671875 -4.734375 3.671875 -3.0625 Z M 3.671875 -3.0625 "/>
</symbol>
<symbol overflow="visible" id="glyph0-6">
<path style="stroke:none;" d="M 5.75 0 L 3.5 -6.40625 L 2.4375 -6.40625 L 0.15625 0 L 1.015625 0 L 1.703125 -1.921875 L 4.171875 -1.921875 L 4.828125 0 Z M 3.9375 -2.609375 L 1.90625 -2.609375 L 2.953125 -5.53125 Z M 3.9375 -2.609375 "/>
</symbol>
<symbol overflow="visible" id="glyph0-7">
<path style="stroke:none;" d="M 4.28125 0 L 4.28125 -3.484375 C 4.28125 -4.25 3.71875 -4.734375 2.828125 -4.734375 C 2.140625 -4.734375 1.703125 -4.484375 1.296875 -3.828125 L 1.296875 -4.609375 L 0.609375 -4.609375 L 0.609375 0 L 1.34375 0 L 1.34375 -2.546875 C 1.34375 -3.484375 1.859375 -4.09375 2.609375 -4.09375 C 3.1875 -4.09375 3.546875 -3.75 3.546875 -3.1875 L 3.546875 0 Z M 4.28125 0 "/>
</symbol>
<symbol overflow="visible" id="glyph0-8">
<path style="stroke:none;" d="M 1.34375 0 L 1.34375 -4.609375 L 0.609375 -4.609375 L 0.609375 0 Z M 1.4375 -5.296875 L 1.4375 -6.21875 L 0.53125 -6.21875 L 0.53125 -5.296875 Z M 1.4375 -5.296875 "/>
</symbol>
<symbol overflow="visible" id="glyph0-9">
<path style="stroke:none;" d="M 1.328125 0 L 1.328125 -6.40625 L 0.59375 -6.40625 L 0.59375 0 Z M 1.328125 0 "/>
</symbol>
<symbol overflow="visible" id="glyph0-10">
<path style="stroke:none;" d="M 4.484375 -2.265625 C 4.484375 -3.859375 3.71875 -4.734375 2.390625 -4.734375 C 1.09375 -4.734375 0.3125 -3.859375 0.3125 -2.3125 C 0.3125 -0.75 1.09375 0.125 2.40625 0.125 C 3.6875 0.125 4.484375 -0.75 4.484375 -2.265625 Z M 3.71875 -2.28125 C 3.71875 -1.203125 3.203125 -0.546875 2.40625 -0.546875 C 1.578125 -0.546875 1.078125 -1.1875 1.078125 -2.3125 C 1.078125 -3.40625 1.578125 -4.0625 2.40625 -4.0625 C 3.234375 -4.0625 3.71875 -3.421875 3.71875 -2.28125 Z M 3.71875 -2.28125 "/>
</symbol>
<symbol overflow="visible" id="glyph0-11">
<path style="stroke:none;" d="M 5.484375 -1.828125 C 5.484375 -2.609375 5.125 -3.0625 4.3125 -3.390625 C 4.890625 -3.65625 5.203125 -4.140625 5.203125 -4.78125 C 5.203125 -5.71875 4.515625 -6.40625 3.296875 -6.40625 L 0.6875 -6.40625 L 0.6875 0 L 3.59375 0 C 4.734375 0 5.484375 -0.78125 5.484375 -1.828125 Z M 4.375 -4.671875 C 4.375 -4.015625 4 -3.65625 3.09375 -3.65625 L 1.515625 -3.65625 L 1.515625 -5.6875 L 3.09375 -5.6875 C 4 -5.6875 4.375 -5.328125 4.375 -4.671875 Z M 4.65625 -1.828125 C 4.65625 -1.203125 4.28125 -0.71875 3.515625 -0.71875 L 1.515625 -0.71875 L 1.515625 -2.921875 L 3.515625 -2.921875 C 4.28125 -2.921875 4.65625 -2.453125 4.65625 -1.828125 Z M 4.65625 -1.828125 "/>
</symbol>
<symbol overflow="visible" id="glyph0-12">
<path style="stroke:none;" d="M 6.6875 0 L 6.6875 -6.40625 L 5.5625 -6.40625 L 3.6875 -0.828125 L 1.796875 -6.40625 L 0.65625 -6.40625 L 0.65625 0 L 1.4375 0 L 1.4375 -5.375 L 3.25 0 L 4.109375 0 L 5.921875 -5.375 L 5.921875 0 Z M 6.6875 0 "/>
</symbol>
<symbol overflow="visible" id="glyph0-13">
<path style="stroke:none;" d="M 6.53125 -3.109375 C 6.53125 -5.171875 5.296875 -6.578125 3.421875 -6.578125 C 1.578125 -6.578125 0.328125 -5.15625 0.328125 -3.15625 C 0.328125 -1.15625 1.578125 0.15625 3.4375 0.15625 C 5.3125 0.15625 6.53125 -1.21875 6.53125 -3.109375 Z M 5.703125 -3.125 C 5.703125 -1.578125 4.78125 -0.5625 3.4375 -0.5625 C 2.0625 -0.5625 1.15625 -1.578125 1.15625 -3.15625 C 1.15625 -4.734375 2.0625 -5.84375 3.421875 -5.84375 C 4.8125 -5.84375 5.703125 -4.734375 5.703125 -3.125 Z M 5.703125 -3.125 "/>
</symbol>
<symbol overflow="visible" id="glyph0-14">
<path style="stroke:none;" d="M 1.6875 0 L 1.6875 -0.921875 L 0.765625 -0.921875 L 0.765625 0 Z M 1.6875 0 "/>
</symbol>
<symbol overflow="visible" id="glyph0-15">
<path style="stroke:none;" d="M 6.234375 0 L 6.234375 -3.390625 L 3.5625 -3.390625 L 3.5625 -2.671875 L 5.515625 -2.671875 L 5.515625 -2.484375 C 5.515625 -1.34375 4.671875 -0.5625 3.5 -0.5625 C 2.046875 -0.5625 1.203125 -1.625 1.203125 -3.1875 C 1.203125 -4.765625 2.109375 -5.84375 3.453125 -5.84375 C 4.4375 -5.84375 5.140625 -5.296875 5.3125 -4.46875 L 6.15625 -4.46875 C 5.921875 -5.765625 4.9375 -6.578125 3.46875 -6.578125 C 1.5 -6.578125 0.390625 -5.0625 0.390625 -3.140625 C 0.390625 -1.171875 1.59375 0.15625 3.328125 0.15625 C 4.203125 0.15625 4.890625 -0.15625 5.515625 -0.84375 L 5.71875 0 Z M 6.234375 0 "/>
</symbol>
<symbol overflow="visible" id="glyph0-16">
<path style="stroke:none;" d="M 5.21875 -5.6875 L 5.21875 -6.40625 L 0.1875 -6.40625 L 0.1875 -5.6875 L 2.296875 -5.6875 L 2.296875 0 L 3.109375 0 L 3.109375 -5.6875 Z M 5.21875 -5.6875 "/>
</symbol>
<symbol overflow="visible" id="glyph0-17">
<path style="stroke:none;" d="M 1.703125 0 L 1.703125 -6.40625 L 0.875 -6.40625 L 0.875 0 Z M 1.703125 0 "/>
</symbol>
<symbol overflow="visible" id="glyph0-18">
<path style="stroke:none;" d="M 4.453125 -1.8125 C 4.453125 -2.5625 4.140625 -3.015625 3.390625 -3.265625 C 3.96875 -3.5 4.265625 -3.890625 4.265625 -4.515625 C 4.265625 -5.59375 3.546875 -6.234375 2.359375 -6.234375 C 1.109375 -6.234375 0.4375 -5.546875 0.40625 -4.21875 L 1.1875 -4.21875 C 1.203125 -5.140625 1.578125 -5.5625 2.375 -5.5625 C 3.0625 -5.5625 3.46875 -5.15625 3.46875 -4.5 C 3.46875 -3.828125 3.1875 -3.546875 1.9375 -3.546875 L 1.9375 -2.90625 L 2.359375 -2.90625 C 3.21875 -2.90625 3.65625 -2.5 3.65625 -1.796875 C 3.65625 -1.015625 3.171875 -0.546875 2.359375 -0.546875 C 1.515625 -0.546875 1.109375 -0.96875 1.0625 -1.875 L 0.28125 -1.875 C 0.375 -0.5 1.0625 0.125 2.34375 0.125 C 3.625 0.125 4.453125 -0.640625 4.453125 -1.8125 Z M 4.453125 -1.8125 "/>
</symbol>
<symbol overflow="visible" id="glyph0-19">
<path style="stroke:none;" d="M 4.515625 -2.0625 C 4.515625 -3.296875 3.6875 -4.109375 2.5 -4.109375 C 2.0625 -4.109375 1.703125 -4 1.34375 -3.734375 L 1.59375 -5.34375 L 4.1875 -5.34375 L 4.1875 -6.109375 L 0.96875 -6.109375 L 0.5 -2.84375 L 1.21875 -2.84375 C 1.578125 -3.265625 1.875 -3.421875 2.359375 -3.421875 C 3.1875 -3.421875 3.71875 -2.890625 3.71875 -1.96875 C 3.71875 -1.0625 3.203125 -0.546875 2.359375 -0.546875 C 1.6875 -0.546875 1.265625 -0.890625 1.078125 -1.59375 L 0.3125 -1.59375 C 0.5625 -0.359375 1.265625 0.125 2.375 0.125 C 3.640625 0.125 4.515625 -0.75 4.515625 -2.0625 Z M 4.515625 -2.0625 "/>
</symbol>
<symbol overflow="visible" id="glyph0-20">
<path style="stroke:none;" d="M 5.46875 -1.765625 C 5.46875 -2.546875 4.96875 -3.125 4.09375 -3.375 L 2.484375 -3.796875 C 1.71875 -4 1.4375 -4.25 1.4375 -4.75 C 1.4375 -5.40625 2 -5.890625 2.875 -5.890625 C 3.890625 -5.890625 4.46875 -5.421875 4.46875 -4.578125 L 5.25 -4.578125 C 5.25 -5.84375 4.375 -6.578125 2.890625 -6.578125 C 1.484375 -6.578125 0.609375 -5.796875 0.609375 -4.640625 C 0.609375 -3.859375 1.03125 -3.359375 1.875 -3.140625 L 3.46875 -2.71875 C 4.28125 -2.5 4.640625 -2.1875 4.640625 -1.6875 C 4.640625 -0.96875 4.109375 -0.5625 3.015625 -0.5625 C 1.796875 -0.5625 1.203125 -1.171875 1.203125 -2.078125 L 0.421875 -2.078125 C 0.421875 -0.578125 1.4375 0.15625 2.953125 0.15625 C 4.578125 0.15625 5.46875 -0.609375 5.46875 -1.765625 Z M 5.46875 -1.765625 "/>
</symbol>
<symbol overflow="visible" id="glyph0-21">
<path style="stroke:none;" d="M 4.703125 -0.015625 L 4.703125 -0.578125 C 4.625 -0.546875 4.59375 -0.546875 4.546875 -0.546875 C 4.296875 -0.546875 4.15625 -0.6875 4.15625 -0.921875 L 4.15625 -3.484375 C 4.15625 -4.296875 3.546875 -4.734375 2.421875 -4.734375 C 1.296875 -4.734375 0.609375 -4.3125 0.578125 -3.25 L 1.3125 -3.25 C 1.375 -3.8125 1.703125 -4.0625 2.390625 -4.0625 C 3.046875 -4.0625 3.421875 -3.8125 3.421875 -3.375 L 3.421875 -3.1875 C 3.421875 -2.875 3.234375 -2.75 2.65625 -2.671875 C 1.625 -2.546875 1.453125 -2.5 1.171875 -2.390625 C 0.640625 -2.171875 0.375 -1.765625 0.375 -1.203125 C 0.375 -0.359375 0.953125 0.125 1.875 0.125 C 2.46875 0.125 3.046875 -0.109375 3.453125 -0.546875 C 3.53125 -0.1875 3.84375 0.0625 4.203125 0.0625 C 4.359375 0.0625 4.46875 0.046875 4.703125 -0.015625 Z M 3.421875 -1.59375 C 3.421875 -0.9375 2.75 -0.515625 2.046875 -0.515625 C 1.46875 -0.515625 1.140625 -0.71875 1.140625 -1.21875 C 1.140625 -1.703125 1.453125 -1.90625 2.25 -2.015625 C 3.015625 -2.125 3.171875 -2.15625 3.421875 -2.28125 Z M 3.421875 -1.59375 "/>
</symbol>
<symbol overflow="visible" id="glyph0-22">
<path style="stroke:none;" d="M 5.671875 -6.40625 L 4.796875 -6.40625 L 3.03125 -0.984375 L 1.140625 -6.40625 L 0.265625 -6.40625 L 2.5625 0 L 3.453125 0 Z M 5.671875 -6.40625 "/>
</symbol>
<symbol overflow="visible" id="glyph1-0">
<path style="stroke:none;" d=""/>
</symbol>
<symbol overflow="visible" id="glyph1-1">
<path style="stroke:none;" d="M 6.828125 -2.203125 C 6.828125 -3.1875 6.21875 -3.921875 5.125 -4.21875 L 3.109375 -4.75 C 2.140625 -5 1.796875 -5.328125 1.796875 -5.9375 C 1.796875 -6.75 2.515625 -7.359375 3.59375 -7.359375 C 4.859375 -7.359375 5.59375 -6.78125 5.59375 -5.734375 L 6.5625 -5.734375 C 6.5625 -7.296875 5.46875 -8.21875 3.625 -8.21875 C 1.859375 -8.21875 0.765625 -7.25 0.765625 -5.796875 C 0.765625 -4.8125 1.28125 -4.203125 2.34375 -3.921875 L 4.328125 -3.40625 C 5.34375 -3.140625 5.8125 -2.734375 5.8125 -2.09375 C 5.8125 -1.21875 5.140625 -0.703125 3.765625 -0.703125 C 2.25 -0.703125 1.5 -1.46875 1.5 -2.609375 L 0.53125 -2.609375 C 0.53125 -0.71875 1.796875 0.203125 3.703125 0.203125 C 5.734375 0.203125 6.828125 -0.765625 6.828125 -2.203125 Z M 6.828125 -2.203125 "/>
</symbol>
<symbol overflow="visible" id="glyph1-2">
<path style="stroke:none;" d="M 5.640625 -2.625 C 5.640625 -3.453125 5.578125 -3.984375 5.40625 -4.40625 C 5.03125 -5.359375 4.15625 -5.921875 3.078125 -5.921875 C 1.46875 -5.921875 0.4375 -4.734375 0.4375 -2.84375 C 0.4375 -0.953125 1.4375 0.171875 3.0625 0.171875 C 4.375 0.171875 5.296875 -0.578125 5.515625 -1.75 L 4.59375 -1.75 C 4.34375 -0.984375 3.828125 -0.6875 3.09375 -0.6875 C 2.140625 -0.6875 1.421875 -1.296875 1.390625 -2.625 Z M 4.65625 -3.4375 C 4.65625 -3.4375 4.65625 -3.390625 4.65625 -3.359375 L 1.421875 -3.359375 C 1.5 -4.390625 2.140625 -5.078125 3.0625 -5.078125 C 3.96875 -5.078125 4.65625 -4.328125 4.65625 -3.4375 Z M 4.65625 -3.4375 "/>
</symbol>
<symbol overflow="visible" id="glyph1-3">
<path style="stroke:none;" d="M 5.25 -1.984375 L 4.328125 -1.984375 C 4.171875 -1.0625 3.703125 -0.6875 2.921875 -0.6875 C 1.90625 -0.6875 1.296875 -1.46875 1.296875 -2.828125 C 1.296875 -4.265625 1.890625 -5.078125 2.890625 -5.078125 C 3.65625 -5.078125 4.140625 -4.625 4.25 -3.828125 L 5.1875 -3.828125 C 5.078125 -5.234375 4.1875 -5.921875 2.90625 -5.921875 C 1.359375 -5.921875 0.34375 -4.734375 0.34375 -2.828125 C 0.34375 -0.96875 1.328125 0.171875 2.890625 0.171875 C 4.265625 0.171875 5.140625 -0.65625 5.25 -1.984375 Z M 5.25 -1.984375 "/>
</symbol>
<symbol overflow="visible" id="glyph1-4">
<path style="stroke:none;" d="M 2.796875 0 L 2.796875 -0.765625 C 2.671875 -0.734375 2.53125 -0.71875 2.359375 -0.71875 C 1.953125 -0.71875 1.84375 -0.84375 1.84375 -1.25 L 1.84375 -5.015625 L 2.796875 -5.015625 L 2.796875 -5.765625 L 1.84375 -5.765625 L 1.84375 -7.34375 L 0.9375 -7.34375 L 0.9375 -5.765625 L 0.15625 -5.765625 L 0.15625 -5.015625 L 0.9375 -5.015625 L 0.9375 -0.84375 C 0.9375 -0.25 1.328125 0.078125 2.046875 0.078125 C 2.265625 0.078125 2.484375 0.0625 2.796875 0 Z M 2.796875 0 "/>
</symbol>
<symbol overflow="visible" id="glyph1-5">
<path style="stroke:none;" d="M 5.609375 -2.84375 C 5.609375 -4.828125 4.65625 -5.921875 2.984375 -5.921875 C 1.375 -5.921875 0.390625 -4.8125 0.390625 -2.875 C 0.390625 -0.953125 1.359375 0.171875 3 0.171875 C 4.625 0.171875 5.609375 -0.953125 5.609375 -2.84375 Z M 4.65625 -2.84375 C 4.65625 -1.5 4.015625 -0.6875 3 -0.6875 C 1.984375 -0.6875 1.359375 -1.484375 1.359375 -2.875 C 1.359375 -4.265625 1.984375 -5.078125 3 -5.078125 C 4.03125 -5.078125 4.65625 -4.28125 4.65625 -2.84375 Z M 4.65625 -2.84375 "/>
</symbol>
<symbol overflow="visible" id="glyph1-6">
<path style="stroke:none;" d="M 3.53125 -4.96875 L 3.53125 -5.890625 C 3.375 -5.921875 3.296875 -5.921875 3.171875 -5.921875 C 2.578125 -5.921875 2.140625 -5.578125 1.609375 -4.71875 L 1.609375 -5.765625 L 0.765625 -5.765625 L 0.765625 0 L 1.6875 0 L 1.6875 -2.984375 C 1.6875 -4.296875 2.109375 -4.9375 3.53125 -4.96875 Z M 3.53125 -4.96875 "/>
</symbol>
<symbol overflow="visible" id="glyph1-7">
<path style="stroke:none;" d="M 6.75 0 L 6.75 -0.90625 L 2.015625 -0.90625 L 2.015625 -3.65625 L 6.375 -3.65625 L 6.375 -4.546875 L 2.015625 -4.546875 L 2.015625 -7.109375 L 6.546875 -7.109375 L 6.546875 -8.015625 L 0.984375 -8.015625 L 0.984375 0 Z M 6.75 0 "/>
</symbol>
<symbol overflow="visible" id="glyph1-8">
<path style="stroke:none;" d="M 5.046875 -1.609375 C 5.046875 -2.46875 4.5625 -2.90625 3.421875 -3.171875 L 2.546875 -3.390625 C 1.796875 -3.5625 1.46875 -3.8125 1.46875 -4.21875 C 1.46875 -4.734375 1.953125 -5.078125 2.6875 -5.078125 C 3.4375 -5.078125 3.828125 -4.765625 3.84375 -4.15625 L 4.8125 -4.15625 C 4.8125 -5.296875 4.0625 -5.921875 2.734375 -5.921875 C 1.390625 -5.921875 0.515625 -5.234375 0.515625 -4.171875 C 0.515625 -3.265625 0.984375 -2.84375 2.34375 -2.515625 L 3.203125 -2.296875 C 3.84375 -2.140625 4.09375 -1.953125 4.09375 -1.546875 C 4.09375 -1 3.546875 -0.6875 2.75 -0.6875 C 1.921875 -0.6875 1.46875 -0.875 1.34375 -1.765625 L 0.375 -1.765625 C 0.421875 -0.421875 1.171875 0.171875 2.671875 0.171875 C 4.125 0.171875 5.046875 -0.5 5.046875 -1.609375 Z M 5.046875 -1.609375 "/>
</symbol>
<symbol overflow="visible" id="glyph1-9">
<path style="stroke:none;" d="M 5.890625 -0.015625 L 5.890625 -0.71875 C 5.78125 -0.6875 5.734375 -0.6875 5.6875 -0.6875 C 5.375 -0.6875 5.1875 -0.859375 5.1875 -1.140625 L 5.1875 -4.359375 C 5.1875 -5.375 4.4375 -5.921875 3.03125 -5.921875 C 1.625 -5.921875 0.765625 -5.390625 0.71875 -4.0625 L 1.640625 -4.0625 C 1.71875 -4.765625 2.140625 -5.078125 2.984375 -5.078125 C 3.8125 -5.078125 4.28125 -4.78125 4.28125 -4.21875 L 4.28125 -3.984375 C 4.28125 -3.59375 4.046875 -3.4375 3.328125 -3.34375 C 2.03125 -3.171875 1.828125 -3.140625 1.46875 -2.984375 C 0.796875 -2.71875 0.46875 -2.203125 0.46875 -1.5 C 0.46875 -0.453125 1.1875 0.171875 2.359375 0.171875 C 3.09375 0.171875 3.8125 -0.140625 4.3125 -0.6875 C 4.40625 -0.234375 4.8125 0.078125 5.265625 0.078125 C 5.4375 0.078125 5.59375 0.0625 5.890625 -0.015625 Z M 4.28125 -1.984375 C 4.28125 -1.171875 3.4375 -0.640625 2.546875 -0.640625 C 1.84375 -0.640625 1.421875 -0.890625 1.421875 -1.515625 C 1.421875 -2.125 1.828125 -2.390625 2.8125 -2.53125 C 3.765625 -2.65625 3.96875 -2.703125 4.28125 -2.84375 Z M 4.28125 -1.984375 "/>
</symbol>
<symbol overflow="visible" id="glyph1-10">
<path style="stroke:none;" d="M 5.4375 0 L 5.4375 -8.015625 L 4.53125 -8.015625 L 4.53125 -5.03125 C 4.140625 -5.625 3.53125 -5.921875 2.765625 -5.921875 C 1.265625 -5.921875 0.28125 -4.78125 0.28125 -2.9375 C 0.28125 -0.984375 1.25 0.171875 2.796875 0.171875 C 3.59375 0.171875 4.140625 -0.125 4.625 -0.84375 L 4.625 0 Z M 4.53125 -2.859375 C 4.53125 -1.53125 3.890625 -0.6875 2.921875 -0.6875 C 1.90625 -0.6875 1.25 -1.546875 1.25 -2.875 C 1.25 -4.21875 1.90625 -5.078125 2.921875 -5.078125 C 3.90625 -5.078125 4.53125 -4.1875 4.53125 -2.859375 Z M 4.53125 -2.859375 "/>
</symbol>
<symbol overflow="visible" id="glyph1-11">
<path style="stroke:none;" d="M 1.6875 0 L 1.6875 -5.765625 L 0.765625 -5.765625 L 0.765625 0 Z M 1.796875 -6.640625 L 1.796875 -7.78125 L 0.65625 -7.78125 L 0.65625 -6.640625 Z M 1.796875 -6.640625 "/>
</symbol>
<symbol overflow="visible" id="glyph2-0">
<path style="stroke:none;" d=""/>
</symbol>
<symbol overflow="visible" id="glyph2-1">
<path style="stroke:none;" d="M 0 -8.375 L -8.015625 -8.375 L -8.015625 -6.953125 L -1.03125 -4.625 L -8.015625 -2.25 L -8.015625 -0.828125 L 0 -0.828125 L 0 -1.796875 L -6.71875 -1.796875 L 0 -4.0625 L 0 -5.140625 L -6.71875 -7.40625 L 0 -7.40625 Z M 0 -8.375 "/>
</symbol>
<symbol overflow="visible" id="glyph2-2">
<path style="stroke:none;" d="M -2.625 -5.640625 C -3.453125 -5.640625 -3.984375 -5.578125 -4.40625 -5.40625 C -5.359375 -5.03125 -5.921875 -4.15625 -5.921875 -3.078125 C -5.921875 -1.46875 -4.734375 -0.4375 -2.84375 -0.4375 C -0.953125 -0.4375 0.171875 -1.4375 0.171875 -3.0625 C 0.171875 -4.375 -0.578125 -5.296875 -1.75 -5.515625 L -1.75 -4.59375 C -0.984375 -4.34375 -0.6875 -3.828125 -0.6875 -3.09375 C -0.6875 -2.140625 -1.296875 -1.421875 -2.625 -1.390625 Z M -3.4375 -4.65625 C -3.4375 -4.65625 -3.390625 -4.65625 -3.359375 -4.65625 L -3.359375 -1.421875 C -4.390625 -1.5 -5.078125 -2.140625 -5.078125 -3.0625 C -5.078125 -3.96875 -4.328125 -4.65625 -3.4375 -4.65625 Z M -3.4375 -4.65625 "/>
</symbol>
<symbol overflow="visible" id="glyph2-3">
<path style="stroke:none;" d="M 0 -5.4375 L -8.015625 -5.4375 L -8.015625 -4.53125 L -5.03125 -4.53125 C -5.625 -4.140625 -5.921875 -3.53125 -5.921875 -2.765625 C -5.921875 -1.265625 -4.78125 -0.28125 -2.9375 -0.28125 C -0.984375 -0.28125 0.171875 -1.25 0.171875 -2.796875 C 0.171875 -3.59375 -0.125 -4.140625 -0.84375 -4.625 L 0 -4.625 Z M -2.859375 -4.53125 C -1.53125 -4.53125 -0.6875 -3.890625 -0.6875 -2.921875 C -0.6875 -1.90625 -1.546875 -1.25 -2.875 -1.25 C -4.21875 -1.25 -5.078125 -1.90625 -5.078125 -2.921875 C -5.078125 -3.90625 -4.1875 -4.53125 -2.859375 -4.53125 Z M -2.859375 -4.53125 "/>
</symbol>
<symbol overflow="visible" id="glyph2-4">
<path style="stroke:none;" d="M 0 -1.6875 L -5.765625 -1.6875 L -5.765625 -0.765625 L 0 -0.765625 Z M -6.640625 -1.796875 L -7.78125 -1.796875 L -7.78125 -0.65625 L -6.640625 -0.65625 Z M -6.640625 -1.796875 "/>
</symbol>
<symbol overflow="visible" id="glyph2-5">
<path style="stroke:none;" d="M -0.015625 -5.890625 L -0.71875 -5.890625 C -0.6875 -5.78125 -0.6875 -5.734375 -0.6875 -5.6875 C -0.6875 -5.375 -0.859375 -5.1875 -1.140625 -5.1875 L -4.359375 -5.1875 C -5.375 -5.1875 -5.921875 -4.4375 -5.921875 -3.03125 C -5.921875 -1.625 -5.390625 -0.765625 -4.0625 -0.71875 L -4.0625 -1.640625 C -4.765625 -1.71875 -5.078125 -2.140625 -5.078125 -2.984375 C -5.078125 -3.8125 -4.78125 -4.28125 -4.21875 -4.28125 L -3.984375 -4.28125 C -3.59375 -4.28125 -3.4375 -4.046875 -3.34375 -3.328125 C -3.171875 -2.03125 -3.140625 -1.828125 -2.984375 -1.46875 C -2.71875 -0.796875 -2.203125 -0.46875 -1.5 -0.46875 C -0.453125 -0.46875 0.171875 -1.1875 0.171875 -2.359375 C 0.171875 -3.09375 -0.140625 -3.8125 -0.6875 -4.3125 C -0.234375 -4.40625 0.078125 -4.8125 0.078125 -5.265625 C 0.078125 -5.4375 0.0625 -5.59375 -0.015625 -5.890625 Z M -1.984375 -4.28125 C -1.171875 -4.28125 -0.640625 -3.4375 -0.640625 -2.546875 C -0.640625 -1.84375 -0.890625 -1.421875 -1.515625 -1.421875 C -2.125 -1.421875 -2.390625 -1.828125 -2.53125 -2.8125 C -2.65625 -3.765625 -2.703125 -3.96875 -2.84375 -4.28125 Z M -1.984375 -4.28125 "/>
</symbol>
</g>
<clipPath id="clip1">
  <path d="M 32.789062 5.480469 L 505 5.480469 L 505 398 L 32.789062 398 Z M 32.789062 5.480469 "/>
</clipPath>
<clipPath id="clip2">
  <path d="M 32.789062 330 L 505.828125 330 L 505.828125 331 L 32.789062 331 Z M 32.789062 330 "/>
</clipPath>
<clipPath id="clip3">
  <path d="M 32.789062 224 L 505.828125 224 L 505.828125 226 L 32.789062 226 Z M 32.789062 224 "/>
</clipPath>
<clipPath id="clip4">
  <path d="M 32.789062 118 L 505.828125 118 L 505.828125 120 L 32.789062 120 Z M 32.789062 118 "/>
</clipPath>
<clipPath id="clip5">
  <path d="M 32.789062 13 L 505.828125 13 L 505.828125 14 L 32.789062 14 Z M 32.789062 13 "/>
</clipPath>
<clipPath id="clip6">
  <path d="M 32.789062 382 L 505.828125 382 L 505.828125 384 L 32.789062 384 Z M 32.789062 382 "/>
</clipPath>
<clipPath id="clip7">
  <path d="M 32.789062 277 L 505.828125 277 L 505.828125 279 L 32.789062 279 Z M 32.789062 277 "/>
</clipPath>
<clipPath id="clip8">
  <path d="M 32.789062 171 L 505.828125 171 L 505.828125 173 L 32.789062 173 Z M 32.789062 171 "/>
</clipPath>
<clipPath id="clip9">
  <path d="M 32.789062 65 L 505.828125 65 L 505.828125 67 L 32.789062 67 Z M 32.789062 65 "/>
</clipPath>
<clipPath id="clip10">
  <path d="M 99 5.480469 L 101 5.480469 L 101 398.570312 L 99 398.570312 Z M 99 5.480469 "/>
</clipPath>
<clipPath id="clip11">
  <path d="M 212 5.480469 L 214 5.480469 L 214 398.570312 L 212 398.570312 Z M 212 5.480469 "/>
</clipPath>
<clipPath id="clip12">
  <path d="M 324 5.480469 L 326 5.480469 L 326 398.570312 L 324 398.570312 Z M 324 5.480469 "/>
</clipPath>
<clipPath id="clip13">
  <path d="M 436 5.480469 L 438 5.480469 L 438 398.570312 L 436 398.570312 Z M 436 5.480469 "/>
</clipPath>
</defs>
<g id="surface177">
<rect x="0" y="0" width="576" height="432" style="fill:rgb(100%,100%,100%);fill-opacity:1;stroke:none;"/>
<rect x="0" y="0" width="576" height="432" style="fill:rgb(100%,100%,100%);fill-opacity:1;stroke:none;"/>
<path style="fill:none;stroke-width:1.066978;stroke-linecap:round;stroke-linejoin:round;stroke:rgb(100%,100%,100%);stroke-opacity:1;stroke-miterlimit:10;" d="M 0 432 L 576 432 L 576 0 L 0 0 Z M 0 432 "/>
<g clip-path="url(#clip1)" clip-rule="nonzero">
<path style=" stroke:none;fill-rule:nonzero;fill:rgb(92.156863%,92.156863%,92.156863%);fill-opacity:1;" d="M 32.789062 397.570312 L 504.828125 397.570312 L 504.828125 5.480469 L 32.789062 5.480469 Z M 32.789062 397.570312 "/>
</g>
<g clip-path="url(#clip2)" clip-rule="nonzero">
<path style="fill:none;stroke-width:0.533489;stroke-linecap:butt;stroke-linejoin:round;stroke:rgb(100%,100%,100%);stroke-opacity:1;stroke-miterlimit:10;" d="M 32.789062 330.546875 L 504.828125 330.546875 "/>
</g>
<g clip-path="url(#clip3)" clip-rule="nonzero">
<path style="fill:none;stroke-width:0.533489;stroke-linecap:butt;stroke-linejoin:round;stroke:rgb(100%,100%,100%);stroke-opacity:1;stroke-miterlimit:10;" d="M 32.789062 224.878906 L 504.828125 224.878906 "/>
</g>
<g clip-path="url(#clip4)" clip-rule="nonzero">
<path style="fill:none;stroke-width:0.533489;stroke-linecap:butt;stroke-linejoin:round;stroke:rgb(100%,100%,100%);stroke-opacity:1;stroke-miterlimit:10;" d="M 32.789062 119.210938 L 504.828125 119.210938 "/>
</g>
<g clip-path="url(#clip5)" clip-rule="nonzero">
<path style="fill:none;stroke-width:0.533489;stroke-linecap:butt;stroke-linejoin:round;stroke:rgb(100%,100%,100%);stroke-opacity:1;stroke-miterlimit:10;" d="M 32.789062 13.539062 L 504.828125 13.539062 "/>
</g>
<g clip-path="url(#clip6)" clip-rule="nonzero">
<path style="fill:none;stroke-width:1.066978;stroke-linecap:butt;stroke-linejoin:round;stroke:rgb(100%,100%,100%);stroke-opacity:1;stroke-miterlimit:10;" d="M 32.789062 383.382812 L 504.828125 383.382812 "/>
</g>
<g clip-path="url(#clip7)" clip-rule="nonzero">
<path style="fill:none;stroke-width:1.066978;stroke-linecap:butt;stroke-linejoin:round;stroke:rgb(100%,100%,100%);stroke-opacity:1;stroke-miterlimit:10;" d="M 32.789062 277.710938 L 504.828125 277.710938 "/>
</g>
<g clip-path="url(#clip8)" clip-rule="nonzero">
<path style="fill:none;stroke-width:1.066978;stroke-linecap:butt;stroke-linejoin:round;stroke:rgb(100%,100%,100%);stroke-opacity:1;stroke-miterlimit:10;" d="M 32.789062 172.042969 L 504.828125 172.042969 "/>
</g>
<g clip-path="url(#clip9)" clip-rule="nonzero">
<path style="fill:none;stroke-width:1.066978;stroke-linecap:butt;stroke-linejoin:round;stroke:rgb(100%,100%,100%);stroke-opacity:1;stroke-miterlimit:10;" d="M 32.789062 66.375 L 504.828125 66.375 "/>
</g>
<g clip-path="url(#clip10)" clip-rule="nonzero">
<path style="fill:none;stroke-width:1.066978;stroke-linecap:butt;stroke-linejoin:round;stroke:rgb(100%,100%,100%);stroke-opacity:1;stroke-miterlimit:10;" d="M 100.226562 397.570312 L 100.226562 5.480469 "/>
</g>
<g clip-path="url(#clip11)" clip-rule="nonzero">
<path style="fill:none;stroke-width:1.066978;stroke-linecap:butt;stroke-linejoin:round;stroke:rgb(100%,100%,100%);stroke-opacity:1;stroke-miterlimit:10;" d="M 212.613281 397.570312 L 212.613281 5.480469 "/>
</g>
<g clip-path="url(#clip12)" clip-rule="nonzero">
<path style="fill:none;stroke-width:1.066978;stroke-linecap:butt;stroke-linejoin:round;stroke:rgb(100%,100%,100%);stroke-opacity:1;stroke-miterlimit:10;" d="M 325.003906 397.570312 L 325.003906 5.480469 "/>
</g>
<g clip-path="url(#clip13)" clip-rule="nonzero">
<path style="fill:none;stroke-width:1.066978;stroke-linecap:butt;stroke-linejoin:round;stroke:rgb(100%,100%,100%);stroke-opacity:1;stroke-miterlimit:10;" d="M 437.394531 397.570312 L 437.394531 5.480469 "/>
</g>
<path style="fill:none;stroke-width:1.066978;stroke-linecap:butt;stroke-linejoin:round;stroke:rgb(0%,74.901961%,76.862745%);stroke-opacity:1;stroke-miterlimit:10;" d="M 122.703125 258.457031 L 122.703125 231.34375 "/>
<path style="fill:none;stroke-width:1.066978;stroke-linecap:butt;stroke-linejoin:round;stroke:rgb(24.313725%,67.45098%,68.235294%);stroke-opacity:1;stroke-miterlimit:10;" d="M 111.464844 184.882812 L 111.464844 163.285156 "/>
<path style="fill:none;stroke-width:1.066978;stroke-linecap:butt;stroke-linejoin:round;stroke:rgb(48.627451%,60.392157%,59.607843%);stroke-opacity:1;stroke-miterlimit:10;" d="M 100.226562 154.949219 L 100.226562 139.382812 "/>
<path style="fill:none;stroke-width:1.066978;stroke-linecap:butt;stroke-linejoin:round;stroke:rgb(72.941176%,53.333333%,50.980392%);stroke-opacity:1;stroke-miterlimit:10;" d="M 88.984375 85.039062 L 88.984375 57.21875 "/>
<path style="fill:none;stroke-width:1.066978;stroke-linecap:butt;stroke-linejoin:round;stroke:rgb(97.254902%,46.27451%,42.745098%);stroke-opacity:1;stroke-miterlimit:10;" d="M 77.746094 52.300781 L 77.746094 44.519531 "/>
<path style="fill:none;stroke-width:1.066978;stroke-linecap:butt;stroke-linejoin:round;stroke:rgb(0%,74.901961%,76.862745%);stroke-opacity:1;stroke-miterlimit:10;" d="M 235.09375 272.453125 L 235.09375 250.378906 "/>
<path style="fill:none;stroke-width:1.066978;stroke-linecap:butt;stroke-linejoin:round;stroke:rgb(24.313725%,67.45098%,68.235294%);stroke-opacity:1;stroke-miterlimit:10;" d="M 223.855469 203.511719 L 223.855469 180.710938 "/>
<path style="fill:none;stroke-width:1.066978;stroke-linecap:butt;stroke-linejoin:round;stroke:rgb(48.627451%,60.392157%,59.607843%);stroke-opacity:1;stroke-miterlimit:10;" d="M 212.613281 143.003906 L 212.613281 127.667969 "/>
<path style="fill:none;stroke-width:1.066978;stroke-linecap:butt;stroke-linejoin:round;stroke:rgb(72.941176%,53.333333%,50.980392%);stroke-opacity:1;stroke-miterlimit:10;" d="M 201.375 76.363281 L 201.375 48.535156 "/>
<path style="fill:none;stroke-width:1.066978;stroke-linecap:butt;stroke-linejoin:round;stroke:rgb(97.254902%,46.27451%,42.745098%);stroke-opacity:1;stroke-miterlimit:10;" d="M 190.136719 58.582031 L 190.136719 51.089844 "/>
<path style="fill:none;stroke-width:1.066978;stroke-linecap:butt;stroke-linejoin:round;stroke:rgb(0%,74.901961%,76.862745%);stroke-opacity:1;stroke-miterlimit:10;" d="M 347.480469 379.746094 L 347.480469 338.144531 "/>
<path style="fill:none;stroke-width:1.066978;stroke-linecap:butt;stroke-linejoin:round;stroke:rgb(24.313725%,67.45098%,68.235294%);stroke-opacity:1;stroke-miterlimit:10;" d="M 336.242188 254.152344 L 336.242188 225.289062 "/>
<path style="fill:none;stroke-width:1.066978;stroke-linecap:butt;stroke-linejoin:round;stroke:rgb(48.627451%,60.392157%,59.607843%);stroke-opacity:1;stroke-miterlimit:10;" d="M 325.003906 144.441406 L 325.003906 124.949219 "/>
<path style="fill:none;stroke-width:1.066978;stroke-linecap:butt;stroke-linejoin:round;stroke:rgb(72.941176%,53.333333%,50.980392%);stroke-opacity:1;stroke-miterlimit:10;" d="M 313.765625 52.316406 L 313.765625 23.300781 "/>
<path style="fill:none;stroke-width:1.066978;stroke-linecap:butt;stroke-linejoin:round;stroke:rgb(97.254902%,46.27451%,42.745098%);stroke-opacity:1;stroke-miterlimit:10;" d="M 302.527344 53.570312 L 302.527344 45.738281 "/>
<path style="fill:none;stroke-width:1.066978;stroke-linecap:butt;stroke-linejoin:round;stroke:rgb(0%,74.901961%,76.862745%);stroke-opacity:1;stroke-miterlimit:10;" d="M 459.871094 375.601562 L 459.871094 344.671875 "/>
<path style="fill:none;stroke-width:1.066978;stroke-linecap:butt;stroke-linejoin:round;stroke:rgb(24.313725%,67.45098%,68.235294%);stroke-opacity:1;stroke-miterlimit:10;" d="M 448.632812 282.675781 L 448.632812 250.339844 "/>
<path style="fill:none;stroke-width:1.066978;stroke-linecap:butt;stroke-linejoin:round;stroke:rgb(48.627451%,60.392157%,59.607843%);stroke-opacity:1;stroke-miterlimit:10;" d="M 437.394531 131.207031 L 437.394531 109.566406 "/>
<path style="fill:none;stroke-width:1.066978;stroke-linecap:butt;stroke-linejoin:round;stroke:rgb(72.941176%,53.333333%,50.980392%);stroke-opacity:1;stroke-miterlimit:10;" d="M 426.15625 68.726562 L 426.15625 46.222656 "/>
<path style="fill:none;stroke-width:1.066978;stroke-linecap:butt;stroke-linejoin:round;stroke:rgb(97.254902%,46.27451%,42.745098%);stroke-opacity:1;stroke-miterlimit:10;" d="M 414.917969 66.589844 L 414.917969 58.230469 "/>
<path style="fill-rule:nonzero;fill:rgb(0%,74.901961%,76.862745%);fill-opacity:1;stroke-width:1.417323;stroke-linecap:round;stroke-linejoin:round;stroke:rgb(0%,74.901961%,76.862745%);stroke-opacity:1;stroke-miterlimit:10;" d="M 125.546875 244.898438 C 125.546875 248.691406 119.859375 248.691406 119.859375 244.898438 C 119.859375 241.109375 125.546875 241.109375 125.546875 244.898438 "/>
<path style="fill-rule:nonzero;fill:rgb(24.313725%,67.45098%,68.235294%);fill-opacity:1;stroke-width:1.417323;stroke-linecap:round;stroke-linejoin:round;stroke:rgb(24.313725%,67.45098%,68.235294%);stroke-opacity:1;stroke-miterlimit:10;" d="M 114.304688 174.085938 C 114.304688 177.875 108.621094 177.875 108.621094 174.085938 C 108.621094 170.292969 114.304688 170.292969 114.304688 174.085938 "/>
<path style="fill-rule:nonzero;fill:rgb(48.627451%,60.392157%,59.607843%);fill-opacity:1;stroke-width:1.417323;stroke-linecap:round;stroke-linejoin:round;stroke:rgb(48.627451%,60.392157%,59.607843%);stroke-opacity:1;stroke-miterlimit:10;" d="M 103.066406 147.164062 C 103.066406 150.957031 97.382812 150.957031 97.382812 147.164062 C 97.382812 143.375 103.066406 143.375 103.066406 147.164062 "/>
<path style="fill-rule:nonzero;fill:rgb(72.941176%,53.333333%,50.980392%);fill-opacity:1;stroke-width:1.417323;stroke-linecap:round;stroke-linejoin:round;stroke:rgb(72.941176%,53.333333%,50.980392%);stroke-opacity:1;stroke-miterlimit:10;" d="M 91.828125 71.128906 C 91.828125 74.921875 86.144531 74.921875 86.144531 71.128906 C 86.144531 67.339844 91.828125 67.339844 91.828125 71.128906 "/>
<path style="fill-rule:nonzero;fill:rgb(97.254902%,46.27451%,42.745098%);fill-opacity:1;stroke-width:1.417323;stroke-linecap:round;stroke-linejoin:round;stroke:rgb(97.254902%,46.27451%,42.745098%);stroke-opacity:1;stroke-miterlimit:10;" d="M 80.589844 48.410156 C 80.589844 52.199219 74.902344 52.199219 74.902344 48.410156 C 74.902344 44.621094 80.589844 44.621094 80.589844 48.410156 "/>
<path style="fill-rule:nonzero;fill:rgb(0%,74.901961%,76.862745%);fill-opacity:1;stroke-width:1.417323;stroke-linecap:round;stroke-linejoin:round;stroke:rgb(0%,74.901961%,76.862745%);stroke-opacity:1;stroke-miterlimit:10;" d="M 237.933594 261.414062 C 237.933594 265.207031 232.25 265.207031 232.25 261.414062 C 232.25 257.625 237.933594 257.625 237.933594 261.414062 "/>
<path style="fill-rule:nonzero;fill:rgb(24.313725%,67.45098%,68.235294%);fill-opacity:1;stroke-width:1.417323;stroke-linecap:round;stroke-linejoin:round;stroke:rgb(24.313725%,67.45098%,68.235294%);stroke-opacity:1;stroke-miterlimit:10;" d="M 226.695312 192.113281 C 226.695312 195.902344 221.011719 195.902344 221.011719 192.113281 C 221.011719 188.320312 226.695312 188.320312 226.695312 192.113281 "/>
<path style="fill-rule:nonzero;fill:rgb(48.627451%,60.392157%,59.607843%);fill-opacity:1;stroke-width:1.417323;stroke-linecap:round;stroke-linejoin:round;stroke:rgb(48.627451%,60.392157%,59.607843%);stroke-opacity:1;stroke-miterlimit:10;" d="M 215.457031 135.335938 C 215.457031 139.128906 209.773438 139.128906 209.773438 135.335938 C 209.773438 131.546875 215.457031 131.546875 215.457031 135.335938 "/>
<path style="fill-rule:nonzero;fill:rgb(72.941176%,53.333333%,50.980392%);fill-opacity:1;stroke-width:1.417323;stroke-linecap:round;stroke-linejoin:round;stroke:rgb(72.941176%,53.333333%,50.980392%);stroke-opacity:1;stroke-miterlimit:10;" d="M 204.21875 62.449219 C 204.21875 66.238281 198.53125 66.238281 198.53125 62.449219 C 198.53125 58.660156 204.21875 58.660156 204.21875 62.449219 "/>
<path style="fill-rule:nonzero;fill:rgb(97.254902%,46.27451%,42.745098%);fill-opacity:1;stroke-width:1.417323;stroke-linecap:round;stroke-linejoin:round;stroke:rgb(97.254902%,46.27451%,42.745098%);stroke-opacity:1;stroke-miterlimit:10;" d="M 192.980469 54.835938 C 192.980469 58.625 187.292969 58.625 187.292969 54.835938 C 187.292969 51.046875 192.980469 51.046875 192.980469 54.835938 "/>
<path style="fill-rule:nonzero;fill:rgb(0%,74.901961%,76.862745%);fill-opacity:1;stroke-width:1.417323;stroke-linecap:round;stroke-linejoin:round;stroke:rgb(0%,74.901961%,76.862745%);stroke-opacity:1;stroke-miterlimit:10;" d="M 350.324219 358.945312 C 350.324219 362.738281 344.640625 362.738281 344.640625 358.945312 C 344.640625 355.15625 350.324219 355.15625 350.324219 358.945312 "/>
<path style="fill-rule:nonzero;fill:rgb(24.313725%,67.45098%,68.235294%);fill-opacity:1;stroke-width:1.417323;stroke-linecap:round;stroke-linejoin:round;stroke:rgb(24.313725%,67.45098%,68.235294%);stroke-opacity:1;stroke-miterlimit:10;" d="M 339.085938 239.71875 C 339.085938 243.511719 333.402344 243.511719 333.402344 239.71875 C 333.402344 235.929688 339.085938 235.929688 339.085938 239.71875 "/>
<path style="fill-rule:nonzero;fill:rgb(48.627451%,60.392157%,59.607843%);fill-opacity:1;stroke-width:1.417323;stroke-linecap:round;stroke-linejoin:round;stroke:rgb(48.627451%,60.392157%,59.607843%);stroke-opacity:1;stroke-miterlimit:10;" d="M 327.847656 134.695312 C 327.847656 138.484375 322.160156 138.484375 322.160156 134.695312 C 322.160156 130.90625 327.847656 130.90625 327.847656 134.695312 "/>
<path style="fill-rule:nonzero;fill:rgb(72.941176%,53.333333%,50.980392%);fill-opacity:1;stroke-width:1.417323;stroke-linecap:round;stroke-linejoin:round;stroke:rgb(72.941176%,53.333333%,50.980392%);stroke-opacity:1;stroke-miterlimit:10;" d="M 316.609375 37.808594 C 316.609375 41.597656 310.921875 41.597656 310.921875 37.808594 C 310.921875 34.019531 316.609375 34.019531 316.609375 37.808594 "/>
<path style="fill-rule:nonzero;fill:rgb(97.254902%,46.27451%,42.745098%);fill-opacity:1;stroke-width:1.417323;stroke-linecap:round;stroke-linejoin:round;stroke:rgb(97.254902%,46.27451%,42.745098%);stroke-opacity:1;stroke-miterlimit:10;" d="M 305.367188 49.65625 C 305.367188 53.445312 299.683594 53.445312 299.683594 49.65625 C 299.683594 45.863281 305.367188 45.863281 305.367188 49.65625 "/>
<path style="fill-rule:nonzero;fill:rgb(0%,74.901961%,76.862745%);fill-opacity:1;stroke-width:1.417323;stroke-linecap:round;stroke-linejoin:round;stroke:rgb(0%,74.901961%,76.862745%);stroke-opacity:1;stroke-miterlimit:10;" d="M 462.714844 360.136719 C 462.714844 363.925781 457.03125 363.925781 457.03125 360.136719 C 457.03125 356.347656 462.714844 356.347656 462.714844 360.136719 "/>
<path style="fill-rule:nonzero;fill:rgb(24.313725%,67.45098%,68.235294%);fill-opacity:1;stroke-width:1.417323;stroke-linecap:round;stroke-linejoin:round;stroke:rgb(24.313725%,67.45098%,68.235294%);stroke-opacity:1;stroke-miterlimit:10;" d="M 451.476562 266.507812 C 451.476562 270.300781 445.789062 270.300781 445.789062 266.507812 C 445.789062 262.71875 451.476562 262.71875 451.476562 266.507812 "/>
<path style="fill-rule:nonzero;fill:rgb(48.627451%,60.392157%,59.607843%);fill-opacity:1;stroke-width:1.417323;stroke-linecap:round;stroke-linejoin:round;stroke:rgb(48.627451%,60.392157%,59.607843%);stroke-opacity:1;stroke-miterlimit:10;" d="M 440.238281 120.386719 C 440.238281 124.175781 434.550781 124.175781 434.550781 120.386719 C 434.550781 116.597656 440.238281 116.597656 440.238281 120.386719 "/>
<path style="fill-rule:nonzero;fill:rgb(72.941176%,53.333333%,50.980392%);fill-opacity:1;stroke-width:1.417323;stroke-linecap:round;stroke-linejoin:round;stroke:rgb(72.941176%,53.333333%,50.980392%);stroke-opacity:1;stroke-miterlimit:10;" d="M 428.996094 57.476562 C 428.996094 61.265625 423.3125 61.265625 423.3125 57.476562 C 423.3125 53.683594 428.996094 53.683594 428.996094 57.476562 "/>
<path style="fill-rule:nonzero;fill:rgb(97.254902%,46.27451%,42.745098%);fill-opacity:1;stroke-width:1.417323;stroke-linecap:round;stroke-linejoin:round;stroke:rgb(97.254902%,46.27451%,42.745098%);stroke-opacity:1;stroke-miterlimit:10;" d="M 417.757812 62.410156 C 417.757812 66.199219 412.074219 66.199219 412.074219 62.410156 C 412.074219 58.621094 417.757812 58.621094 417.757812 62.410156 "/>
<g style="fill:rgb(30.196078%,30.196078%,30.196078%);fill-opacity:1;">
  <use xlink:href="#glyph0-1" x="19.859375" y="385.985352"/>
  <use xlink:href="#glyph0-2" x="22.790039" y="385.985352"/>
</g>
<g style="fill:rgb(30.196078%,30.196078%,30.196078%);fill-opacity:1;">
  <use xlink:href="#glyph0-1" x="19.859375" y="280.313477"/>
  <use xlink:href="#glyph0-3" x="22.790039" y="280.313477"/>
</g>
<g style="fill:rgb(30.196078%,30.196078%,30.196078%);fill-opacity:1;">
  <use xlink:href="#glyph0-1" x="19.859375" y="174.645508"/>
  <use xlink:href="#glyph0-4" x="22.790039" y="174.645508"/>
</g>
<g style="fill:rgb(30.196078%,30.196078%,30.196078%);fill-opacity:1;">
  <use xlink:href="#glyph0-5" x="22.859375" y="68.977539"/>
</g>
<path style="fill:none;stroke-width:1.066978;stroke-linecap:butt;stroke-linejoin:round;stroke:rgb(20%,20%,20%);stroke-opacity:1;stroke-miterlimit:10;" d="M 30.050781 383.382812 L 32.789062 383.382812 "/>
<path style="fill:none;stroke-width:1.066978;stroke-linecap:butt;stroke-linejoin:round;stroke:rgb(20%,20%,20%);stroke-opacity:1;stroke-miterlimit:10;" d="M 30.050781 277.710938 L 32.789062 277.710938 "/>
<path style="fill:none;stroke-width:1.066978;stroke-linecap:butt;stroke-linejoin:round;stroke:rgb(20%,20%,20%);stroke-opacity:1;stroke-miterlimit:10;" d="M 30.050781 172.042969 L 32.789062 172.042969 "/>
<path style="fill:none;stroke-width:1.066978;stroke-linecap:butt;stroke-linejoin:round;stroke:rgb(20%,20%,20%);stroke-opacity:1;stroke-miterlimit:10;" d="M 30.050781 66.375 L 32.789062 66.375 "/>
<path style="fill:none;stroke-width:1.066978;stroke-linecap:butt;stroke-linejoin:round;stroke:rgb(20%,20%,20%);stroke-opacity:1;stroke-miterlimit:10;" d="M 100.226562 400.308594 L 100.226562 397.570312 "/>
<path style="fill:none;stroke-width:1.066978;stroke-linecap:butt;stroke-linejoin:round;stroke:rgb(20%,20%,20%);stroke-opacity:1;stroke-miterlimit:10;" d="M 212.613281 400.308594 L 212.613281 397.570312 "/>
<path style="fill:none;stroke-width:1.066978;stroke-linecap:butt;stroke-linejoin:round;stroke:rgb(20%,20%,20%);stroke-opacity:1;stroke-miterlimit:10;" d="M 325.003906 400.308594 L 325.003906 397.570312 "/>
<path style="fill:none;stroke-width:1.066978;stroke-linecap:butt;stroke-linejoin:round;stroke:rgb(20%,20%,20%);stroke-opacity:1;stroke-miterlimit:10;" d="M 437.394531 400.308594 L 437.394531 397.570312 "/>
<g style="fill:rgb(30.196078%,30.196078%,30.196078%);fill-opacity:1;">
  <use xlink:href="#glyph0-6" x="74.726562" y="408.602539"/>
  <use xlink:href="#glyph0-7" x="80.595703" y="408.602539"/>
  <use xlink:href="#glyph0-8" x="85.488281" y="408.602539"/>
  <use xlink:href="#glyph0-9" x="87.441406" y="408.602539"/>
  <use xlink:href="#glyph0-9" x="89.394531" y="408.602539"/>
  <use xlink:href="#glyph0-10" x="91.347656" y="408.602539"/>
  <use xlink:href="#glyph0-11" x="96.240234" y="408.602539"/>
  <use xlink:href="#glyph0-12" x="102.109375" y="408.602539"/>
  <use xlink:href="#glyph0-13" x="109.439453" y="408.602539"/>
  <use xlink:href="#glyph0-14" x="116.286133" y="408.602539"/>
  <use xlink:href="#glyph0-15" x="118.732422" y="408.602539"/>
</g>
<g style="fill:rgb(30.196078%,30.196078%,30.196078%);fill-opacity:1;">
  <use xlink:href="#glyph0-6" x="186.613281" y="408.602539"/>
  <use xlink:href="#glyph0-7" x="192.482422" y="408.602539"/>
  <use xlink:href="#glyph0-8" x="197.375" y="408.602539"/>
  <use xlink:href="#glyph0-9" x="199.328125" y="408.602539"/>
  <use xlink:href="#glyph0-9" x="201.28125" y="408.602539"/>
  <use xlink:href="#glyph0-10" x="203.234375" y="408.602539"/>
  <use xlink:href="#glyph0-11" x="208.126953" y="408.602539"/>
  <use xlink:href="#glyph0-12" x="213.996094" y="408.602539"/>
  <use xlink:href="#glyph0-13" x="221.326172" y="408.602539"/>
  <use xlink:href="#glyph0-14" x="228.172852" y="408.602539"/>
  <use xlink:href="#glyph0-16" x="230.619141" y="408.602539"/>
  <use xlink:href="#glyph0-17" x="235.996094" y="408.602539"/>
</g>
<g style="fill:rgb(30.196078%,30.196078%,30.196078%);fill-opacity:1;">
  <use xlink:href="#glyph0-6" x="303.003906" y="408.602539"/>
  <use xlink:href="#glyph0-7" x="308.873047" y="408.602539"/>
  <use xlink:href="#glyph0-8" x="313.765625" y="408.602539"/>
  <use xlink:href="#glyph0-9" x="315.71875" y="408.602539"/>
  <use xlink:href="#glyph0-9" x="317.671875" y="408.602539"/>
  <use xlink:href="#glyph0-10" x="319.625" y="408.602539"/>
  <use xlink:href="#glyph0-18" x="324.517578" y="408.602539"/>
  <use xlink:href="#glyph0-14" x="329.410156" y="408.602539"/>
  <use xlink:href="#glyph0-19" x="331.856445" y="408.602539"/>
  <use xlink:href="#glyph0-14" x="336.749023" y="408.602539"/>
  <use xlink:href="#glyph0-15" x="339.195312" y="408.602539"/>
</g>
<g style="fill:rgb(30.196078%,30.196078%,30.196078%);fill-opacity:1;">
  <use xlink:href="#glyph0-6" x="414.894531" y="408.602539"/>
  <use xlink:href="#glyph0-7" x="420.763672" y="408.602539"/>
  <use xlink:href="#glyph0-8" x="425.65625" y="408.602539"/>
  <use xlink:href="#glyph0-9" x="427.609375" y="408.602539"/>
  <use xlink:href="#glyph0-9" x="429.5625" y="408.602539"/>
  <use xlink:href="#glyph0-10" x="431.515625" y="408.602539"/>
  <use xlink:href="#glyph0-18" x="436.408203" y="408.602539"/>
  <use xlink:href="#glyph0-14" x="441.300781" y="408.602539"/>
  <use xlink:href="#glyph0-19" x="443.74707" y="408.602539"/>
  <use xlink:href="#glyph0-14" x="448.639648" y="408.602539"/>
  <use xlink:href="#glyph0-16" x="451.085938" y="408.602539"/>
  <use xlink:href="#glyph0-17" x="456.462891" y="408.602539"/>
</g>
<g style="fill:rgb(0%,0%,0%);fill-opacity:1;">
  <use xlink:href="#glyph1-1" x="252.808594" y="423.506836"/>
  <use xlink:href="#glyph1-2" x="260.145508" y="423.506836"/>
  <use xlink:href="#glyph1-3" x="266.261719" y="423.506836"/>
  <use xlink:href="#glyph1-4" x="271.761719" y="423.506836"/>
  <use xlink:href="#glyph1-5" x="274.708984" y="423.506836"/>
  <use xlink:href="#glyph1-6" x="280.825195" y="423.506836"/>
</g>
<g style="fill:rgb(0%,0%,0%);fill-opacity:1;">
  <use xlink:href="#glyph2-1" x="14.108398" y="216.523438"/>
  <use xlink:href="#glyph2-2" x="14.108398" y="207.360352"/>
  <use xlink:href="#glyph2-3" x="14.108398" y="201.244141"/>
  <use xlink:href="#glyph2-4" x="14.108398" y="195.12793"/>
  <use xlink:href="#glyph2-5" x="14.108398" y="192.685547"/>
</g>
<path style=" stroke:none;fill-rule:nonzero;fill:rgb(100%,100%,100%);fill-opacity:1;" d="M 515.789062 258.210938 L 570.523438 258.210938 L 570.523438 144.835938 L 515.789062 144.835938 Z M 515.789062 258.210938 "/>
<g style="fill:rgb(0%,0%,0%);fill-opacity:1;">
  <use xlink:href="#glyph1-7" x="521.265625" y="159.713867"/>
  <use xlink:href="#glyph1-8" x="528.602539" y="159.713867"/>
  <use xlink:href="#glyph1-4" x="534.047852" y="159.713867"/>
  <use xlink:href="#glyph1-9" x="537.105469" y="159.713867"/>
  <use xlink:href="#glyph1-10" x="543.22168" y="159.713867"/>
  <use xlink:href="#glyph1-11" x="549.337891" y="159.713867"/>
  <use xlink:href="#glyph1-5" x="551.780273" y="159.713867"/>
</g>
<path style="fill-rule:nonzero;fill:rgb(94.901961%,94.901961%,94.901961%);fill-opacity:1;stroke-width:1.066978;stroke-linecap:round;stroke-linejoin:round;stroke:rgb(100%,100%,100%);stroke-opacity:1;stroke-miterlimit:10;" d="M 521.265625 183.613281 L 538.546875 183.613281 L 538.546875 166.332031 L 521.265625 166.332031 Z M 521.265625 183.613281 "/>
<path style="fill:none;stroke-width:1.066978;stroke-linecap:butt;stroke-linejoin:round;stroke:rgb(97.254902%,46.27451%,42.745098%);stroke-opacity:1;stroke-miterlimit:10;" d="M 529.90625 181.886719 L 529.90625 168.0625 "/>
<path style="fill-rule:nonzero;fill:rgb(97.254902%,46.27451%,42.745098%);fill-opacity:1;stroke-width:1.417323;stroke-linecap:round;stroke-linejoin:round;stroke:rgb(97.254902%,46.27451%,42.745098%);stroke-opacity:1;stroke-miterlimit:10;" d="M 532.75 174.972656 C 532.75 178.761719 527.0625 178.761719 527.0625 174.972656 C 527.0625 171.183594 532.75 171.183594 532.75 174.972656 "/>
<path style="fill-rule:nonzero;fill:rgb(94.901961%,94.901961%,94.901961%);fill-opacity:1;stroke-width:1.066978;stroke-linecap:round;stroke-linejoin:round;stroke:rgb(100%,100%,100%);stroke-opacity:1;stroke-miterlimit:10;" d="M 521.265625 200.894531 L 538.546875 200.894531 L 538.546875 183.613281 L 521.265625 183.613281 Z M 521.265625 200.894531 "/>
<path style="fill:none;stroke-width:1.066978;stroke-linecap:butt;stroke-linejoin:round;stroke:rgb(72.941176%,53.333333%,50.980392%);stroke-opacity:1;stroke-miterlimit:10;" d="M 529.90625 199.164062 L 529.90625 185.339844 "/>
<path style="fill-rule:nonzero;fill:rgb(72.941176%,53.333333%,50.980392%);fill-opacity:1;stroke-width:1.417323;stroke-linecap:round;stroke-linejoin:round;stroke:rgb(72.941176%,53.333333%,50.980392%);stroke-opacity:1;stroke-miterlimit:10;" d="M 532.75 192.253906 C 532.75 196.042969 527.0625 196.042969 527.0625 192.253906 C 527.0625 188.464844 532.75 188.464844 532.75 192.253906 "/>
<path style="fill-rule:nonzero;fill:rgb(94.901961%,94.901961%,94.901961%);fill-opacity:1;stroke-width:1.066978;stroke-linecap:round;stroke-linejoin:round;stroke:rgb(100%,100%,100%);stroke-opacity:1;stroke-miterlimit:10;" d="M 521.265625 218.171875 L 538.546875 218.171875 L 538.546875 200.890625 L 521.265625 200.890625 Z M 521.265625 218.171875 "/>
<path style="fill:none;stroke-width:1.066978;stroke-linecap:butt;stroke-linejoin:round;stroke:rgb(48.627451%,60.392157%,59.607843%);stroke-opacity:1;stroke-miterlimit:10;" d="M 529.90625 216.445312 L 529.90625 202.621094 "/>
<path style="fill-rule:nonzero;fill:rgb(48.627451%,60.392157%,59.607843%);fill-opacity:1;stroke-width:1.417323;stroke-linecap:round;stroke-linejoin:round;stroke:rgb(48.627451%,60.392157%,59.607843%);stroke-opacity:1;stroke-miterlimit:10;" d="M 532.75 209.53125 C 532.75 213.324219 527.0625 213.324219 527.0625 209.53125 C 527.0625 205.742188 532.75 205.742188 532.75 209.53125 "/>
<path style="fill-rule:nonzero;fill:rgb(94.901961%,94.901961%,94.901961%);fill-opacity:1;stroke-width:1.066978;stroke-linecap:round;stroke-linejoin:round;stroke:rgb(100%,100%,100%);stroke-opacity:1;stroke-miterlimit:10;" d="M 521.265625 235.453125 L 538.546875 235.453125 L 538.546875 218.171875 L 521.265625 218.171875 Z M 521.265625 235.453125 "/>
<path style="fill:none;stroke-width:1.066978;stroke-linecap:butt;stroke-linejoin:round;stroke:rgb(24.313725%,67.45098%,68.235294%);stroke-opacity:1;stroke-miterlimit:10;" d="M 529.90625 233.726562 L 529.90625 219.902344 "/>
<path style="fill-rule:nonzero;fill:rgb(24.313725%,67.45098%,68.235294%);fill-opacity:1;stroke-width:1.417323;stroke-linecap:round;stroke-linejoin:round;stroke:rgb(24.313725%,67.45098%,68.235294%);stroke-opacity:1;stroke-miterlimit:10;" d="M 532.75 226.8125 C 532.75 230.601562 527.0625 230.601562 527.0625 226.8125 C 527.0625 223.023438 532.75 223.023438 532.75 226.8125 "/>
<path style="fill-rule:nonzero;fill:rgb(94.901961%,94.901961%,94.901961%);fill-opacity:1;stroke-width:1.066978;stroke-linecap:round;stroke-linejoin:round;stroke:rgb(100%,100%,100%);stroke-opacity:1;stroke-miterlimit:10;" d="M 521.265625 252.734375 L 538.546875 252.734375 L 538.546875 235.453125 L 521.265625 235.453125 Z M 521.265625 252.734375 "/>
<path style="fill:none;stroke-width:1.066978;stroke-linecap:butt;stroke-linejoin:round;stroke:rgb(0%,74.901961%,76.862745%);stroke-opacity:1;stroke-miterlimit:10;" d="M 529.90625 251.003906 L 529.90625 237.179688 "/>
<path style="fill-rule:nonzero;fill:rgb(0%,74.901961%,76.862745%);fill-opacity:1;stroke-width:1.417323;stroke-linecap:round;stroke-linejoin:round;stroke:rgb(0%,74.901961%,76.862745%);stroke-opacity:1;stroke-miterlimit:10;" d="M 532.75 244.09375 C 532.75 247.882812 527.0625 247.882812 527.0625 244.09375 C 527.0625 240.304688 532.75 240.304688 532.75 244.09375 "/>
<g style="fill:rgb(0%,0%,0%);fill-opacity:1;">
  <use xlink:href="#glyph0-20" x="544.027344" y="177.575195"/>
  <use xlink:href="#glyph0-21" x="549.896484" y="177.575195"/>
  <use xlink:href="#glyph0-7" x="554.789062" y="177.575195"/>
  <use xlink:href="#glyph0-10" x="559.681641" y="177.575195"/>
</g>
<g style="fill:rgb(0%,0%,0%);fill-opacity:1;">
  <use xlink:href="#glyph0-17" x="544.027344" y="194.856445"/>
</g>
<g style="fill:rgb(0%,0%,0%);fill-opacity:1;">
  <use xlink:href="#glyph0-17" x="544.027344" y="212.133789"/>
  <use xlink:href="#glyph0-17" x="546.473633" y="212.133789"/>
</g>
<g style="fill:rgb(0%,0%,0%);fill-opacity:1;">
  <use xlink:href="#glyph0-17" x="544.027344" y="229.415039"/>
  <use xlink:href="#glyph0-17" x="546.473633" y="229.415039"/>
  <use xlink:href="#glyph0-17" x="548.919922" y="229.415039"/>
</g>
<g style="fill:rgb(0%,0%,0%);fill-opacity:1;">
  <use xlink:href="#glyph0-17" x="544.027344" y="246.696289"/>
  <use xlink:href="#glyph0-22" x="546.473633" y="246.696289"/>
</g>
</g>
</svg>
