<?xml version="1.0" encoding="UTF-8"?>
<svg xmlns="http://www.w3.org/2000/svg" xmlns:xlink="http://www.w3.org/1999/xlink" width="576pt" height="432pt" viewBox="0 0 576 432" version="1.1">
<defs>
<g>
<symbol overflow="visible" id="glyph0-0">
<path style="stroke:none;" d=""/>
</symbol>
<symbol overflow="visible" id="glyph0-1">
<path style="stroke:none;" d="M 5.953125 -2.34375 L 5.109375 -2.34375 C 4.921875 -1.125 4.40625 -0.5625 3.328125 -0.5625 C 2.046875 -0.5625 1.234375 -1.546875 1.234375 -3.140625 C 1.234375 -4.78125 2.015625 -5.84375 3.25 -5.84375 C 4.25 -5.84375 4.78125 -5.40625 4.984375 -4.421875 L 5.828125 -4.421875 C 5.5625 -5.828125 4.765625 -6.578125 3.359375 -6.578125 C 1.40625 -6.578125 0.421875 -5 0.421875 -3.125 C 0.421875 -1.265625 1.4375 0.15625 3.3125 0.15625 C 4.875 0.15625 5.765625 -0.671875 5.953125 -2.34375 Z M 5.953125 -2.34375 "/>
</symbol>
<symbol overflow="visible" id="glyph0-2">
<path style="stroke:none;" d="M 4.515625 -2.09375 C 4.515625 -2.765625 4.453125 -3.1875 4.328125 -3.53125 C 4.03125 -4.28125 3.328125 -4.734375 2.46875 -4.734375 C 1.171875 -4.734375 0.359375 -3.796875 0.359375 -2.28125 C 0.359375 -0.765625 1.15625 0.125 2.453125 0.125 C 3.5 0.125 4.234375 -0.46875 4.421875 -1.40625 L 3.671875 -1.40625 C 3.46875 -0.796875 3.0625 -0.546875 2.46875 -0.546875 C 1.703125 -0.546875 1.140625 -1.03125 1.125 -2.09375 Z M 3.734375 -2.75 C 3.734375 -2.75 3.734375 -2.703125 3.71875 -2.6875 L 1.140625 -2.6875 C 1.203125 -3.515625 1.71875 -4.0625 2.453125 -4.0625 C 3.171875 -4.0625 3.734375 -3.46875 3.734375 -2.75 Z M 3.734375 -2.75 "/>
</symbol>
<symbol overflow="visible" id="glyph0-3">
<path style="stroke:none;" d="M 1.328125 0 L 1.328125 -6.40625 L 0.59375 -6.40625 L 0.59375 0 Z M 1.328125 0 "/>
</symbol>
<symbol overflow="visible" id="glyph0-4">
<path style="stroke:none;" d="M 4.359375 0 L 4.359375 -6.40625 L 3.625 -6.40625 L 3.625 -4.03125 C 3.3125 -4.5 2.828125 -4.734375 2.203125 -4.734375 C 1.015625 -4.734375 0.234375 -3.8125 0.234375 -2.34375 C 0.234375 -0.796875 1 0.125 2.234375 0.125 C 2.875 0.125 3.3125 -0.109375 3.703125 -0.671875 L 3.703125 0 Z M 3.625 -2.28125 C 3.625 -1.21875 3.109375 -0.546875 2.34375 -0.546875 C 1.53125 -0.546875 1 -1.234375 1 -2.3125 C 1 -3.375 1.53125 -4.0625 2.328125 -4.0625 C 3.125 -4.0625 3.625 -3.359375 3.625 -2.28125 Z M 3.625 -2.28125 "/>
</symbol>
<symbol overflow="visible" id="glyph0-5">
<path style="stroke:none;" d="M 4.703125 -0.015625 L 4.703125 -0.578125 C 4.625 -0.546875 4.59375 -0.546875 4.546875 -0.546875 C 4.296875 -0.546875 4.15625 -0.6875 4.15625 -0.921875 L 4.15625 -3.484375 C 4.15625 -4.296875 3.546875 -4.734375 2.421875 -4.734375 C 1.296875 -4.734375 0.609375 -4.3125 0.578125 -3.25 L 1.3125 -3.25 C 1.375 -3.8125 1.703125 -4.0625 2.390625 -4.0625 C 3.046875 -4.0625 3.421875 -3.8125 3.421875 -3.375 L 3.421875 -3.1875 C 3.421875 -2.875 3.234375 -2.75 2.65625 -2.671875 C 1.625 -2.546875 1.453125 -2.5 1.171875 -2.390625 C 0.640625 -2.171875 0.375 -1.765625 0.375 -1.203125 C 0.375 -0.359375 0.953125 0.125 1.875 0.125 C 2.46875 0.125 3.046875 -0.109375 3.453125 -0.546875 C 3.53125 -0.1875 3.84375 0.0625 4.203125 0.0625 C 4.359375 0.0625 4.46875 0.046875 4.703125 -0.015625 Z M 3.421875 -1.59375 C 3.421875 -0.9375 2.75 -0.515625 2.046875 -0.515625 C 1.46875 -0.515625 1.140625 -0.71875 1.140625 -1.21875 C 1.140625 -1.703125 1.453125 -1.90625 2.25 -2.015625 C 3.015625 -2.125 3.171875 -2.15625 3.421875 -2.28125 Z M 3.421875 -1.59375 "/>
</symbol>
<symbol overflow="visible" id="glyph0-6">
<path style="stroke:none;" d="M 1.6875 0 L 1.6875 -0.921875 L 0.765625 -0.921875 L 0.765625 0 Z M 1.6875 0 "/>
</symbol>
<symbol overflow="visible" id="glyph0-7">
<path style="stroke:none;" d="M 5.671875 0 L 5.671875 -6.40625 L 4.84375 -6.40625 L 4.84375 -3.640625 L 1.546875 -3.640625 L 1.546875 -6.40625 L 0.734375 -6.40625 L 0.734375 0 L 1.546875 0 L 1.546875 -2.921875 L 4.84375 -2.921875 L 4.84375 0 Z M 5.671875 0 "/>
</symbol>
<symbol overflow="visible" id="glyph0-8">
<path style="stroke:none;" d="M 1.703125 0 L 1.703125 -6.40625 L 0.875 -6.40625 L 0.875 0 Z M 1.703125 0 "/>
</symbol>
<symbol overflow="visible" id="glyph0-9">
<path style="stroke:none;" d="M 5.46875 -1.765625 C 5.46875 -2.546875 4.96875 -3.125 4.09375 -3.375 L 2.484375 -3.796875 C 1.71875 -4 1.4375 -4.25 1.4375 -4.75 C 1.4375 -5.40625 2 -5.890625 2.875 -5.890625 C 3.890625 -5.890625 4.46875 -5.421875 4.46875 -4.578125 L 5.25 -4.578125 C 5.25 -5.84375 4.375 -6.578125 2.890625 -6.578125 C 1.484375 -6.578125 0.609375 -5.796875 0.609375 -4.640625 C 0.609375 -3.859375 1.03125 -3.359375 1.875 -3.140625 L 3.46875 -2.71875 C 4.28125 -2.5 4.640625 -2.1875 4.640625 -1.6875 C 4.640625 -0.96875 4.109375 -0.5625 3.015625 -0.5625 C 1.796875 -0.5625 1.203125 -1.171875 1.203125 -2.078125 L 0.421875 -2.078125 C 0.421875 -0.578125 1.4375 0.15625 2.953125 0.15625 C 4.578125 0.15625 5.46875 -0.609375 5.46875 -1.765625 Z M 5.46875 -1.765625 "/>
</symbol>
<symbol overflow="visible" id="glyph0-10">
<path style="stroke:none;" d="M 4.6875 0 L 4.6875 -0.71875 L 1.515625 -0.71875 L 1.515625 -6.40625 L 0.703125 -6.40625 L 0.703125 0 Z M 4.6875 0 "/>
</symbol>
<symbol overflow="visible" id="glyph0-11">
<path style="stroke:none;" d="M 5.96875 0 L 5.96875 -0.203125 C 5.671875 -0.40625 5.59375 -0.640625 5.59375 -1.5 C 5.5625 -2.546875 5.40625 -2.875 4.71875 -3.171875 C 5.4375 -3.515625 5.734375 -3.96875 5.734375 -4.703125 C 5.734375 -5.8125 5.03125 -6.40625 3.78125 -6.40625 L 0.8125 -6.40625 L 0.8125 0 L 1.640625 0 L 1.640625 -2.765625 L 3.75 -2.765625 C 4.46875 -2.765625 4.8125 -2.40625 4.796875 -1.625 L 4.796875 -1.046875 C 4.78125 -0.65625 4.859375 -0.265625 4.984375 0 Z M 4.875 -4.578125 C 4.875 -3.828125 4.484375 -3.484375 3.609375 -3.484375 L 1.640625 -3.484375 L 1.640625 -5.6875 L 3.609375 -5.6875 C 4.53125 -5.6875 4.875 -5.296875 4.875 -4.578125 Z M 4.875 -4.578125 "/>
</symbol>
<symbol overflow="visible" id="glyph0-12">
<path style="stroke:none;" d="M 4.5 -4.40625 C 4.5 -5.46875 3.671875 -6.234375 2.5 -6.234375 C 1.21875 -6.234375 0.484375 -5.59375 0.4375 -4.078125 L 1.21875 -4.078125 C 1.28125 -5.125 1.703125 -5.5625 2.46875 -5.5625 C 3.171875 -5.5625 3.703125 -5.0625 3.703125 -4.390625 C 3.703125 -3.890625 3.40625 -3.46875 2.859375 -3.15625 L 2.046875 -2.703125 C 0.75 -1.96875 0.375 -1.375 0.296875 0 L 4.453125 0 L 4.453125 -0.765625 L 1.171875 -0.765625 C 1.25 -1.28125 1.53125 -1.59375 2.296875 -2.046875 L 3.171875 -2.53125 C 4.046875 -2.984375 4.5 -3.640625 4.5 -4.40625 Z M 4.5 -4.40625 "/>
</symbol>
<symbol overflow="visible" id="glyph0-13">
<path style="stroke:none;" d="M 4.578125 -1.5 L 4.578125 -2.1875 L 3.65625 -2.1875 L 3.65625 -6.234375 L 3.078125 -6.234375 L 0.25 -2.3125 L 0.25 -1.5 L 2.875 -1.5 L 2.875 0 L 3.65625 0 L 3.65625 -1.5 Z M 2.875 -2.1875 L 0.921875 -2.1875 L 2.875 -4.921875 Z M 2.875 -2.1875 "/>
</symbol>
<symbol overflow="visible" id="glyph0-14">
<path style="stroke:none;" d="M 4.515625 -1.765625 C 4.515625 -2.453125 4.15625 -2.9375 3.4375 -3.28125 C 4.078125 -3.671875 4.296875 -3.984375 4.296875 -4.578125 C 4.296875 -5.546875 3.53125 -6.234375 2.421875 -6.234375 C 1.3125 -6.234375 0.546875 -5.546875 0.546875 -4.578125 C 0.546875 -4 0.75 -3.671875 1.390625 -3.28125 C 0.671875 -2.9375 0.328125 -2.453125 0.328125 -1.765625 C 0.328125 -0.625 1.1875 0.125 2.421875 0.125 C 3.65625 0.125 4.515625 -0.625 4.515625 -1.765625 Z M 3.5 -4.5625 C 3.5 -3.96875 3.0625 -3.59375 2.421875 -3.59375 C 1.765625 -3.59375 1.34375 -3.96875 1.34375 -4.5625 C 1.34375 -5.15625 1.765625 -5.546875 2.421875 -5.546875 C 3.078125 -5.546875 3.5 -5.15625 3.5 -4.5625 Z M 3.71875 -1.75 C 3.71875 -1.015625 3.1875 -0.546875 2.40625 -0.546875 C 1.640625 -0.546875 1.125 -1.015625 1.125 -1.75 C 1.125 -2.484375 1.640625 -2.9375 2.421875 -2.9375 C 3.1875 -2.9375 3.71875 -2.484375 3.71875 -1.75 Z M 3.71875 -1.75 "/>
</symbol>
<symbol overflow="visible" id="glyph0-15">
<path style="stroke:none;" d="M 4.453125 -1.8125 C 4.453125 -2.5625 4.140625 -3.015625 3.390625 -3.265625 C 3.96875 -3.5 4.265625 -3.890625 4.265625 -4.515625 C 4.265625 -5.59375 3.546875 -6.234375 2.359375 -6.234375 C 1.109375 -6.234375 0.4375 -5.546875 0.40625 -4.21875 L 1.1875 -4.21875 C 1.203125 -5.140625 1.578125 -5.5625 2.375 -5.5625 C 3.0625 -5.5625 3.46875 -5.15625 3.46875 -4.5 C 3.46875 -3.828125 3.1875 -3.546875 1.9375 -3.546875 L 1.9375 -2.90625 L 2.359375 -2.90625 C 3.21875 -2.90625 3.65625 -2.5 3.65625 -1.796875 C 3.65625 -1.015625 3.171875 -0.546875 2.359375 -0.546875 C 1.515625 -0.546875 1.109375 -0.96875 1.0625 -1.875 L 0.28125 -1.875 C 0.375 -0.5 1.0625 0.125 2.34375 0.125 C 3.625 0.125 4.453125 -0.640625 4.453125 -1.8125 Z M 4.453125 -1.8125 "/>
</symbol>
<symbol overflow="visible" id="glyph0-16">
<path style="stroke:none;" d="M 4.515625 -1.9375 C 4.515625 -3.09375 3.71875 -3.875 2.609375 -3.875 C 1.984375 -3.875 1.5 -3.640625 1.171875 -3.1875 C 1.171875 -4.703125 1.671875 -5.546875 2.5625 -5.546875 C 3.109375 -5.546875 3.484375 -5.203125 3.609375 -4.609375 L 4.375 -4.609375 C 4.234375 -5.625 3.5625 -6.234375 2.609375 -6.234375 C 1.15625 -6.234375 0.375 -5.015625 0.375 -2.84375 C 0.375 -0.890625 1.046875 0.125 2.46875 0.125 C 3.65625 0.125 4.515625 -0.71875 4.515625 -1.9375 Z M 3.71875 -1.875 C 3.71875 -1.09375 3.1875 -0.546875 2.484375 -0.546875 C 1.765625 -0.546875 1.21875 -1.125 1.21875 -1.921875 C 1.21875 -2.6875 1.734375 -3.1875 2.5 -3.1875 C 3.25 -3.1875 3.71875 -2.703125 3.71875 -1.875 Z M 3.71875 -1.875 "/>
</symbol>
<symbol overflow="visible" id="glyph0-17">
<path style="stroke:none;" d="M 5.6875 0 L 5.6875 -6.40625 L 4.90625 -6.40625 L 4.90625 -1.171875 L 1.5625 -6.40625 L 0.671875 -6.40625 L 0.671875 0 L 1.4375 0 L 1.4375 -5.203125 L 4.765625 0 Z M 5.6875 0 "/>
</symbol>
<symbol overflow="visible" id="glyph0-18">
<path style="stroke:none;" d="M 5.8125 -6.40625 L 4.84375 -6.40625 L 3.015625 -3.296875 L 1.125 -6.40625 L 0.109375 -6.40625 L 2.59375 -2.515625 L 2.59375 0 L 3.40625 0 L 3.40625 -2.515625 Z M 5.8125 -6.40625 "/>
</symbol>
<symbol overflow="visible" id="glyph1-0">
<path style="stroke:none;" d=""/>
</symbol>
<symbol overflow="visible" id="glyph1-1">
<path style="stroke:none;" d="M 8.15625 -3.890625 C 8.15625 -6.46875 6.640625 -8.21875 4.28125 -8.21875 C 1.984375 -8.21875 0.421875 -6.453125 0.421875 -3.953125 C 0.421875 -1.4375 1.984375 0.203125 4.296875 0.203125 C 6.640625 0.203125 8.15625 -1.53125 8.15625 -3.890625 Z M 7.140625 -3.90625 C 7.140625 -1.96875 5.984375 -0.703125 4.296875 -0.703125 C 2.578125 -0.703125 1.4375 -1.96875 1.4375 -3.953125 C 1.4375 -5.921875 2.578125 -7.3125 4.28125 -7.3125 C 6.015625 -7.3125 7.140625 -5.921875 7.140625 -3.90625 Z M 7.140625 -3.90625 "/>
</symbol>
<symbol overflow="visible" id="glyph1-2">
<path style="stroke:none;" d="M 1.6875 1.203125 L 1.6875 -5.765625 L 0.765625 -5.765625 L 0.765625 0.84375 C 0.765625 1.390625 0.578125 1.625 0.015625 1.59375 L -0.203125 1.578125 L -0.203125 2.359375 C -0.09375 2.390625 -0.03125 2.390625 0.109375 2.390625 C 1.140625 2.390625 1.6875 1.984375 1.6875 1.203125 Z M 1.796875 -6.640625 L 1.796875 -7.78125 L 0.65625 -7.78125 L 0.65625 -6.640625 Z M 1.796875 -6.640625 "/>
</symbol>
<symbol overflow="visible" id="glyph1-3">
<path style="stroke:none;" d="M 5.609375 -2.84375 C 5.609375 -4.828125 4.65625 -5.921875 2.984375 -5.921875 C 1.375 -5.921875 0.390625 -4.8125 0.390625 -2.875 C 0.390625 -0.953125 1.359375 0.171875 3 0.171875 C 4.625 0.171875 5.609375 -0.953125 5.609375 -2.84375 Z M 4.65625 -2.84375 C 4.65625 -1.5 4.015625 -0.6875 3 -0.6875 C 1.984375 -0.6875 1.359375 -1.484375 1.359375 -2.875 C 1.359375 -4.265625 1.984375 -5.078125 3 -5.078125 C 4.03125 -5.078125 4.65625 -4.28125 4.65625 -2.84375 Z M 4.65625 -2.84375 "/>
</symbol>
<symbol overflow="visible" id="glyph1-4">
<path style="stroke:none;" d="M 7.796875 0 L 7.796875 -4.234375 L 4.453125 -4.234375 L 4.453125 -3.328125 L 6.890625 -3.328125 L 6.890625 -3.109375 C 6.890625 -1.6875 5.84375 -0.703125 4.375 -0.703125 C 2.5625 -0.703125 1.5 -2.03125 1.5 -3.984375 C 1.5 -5.953125 2.625 -7.3125 4.328125 -7.3125 C 5.546875 -7.3125 6.421875 -6.625 6.640625 -5.59375 L 7.6875 -5.59375 C 7.40625 -7.21875 6.171875 -8.21875 4.328125 -8.21875 C 1.875 -8.21875 0.484375 -6.328125 0.484375 -3.921875 C 0.484375 -1.46875 1.984375 0.203125 4.15625 0.203125 C 5.25 0.203125 6.109375 -0.1875 6.890625 -1.0625 L 7.15625 0 Z M 7.796875 0 "/>
</symbol>
<symbol overflow="visible" id="glyph1-5">
<path style="stroke:none;" d="M 1.65625 0 L 1.65625 -8.015625 L 0.75 -8.015625 L 0.75 0 Z M 1.65625 0 "/>
</symbol>
<symbol overflow="visible" id="glyph1-6">
<path style="stroke:none;" d="M 5.890625 -0.015625 L 5.890625 -0.71875 C 5.78125 -0.6875 5.734375 -0.6875 5.6875 -0.6875 C 5.375 -0.6875 5.1875 -0.859375 5.1875 -1.140625 L 5.1875 -4.359375 C 5.1875 -5.375 4.4375 -5.921875 3.03125 -5.921875 C 1.625 -5.921875 0.765625 -5.390625 0.71875 -4.0625 L 1.640625 -4.0625 C 1.71875 -4.765625 2.140625 -5.078125 2.984375 -5.078125 C 3.8125 -5.078125 4.28125 -4.78125 4.28125 -4.21875 L 4.28125 -3.984375 C 4.28125 -3.59375 4.046875 -3.4375 3.328125 -3.34375 C 2.03125 -3.171875 1.828125 -3.140625 1.46875 -2.984375 C 0.796875 -2.71875 0.46875 -2.203125 0.46875 -1.5 C 0.46875 -0.453125 1.1875 0.171875 2.359375 0.171875 C 3.09375 0.171875 3.8125 -0.140625 4.3125 -0.6875 C 4.40625 -0.234375 4.8125 0.078125 5.265625 0.078125 C 5.4375 0.078125 5.59375 0.0625 5.890625 -0.015625 Z M 4.28125 -1.984375 C 4.28125 -1.171875 3.4375 -0.640625 2.546875 -0.640625 C 1.84375 -0.640625 1.421875 -0.890625 1.421875 -1.515625 C 1.421875 -2.125 1.828125 -2.390625 2.8125 -2.53125 C 3.765625 -2.65625 3.96875 -2.703125 4.28125 -2.84375 Z M 4.28125 -1.984375 "/>
</symbol>
<symbol overflow="visible" id="glyph1-7">
<path style="stroke:none;" d="M 5.296875 0 L 5.296875 -5.765625 L 4.390625 -5.765625 L 4.390625 -2.578125 C 4.390625 -1.40625 3.765625 -0.640625 2.8125 -0.640625 C 2.09375 -0.640625 1.625 -1.078125 1.625 -1.765625 L 1.625 -5.765625 L 0.71875 -5.765625 L 0.71875 -1.40625 C 0.71875 -0.453125 1.4375 0.171875 2.546875 0.171875 C 3.40625 0.171875 3.9375 -0.125 4.484375 -0.890625 L 4.484375 0 Z M 5.296875 0 "/>
</symbol>
<symbol overflow="visible" id="glyph1-8">
<path style="stroke:none;" d="M 5.25 -1.984375 L 4.328125 -1.984375 C 4.171875 -1.0625 3.703125 -0.6875 2.921875 -0.6875 C 1.90625 -0.6875 1.296875 -1.46875 1.296875 -2.828125 C 1.296875 -4.265625 1.890625 -5.078125 2.890625 -5.078125 C 3.65625 -5.078125 4.140625 -4.625 4.25 -3.828125 L 5.1875 -3.828125 C 5.078125 -5.234375 4.1875 -5.921875 2.90625 -5.921875 C 1.359375 -5.921875 0.34375 -4.734375 0.34375 -2.828125 C 0.34375 -0.96875 1.328125 0.171875 2.890625 0.171875 C 4.265625 0.171875 5.140625 -0.65625 5.25 -1.984375 Z M 5.25 -1.984375 "/>
</symbol>
<symbol overflow="visible" id="glyph1-9">
<path style="stroke:none;" d="M 8.359375 0 L 8.359375 -4.328125 C 8.359375 -5.359375 7.78125 -5.921875 6.703125 -5.921875 C 5.9375 -5.921875 5.484375 -5.703125 4.9375 -5.046875 C 4.59375 -5.671875 4.140625 -5.921875 3.390625 -5.921875 C 2.625 -5.921875 2.109375 -5.640625 1.609375 -4.953125 L 1.609375 -5.765625 L 0.78125 -5.765625 L 0.78125 0 L 1.6875 0 L 1.6875 -3.625 C 1.6875 -4.453125 2.296875 -5.125 3.046875 -5.125 C 3.734375 -5.125 4.109375 -4.703125 4.109375 -3.96875 L 4.109375 0 L 5.03125 0 L 5.03125 -3.625 C 5.03125 -4.453125 5.640625 -5.125 6.390625 -5.125 C 7.0625 -5.125 7.453125 -4.703125 7.453125 -3.96875 L 7.453125 0 Z M 8.359375 0 "/>
</symbol>
<symbol overflow="visible" id="glyph2-0">
<path style="stroke:none;" d=""/>
</symbol>
<symbol overflow="visible" id="glyph2-1">
<path style="stroke:none;" d="M 0 -7.796875 L -4.234375 -7.796875 L -4.234375 -4.453125 L -3.328125 -4.453125 L -3.328125 -6.890625 L -3.109375 -6.890625 C -1.6875 -6.890625 -0.703125 -5.84375 -0.703125 -4.375 C -0.703125 -2.5625 -2.03125 -1.5 -3.984375 -1.5 C -5.953125 -1.5 -7.3125 -2.625 -7.3125 -4.328125 C -7.3125 -5.546875 -6.625 -6.421875 -5.59375 -6.640625 L -5.59375 -7.6875 C -7.21875 -7.40625 -8.21875 -6.171875 -8.21875 -4.328125 C -8.21875 -1.875 -6.328125 -0.484375 -3.921875 -0.484375 C -1.46875 -0.484375 0.203125 -1.984375 0.203125 -4.15625 C 0.203125 -5.25 -0.1875 -6.109375 -1.0625 -6.890625 L 0 -7.15625 Z M 0 -7.796875 "/>
</symbol>
<symbol overflow="visible" id="glyph2-2">
<path style="stroke:none;" d="M -4.96875 -3.53125 L -5.890625 -3.53125 C -5.921875 -3.375 -5.921875 -3.296875 -5.921875 -3.171875 C -5.921875 -2.578125 -5.578125 -2.140625 -4.71875 -1.609375 L -5.765625 -1.609375 L -5.765625 -0.765625 L 0 -0.765625 L 0 -1.6875 L -2.984375 -1.6875 C -4.296875 -1.6875 -4.9375 -2.109375 -4.96875 -3.53125 Z M -4.96875 -3.53125 "/>
</symbol>
<symbol overflow="visible" id="glyph2-3">
<path style="stroke:none;" d="M -2.84375 -5.609375 C -4.828125 -5.609375 -5.921875 -4.65625 -5.921875 -2.984375 C -5.921875 -1.375 -4.8125 -0.390625 -2.875 -0.390625 C -0.953125 -0.390625 0.171875 -1.359375 0.171875 -3 C 0.171875 -4.625 -0.953125 -5.609375 -2.84375 -5.609375 Z M -2.84375 -4.65625 C -1.5 -4.65625 -0.6875 -4.015625 -0.6875 -3 C -0.6875 -1.984375 -1.484375 -1.359375 -2.875 -1.359375 C -4.265625 -1.359375 -5.078125 -1.984375 -5.078125 -3 C -5.078125 -4.03125 -4.28125 -4.65625 -2.84375 -4.65625 Z M -2.84375 -4.65625 "/>
</symbol>
<symbol overflow="visible" id="glyph2-4">
<path style="stroke:none;" d="M -1.609375 -5.046875 C -2.46875 -5.046875 -2.90625 -4.5625 -3.171875 -3.421875 L -3.390625 -2.546875 C -3.5625 -1.796875 -3.8125 -1.46875 -4.21875 -1.46875 C -4.734375 -1.46875 -5.078125 -1.953125 -5.078125 -2.6875 C -5.078125 -3.4375 -4.765625 -3.828125 -4.15625 -3.84375 L -4.15625 -4.8125 C -5.296875 -4.8125 -5.921875 -4.0625 -5.921875 -2.734375 C -5.921875 -1.390625 -5.234375 -0.515625 -4.171875 -0.515625 C -3.265625 -0.515625 -2.84375 -0.984375 -2.515625 -2.34375 L -2.296875 -3.203125 C -2.140625 -3.84375 -1.953125 -4.09375 -1.546875 -4.09375 C -1 -4.09375 -0.6875 -3.546875 -0.6875 -2.75 C -0.6875 -1.921875 -0.875 -1.46875 -1.765625 -1.34375 L -1.765625 -0.375 C -0.421875 -0.421875 0.171875 -1.171875 0.171875 -2.671875 C 0.171875 -4.125 -0.5 -5.046875 -1.609375 -5.046875 Z M -1.609375 -5.046875 "/>
</symbol>
</g>
<clipPath id="clip1">
  <path d="M 34.796875 23.347656 L 264 23.347656 L 264 399 L 34.796875 399 Z M 34.796875 23.347656 "/>
</clipPath>
<clipPath id="clip2">
  <path d="M 34.796875 375 L 264.894531 375 L 264.894531 377 L 34.796875 377 Z M 34.796875 375 "/>
</clipPath>
<clipPath id="clip3">
  <path d="M 34.796875 275 L 264.894531 275 L 264.894531 276 L 34.796875 276 Z M 34.796875 275 "/>
</clipPath>
<clipPath id="clip4">
  <path d="M 34.796875 174 L 264.894531 174 L 264.894531 176 L 34.796875 176 Z M 34.796875 174 "/>
</clipPath>
<clipPath id="clip5">
  <path d="M 34.796875 74 L 264.894531 74 L 264.894531 75 L 34.796875 75 Z M 34.796875 74 "/>
</clipPath>
<clipPath id="clip6">
  <path d="M 34.796875 325 L 264.894531 325 L 264.894531 327 L 34.796875 327 Z M 34.796875 325 "/>
</clipPath>
<clipPath id="clip7">
  <path d="M 34.796875 224 L 264.894531 224 L 264.894531 226 L 34.796875 226 Z M 34.796875 224 "/>
</clipPath>
<clipPath id="clip8">
  <path d="M 34.796875 124 L 264.894531 124 L 264.894531 126 L 34.796875 126 Z M 34.796875 124 "/>
</clipPath>
<clipPath id="clip9">
  <path d="M 34.796875 23.347656 L 264.894531 23.347656 L 264.894531 25 L 34.796875 25 Z M 34.796875 23.347656 "/>
</clipPath>
<clipPath id="clip10">
  <path d="M 96 23.347656 L 98 23.347656 L 98 399 L 96 399 Z M 96 23.347656 "/>
</clipPath>
<clipPath id="clip11">
  <path d="M 200 23.347656 L 202 23.347656 L 202 399 L 200 399 Z M 200 23.347656 "/>
</clipPath>
<clipPath id="clip12">
  <path d="M 269.375 23.347656 L 499 23.347656 L 499 399 L 269.375 399 Z M 269.375 23.347656 "/>
</clipPath>
<clipPath id="clip13">
  <path d="M 269.375 375 L 499 375 L 499 377 L 269.375 377 Z M 269.375 375 "/>
</clipPath>
<clipPath id="clip14">
  <path d="M 269.375 275 L 499 275 L 499 276 L 269.375 276 Z M 269.375 275 "/>
</clipPath>
<clipPath id="clip15">
  <path d="M 269.375 174 L 499 174 L 499 176 L 269.375 176 Z M 269.375 174 "/>
</clipPath>
<clipPath id="clip16">
  <path d="M 269.375 74 L 499 74 L 499 75 L 269.375 75 Z M 269.375 74 "/>
</clipPath>
<clipPath id="clip17">
  <path d="M 269.375 325 L 499.472656 325 L 499.472656 327 L 269.375 327 Z M 269.375 325 "/>
</clipPath>
<clipPath id="clip18">
  <path d="M 269.375 224 L 499.472656 224 L 499.472656 226 L 269.375 226 Z M 269.375 224 "/>
</clipPath>
<clipPath id="clip19">
  <path d="M 269.375 124 L 499.472656 124 L 499.472656 126 L 269.375 126 Z M 269.375 124 "/>
</clipPath>
<clipPath id="clip20">
  <path d="M 269.375 23.347656 L 499.472656 23.347656 L 499.472656 25 L 269.375 25 Z M 269.375 23.347656 "/>
</clipPath>
<clipPath id="clip21">
  <path d="M 331 23.347656 L 333 23.347656 L 333 399 L 331 399 Z M 331 23.347656 "/>
</clipPath>
<clipPath id="clip22">
  <path d="M 435 23.347656 L 437 23.347656 L 437 399 L 435 399 Z M 435 23.347656 "/>
</clipPath>
<clipPath id="clip23">
  <path d="M 34.796875 5.480469 L 264 5.480469 L 264 24 L 34.796875 24 Z M 34.796875 5.480469 "/>
</clipPath>
<clipPath id="clip24">
  <path d="M 269.375 5.480469 L 499 5.480469 L 499 24 L 269.375 24 Z M 269.375 5.480469 "/>
</clipPath>
</defs>
<g id="surface587">
<rect x="0" y="0" width="576" height="432" style="fill:rgb(100%,100%,100%);fill-opacity:1;stroke:none;"/>
<rect x="0" y="0" width="576" height="432" style="fill:rgb(100%,100%,100%);fill-opacity:1;stroke:none;"/>
<path style="fill:none;stroke-width:1.066978;stroke-linecap:round;stroke-linejoin:round;stroke:rgb(100%,100%,100%);stroke-opacity:1;stroke-miterlimit:10;" d="M 0 432 L 576 432 L 576 0 L 0 0 Z M 0 432 "/>
<g clip-path="url(#clip1)" clip-rule="nonzero">
<path style=" stroke:none;fill-rule:nonzero;fill:rgb(92.156863%,92.156863%,92.156863%);fill-opacity:1;" d="M 34.796875 398.105469 L 263.894531 398.105469 L 263.894531 23.347656 L 34.796875 23.347656 Z M 34.796875 398.105469 "/>
</g>
<g clip-path="url(#clip2)" clip-rule="nonzero">
<path style="fill:none;stroke-width:0.533489;stroke-linecap:butt;stroke-linejoin:round;stroke:rgb(100%,100%,100%);stroke-opacity:1;stroke-miterlimit:10;" d="M 34.796875 376.042969 L 263.898438 376.042969 "/>
</g>
<g clip-path="url(#clip3)" clip-rule="nonzero">
<path style="fill:none;stroke-width:0.533489;stroke-linecap:butt;stroke-linejoin:round;stroke:rgb(100%,100%,100%);stroke-opacity:1;stroke-miterlimit:10;" d="M 34.796875 275.472656 L 263.898438 275.472656 "/>
</g>
<g clip-path="url(#clip4)" clip-rule="nonzero">
<path style="fill:none;stroke-width:0.533489;stroke-linecap:butt;stroke-linejoin:round;stroke:rgb(100%,100%,100%);stroke-opacity:1;stroke-miterlimit:10;" d="M 34.796875 174.898438 L 263.898438 174.898438 "/>
</g>
<g clip-path="url(#clip5)" clip-rule="nonzero">
<path style="fill:none;stroke-width:0.533489;stroke-linecap:butt;stroke-linejoin:round;stroke:rgb(100%,100%,100%);stroke-opacity:1;stroke-miterlimit:10;" d="M 34.796875 74.328125 L 263.898438 74.328125 "/>
</g>
<g clip-path="url(#clip6)" clip-rule="nonzero">
<path style="fill:none;stroke-width:1.066978;stroke-linecap:butt;stroke-linejoin:round;stroke:rgb(100%,100%,100%);stroke-opacity:1;stroke-miterlimit:10;" d="M 34.796875 325.757812 L 263.898438 325.757812 "/>
</g>
<g clip-path="url(#clip7)" clip-rule="nonzero">
<path style="fill:none;stroke-width:1.066978;stroke-linecap:butt;stroke-linejoin:round;stroke:rgb(100%,100%,100%);stroke-opacity:1;stroke-miterlimit:10;" d="M 34.796875 225.183594 L 263.898438 225.183594 "/>
</g>
<g clip-path="url(#clip8)" clip-rule="nonzero">
<path style="fill:none;stroke-width:1.066978;stroke-linecap:butt;stroke-linejoin:round;stroke:rgb(100%,100%,100%);stroke-opacity:1;stroke-miterlimit:10;" d="M 34.796875 124.613281 L 263.898438 124.613281 "/>
</g>
<g clip-path="url(#clip9)" clip-rule="nonzero">
<path style="fill:none;stroke-width:1.066978;stroke-linecap:butt;stroke-linejoin:round;stroke:rgb(100%,100%,100%);stroke-opacity:1;stroke-miterlimit:10;" d="M 34.796875 24.039062 L 263.898438 24.039062 "/>
</g>
<g clip-path="url(#clip10)" clip-rule="nonzero">
<path style="fill:none;stroke-width:1.066978;stroke-linecap:butt;stroke-linejoin:round;stroke:rgb(100%,100%,100%);stroke-opacity:1;stroke-miterlimit:10;" d="M 97.28125 398.105469 L 97.28125 23.347656 "/>
</g>
<g clip-path="url(#clip11)" clip-rule="nonzero">
<path style="fill:none;stroke-width:1.066978;stroke-linecap:butt;stroke-linejoin:round;stroke:rgb(100%,100%,100%);stroke-opacity:1;stroke-miterlimit:10;" d="M 201.414062 398.105469 L 201.414062 23.347656 "/>
</g>
<path style="fill-rule:nonzero;fill:rgb(20%,20%,20%);fill-opacity:1;stroke-width:0.708661;stroke-linecap:round;stroke-linejoin:round;stroke:rgb(20%,20%,20%);stroke-opacity:1;stroke-miterlimit:10;" d="M 79.710938 74.328125 C 79.710938 76.933594 75.800781 76.933594 75.800781 74.328125 C 75.800781 71.71875 79.710938 71.71875 79.710938 74.328125 "/>
<path style="fill-rule:nonzero;fill:rgb(20%,20%,20%);fill-opacity:1;stroke-width:0.708661;stroke-linecap:round;stroke-linejoin:round;stroke:rgb(20%,20%,20%);stroke-opacity:1;stroke-miterlimit:10;" d="M 79.710938 63.328125 C 79.710938 65.933594 75.800781 65.933594 75.800781 63.328125 C 75.800781 60.71875 79.710938 60.71875 79.710938 63.328125 "/>
<path style="fill-rule:nonzero;fill:rgb(20%,20%,20%);fill-opacity:1;stroke-width:0.708661;stroke-linecap:round;stroke-linejoin:round;stroke:rgb(20%,20%,20%);stroke-opacity:1;stroke-miterlimit:10;" d="M 79.710938 79.039062 C 79.710938 81.648438 75.800781 81.648438 75.800781 79.039062 C 75.800781 76.433594 79.710938 76.433594 79.710938 79.039062 "/>
<path style="fill-rule:nonzero;fill:rgb(20%,20%,20%);fill-opacity:1;stroke-width:0.708661;stroke-linecap:round;stroke-linejoin:round;stroke:rgb(20%,20%,20%);stroke-opacity:1;stroke-miterlimit:10;" d="M 79.710938 49.183594 C 79.710938 51.789062 75.800781 51.789062 75.800781 49.183594 C 75.800781 46.578125 79.710938 46.578125 79.710938 49.183594 "/>
<path style="fill-rule:nonzero;fill:rgb(20%,20%,20%);fill-opacity:1;stroke-width:0.708661;stroke-linecap:round;stroke-linejoin:round;stroke:rgb(20%,20%,20%);stroke-opacity:1;stroke-miterlimit:10;" d="M 79.710938 72.753906 C 79.710938 75.359375 75.800781 75.359375 75.800781 72.753906 C 75.800781 70.148438 79.710938 70.148438 79.710938 72.753906 "/>
<path style="fill-rule:nonzero;fill:rgb(20%,20%,20%);fill-opacity:1;stroke-width:0.708661;stroke-linecap:round;stroke-linejoin:round;stroke:rgb(20%,20%,20%);stroke-opacity:1;stroke-miterlimit:10;" d="M 79.710938 82.96875 C 79.710938 85.574219 75.800781 85.574219 75.800781 82.96875 C 75.800781 80.363281 79.710938 80.363281 79.710938 82.96875 "/>
<path style="fill-rule:nonzero;fill:rgb(20%,20%,20%);fill-opacity:1;stroke-width:0.708661;stroke-linecap:round;stroke-linejoin:round;stroke:rgb(20%,20%,20%);stroke-opacity:1;stroke-miterlimit:10;" d="M 79.710938 74.328125 C 79.710938 76.933594 75.800781 76.933594 75.800781 74.328125 C 75.800781 71.71875 79.710938 71.71875 79.710938 74.328125 "/>
<path style="fill-rule:nonzero;fill:rgb(20%,20%,20%);fill-opacity:1;stroke-width:0.708661;stroke-linecap:round;stroke-linejoin:round;stroke:rgb(20%,20%,20%);stroke-opacity:1;stroke-miterlimit:10;" d="M 79.710938 65.683594 C 79.710938 68.289062 75.800781 68.289062 75.800781 65.683594 C 75.800781 63.078125 79.710938 63.078125 79.710938 65.683594 "/>
<path style="fill-rule:nonzero;fill:rgb(20%,20%,20%);fill-opacity:1;stroke-width:0.708661;stroke-linecap:round;stroke-linejoin:round;stroke:rgb(20%,20%,20%);stroke-opacity:1;stroke-miterlimit:10;" d="M 79.710938 86.492188 C 79.710938 89.097656 75.800781 89.097656 75.800781 86.492188 C 75.800781 83.886719 79.710938 83.886719 79.710938 86.492188 "/>
<path style="fill-rule:nonzero;fill:rgb(20%,20%,20%);fill-opacity:1;stroke-width:0.708661;stroke-linecap:round;stroke-linejoin:round;stroke:rgb(20%,20%,20%);stroke-opacity:1;stroke-miterlimit:10;" d="M 79.710938 51.539062 C 79.710938 54.148438 75.800781 54.148438 75.800781 51.539062 C 75.800781 48.933594 79.710938 48.933594 79.710938 51.539062 "/>
<path style="fill-rule:nonzero;fill:rgb(20%,20%,20%);fill-opacity:1;stroke-width:0.708661;stroke-linecap:round;stroke-linejoin:round;stroke:rgb(20%,20%,20%);stroke-opacity:1;stroke-miterlimit:10;" d="M 79.710938 86.898438 C 79.710938 89.503906 75.800781 89.503906 75.800781 86.898438 C 75.800781 84.292969 79.710938 84.292969 79.710938 86.898438 "/>
<path style="fill-rule:nonzero;fill:rgb(20%,20%,20%);fill-opacity:1;stroke-width:0.708661;stroke-linecap:round;stroke-linejoin:round;stroke:rgb(20%,20%,20%);stroke-opacity:1;stroke-miterlimit:10;" d="M 79.710938 56.253906 C 79.710938 58.859375 75.800781 58.859375 75.800781 56.253906 C 75.800781 53.648438 79.710938 53.648438 79.710938 56.253906 "/>
<path style="fill-rule:nonzero;fill:rgb(20%,20%,20%);fill-opacity:1;stroke-width:0.708661;stroke-linecap:round;stroke-linejoin:round;stroke:rgb(20%,20%,20%);stroke-opacity:1;stroke-miterlimit:10;" d="M 79.710938 49.183594 C 79.710938 51.789062 75.800781 51.789062 75.800781 49.183594 C 75.800781 46.578125 79.710938 46.578125 79.710938 49.183594 "/>
<path style="fill-rule:nonzero;fill:rgb(20%,20%,20%);fill-opacity:1;stroke-width:0.708661;stroke-linecap:round;stroke-linejoin:round;stroke:rgb(20%,20%,20%);stroke-opacity:1;stroke-miterlimit:10;" d="M 79.710938 66.46875 C 79.710938 69.074219 75.800781 69.074219 75.800781 66.46875 C 75.800781 63.863281 79.710938 63.863281 79.710938 66.46875 "/>
<path style="fill:none;stroke-width:1.066978;stroke-linecap:butt;stroke-linejoin:round;stroke:rgb(20%,20%,20%);stroke-opacity:1;stroke-miterlimit:10;" d="M 77.753906 203.972656 L 77.753906 89.253906 "/>
<path style="fill:none;stroke-width:1.066978;stroke-linecap:butt;stroke-linejoin:round;stroke:rgb(20%,20%,20%);stroke-opacity:1;stroke-miterlimit:10;" d="M 77.753906 281.757812 L 77.753906 373.6875 "/>
<path style="fill-rule:nonzero;fill:rgb(97.254902%,46.27451%,42.745098%);fill-opacity:1;stroke-width:1.066978;stroke-linecap:round;stroke-linejoin:round;stroke:rgb(20%,20%,20%);stroke-opacity:1;stroke-miterlimit:10;" d="M 60.183594 203.972656 L 60.183594 281.757812 L 95.328125 281.757812 L 95.328125 203.972656 Z M 60.183594 203.972656 "/>
<path style="fill:none;stroke-width:2.133957;stroke-linecap:butt;stroke-linejoin:round;stroke:rgb(20%,20%,20%);stroke-opacity:1;stroke-miterlimit:10;" d="M 60.183594 247.578125 L 95.328125 247.578125 "/>
<path style="fill-rule:nonzero;fill:rgb(20%,20%,20%);fill-opacity:1;stroke-width:0.708661;stroke-linecap:round;stroke-linejoin:round;stroke:rgb(20%,20%,20%);stroke-opacity:1;stroke-miterlimit:10;" d="M 118.761719 61.285156 C 118.761719 63.890625 114.851562 63.890625 114.851562 61.285156 C 114.851562 58.675781 118.761719 58.675781 118.761719 61.285156 "/>
<path style="fill-rule:nonzero;fill:rgb(20%,20%,20%);fill-opacity:1;stroke-width:0.708661;stroke-linecap:round;stroke-linejoin:round;stroke:rgb(20%,20%,20%);stroke-opacity:1;stroke-miterlimit:10;" d="M 118.761719 83.792969 C 118.761719 86.402344 114.851562 86.402344 114.851562 83.792969 C 114.851562 81.1875 118.761719 81.1875 118.761719 83.792969 "/>
<path style="fill-rule:nonzero;fill:rgb(20%,20%,20%);fill-opacity:1;stroke-width:0.708661;stroke-linecap:round;stroke-linejoin:round;stroke:rgb(20%,20%,20%);stroke-opacity:1;stroke-miterlimit:10;" d="M 118.761719 68.867188 C 118.761719 71.472656 114.851562 71.472656 114.851562 68.867188 C 114.851562 66.257812 118.761719 66.257812 118.761719 68.867188 "/>
<path style="fill:none;stroke-width:1.066978;stroke-linecap:butt;stroke-linejoin:round;stroke:rgb(20%,20%,20%);stroke-opacity:1;stroke-miterlimit:10;" d="M 116.804688 210.6875 L 116.804688 92.710938 "/>
<path style="fill:none;stroke-width:1.066978;stroke-linecap:butt;stroke-linejoin:round;stroke:rgb(20%,20%,20%);stroke-opacity:1;stroke-miterlimit:10;" d="M 116.804688 291.1875 L 116.804688 374.367188 "/>
<path style="fill-rule:nonzero;fill:rgb(0%,74.901961%,76.862745%);fill-opacity:1;stroke-width:1.066978;stroke-linecap:round;stroke-linejoin:round;stroke:rgb(20%,20%,20%);stroke-opacity:1;stroke-miterlimit:10;" d="M 99.234375 210.6875 L 99.234375 291.1875 L 134.378906 291.1875 L 134.378906 210.6875 Z M 99.234375 210.6875 "/>
<path style="fill:none;stroke-width:2.133957;stroke-linecap:butt;stroke-linejoin:round;stroke:rgb(20%,20%,20%);stroke-opacity:1;stroke-miterlimit:10;" d="M 99.234375 254.257812 L 134.378906 254.257812 "/>
<path style="fill-rule:nonzero;fill:rgb(20%,20%,20%);fill-opacity:1;stroke-width:0.708661;stroke-linecap:round;stroke-linejoin:round;stroke:rgb(20%,20%,20%);stroke-opacity:1;stroke-miterlimit:10;" d="M 183.84375 74.328125 C 183.84375 76.933594 179.9375 76.933594 179.9375 74.328125 C 179.9375 71.71875 183.84375 71.71875 183.84375 74.328125 "/>
<path style="fill-rule:nonzero;fill:rgb(20%,20%,20%);fill-opacity:1;stroke-width:0.708661;stroke-linecap:round;stroke-linejoin:round;stroke:rgb(20%,20%,20%);stroke-opacity:1;stroke-miterlimit:10;" d="M 183.84375 70.398438 C 183.84375 73.003906 179.9375 73.003906 179.9375 70.398438 C 179.9375 67.792969 183.84375 67.792969 183.84375 70.398438 "/>
<path style="fill-rule:nonzero;fill:rgb(20%,20%,20%);fill-opacity:1;stroke-width:0.708661;stroke-linecap:round;stroke-linejoin:round;stroke:rgb(20%,20%,20%);stroke-opacity:1;stroke-miterlimit:10;" d="M 183.84375 68.828125 C 183.84375 71.433594 179.9375 71.433594 179.9375 68.828125 C 179.9375 66.21875 183.84375 66.21875 183.84375 68.828125 "/>
<path style="fill-rule:nonzero;fill:rgb(20%,20%,20%);fill-opacity:1;stroke-width:0.708661;stroke-linecap:round;stroke-linejoin:round;stroke:rgb(20%,20%,20%);stroke-opacity:1;stroke-miterlimit:10;" d="M 183.84375 68.039062 C 183.84375 70.648438 179.9375 70.648438 179.9375 68.039062 C 179.9375 65.433594 183.84375 65.433594 183.84375 68.039062 "/>
<path style="fill-rule:nonzero;fill:rgb(20%,20%,20%);fill-opacity:1;stroke-width:0.708661;stroke-linecap:round;stroke-linejoin:round;stroke:rgb(20%,20%,20%);stroke-opacity:1;stroke-miterlimit:10;" d="M 183.84375 49.183594 C 183.84375 51.789062 179.9375 51.789062 179.9375 49.183594 C 179.9375 46.578125 183.84375 46.578125 183.84375 49.183594 "/>
<path style="fill-rule:nonzero;fill:rgb(20%,20%,20%);fill-opacity:1;stroke-width:0.708661;stroke-linecap:round;stroke-linejoin:round;stroke:rgb(20%,20%,20%);stroke-opacity:1;stroke-miterlimit:10;" d="M 183.84375 40.382812 C 183.84375 42.988281 179.9375 42.988281 179.9375 40.382812 C 179.9375 37.777344 183.84375 37.777344 183.84375 40.382812 "/>
<path style="fill-rule:nonzero;fill:rgb(20%,20%,20%);fill-opacity:1;stroke-width:0.708661;stroke-linecap:round;stroke-linejoin:round;stroke:rgb(20%,20%,20%);stroke-opacity:1;stroke-miterlimit:10;" d="M 183.84375 53.898438 C 183.84375 56.503906 179.9375 56.503906 179.9375 53.898438 C 179.9375 51.292969 183.84375 51.292969 183.84375 53.898438 "/>
<path style="fill-rule:nonzero;fill:rgb(20%,20%,20%);fill-opacity:1;stroke-width:0.708661;stroke-linecap:round;stroke-linejoin:round;stroke:rgb(20%,20%,20%);stroke-opacity:1;stroke-miterlimit:10;" d="M 183.84375 42.113281 C 183.84375 44.71875 179.9375 44.71875 179.9375 42.113281 C 179.9375 39.503906 183.84375 39.503906 183.84375 42.113281 "/>
<path style="fill-rule:nonzero;fill:rgb(20%,20%,20%);fill-opacity:1;stroke-width:0.708661;stroke-linecap:round;stroke-linejoin:round;stroke:rgb(20%,20%,20%);stroke-opacity:1;stroke-miterlimit:10;" d="M 183.84375 66.46875 C 183.84375 69.074219 179.9375 69.074219 179.9375 66.46875 C 179.9375 63.863281 183.84375 63.863281 183.84375 66.46875 "/>
<path style="fill:none;stroke-width:1.066978;stroke-linecap:butt;stroke-linejoin:round;stroke:rgb(20%,20%,20%);stroke-opacity:1;stroke-miterlimit:10;" d="M 181.890625 202.398438 L 181.890625 83.753906 "/>
<path style="fill:none;stroke-width:1.066978;stroke-linecap:butt;stroke-linejoin:round;stroke:rgb(20%,20%,20%);stroke-opacity:1;stroke-miterlimit:10;" d="M 181.890625 287.453125 L 181.890625 359.542969 "/>
<path style="fill-rule:nonzero;fill:rgb(97.254902%,46.27451%,42.745098%);fill-opacity:1;stroke-width:1.066978;stroke-linecap:round;stroke-linejoin:round;stroke:rgb(20%,20%,20%);stroke-opacity:1;stroke-miterlimit:10;" d="M 164.316406 202.398438 L 164.316406 287.453125 L 199.464844 287.453125 L 199.464844 202.398438 Z M 164.316406 202.398438 "/>
<path style="fill:none;stroke-width:2.133957;stroke-linecap:butt;stroke-linejoin:round;stroke:rgb(20%,20%,20%);stroke-opacity:1;stroke-miterlimit:10;" d="M 164.316406 251.507812 L 199.464844 251.507812 "/>
<path style="fill-rule:nonzero;fill:rgb(20%,20%,20%);fill-opacity:1;stroke-width:0.708661;stroke-linecap:round;stroke-linejoin:round;stroke:rgb(20%,20%,20%);stroke-opacity:1;stroke-miterlimit:10;" d="M 222.894531 99.507812 C 222.894531 102.113281 218.988281 102.113281 218.988281 99.507812 C 218.988281 96.902344 222.894531 96.902344 222.894531 99.507812 "/>
<path style="fill-rule:nonzero;fill:rgb(20%,20%,20%);fill-opacity:1;stroke-width:0.708661;stroke-linecap:round;stroke-linejoin:round;stroke:rgb(20%,20%,20%);stroke-opacity:1;stroke-miterlimit:10;" d="M 222.894531 89.570312 C 222.894531 92.175781 218.988281 92.175781 218.988281 89.570312 C 218.988281 86.964844 222.894531 86.964844 222.894531 89.570312 "/>
<path style="fill-rule:nonzero;fill:rgb(20%,20%,20%);fill-opacity:1;stroke-width:0.708661;stroke-linecap:round;stroke-linejoin:round;stroke:rgb(20%,20%,20%);stroke-opacity:1;stroke-miterlimit:10;" d="M 222.894531 381.074219 C 222.894531 383.679688 218.988281 383.679688 218.988281 381.074219 C 218.988281 378.464844 222.894531 378.464844 222.894531 381.074219 "/>
<path style="fill:none;stroke-width:1.066978;stroke-linecap:butt;stroke-linejoin:round;stroke:rgb(20%,20%,20%);stroke-opacity:1;stroke-miterlimit:10;" d="M 220.941406 207.898438 L 220.941406 107.089844 "/>
<path style="fill:none;stroke-width:1.066978;stroke-linecap:butt;stroke-linejoin:round;stroke:rgb(20%,20%,20%);stroke-opacity:1;stroke-miterlimit:10;" d="M 220.941406 276.648438 L 220.941406 362.6875 "/>
<path style="fill-rule:nonzero;fill:rgb(0%,74.901961%,76.862745%);fill-opacity:1;stroke-width:1.066978;stroke-linecap:round;stroke-linejoin:round;stroke:rgb(20%,20%,20%);stroke-opacity:1;stroke-miterlimit:10;" d="M 203.367188 207.898438 L 203.367188 276.648438 L 238.515625 276.648438 L 238.515625 207.898438 Z M 203.367188 207.898438 "/>
<path style="fill:none;stroke-width:2.133957;stroke-linecap:butt;stroke-linejoin:round;stroke:rgb(20%,20%,20%);stroke-opacity:1;stroke-miterlimit:10;" d="M 203.367188 247.972656 L 238.515625 247.972656 "/>
<g clip-path="url(#clip12)" clip-rule="nonzero">
<path style=" stroke:none;fill-rule:nonzero;fill:rgb(92.156863%,92.156863%,92.156863%);fill-opacity:1;" d="M 269.375 398.105469 L 498.472656 398.105469 L 498.472656 23.347656 L 269.375 23.347656 Z M 269.375 398.105469 "/>
</g>
<g clip-path="url(#clip13)" clip-rule="nonzero">
<path style="fill:none;stroke-width:0.533489;stroke-linecap:butt;stroke-linejoin:round;stroke:rgb(100%,100%,100%);stroke-opacity:1;stroke-miterlimit:10;" d="M 269.375 376.042969 L 498.476562 376.042969 "/>
</g>
<g clip-path="url(#clip14)" clip-rule="nonzero">
<path style="fill:none;stroke-width:0.533489;stroke-linecap:butt;stroke-linejoin:round;stroke:rgb(100%,100%,100%);stroke-opacity:1;stroke-miterlimit:10;" d="M 269.375 275.472656 L 498.476562 275.472656 "/>
</g>
<g clip-path="url(#clip15)" clip-rule="nonzero">
<path style="fill:none;stroke-width:0.533489;stroke-linecap:butt;stroke-linejoin:round;stroke:rgb(100%,100%,100%);stroke-opacity:1;stroke-miterlimit:10;" d="M 269.375 174.898438 L 498.476562 174.898438 "/>
</g>
<g clip-path="url(#clip16)" clip-rule="nonzero">
<path style="fill:none;stroke-width:0.533489;stroke-linecap:butt;stroke-linejoin:round;stroke:rgb(100%,100%,100%);stroke-opacity:1;stroke-miterlimit:10;" d="M 269.375 74.328125 L 498.476562 74.328125 "/>
</g>
<g clip-path="url(#clip17)" clip-rule="nonzero">
<path style="fill:none;stroke-width:1.066978;stroke-linecap:butt;stroke-linejoin:round;stroke:rgb(100%,100%,100%);stroke-opacity:1;stroke-miterlimit:10;" d="M 269.375 325.757812 L 498.476562 325.757812 "/>
</g>
<g clip-path="url(#clip18)" clip-rule="nonzero">
<path style="fill:none;stroke-width:1.066978;stroke-linecap:butt;stroke-linejoin:round;stroke:rgb(100%,100%,100%);stroke-opacity:1;stroke-miterlimit:10;" d="M 269.375 225.183594 L 498.476562 225.183594 "/>
</g>
<g clip-path="url(#clip19)" clip-rule="nonzero">
<path style="fill:none;stroke-width:1.066978;stroke-linecap:butt;stroke-linejoin:round;stroke:rgb(100%,100%,100%);stroke-opacity:1;stroke-miterlimit:10;" d="M 269.375 124.613281 L 498.476562 124.613281 "/>
</g>
<g clip-path="url(#clip20)" clip-rule="nonzero">
<path style="fill:none;stroke-width:1.066978;stroke-linecap:butt;stroke-linejoin:round;stroke:rgb(100%,100%,100%);stroke-opacity:1;stroke-miterlimit:10;" d="M 269.375 24.039062 L 498.476562 24.039062 "/>
</g>
<g clip-path="url(#clip21)" clip-rule="nonzero">
<path style="fill:none;stroke-width:1.066978;stroke-linecap:butt;stroke-linejoin:round;stroke:rgb(100%,100%,100%);stroke-opacity:1;stroke-miterlimit:10;" d="M 331.859375 398.105469 L 331.859375 23.347656 "/>
</g>
<g clip-path="url(#clip22)" clip-rule="nonzero">
<path style="fill:none;stroke-width:1.066978;stroke-linecap:butt;stroke-linejoin:round;stroke:rgb(100%,100%,100%);stroke-opacity:1;stroke-miterlimit:10;" d="M 435.996094 398.105469 L 435.996094 23.347656 "/>
</g>
<path style="fill-rule:nonzero;fill:rgb(20%,20%,20%);fill-opacity:1;stroke-width:0.708661;stroke-linecap:round;stroke-linejoin:round;stroke:rgb(20%,20%,20%);stroke-opacity:1;stroke-miterlimit:10;" d="M 314.289062 162.328125 C 314.289062 164.933594 310.378906 164.933594 310.378906 162.328125 C 310.378906 159.722656 314.289062 159.722656 314.289062 162.328125 "/>
<path style="fill-rule:nonzero;fill:rgb(20%,20%,20%);fill-opacity:1;stroke-width:0.708661;stroke-linecap:round;stroke-linejoin:round;stroke:rgb(20%,20%,20%);stroke-opacity:1;stroke-miterlimit:10;" d="M 314.289062 161.542969 C 314.289062 164.148438 310.378906 164.148438 310.378906 161.542969 C 310.378906 158.933594 314.289062 158.933594 314.289062 161.542969 "/>
<path style="fill-rule:nonzero;fill:rgb(20%,20%,20%);fill-opacity:1;stroke-width:0.708661;stroke-linecap:round;stroke-linejoin:round;stroke:rgb(20%,20%,20%);stroke-opacity:1;stroke-miterlimit:10;" d="M 314.289062 159.96875 C 314.289062 162.578125 310.378906 162.578125 310.378906 159.96875 C 310.378906 157.363281 314.289062 157.363281 314.289062 159.96875 "/>
<path style="fill-rule:nonzero;fill:rgb(20%,20%,20%);fill-opacity:1;stroke-width:0.708661;stroke-linecap:round;stroke-linejoin:round;stroke:rgb(20%,20%,20%);stroke-opacity:1;stroke-miterlimit:10;" d="M 314.289062 157.613281 C 314.289062 160.21875 310.378906 160.21875 310.378906 157.613281 C 310.378906 155.007812 314.289062 155.007812 314.289062 157.613281 "/>
<path style="fill-rule:nonzero;fill:rgb(20%,20%,20%);fill-opacity:1;stroke-width:0.708661;stroke-linecap:round;stroke-linejoin:round;stroke:rgb(20%,20%,20%);stroke-opacity:1;stroke-miterlimit:10;" d="M 314.289062 161.542969 C 314.289062 164.148438 310.378906 164.148438 310.378906 161.542969 C 310.378906 158.933594 314.289062 158.933594 314.289062 161.542969 "/>
<path style="fill-rule:nonzero;fill:rgb(20%,20%,20%);fill-opacity:1;stroke-width:0.708661;stroke-linecap:round;stroke-linejoin:round;stroke:rgb(20%,20%,20%);stroke-opacity:1;stroke-miterlimit:10;" d="M 314.289062 158.398438 C 314.289062 161.003906 310.378906 161.003906 310.378906 158.398438 C 310.378906 155.792969 314.289062 155.792969 314.289062 158.398438 "/>
<path style="fill-rule:nonzero;fill:rgb(20%,20%,20%);fill-opacity:1;stroke-width:0.708661;stroke-linecap:round;stroke-linejoin:round;stroke:rgb(20%,20%,20%);stroke-opacity:1;stroke-miterlimit:10;" d="M 314.289062 144.078125 C 314.289062 146.683594 310.378906 146.683594 310.378906 144.078125 C 310.378906 141.472656 314.289062 141.472656 314.289062 144.078125 "/>
<path style="fill-rule:nonzero;fill:rgb(20%,20%,20%);fill-opacity:1;stroke-width:0.708661;stroke-linecap:round;stroke-linejoin:round;stroke:rgb(20%,20%,20%);stroke-opacity:1;stroke-miterlimit:10;" d="M 314.289062 157.613281 C 314.289062 160.21875 310.378906 160.21875 310.378906 157.613281 C 310.378906 155.007812 314.289062 155.007812 314.289062 157.613281 "/>
<path style="fill-rule:nonzero;fill:rgb(20%,20%,20%);fill-opacity:1;stroke-width:0.708661;stroke-linecap:round;stroke-linejoin:round;stroke:rgb(20%,20%,20%);stroke-opacity:1;stroke-miterlimit:10;" d="M 314.289062 163.113281 C 314.289062 165.71875 310.378906 165.71875 310.378906 163.113281 C 310.378906 160.507812 314.289062 160.507812 314.289062 163.113281 "/>
<path style="fill-rule:nonzero;fill:rgb(20%,20%,20%);fill-opacity:1;stroke-width:0.708661;stroke-linecap:round;stroke-linejoin:round;stroke:rgb(20%,20%,20%);stroke-opacity:1;stroke-miterlimit:10;" d="M 314.289062 159.96875 C 314.289062 162.578125 310.378906 162.578125 310.378906 159.96875 C 310.378906 157.363281 314.289062 157.363281 314.289062 159.96875 "/>
<path style="fill-rule:nonzero;fill:rgb(20%,20%,20%);fill-opacity:1;stroke-width:0.708661;stroke-linecap:round;stroke-linejoin:round;stroke:rgb(20%,20%,20%);stroke-opacity:1;stroke-miterlimit:10;" d="M 314.289062 163.898438 C 314.289062 166.503906 310.378906 166.503906 310.378906 163.898438 C 310.378906 161.292969 314.289062 161.292969 314.289062 163.898438 "/>
<path style="fill-rule:nonzero;fill:rgb(20%,20%,20%);fill-opacity:1;stroke-width:0.708661;stroke-linecap:round;stroke-linejoin:round;stroke:rgb(20%,20%,20%);stroke-opacity:1;stroke-miterlimit:10;" d="M 314.289062 152.898438 C 314.289062 155.503906 310.378906 155.503906 310.378906 152.898438 C 310.378906 150.292969 314.289062 150.292969 314.289062 152.898438 "/>
<path style="fill:none;stroke-width:1.066978;stroke-linecap:butt;stroke-linejoin:round;stroke:rgb(20%,20%,20%);stroke-opacity:1;stroke-miterlimit:10;" d="M 312.332031 249.542969 L 312.332031 164.683594 "/>
<path style="fill:none;stroke-width:1.066978;stroke-linecap:butt;stroke-linejoin:round;stroke:rgb(20%,20%,20%);stroke-opacity:1;stroke-miterlimit:10;" d="M 312.332031 306.113281 L 312.332031 368.1875 "/>
<path style="fill-rule:nonzero;fill:rgb(97.254902%,46.27451%,42.745098%);fill-opacity:1;stroke-width:1.066978;stroke-linecap:round;stroke-linejoin:round;stroke:rgb(20%,20%,20%);stroke-opacity:1;stroke-miterlimit:10;" d="M 294.761719 249.542969 L 294.761719 306.113281 L 329.90625 306.113281 L 329.90625 249.542969 Z M 294.761719 249.542969 "/>
<path style="fill:none;stroke-width:2.133957;stroke-linecap:butt;stroke-linejoin:round;stroke:rgb(20%,20%,20%);stroke-opacity:1;stroke-miterlimit:10;" d="M 294.761719 280.972656 L 329.90625 280.972656 "/>
<path style="fill-rule:nonzero;fill:rgb(20%,20%,20%);fill-opacity:1;stroke-width:0.708661;stroke-linecap:round;stroke-linejoin:round;stroke:rgb(20%,20%,20%);stroke-opacity:1;stroke-miterlimit:10;" d="M 353.339844 109.839844 C 353.339844 112.449219 349.429688 112.449219 349.429688 109.839844 C 349.429688 107.234375 353.339844 107.234375 353.339844 109.839844 "/>
<path style="fill-rule:nonzero;fill:rgb(20%,20%,20%);fill-opacity:1;stroke-width:0.708661;stroke-linecap:round;stroke-linejoin:round;stroke:rgb(20%,20%,20%);stroke-opacity:1;stroke-miterlimit:10;" d="M 353.339844 131.761719 C 353.339844 134.367188 349.429688 134.367188 349.429688 131.761719 C 349.429688 129.15625 353.339844 129.15625 353.339844 131.761719 "/>
<path style="fill:none;stroke-width:1.066978;stroke-linecap:butt;stroke-linejoin:round;stroke:rgb(20%,20%,20%);stroke-opacity:1;stroke-miterlimit:10;" d="M 351.382812 227.53125 L 351.382812 139.855469 "/>
<path style="fill:none;stroke-width:1.066978;stroke-linecap:butt;stroke-linejoin:round;stroke:rgb(20%,20%,20%);stroke-opacity:1;stroke-miterlimit:10;" d="M 351.382812 289.8125 L 351.382812 366.617188 "/>
<path style="fill-rule:nonzero;fill:rgb(0%,74.901961%,76.862745%);fill-opacity:1;stroke-width:1.066978;stroke-linecap:round;stroke-linejoin:round;stroke:rgb(20%,20%,20%);stroke-opacity:1;stroke-miterlimit:10;" d="M 333.8125 227.53125 L 333.8125 289.8125 L 368.957031 289.8125 L 368.957031 227.53125 Z M 333.8125 227.53125 "/>
<path style="fill:none;stroke-width:2.133957;stroke-linecap:butt;stroke-linejoin:round;stroke:rgb(20%,20%,20%);stroke-opacity:1;stroke-miterlimit:10;" d="M 333.8125 268.398438 L 368.957031 268.398438 "/>
<path style="fill-rule:nonzero;fill:rgb(20%,20%,20%);fill-opacity:1;stroke-width:0.708661;stroke-linecap:round;stroke-linejoin:round;stroke:rgb(20%,20%,20%);stroke-opacity:1;stroke-miterlimit:10;" d="M 418.421875 145.828125 C 418.421875 148.433594 414.515625 148.433594 414.515625 145.828125 C 414.515625 143.222656 418.421875 143.222656 418.421875 145.828125 "/>
<path style="fill-rule:nonzero;fill:rgb(20%,20%,20%);fill-opacity:1;stroke-width:0.708661;stroke-linecap:round;stroke-linejoin:round;stroke:rgb(20%,20%,20%);stroke-opacity:1;stroke-miterlimit:10;" d="M 418.421875 163.113281 C 418.421875 165.71875 414.515625 165.71875 414.515625 163.113281 C 414.515625 160.507812 418.421875 160.507812 418.421875 163.113281 "/>
<path style="fill-rule:nonzero;fill:rgb(20%,20%,20%);fill-opacity:1;stroke-width:0.708661;stroke-linecap:round;stroke-linejoin:round;stroke:rgb(20%,20%,20%);stroke-opacity:1;stroke-miterlimit:10;" d="M 418.421875 150.542969 C 418.421875 153.148438 414.515625 153.148438 414.515625 150.542969 C 414.515625 147.933594 418.421875 147.933594 418.421875 150.542969 "/>
<path style="fill-rule:nonzero;fill:rgb(20%,20%,20%);fill-opacity:1;stroke-width:0.708661;stroke-linecap:round;stroke-linejoin:round;stroke:rgb(20%,20%,20%);stroke-opacity:1;stroke-miterlimit:10;" d="M 418.421875 133.253906 C 418.421875 135.863281 414.515625 135.863281 414.515625 133.253906 C 414.515625 130.648438 418.421875 130.648438 418.421875 133.253906 "/>
<path style="fill-rule:nonzero;fill:rgb(20%,20%,20%);fill-opacity:1;stroke-width:0.708661;stroke-linecap:round;stroke-linejoin:round;stroke:rgb(20%,20%,20%);stroke-opacity:1;stroke-miterlimit:10;" d="M 418.421875 155.253906 C 418.421875 157.863281 414.515625 157.863281 414.515625 155.253906 C 414.515625 152.648438 418.421875 152.648438 418.421875 155.253906 "/>
<path style="fill-rule:nonzero;fill:rgb(20%,20%,20%);fill-opacity:1;stroke-width:0.708661;stroke-linecap:round;stroke-linejoin:round;stroke:rgb(20%,20%,20%);stroke-opacity:1;stroke-miterlimit:10;" d="M 418.421875 137.96875 C 418.421875 140.578125 414.515625 140.578125 414.515625 137.96875 C 414.515625 135.363281 418.421875 135.363281 418.421875 137.96875 "/>
<path style="fill-rule:nonzero;fill:rgb(20%,20%,20%);fill-opacity:1;stroke-width:0.708661;stroke-linecap:round;stroke-linejoin:round;stroke:rgb(20%,20%,20%);stroke-opacity:1;stroke-miterlimit:10;" d="M 418.421875 161.542969 C 418.421875 164.148438 414.515625 164.148438 414.515625 161.542969 C 414.515625 158.933594 418.421875 158.933594 418.421875 161.542969 "/>
<path style="fill-rule:nonzero;fill:rgb(20%,20%,20%);fill-opacity:1;stroke-width:0.708661;stroke-linecap:round;stroke-linejoin:round;stroke:rgb(20%,20%,20%);stroke-opacity:1;stroke-miterlimit:10;" d="M 418.421875 148.96875 C 418.421875 151.578125 414.515625 151.578125 414.515625 148.96875 C 414.515625 146.363281 418.421875 146.363281 418.421875 148.96875 "/>
<path style="fill-rule:nonzero;fill:rgb(20%,20%,20%);fill-opacity:1;stroke-width:0.708661;stroke-linecap:round;stroke-linejoin:round;stroke:rgb(20%,20%,20%);stroke-opacity:1;stroke-miterlimit:10;" d="M 418.421875 137.183594 C 418.421875 139.789062 414.515625 139.789062 414.515625 137.183594 C 414.515625 134.578125 418.421875 134.578125 418.421875 137.183594 "/>
<path style="fill:none;stroke-width:1.066978;stroke-linecap:butt;stroke-linejoin:round;stroke:rgb(20%,20%,20%);stroke-opacity:1;stroke-miterlimit:10;" d="M 416.46875 251.710938 L 416.46875 165.46875 "/>
<path style="fill:none;stroke-width:1.066978;stroke-linecap:butt;stroke-linejoin:round;stroke:rgb(20%,20%,20%);stroke-opacity:1;stroke-miterlimit:10;" d="M 416.46875 310.042969 L 416.46875 375.257812 "/>
<path style="fill-rule:nonzero;fill:rgb(97.254902%,46.27451%,42.745098%);fill-opacity:1;stroke-width:1.066978;stroke-linecap:round;stroke-linejoin:round;stroke:rgb(20%,20%,20%);stroke-opacity:1;stroke-miterlimit:10;" d="M 398.894531 251.710938 L 398.894531 310.042969 L 434.042969 310.042969 L 434.042969 251.710938 Z M 398.894531 251.710938 "/>
<path style="fill:none;stroke-width:2.133957;stroke-linecap:butt;stroke-linejoin:round;stroke:rgb(20%,20%,20%);stroke-opacity:1;stroke-miterlimit:10;" d="M 398.894531 286.863281 L 434.042969 286.863281 "/>
<path style="fill-rule:nonzero;fill:rgb(20%,20%,20%);fill-opacity:1;stroke-width:0.708661;stroke-linecap:round;stroke-linejoin:round;stroke:rgb(20%,20%,20%);stroke-opacity:1;stroke-miterlimit:10;" d="M 457.472656 140.328125 C 457.472656 142.933594 453.566406 142.933594 453.566406 140.328125 C 453.566406 137.722656 457.472656 137.722656 457.472656 140.328125 "/>
<path style="fill-rule:nonzero;fill:rgb(20%,20%,20%);fill-opacity:1;stroke-width:0.708661;stroke-linecap:round;stroke-linejoin:round;stroke:rgb(20%,20%,20%);stroke-opacity:1;stroke-miterlimit:10;" d="M 457.472656 114.871094 C 457.472656 117.476562 453.566406 117.476562 453.566406 114.871094 C 453.566406 112.261719 457.472656 112.261719 457.472656 114.871094 "/>
<path style="fill-rule:nonzero;fill:rgb(20%,20%,20%);fill-opacity:1;stroke-width:0.708661;stroke-linecap:round;stroke-linejoin:round;stroke:rgb(20%,20%,20%);stroke-opacity:1;stroke-miterlimit:10;" d="M 457.472656 103.554688 C 457.472656 106.160156 453.566406 106.160156 453.566406 103.554688 C 453.566406 100.949219 457.472656 100.949219 457.472656 103.554688 "/>
<path style="fill-rule:nonzero;fill:rgb(20%,20%,20%);fill-opacity:1;stroke-width:0.708661;stroke-linecap:round;stroke-linejoin:round;stroke:rgb(20%,20%,20%);stroke-opacity:1;stroke-miterlimit:10;" d="M 457.472656 124.808594 C 457.472656 127.414062 453.566406 127.414062 453.566406 124.808594 C 453.566406 122.203125 457.472656 122.203125 457.472656 124.808594 "/>
<path style="fill-rule:nonzero;fill:rgb(20%,20%,20%);fill-opacity:1;stroke-width:0.708661;stroke-linecap:round;stroke-linejoin:round;stroke:rgb(20%,20%,20%);stroke-opacity:1;stroke-miterlimit:10;" d="M 457.472656 142.332031 C 457.472656 144.9375 453.566406 144.9375 453.566406 142.332031 C 453.566406 139.722656 457.472656 139.722656 457.472656 142.332031 "/>
<path style="fill:none;stroke-width:1.066978;stroke-linecap:butt;stroke-linejoin:round;stroke:rgb(20%,20%,20%);stroke-opacity:1;stroke-miterlimit:10;" d="M 455.519531 238.933594 L 455.519531 147.046875 "/>
<path style="fill:none;stroke-width:1.066978;stroke-linecap:butt;stroke-linejoin:round;stroke:rgb(20%,20%,20%);stroke-opacity:1;stroke-miterlimit:10;" d="M 455.519531 300.613281 L 455.519531 367.242188 "/>
<path style="fill-rule:nonzero;fill:rgb(0%,74.901961%,76.862745%);fill-opacity:1;stroke-width:1.066978;stroke-linecap:round;stroke-linejoin:round;stroke:rgb(20%,20%,20%);stroke-opacity:1;stroke-miterlimit:10;" d="M 437.945312 238.933594 L 437.945312 300.613281 L 473.09375 300.613281 L 473.09375 238.933594 Z M 437.945312 238.933594 "/>
<path style="fill:none;stroke-width:2.133957;stroke-linecap:butt;stroke-linejoin:round;stroke:rgb(20%,20%,20%);stroke-opacity:1;stroke-miterlimit:10;" d="M 437.945312 272.328125 L 473.09375 272.328125 "/>
<g clip-path="url(#clip23)" clip-rule="nonzero">
<path style=" stroke:none;fill-rule:nonzero;fill:rgb(85.098039%,85.098039%,85.098039%);fill-opacity:1;" d="M 34.796875 23.347656 L 263.894531 23.347656 L 263.894531 5.480469 L 34.796875 5.480469 Z M 34.796875 23.347656 "/>
</g>
<g style="fill:rgb(10.196078%,10.196078%,10.196078%);fill-opacity:1;">
  <use xlink:href="#glyph0-1" x="131.847656" y="17.016602"/>
  <use xlink:href="#glyph0-2" x="138.201172" y="17.016602"/>
  <use xlink:href="#glyph0-3" x="143.09375" y="17.016602"/>
  <use xlink:href="#glyph0-4" x="145.046875" y="17.016602"/>
  <use xlink:href="#glyph0-5" x="149.939453" y="17.016602"/>
  <use xlink:href="#glyph0-6" x="154.832031" y="17.016602"/>
  <use xlink:href="#glyph0-7" x="157.27832" y="17.016602"/>
  <use xlink:href="#glyph0-8" x="163.631836" y="17.016602"/>
</g>
<g clip-path="url(#clip24)" clip-rule="nonzero">
<path style=" stroke:none;fill-rule:nonzero;fill:rgb(85.098039%,85.098039%,85.098039%);fill-opacity:1;" d="M 269.375 23.347656 L 498.472656 23.347656 L 498.472656 5.480469 L 269.375 5.480469 Z M 269.375 23.347656 "/>
</g>
<g style="fill:rgb(10.196078%,10.196078%,10.196078%);fill-opacity:1;">
  <use xlink:href="#glyph0-1" x="364.925781" y="17.016602"/>
  <use xlink:href="#glyph0-2" x="371.279297" y="17.016602"/>
  <use xlink:href="#glyph0-3" x="376.171875" y="17.016602"/>
  <use xlink:href="#glyph0-4" x="378.125" y="17.016602"/>
  <use xlink:href="#glyph0-5" x="383.017578" y="17.016602"/>
  <use xlink:href="#glyph0-6" x="387.910156" y="17.016602"/>
  <use xlink:href="#glyph0-7" x="390.356445" y="17.016602"/>
  <use xlink:href="#glyph0-9" x="396.709961" y="17.016602"/>
</g>
<path style="fill:none;stroke-width:1.066978;stroke-linecap:butt;stroke-linejoin:round;stroke:rgb(20%,20%,20%);stroke-opacity:1;stroke-miterlimit:10;" d="M 97.28125 400.847656 L 97.28125 398.105469 "/>
<path style="fill:none;stroke-width:1.066978;stroke-linecap:butt;stroke-linejoin:round;stroke:rgb(20%,20%,20%);stroke-opacity:1;stroke-miterlimit:10;" d="M 201.414062 400.847656 L 201.414062 398.105469 "/>
<g style="fill:rgb(30.196078%,30.196078%,30.196078%);fill-opacity:1;">
  <use xlink:href="#glyph0-10" x="94.78125" y="409.141602"/>
</g>
<g style="fill:rgb(30.196078%,30.196078%,30.196078%);fill-opacity:1;">
  <use xlink:href="#glyph0-11" x="197.914062" y="409.141602"/>
</g>
<path style="fill:none;stroke-width:1.066978;stroke-linecap:butt;stroke-linejoin:round;stroke:rgb(20%,20%,20%);stroke-opacity:1;stroke-miterlimit:10;" d="M 331.859375 400.847656 L 331.859375 398.105469 "/>
<path style="fill:none;stroke-width:1.066978;stroke-linecap:butt;stroke-linejoin:round;stroke:rgb(20%,20%,20%);stroke-opacity:1;stroke-miterlimit:10;" d="M 435.996094 400.847656 L 435.996094 398.105469 "/>
<g style="fill:rgb(30.196078%,30.196078%,30.196078%);fill-opacity:1;">
  <use xlink:href="#glyph0-10" x="329.359375" y="409.141602"/>
</g>
<g style="fill:rgb(30.196078%,30.196078%,30.196078%);fill-opacity:1;">
  <use xlink:href="#glyph0-11" x="432.496094" y="409.141602"/>
</g>
<g style="fill:rgb(30.196078%,30.196078%,30.196078%);fill-opacity:1;">
  <use xlink:href="#glyph0-12" x="19.867188" y="328.360352"/>
  <use xlink:href="#glyph0-13" x="24.759766" y="328.360352"/>
</g>
<g style="fill:rgb(30.196078%,30.196078%,30.196078%);fill-opacity:1;">
  <use xlink:href="#glyph0-12" x="19.867188" y="227.786133"/>
  <use xlink:href="#glyph0-14" x="24.759766" y="227.786133"/>
</g>
<g style="fill:rgb(30.196078%,30.196078%,30.196078%);fill-opacity:1;">
  <use xlink:href="#glyph0-15" x="19.867188" y="127.21582"/>
  <use xlink:href="#glyph0-12" x="24.759766" y="127.21582"/>
</g>
<g style="fill:rgb(30.196078%,30.196078%,30.196078%);fill-opacity:1;">
  <use xlink:href="#glyph0-15" x="19.867188" y="26.641602"/>
  <use xlink:href="#glyph0-16" x="24.759766" y="26.641602"/>
</g>
<path style="fill:none;stroke-width:1.066978;stroke-linecap:butt;stroke-linejoin:round;stroke:rgb(20%,20%,20%);stroke-opacity:1;stroke-miterlimit:10;" d="M 32.058594 325.757812 L 34.796875 325.757812 "/>
<path style="fill:none;stroke-width:1.066978;stroke-linecap:butt;stroke-linejoin:round;stroke:rgb(20%,20%,20%);stroke-opacity:1;stroke-miterlimit:10;" d="M 32.058594 225.183594 L 34.796875 225.183594 "/>
<path style="fill:none;stroke-width:1.066978;stroke-linecap:butt;stroke-linejoin:round;stroke:rgb(20%,20%,20%);stroke-opacity:1;stroke-miterlimit:10;" d="M 32.058594 124.613281 L 34.796875 124.613281 "/>
<path style="fill:none;stroke-width:1.066978;stroke-linecap:butt;stroke-linejoin:round;stroke:rgb(20%,20%,20%);stroke-opacity:1;stroke-miterlimit:10;" d="M 32.058594 24.039062 L 34.796875 24.039062 "/>
<g style="fill:rgb(0%,0%,0%);fill-opacity:1;">
  <use xlink:href="#glyph1-1" x="257.636719" y="423.506836"/>
  <use xlink:href="#glyph1-2" x="266.194336" y="423.506836"/>
  <use xlink:href="#glyph1-3" x="268.636719" y="423.506836"/>
</g>
<g style="fill:rgb(0%,0%,0%);fill-opacity:1;">
  <use xlink:href="#glyph2-1" x="14.108398" y="227.726562"/>
  <use xlink:href="#glyph2-2" x="14.108398" y="219.168945"/>
  <use xlink:href="#glyph2-3" x="14.108398" y="215.560547"/>
  <use xlink:href="#glyph2-4" x="14.108398" y="209.444336"/>
  <use xlink:href="#glyph2-3" x="14.108398" y="203.944336"/>
  <use xlink:href="#glyph2-2" x="14.108398" y="197.828125"/>
</g>
<path style=" stroke:none;fill-rule:nonzero;fill:rgb(100%,100%,100%);fill-opacity:1;" d="M 509.433594 241.496094 L 570.519531 241.496094 L 570.519531 179.960938 L 509.433594 179.960938 Z M 509.433594 241.496094 "/>
<g style="fill:rgb(0%,0%,0%);fill-opacity:1;">
  <use xlink:href="#glyph1-4" x="514.914062" y="194.834961"/>
  <use xlink:href="#glyph1-5" x="523.47168" y="194.834961"/>
  <use xlink:href="#glyph1-6" x="525.914062" y="194.834961"/>
  <use xlink:href="#glyph1-7" x="532.030273" y="194.834961"/>
  <use xlink:href="#glyph1-8" x="538.146484" y="194.834961"/>
  <use xlink:href="#glyph1-3" x="543.646484" y="194.834961"/>
  <use xlink:href="#glyph1-9" x="549.762695" y="194.834961"/>
  <use xlink:href="#glyph1-6" x="558.925781" y="194.834961"/>
</g>
<path style="fill-rule:nonzero;fill:rgb(94.901961%,94.901961%,94.901961%);fill-opacity:1;stroke-width:1.066978;stroke-linecap:round;stroke-linejoin:round;stroke:rgb(100%,100%,100%);stroke-opacity:1;stroke-miterlimit:10;" d="M 514.914062 218.738281 L 532.195312 218.738281 L 532.195312 201.457031 L 514.914062 201.457031 Z M 514.914062 218.738281 "/>
<path style="fill:none;stroke-width:1.066978;stroke-linecap:round;stroke-linejoin:round;stroke:rgb(20%,20%,20%);stroke-opacity:1;stroke-miterlimit:10;" d="M 523.554688 217.007812 L 523.554688 214.417969 "/>
<path style="fill:none;stroke-width:1.066978;stroke-linecap:round;stroke-linejoin:round;stroke:rgb(20%,20%,20%);stroke-opacity:1;stroke-miterlimit:10;" d="M 523.554688 205.777344 L 523.554688 203.183594 "/>
<path style="fill-rule:nonzero;fill:rgb(97.254902%,46.27451%,42.745098%);fill-opacity:1;stroke-width:1.066978;stroke-linecap:round;stroke-linejoin:round;stroke:rgb(20%,20%,20%);stroke-opacity:1;stroke-miterlimit:10;" d="M 517.074219 214.417969 L 530.035156 214.417969 L 530.035156 205.777344 L 517.074219 205.777344 Z M 517.074219 214.417969 "/>
<path style="fill:none;stroke-width:1.066978;stroke-linecap:round;stroke-linejoin:round;stroke:rgb(20%,20%,20%);stroke-opacity:1;stroke-miterlimit:10;" d="M 517.074219 210.097656 L 530.035156 210.097656 "/>
<path style="fill-rule:nonzero;fill:rgb(94.901961%,94.901961%,94.901961%);fill-opacity:1;stroke-width:1.066978;stroke-linecap:round;stroke-linejoin:round;stroke:rgb(100%,100%,100%);stroke-opacity:1;stroke-miterlimit:10;" d="M 514.914062 236.015625 L 532.195312 236.015625 L 532.195312 218.734375 L 514.914062 218.734375 Z M 514.914062 236.015625 "/>
<path style="fill:none;stroke-width:1.066978;stroke-linecap:round;stroke-linejoin:round;stroke:rgb(20%,20%,20%);stroke-opacity:1;stroke-miterlimit:10;" d="M 523.554688 234.289062 L 523.554688 231.695312 "/>
<path style="fill:none;stroke-width:1.066978;stroke-linecap:round;stroke-linejoin:round;stroke:rgb(20%,20%,20%);stroke-opacity:1;stroke-miterlimit:10;" d="M 523.554688 223.058594 L 523.554688 220.464844 "/>
<path style="fill-rule:nonzero;fill:rgb(0%,74.901961%,76.862745%);fill-opacity:1;stroke-width:1.066978;stroke-linecap:round;stroke-linejoin:round;stroke:rgb(20%,20%,20%);stroke-opacity:1;stroke-miterlimit:10;" d="M 517.074219 231.695312 L 530.035156 231.695312 L 530.035156 223.054688 L 517.074219 223.054688 Z M 517.074219 231.695312 "/>
<path style="fill:none;stroke-width:1.066978;stroke-linecap:round;stroke-linejoin:round;stroke:rgb(20%,20%,20%);stroke-opacity:1;stroke-miterlimit:10;" d="M 517.074219 227.375 L 530.035156 227.375 "/>
<g style="fill:rgb(0%,0%,0%);fill-opacity:1;">
  <use xlink:href="#glyph0-17" x="537.671875" y="212.700195"/>
</g>
<g style="fill:rgb(0%,0%,0%);fill-opacity:1;">
  <use xlink:href="#glyph0-18" x="537.671875" y="229.977539"/>
</g>
</g>
</svg>
