<?xml version="1.0" encoding="UTF-8"?>
<svg xmlns="http://www.w3.org/2000/svg" xmlns:xlink="http://www.w3.org/1999/xlink" width="576pt" height="432pt" viewBox="0 0 576 432" version="1.1">
<defs>
<g>
<symbol overflow="visible" id="glyph0-0">
<path style="stroke:none;" d=""/>
</symbol>
<symbol overflow="visible" id="glyph0-1">
<path style="stroke:none;" d="M 2.5 -2.109375 L 2.5 -2.75 L 0.40625 -2.75 L 0.40625 -2.109375 Z M 2.5 -2.109375 "/>
</symbol>
<symbol overflow="visible" id="glyph0-2">
<path style="stroke:none;" d="M 4.453125 -3 C 4.453125 -5.15625 3.78125 -6.234375 2.421875 -6.234375 C 1.078125 -6.234375 0.375 -5.140625 0.375 -3.046875 C 0.375 -0.953125 1.078125 0.125 2.421875 0.125 C 3.734375 0.125 4.453125 -0.953125 4.453125 -3 Z M 3.671875 -3.0625 C 3.671875 -1.296875 3.265625 -0.515625 2.40625 -0.515625 C 1.578125 -0.515625 1.171875 -1.34375 1.171875 -3.046875 C 1.171875 -4.75 1.578125 -5.546875 2.421875 -5.546875 C 3.25 -5.546875 3.671875 -4.734375 3.671875 -3.0625 Z M 3.671875 -3.0625 "/>
</symbol>
<symbol overflow="visible" id="glyph0-3">
<path style="stroke:none;" d="M 1.6875 0 L 1.6875 -0.921875 L 0.765625 -0.921875 L 0.765625 0 Z M 1.6875 0 "/>
</symbol>
<symbol overflow="visible" id="glyph0-4">
<path style="stroke:none;" d="M 4.5 -4.40625 C 4.5 -5.46875 3.671875 -6.234375 2.5 -6.234375 C 1.21875 -6.234375 0.484375 -5.59375 0.4375 -4.078125 L 1.21875 -4.078125 C 1.28125 -5.125 1.703125 -5.5625 2.46875 -5.5625 C 3.171875 -5.5625 3.703125 -5.0625 3.703125 -4.390625 C 3.703125 -3.890625 3.40625 -3.46875 2.859375 -3.15625 L 2.046875 -2.703125 C 0.75 -1.96875 0.375 -1.375 0.296875 0 L 4.453125 0 L 4.453125 -0.765625 L 1.171875 -0.765625 C 1.25 -1.28125 1.53125 -1.59375 2.296875 -2.046875 L 3.171875 -2.53125 C 4.046875 -2.984375 4.5 -3.640625 4.5 -4.40625 Z M 4.5 -4.40625 "/>
</symbol>
<symbol overflow="visible" id="glyph0-5">
<path style="stroke:none;" d="M 4.515625 -2.0625 C 4.515625 -3.296875 3.6875 -4.109375 2.5 -4.109375 C 2.0625 -4.109375 1.703125 -4 1.34375 -3.734375 L 1.59375 -5.34375 L 4.1875 -5.34375 L 4.1875 -6.109375 L 0.96875 -6.109375 L 0.5 -2.84375 L 1.21875 -2.84375 C 1.578125 -3.265625 1.875 -3.421875 2.359375 -3.421875 C 3.1875 -3.421875 3.71875 -2.890625 3.71875 -1.96875 C 3.71875 -1.0625 3.203125 -0.546875 2.359375 -0.546875 C 1.6875 -0.546875 1.265625 -0.890625 1.078125 -1.59375 L 0.3125 -1.59375 C 0.5625 -0.359375 1.265625 0.125 2.375 0.125 C 3.640625 0.125 4.515625 -0.75 4.515625 -2.0625 Z M 4.515625 -2.0625 "/>
</symbol>
<symbol overflow="visible" id="glyph0-6">
<path style="stroke:none;" d="M 4.6875 0 L 4.6875 -0.71875 L 1.515625 -0.71875 L 1.515625 -6.40625 L 0.703125 -6.40625 L 0.703125 0 Z M 4.6875 0 "/>
</symbol>
<symbol overflow="visible" id="glyph0-7">
<path style="stroke:none;" d="M 5.96875 0 L 5.96875 -0.203125 C 5.671875 -0.40625 5.59375 -0.640625 5.59375 -1.5 C 5.5625 -2.546875 5.40625 -2.875 4.71875 -3.171875 C 5.4375 -3.515625 5.734375 -3.96875 5.734375 -4.703125 C 5.734375 -5.8125 5.03125 -6.40625 3.78125 -6.40625 L 0.8125 -6.40625 L 0.8125 0 L 1.640625 0 L 1.640625 -2.765625 L 3.75 -2.765625 C 4.46875 -2.765625 4.8125 -2.40625 4.796875 -1.625 L 4.796875 -1.046875 C 4.78125 -0.65625 4.859375 -0.265625 4.984375 0 Z M 4.875 -4.578125 C 4.875 -3.828125 4.484375 -3.484375 3.609375 -3.484375 L 1.640625 -3.484375 L 1.640625 -5.6875 L 3.609375 -5.6875 C 4.53125 -5.6875 4.875 -5.296875 4.875 -4.578125 Z M 4.875 -4.578125 "/>
</symbol>
<symbol overflow="visible" id="glyph1-0">
<path style="stroke:none;" d=""/>
</symbol>
<symbol overflow="visible" id="glyph1-1">
<path style="stroke:none;" d="M 0 -1.53125 L -0.828125 -1.53125 L -0.828125 -0.703125 L 0 -0.703125 Z M 0 -1.53125 "/>
</symbol>
<symbol overflow="visible" id="glyph1-2">
<path style="stroke:none;" d="M 0 -5.15625 L -5.828125 -5.15625 L -5.828125 -4.40625 L -3.3125 -4.40625 L -3.3125 -1.40625 L -5.828125 -1.40625 L -5.828125 -0.65625 L 0 -0.65625 L 0 -1.40625 L -2.65625 -1.40625 L -2.65625 -4.40625 L 0 -4.40625 Z M 0 -5.15625 "/>
</symbol>
<symbol overflow="visible" id="glyph1-3">
<path style="stroke:none;" d="M 0 -1.546875 L -5.828125 -1.546875 L -5.828125 -0.796875 L 0 -0.796875 Z M 0 -1.546875 "/>
</symbol>
<symbol overflow="visible" id="glyph1-4">
<path style="stroke:none;" d="M -1.59375 -4.96875 C -2.3125 -4.96875 -2.84375 -4.515625 -3.0625 -3.734375 L -3.453125 -2.265625 C -3.640625 -1.5625 -3.875 -1.296875 -4.3125 -1.296875 C -4.90625 -1.296875 -5.359375 -1.828125 -5.359375 -2.609375 C -5.359375 -3.53125 -4.921875 -4.0625 -4.171875 -4.0625 L -4.171875 -4.765625 C -5.3125 -4.765625 -5.96875 -3.96875 -5.96875 -2.625 C -5.96875 -1.359375 -5.265625 -0.5625 -4.21875 -0.5625 C -3.5 -0.5625 -3.0625 -0.9375 -2.859375 -1.703125 L -2.46875 -3.15625 C -2.28125 -3.890625 -1.984375 -4.21875 -1.53125 -4.21875 C -0.890625 -4.21875 -0.515625 -3.75 -0.515625 -2.734375 C -0.515625 -1.625 -1.0625 -1.09375 -1.890625 -1.09375 L -1.890625 -0.390625 C -0.515625 -0.390625 0.140625 -1.3125 0.140625 -2.6875 C 0.140625 -4.171875 -0.5625 -4.96875 -1.59375 -4.96875 Z M -1.59375 -4.96875 "/>
</symbol>
<symbol overflow="visible" id="glyph2-0">
<path style="stroke:none;" d=""/>
</symbol>
<symbol overflow="visible" id="glyph2-1">
<path style="stroke:none;" d="M 7.453125 -2.921875 L 6.390625 -2.921875 C 6.15625 -1.40625 5.515625 -0.703125 4.15625 -0.703125 C 2.5625 -0.703125 1.546875 -1.921875 1.546875 -3.921875 C 1.546875 -5.984375 2.515625 -7.3125 4.0625 -7.3125 C 5.328125 -7.3125 5.984375 -6.75 6.234375 -5.53125 L 7.28125 -5.53125 C 6.96875 -7.296875 5.953125 -8.21875 4.1875 -8.21875 C 1.765625 -8.21875 0.53125 -6.265625 0.53125 -3.921875 C 0.53125 -1.578125 1.796875 0.203125 4.140625 0.203125 C 6.109375 0.203125 7.203125 -0.84375 7.453125 -2.921875 Z M 7.453125 -2.921875 "/>
</symbol>
<symbol overflow="visible" id="glyph2-2">
<path style="stroke:none;" d="M 5.640625 -2.625 C 5.640625 -3.453125 5.578125 -3.984375 5.40625 -4.40625 C 5.03125 -5.359375 4.15625 -5.921875 3.078125 -5.921875 C 1.46875 -5.921875 0.4375 -4.734375 0.4375 -2.84375 C 0.4375 -0.953125 1.4375 0.171875 3.0625 0.171875 C 4.375 0.171875 5.296875 -0.578125 5.515625 -1.75 L 4.59375 -1.75 C 4.34375 -0.984375 3.828125 -0.6875 3.09375 -0.6875 C 2.140625 -0.6875 1.421875 -1.296875 1.390625 -2.625 Z M 4.65625 -3.4375 C 4.65625 -3.4375 4.65625 -3.390625 4.65625 -3.359375 L 1.421875 -3.359375 C 1.5 -4.390625 2.140625 -5.078125 3.0625 -5.078125 C 3.96875 -5.078125 4.65625 -4.328125 4.65625 -3.4375 Z M 4.65625 -3.4375 "/>
</symbol>
<symbol overflow="visible" id="glyph2-3">
<path style="stroke:none;" d="M 1.65625 0 L 1.65625 -8.015625 L 0.75 -8.015625 L 0.75 0 Z M 1.65625 0 "/>
</symbol>
<symbol overflow="visible" id="glyph2-4">
<path style="stroke:none;" d="M 5.4375 0 L 5.4375 -8.015625 L 4.53125 -8.015625 L 4.53125 -5.03125 C 4.140625 -5.625 3.53125 -5.921875 2.765625 -5.921875 C 1.265625 -5.921875 0.28125 -4.78125 0.28125 -2.9375 C 0.28125 -0.984375 1.25 0.171875 2.796875 0.171875 C 3.59375 0.171875 4.140625 -0.125 4.625 -0.84375 L 4.625 0 Z M 4.53125 -2.859375 C 4.53125 -1.53125 3.890625 -0.6875 2.921875 -0.6875 C 1.90625 -0.6875 1.25 -1.546875 1.25 -2.875 C 1.25 -4.21875 1.90625 -5.078125 2.921875 -5.078125 C 3.90625 -5.078125 4.53125 -4.1875 4.53125 -2.859375 Z M 4.53125 -2.859375 "/>
</symbol>
<symbol overflow="visible" id="glyph2-5">
<path style="stroke:none;" d="M 5.890625 -0.015625 L 5.890625 -0.71875 C 5.78125 -0.6875 5.734375 -0.6875 5.6875 -0.6875 C 5.375 -0.6875 5.1875 -0.859375 5.1875 -1.140625 L 5.1875 -4.359375 C 5.1875 -5.375 4.4375 -5.921875 3.03125 -5.921875 C 1.625 -5.921875 0.765625 -5.390625 0.71875 -4.0625 L 1.640625 -4.0625 C 1.71875 -4.765625 2.140625 -5.078125 2.984375 -5.078125 C 3.8125 -5.078125 4.28125 -4.78125 4.28125 -4.21875 L 4.28125 -3.984375 C 4.28125 -3.59375 4.046875 -3.4375 3.328125 -3.34375 C 2.03125 -3.171875 1.828125 -3.140625 1.46875 -2.984375 C 0.796875 -2.71875 0.46875 -2.203125 0.46875 -1.5 C 0.46875 -0.453125 1.1875 0.171875 2.359375 0.171875 C 3.09375 0.171875 3.8125 -0.140625 4.3125 -0.6875 C 4.40625 -0.234375 4.8125 0.078125 5.265625 0.078125 C 5.4375 0.078125 5.59375 0.0625 5.890625 -0.015625 Z M 4.28125 -1.984375 C 4.28125 -1.171875 3.4375 -0.640625 2.546875 -0.640625 C 1.84375 -0.640625 1.421875 -0.890625 1.421875 -1.515625 C 1.421875 -2.125 1.828125 -2.390625 2.8125 -2.53125 C 3.765625 -2.65625 3.96875 -2.703125 4.28125 -2.84375 Z M 4.28125 -1.984375 "/>
</symbol>
<symbol overflow="visible" id="glyph2-6">
<path style="stroke:none;" d="M 5.046875 -1.609375 C 5.046875 -2.46875 4.5625 -2.90625 3.421875 -3.171875 L 2.546875 -3.390625 C 1.796875 -3.5625 1.46875 -3.8125 1.46875 -4.21875 C 1.46875 -4.734375 1.953125 -5.078125 2.6875 -5.078125 C 3.4375 -5.078125 3.828125 -4.765625 3.84375 -4.15625 L 4.8125 -4.15625 C 4.8125 -5.296875 4.0625 -5.921875 2.734375 -5.921875 C 1.390625 -5.921875 0.515625 -5.234375 0.515625 -4.171875 C 0.515625 -3.265625 0.984375 -2.84375 2.34375 -2.515625 L 3.203125 -2.296875 C 3.84375 -2.140625 4.09375 -1.953125 4.09375 -1.546875 C 4.09375 -1 3.546875 -0.6875 2.75 -0.6875 C 1.921875 -0.6875 1.46875 -0.875 1.34375 -1.765625 L 0.375 -1.765625 C 0.421875 -0.421875 1.171875 0.171875 2.671875 0.171875 C 4.125 0.171875 5.046875 -0.5 5.046875 -1.609375 Z M 5.046875 -1.609375 "/>
</symbol>
<symbol overflow="visible" id="glyph2-7">
<path style="stroke:none;" d="M 8.15625 -3.890625 C 8.15625 -6.46875 6.640625 -8.21875 4.28125 -8.21875 C 1.984375 -8.21875 0.421875 -6.453125 0.421875 -3.953125 C 0.421875 -1.4375 1.984375 0.203125 4.296875 0.203125 C 6.640625 0.203125 8.15625 -1.53125 8.15625 -3.890625 Z M 7.140625 -3.90625 C 7.140625 -1.96875 5.984375 -0.703125 4.296875 -0.703125 C 2.578125 -0.703125 1.4375 -1.96875 1.4375 -3.953125 C 1.4375 -5.921875 2.578125 -7.3125 4.28125 -7.3125 C 6.015625 -7.3125 7.140625 -5.921875 7.140625 -3.90625 Z M 7.140625 -3.90625 "/>
</symbol>
<symbol overflow="visible" id="glyph2-8">
<path style="stroke:none;" d="M 1.6875 1.203125 L 1.6875 -5.765625 L 0.765625 -5.765625 L 0.765625 0.84375 C 0.765625 1.390625 0.578125 1.625 0.015625 1.59375 L -0.203125 1.578125 L -0.203125 2.359375 C -0.09375 2.390625 -0.03125 2.390625 0.109375 2.390625 C 1.140625 2.390625 1.6875 1.984375 1.6875 1.203125 Z M 1.796875 -6.640625 L 1.796875 -7.78125 L 0.65625 -7.78125 L 0.65625 -6.640625 Z M 1.796875 -6.640625 "/>
</symbol>
<symbol overflow="visible" id="glyph2-9">
<path style="stroke:none;" d="M 5.609375 -2.84375 C 5.609375 -4.828125 4.65625 -5.921875 2.984375 -5.921875 C 1.375 -5.921875 0.390625 -4.8125 0.390625 -2.875 C 0.390625 -0.953125 1.359375 0.171875 3 0.171875 C 4.625 0.171875 5.609375 -0.953125 5.609375 -2.84375 Z M 4.65625 -2.84375 C 4.65625 -1.5 4.015625 -0.6875 3 -0.6875 C 1.984375 -0.6875 1.359375 -1.484375 1.359375 -2.875 C 1.359375 -4.265625 1.984375 -5.078125 3 -5.078125 C 4.03125 -5.078125 4.65625 -4.28125 4.65625 -2.84375 Z M 4.65625 -2.84375 "/>
</symbol>
<symbol overflow="visible" id="glyph3-0">
<path style="stroke:none;" d=""/>
</symbol>
<symbol overflow="visible" id="glyph3-1">
<path style="stroke:none;" d="M -4.015625 -7.34375 C -6.5 -7.34375 -8.015625 -6.109375 -8.015625 -4.0625 L -8.015625 -0.984375 L 0 -0.984375 L 0 -4.0625 C 0 -6.09375 -1.515625 -7.34375 -4.015625 -7.34375 Z M -4 -6.3125 C -1.984375 -6.3125 -0.90625 -5.484375 -0.90625 -3.890625 L -0.90625 -2 L -7.109375 -2 L -7.109375 -3.890625 C -7.109375 -5.484375 -6.046875 -6.3125 -4 -6.3125 Z M -4 -6.3125 "/>
</symbol>
<symbol overflow="visible" id="glyph3-2">
<path style="stroke:none;" d="M 0 -1.6875 L -5.765625 -1.6875 L -5.765625 -0.765625 L 0 -0.765625 Z M -6.640625 -1.796875 L -7.78125 -1.796875 L -7.78125 -0.65625 L -6.640625 -0.65625 Z M -6.640625 -1.796875 "/>
</symbol>
<symbol overflow="visible" id="glyph3-3">
<path style="stroke:none;" d="M -5.015625 -2.84375 L -5.765625 -2.84375 L -5.765625 -1.875 L -6.671875 -1.875 C -7.046875 -1.875 -7.25 -2.09375 -7.25 -2.515625 C -7.25 -2.59375 -7.25 -2.625 -7.234375 -2.84375 L -8 -2.84375 C -8.046875 -2.625 -8.046875 -2.515625 -8.046875 -2.328125 C -8.046875 -1.46875 -7.5625 -0.96875 -6.75 -0.96875 L -5.765625 -0.96875 L -5.765625 -0.203125 L -5.015625 -0.203125 L -5.015625 -0.96875 L 0 -0.96875 L 0 -1.875 L -5.015625 -1.875 Z M -5.015625 -2.84375 "/>
</symbol>
<symbol overflow="visible" id="glyph3-4">
<path style="stroke:none;" d="M -2.625 -5.640625 C -3.453125 -5.640625 -3.984375 -5.578125 -4.40625 -5.40625 C -5.359375 -5.03125 -5.921875 -4.15625 -5.921875 -3.078125 C -5.921875 -1.46875 -4.734375 -0.4375 -2.84375 -0.4375 C -0.953125 -0.4375 0.171875 -1.4375 0.171875 -3.0625 C 0.171875 -4.375 -0.578125 -5.296875 -1.75 -5.515625 L -1.75 -4.59375 C -0.984375 -4.34375 -0.6875 -3.828125 -0.6875 -3.09375 C -0.6875 -2.140625 -1.296875 -1.421875 -2.625 -1.390625 Z M -3.4375 -4.65625 C -3.4375 -4.65625 -3.390625 -4.65625 -3.359375 -4.65625 L -3.359375 -1.421875 C -4.390625 -1.5 -5.078125 -2.140625 -5.078125 -3.0625 C -5.078125 -3.96875 -4.328125 -4.65625 -3.4375 -4.65625 Z M -3.4375 -4.65625 "/>
</symbol>
<symbol overflow="visible" id="glyph3-5">
<path style="stroke:none;" d="M -4.96875 -3.53125 L -5.890625 -3.53125 C -5.921875 -3.375 -5.921875 -3.296875 -5.921875 -3.171875 C -5.921875 -2.578125 -5.578125 -2.140625 -4.71875 -1.609375 L -5.765625 -1.609375 L -5.765625 -0.765625 L 0 -0.765625 L 0 -1.6875 L -2.984375 -1.6875 C -4.296875 -1.6875 -4.9375 -2.109375 -4.96875 -3.53125 Z M -4.96875 -3.53125 "/>
</symbol>
<symbol overflow="visible" id="glyph3-6">
<path style="stroke:none;" d="M 0 -5.359375 L -4.359375 -5.359375 C -5.3125 -5.359375 -5.921875 -4.640625 -5.921875 -3.53125 C -5.921875 -2.671875 -5.59375 -2.125 -4.796875 -1.609375 L -5.765625 -1.609375 L -5.765625 -0.765625 L 0 -0.765625 L 0 -1.6875 L -3.171875 -1.6875 C -4.359375 -1.6875 -5.125 -2.328125 -5.125 -3.25 C -5.125 -3.984375 -4.6875 -4.4375 -4 -4.4375 L 0 -4.4375 Z M 0 -5.359375 "/>
</symbol>
<symbol overflow="visible" id="glyph3-7">
<path style="stroke:none;" d="M -1.984375 -5.25 L -1.984375 -4.328125 C -1.0625 -4.171875 -0.6875 -3.703125 -0.6875 -2.921875 C -0.6875 -1.90625 -1.46875 -1.296875 -2.828125 -1.296875 C -4.265625 -1.296875 -5.078125 -1.890625 -5.078125 -2.890625 C -5.078125 -3.65625 -4.625 -4.140625 -3.828125 -4.25 L -3.828125 -5.1875 C -5.234375 -5.078125 -5.921875 -4.1875 -5.921875 -2.90625 C -5.921875 -1.359375 -4.734375 -0.34375 -2.828125 -0.34375 C -0.96875 -0.34375 0.171875 -1.328125 0.171875 -2.890625 C 0.171875 -4.265625 -0.65625 -5.140625 -1.984375 -5.25 Z M -1.984375 -5.25 "/>
</symbol>
<symbol overflow="visible" id="glyph3-8">
<path style="stroke:none;" d="M -0.015625 -5.890625 L -0.71875 -5.890625 C -0.6875 -5.78125 -0.6875 -5.734375 -0.6875 -5.6875 C -0.6875 -5.375 -0.859375 -5.1875 -1.140625 -5.1875 L -4.359375 -5.1875 C -5.375 -5.1875 -5.921875 -4.4375 -5.921875 -3.03125 C -5.921875 -1.625 -5.390625 -0.765625 -4.0625 -0.71875 L -4.0625 -1.640625 C -4.765625 -1.71875 -5.078125 -2.140625 -5.078125 -2.984375 C -5.078125 -3.8125 -4.78125 -4.28125 -4.21875 -4.28125 L -3.984375 -4.28125 C -3.59375 -4.28125 -3.4375 -4.046875 -3.34375 -3.328125 C -3.171875 -2.03125 -3.140625 -1.828125 -2.984375 -1.46875 C -2.71875 -0.796875 -2.203125 -0.46875 -1.5 -0.46875 C -0.453125 -0.46875 0.171875 -1.1875 0.171875 -2.359375 C 0.171875 -3.09375 -0.140625 -3.8125 -0.6875 -4.3125 C -0.234375 -4.40625 0.078125 -4.8125 0.078125 -5.265625 C 0.078125 -5.4375 0.0625 -5.59375 -0.015625 -5.890625 Z M -1.984375 -4.28125 C -1.171875 -4.28125 -0.640625 -3.4375 -0.640625 -2.546875 C -0.640625 -1.84375 -0.890625 -1.421875 -1.515625 -1.421875 C -2.125 -1.421875 -2.390625 -1.828125 -2.53125 -2.8125 C -2.65625 -3.765625 -2.703125 -3.96875 -2.84375 -4.28125 Z M -1.984375 -4.28125 "/>
</symbol>
<symbol overflow="visible" id="glyph3-9">
<path style="stroke:none;" d="M 0 -2.09375 L -1.140625 -2.09375 L -1.140625 -0.953125 L 0 -0.953125 Z M 0 -2.09375 "/>
</symbol>
<symbol overflow="visible" id="glyph3-10">
<path style="stroke:none;" d="M 0 -8.359375 L -4.328125 -8.359375 C -5.359375 -8.359375 -5.921875 -7.78125 -5.921875 -6.703125 C -5.921875 -5.9375 -5.703125 -5.484375 -5.046875 -4.9375 C -5.671875 -4.59375 -5.921875 -4.140625 -5.921875 -3.390625 C -5.921875 -2.625 -5.640625 -2.109375 -4.953125 -1.609375 L -5.765625 -1.609375 L -5.765625 -0.78125 L 0 -0.78125 L 0 -1.6875 L -3.625 -1.6875 C -4.453125 -1.6875 -5.125 -2.296875 -5.125 -3.046875 C -5.125 -3.734375 -4.703125 -4.109375 -3.96875 -4.109375 L 0 -4.109375 L 0 -5.03125 L -3.625 -5.03125 C -4.453125 -5.03125 -5.125 -5.640625 -5.125 -6.390625 C -5.125 -7.0625 -4.703125 -7.453125 -3.96875 -7.453125 L 0 -7.453125 Z M 0 -8.359375 "/>
</symbol>
<symbol overflow="visible" id="glyph3-11">
<path style="stroke:none;" d="M 0 -5.4375 L -8.015625 -5.4375 L -8.015625 -4.53125 L -5.03125 -4.53125 C -5.625 -4.140625 -5.921875 -3.53125 -5.921875 -2.765625 C -5.921875 -1.265625 -4.78125 -0.28125 -2.9375 -0.28125 C -0.984375 -0.28125 0.171875 -1.25 0.171875 -2.796875 C 0.171875 -3.59375 -0.125 -4.140625 -0.84375 -4.625 L 0 -4.625 Z M -2.859375 -4.53125 C -1.53125 -4.53125 -0.6875 -3.890625 -0.6875 -2.921875 C -0.6875 -1.90625 -1.546875 -1.25 -2.875 -1.25 C -4.21875 -1.25 -5.078125 -1.90625 -5.078125 -2.921875 C -5.078125 -3.90625 -4.1875 -4.53125 -2.859375 -4.53125 Z M -2.859375 -4.53125 "/>
</symbol>
<symbol overflow="visible" id="glyph3-12">
<path style="stroke:none;" d="M -1.609375 -5.046875 C -2.46875 -5.046875 -2.90625 -4.5625 -3.171875 -3.421875 L -3.390625 -2.546875 C -3.5625 -1.796875 -3.8125 -1.46875 -4.21875 -1.46875 C -4.734375 -1.46875 -5.078125 -1.953125 -5.078125 -2.6875 C -5.078125 -3.4375 -4.765625 -3.828125 -4.15625 -3.84375 L -4.15625 -4.8125 C -5.296875 -4.8125 -5.921875 -4.0625 -5.921875 -2.734375 C -5.921875 -1.390625 -5.234375 -0.515625 -4.171875 -0.515625 C -3.265625 -0.515625 -2.84375 -0.984375 -2.515625 -2.34375 L -2.296875 -3.203125 C -2.140625 -3.84375 -1.953125 -4.09375 -1.546875 -4.09375 C -1 -4.09375 -0.6875 -3.546875 -0.6875 -2.75 C -0.6875 -1.921875 -0.875 -1.46875 -1.765625 -1.34375 L -1.765625 -0.375 C -0.421875 -0.421875 0.171875 -1.171875 0.171875 -2.671875 C 0.171875 -4.125 -0.5 -5.046875 -1.609375 -5.046875 Z M -1.609375 -5.046875 "/>
</symbol>
<symbol overflow="visible" id="glyph4-0">
<path style="stroke:none;" d=""/>
</symbol>
<symbol overflow="visible" id="glyph4-1">
<path style="stroke:none;" d="M 2.546875 0 L 2.546875 -9.625 L 1.328125 -9.625 L 1.328125 0 Z M 2.546875 0 "/>
</symbol>
<symbol overflow="visible" id="glyph4-2">
<path style="stroke:none;" d="M 6.4375 0 L 6.4375 -5.234375 C 6.4375 -6.375 5.578125 -7.109375 4.234375 -7.109375 C 3.203125 -7.109375 2.546875 -6.71875 1.9375 -5.75 L 1.9375 -6.921875 L 0.921875 -6.921875 L 0.921875 0 L 2.015625 0 L 2.015625 -3.8125 C 2.015625 -5.234375 2.78125 -6.15625 3.90625 -6.15625 C 4.78125 -6.15625 5.328125 -5.625 5.328125 -4.796875 L 5.328125 0 Z M 6.4375 0 "/>
</symbol>
<symbol overflow="visible" id="glyph4-3">
<path style="stroke:none;" d="M 3.359375 0 L 3.359375 -0.921875 C 3.203125 -0.890625 3.03125 -0.875 2.828125 -0.875 C 2.34375 -0.875 2.21875 -1 2.21875 -1.484375 L 2.21875 -6.015625 L 3.359375 -6.015625 L 3.359375 -6.921875 L 2.21875 -6.921875 L 2.21875 -8.8125 L 1.125 -8.8125 L 1.125 -6.921875 L 0.1875 -6.921875 L 0.1875 -6.015625 L 1.125 -6.015625 L 1.125 -1 C 1.125 -0.296875 1.59375 0.09375 2.453125 0.09375 C 2.71875 0.09375 2.984375 0.0625 3.359375 0 Z M 3.359375 0 "/>
</symbol>
<symbol overflow="visible" id="glyph4-4">
<path style="stroke:none;" d="M 6.765625 -3.140625 C 6.765625 -4.140625 6.6875 -4.78125 6.5 -5.296875 C 6.046875 -6.4375 4.984375 -7.109375 3.703125 -7.109375 C 1.765625 -7.109375 0.53125 -5.6875 0.53125 -3.421875 C 0.53125 -1.15625 1.734375 0.203125 3.671875 0.203125 C 5.25 0.203125 6.34375 -0.703125 6.625 -2.09375 L 5.515625 -2.09375 C 5.21875 -1.1875 4.59375 -0.8125 3.703125 -0.8125 C 2.5625 -0.8125 1.703125 -1.5625 1.671875 -3.140625 Z M 5.59375 -4.125 C 5.59375 -4.125 5.59375 -4.0625 5.578125 -4.046875 L 1.703125 -4.046875 C 1.796875 -5.265625 2.578125 -6.09375 3.6875 -6.09375 C 4.765625 -6.09375 5.59375 -5.203125 5.59375 -4.125 Z M 5.59375 -4.125 "/>
</symbol>
<symbol overflow="visible" id="glyph4-5">
<path style="stroke:none;" d="M 4.234375 -5.953125 L 4.234375 -7.078125 C 4.046875 -7.109375 3.96875 -7.109375 3.8125 -7.109375 C 3.109375 -7.109375 2.5625 -6.6875 1.921875 -5.671875 L 1.921875 -6.921875 L 0.921875 -6.921875 L 0.921875 0 L 2.015625 0 L 2.015625 -3.59375 C 2.015625 -5.15625 2.53125 -5.921875 4.234375 -5.953125 Z M 4.234375 -5.953125 "/>
</symbol>
<symbol overflow="visible" id="glyph4-6">
<path style="stroke:none;" d="M 6.421875 -6.921875 L 5.171875 -6.921875 L 3.21875 -1.3125 L 1.375 -6.921875 L 0.125 -6.921875 L 2.5625 0 L 3.765625 0 Z M 6.421875 -6.921875 "/>
</symbol>
<symbol overflow="visible" id="glyph4-7">
<path style="stroke:none;" d="M 7.0625 -0.03125 L 7.0625 -0.859375 C 6.9375 -0.828125 6.890625 -0.828125 6.828125 -0.828125 C 6.4375 -0.828125 6.234375 -1.03125 6.234375 -1.375 L 6.234375 -5.234375 C 6.234375 -6.453125 5.328125 -7.109375 3.625 -7.109375 C 1.953125 -7.109375 0.921875 -6.46875 0.859375 -4.875 L 1.96875 -4.875 C 2.0625 -5.71875 2.5625 -6.09375 3.59375 -6.09375 C 4.578125 -6.09375 5.140625 -5.734375 5.140625 -5.0625 L 5.140625 -4.78125 C 5.140625 -4.3125 4.859375 -4.125 3.984375 -4.015625 C 2.421875 -3.8125 2.1875 -3.765625 1.765625 -3.59375 C 0.96875 -3.265625 0.546875 -2.640625 0.546875 -1.796875 C 0.546875 -0.546875 1.421875 0.203125 2.828125 0.203125 C 3.703125 0.203125 4.5625 -0.171875 5.171875 -0.8125 C 5.296875 -0.296875 5.765625 0.09375 6.3125 0.09375 C 6.53125 0.09375 6.703125 0.0625 7.0625 -0.03125 Z M 5.140625 -2.390625 C 5.140625 -1.40625 4.125 -0.765625 3.0625 -0.765625 C 2.203125 -0.765625 1.703125 -1.0625 1.703125 -1.828125 C 1.703125 -2.546875 2.1875 -2.859375 3.359375 -3.03125 C 4.53125 -3.1875 4.765625 -3.25 5.140625 -3.421875 Z M 5.140625 -2.390625 "/>
</symbol>
<symbol overflow="visible" id="glyph4-8">
<path style="stroke:none;" d="M 2 0 L 2 -9.625 L 0.890625 -9.625 L 0.890625 0 Z M 2 0 "/>
</symbol>
<symbol overflow="visible" id="glyph4-9">
<path style="stroke:none;" d="M 6.734375 -3.40625 C 6.734375 -5.796875 5.578125 -7.109375 3.59375 -7.109375 C 1.65625 -7.109375 0.46875 -5.78125 0.46875 -3.453125 C 0.46875 -1.140625 1.640625 0.203125 3.609375 0.203125 C 5.546875 0.203125 6.734375 -1.140625 6.734375 -3.40625 Z M 5.578125 -3.421875 C 5.578125 -1.796875 4.8125 -0.8125 3.609375 -0.8125 C 2.375 -0.8125 1.625 -1.78125 1.625 -3.453125 C 1.625 -5.125 2.375 -6.09375 3.609375 -6.09375 C 4.84375 -6.09375 5.578125 -5.140625 5.578125 -3.421875 Z M 5.578125 -3.421875 "/>
</symbol>
<symbol overflow="visible" id="glyph4-10">
<path style="stroke:none;" d="M 6.0625 -1.9375 C 6.0625 -2.96875 5.484375 -3.484375 4.109375 -3.8125 L 3.046875 -4.0625 C 2.15625 -4.28125 1.765625 -4.5625 1.765625 -5.0625 C 1.765625 -5.6875 2.34375 -6.09375 3.234375 -6.09375 C 4.125 -6.09375 4.59375 -5.71875 4.625 -4.984375 L 5.78125 -4.984375 C 5.765625 -6.34375 4.875 -7.109375 3.28125 -7.109375 C 1.65625 -7.109375 0.625 -6.28125 0.625 -5 C 0.625 -3.921875 1.171875 -3.40625 2.8125 -3.015625 L 3.84375 -2.765625 C 4.609375 -2.578125 4.90625 -2.34375 4.90625 -1.84375 C 4.90625 -1.203125 4.265625 -0.8125 3.296875 -0.8125 C 2.3125 -0.8125 1.75 -1.0625 1.609375 -2.109375 L 0.453125 -2.109375 C 0.5 -0.515625 1.40625 0.203125 3.203125 0.203125 C 4.953125 0.203125 6.0625 -0.609375 6.0625 -1.9375 Z M 6.0625 -1.9375 "/>
</symbol>
<symbol overflow="visible" id="glyph4-11">
<path style="stroke:none;" d=""/>
</symbol>
<symbol overflow="visible" id="glyph4-12">
<path style="stroke:none;" d="M 6.53125 0 L 6.53125 -9.625 L 5.4375 -9.625 L 5.4375 -6.046875 C 4.984375 -6.75 4.234375 -7.109375 3.3125 -7.109375 C 1.515625 -7.109375 0.34375 -5.734375 0.34375 -3.53125 C 0.34375 -1.1875 1.484375 0.203125 3.359375 0.203125 C 4.296875 0.203125 4.96875 -0.15625 5.5625 -1.015625 L 5.5625 0 Z M 5.4375 -3.4375 C 5.4375 -1.828125 4.671875 -0.828125 3.515625 -0.828125 C 2.296875 -0.828125 1.484375 -1.84375 1.484375 -3.453125 C 1.484375 -5.0625 2.296875 -6.09375 3.5 -6.09375 C 4.6875 -6.09375 5.4375 -5.03125 5.4375 -3.4375 Z M 5.4375 -3.4375 "/>
</symbol>
<symbol overflow="visible" id="glyph4-13">
<path style="stroke:none;" d="M 6.296875 -2.375 L 5.1875 -2.375 C 5 -1.265625 4.4375 -0.8125 3.5 -0.8125 C 2.28125 -0.8125 1.5625 -1.75 1.5625 -3.390625 C 1.5625 -5.125 2.265625 -6.09375 3.46875 -6.09375 C 4.390625 -6.09375 4.984375 -5.5625 5.109375 -4.59375 L 6.21875 -4.59375 C 6.09375 -6.28125 5.03125 -7.109375 3.484375 -7.109375 C 1.625 -7.109375 0.40625 -5.6875 0.40625 -3.390625 C 0.40625 -1.15625 1.59375 0.203125 3.46875 0.203125 C 5.125 0.203125 6.171875 -0.796875 6.296875 -2.375 Z M 6.296875 -2.375 "/>
</symbol>
<symbol overflow="visible" id="glyph4-14">
<path style="stroke:none;" d="M 3.40625 -6.015625 L 3.40625 -6.921875 L 2.25 -6.921875 L 2.25 -8 C 2.25 -8.46875 2.515625 -8.703125 3.03125 -8.703125 C 3.109375 -8.703125 3.15625 -8.703125 3.40625 -8.6875 L 3.40625 -9.59375 C 3.15625 -9.65625 3.015625 -9.671875 2.78125 -9.671875 C 1.765625 -9.671875 1.15625 -9.078125 1.15625 -8.09375 L 1.15625 -6.921875 L 0.234375 -6.921875 L 0.234375 -6.015625 L 1.15625 -6.015625 L 1.15625 0 L 2.25 0 L 2.25 -6.015625 Z M 5.671875 0 L 5.671875 -6.921875 L 4.5625 -6.921875 L 4.5625 0 Z M 5.8125 -7.96875 L 5.8125 -9.328125 L 4.4375 -9.328125 L 4.4375 -7.96875 Z M 5.8125 -7.96875 "/>
</symbol>
<symbol overflow="visible" id="glyph4-15">
<path style="stroke:none;" d="M 6.03125 0 L 6.03125 -0.96875 L 1.75 -0.96875 L 5.84375 -5.9375 L 5.84375 -6.921875 L 0.6875 -6.921875 L 0.6875 -5.953125 L 4.546875 -5.953125 L 0.40625 -0.984375 L 0.40625 0 Z M 6.03125 0 "/>
</symbol>
<symbol overflow="visible" id="glyph4-16">
<path style="stroke:none;" d="M 6.71875 -4.890625 C 6.71875 -7.828125 5.703125 -9.359375 3.5625 -9.359375 C 1.78125 -9.359375 0.5 -8.09375 0.5 -6.265625 C 0.5 -4.515625 1.6875 -3.34375 3.375 -3.34375 C 4.265625 -3.34375 4.90625 -3.65625 5.515625 -4.390625 C 5.5 -2.09375 4.765625 -0.828125 3.4375 -0.828125 C 2.609375 -0.828125 2.046875 -1.34375 1.859375 -2.25 L 0.703125 -2.25 C 0.921875 -0.71875 1.921875 0.203125 3.359375 0.203125 C 5.546875 0.203125 6.71875 -1.65625 6.71875 -4.890625 Z M 5.453125 -6.28125 C 5.453125 -5.140625 4.640625 -4.375 3.515625 -4.375 C 2.390625 -4.375 1.6875 -5.09375 1.6875 -6.34375 C 1.6875 -7.53125 2.484375 -8.34375 3.546875 -8.34375 C 4.640625 -8.34375 5.453125 -7.5 5.453125 -6.28125 Z M 5.453125 -6.28125 "/>
</symbol>
<symbol overflow="visible" id="glyph4-17">
<path style="stroke:none;" d="M 6.765625 -3.109375 C 6.765625 -4.953125 5.546875 -6.171875 3.75 -6.171875 C 3.09375 -6.171875 2.5625 -6 2.015625 -5.59375 L 2.390625 -8.015625 L 6.28125 -8.015625 L 6.28125 -9.15625 L 1.453125 -9.15625 L 0.75 -4.265625 L 1.828125 -4.265625 C 2.359375 -4.90625 2.8125 -5.140625 3.53125 -5.140625 C 4.796875 -5.140625 5.578125 -4.328125 5.578125 -2.9375 C 5.578125 -1.59375 4.8125 -0.828125 3.53125 -0.828125 C 2.515625 -0.828125 1.90625 -1.34375 1.625 -2.40625 L 0.46875 -2.40625 C 0.84375 -0.546875 1.90625 0.203125 3.5625 0.203125 C 5.453125 0.203125 6.765625 -1.125 6.765625 -3.109375 Z M 6.765625 -3.109375 "/>
</symbol>
<symbol overflow="visible" id="glyph4-18">
<path style="stroke:none;" d="M 4.890625 -6.765625 C 4.890625 -8.046875 3.890625 -9.046875 2.625 -9.046875 C 1.40625 -9.046875 0.390625 -8.03125 0.390625 -6.78125 C 0.390625 -5.546875 1.40625 -4.53125 2.640625 -4.53125 C 3.875 -4.53125 4.890625 -5.546875 4.890625 -6.765625 Z M 3.96875 -6.765625 C 3.96875 -6.046875 3.359375 -5.453125 2.640625 -5.453125 C 1.90625 -5.453125 1.296875 -6.0625 1.296875 -6.78125 C 1.296875 -7.53125 1.90625 -8.125 2.625 -8.125 C 3.375 -8.125 3.96875 -7.53125 3.96875 -6.765625 Z M 8.90625 -9.359375 L 8.046875 -9.359375 L 2.828125 0.265625 L 3.703125 0.265625 Z M 11.34375 -1.984375 C 11.34375 -3.25 10.34375 -4.25 9.078125 -4.25 C 7.859375 -4.25 6.84375 -3.234375 6.84375 -2 C 6.84375 -0.765625 7.859375 0.25 9.09375 0.25 C 10.3125 0.25 11.34375 -0.765625 11.34375 -1.984375 Z M 10.4375 -1.984375 C 10.4375 -1.265625 9.828125 -0.671875 9.09375 -0.671875 C 8.359375 -0.671875 7.75 -1.265625 7.75 -2 C 7.75 -2.734375 8.359375 -3.328125 9.078125 -3.328125 C 9.84375 -3.328125 10.4375 -2.734375 10.4375 -1.984375 Z M 10.4375 -1.984375 "/>
</symbol>
<symbol overflow="visible" id="glyph4-19">
<path style="stroke:none;" d="M 2.015625 0 L 2.015625 -6.921875 L 0.921875 -6.921875 L 0.921875 0 Z M 2.171875 -7.96875 L 2.171875 -9.328125 L 0.796875 -9.328125 L 0.796875 -7.96875 Z M 2.171875 -7.96875 "/>
</symbol>
<symbol overflow="visible" id="glyph4-20">
<path style="stroke:none;" d="M 3.40625 -6.015625 L 3.40625 -6.921875 L 2.25 -6.921875 L 2.25 -8 C 2.25 -8.46875 2.515625 -8.703125 3.03125 -8.703125 C 3.109375 -8.703125 3.15625 -8.703125 3.40625 -8.6875 L 3.40625 -9.59375 C 3.15625 -9.65625 3.015625 -9.671875 2.78125 -9.671875 C 1.765625 -9.671875 1.15625 -9.078125 1.15625 -8.09375 L 1.15625 -6.921875 L 0.234375 -6.921875 L 0.234375 -6.015625 L 1.15625 -6.015625 L 1.15625 0 L 2.25 0 L 2.25 -6.015625 Z M 3.40625 -6.015625 "/>
</symbol>
<symbol overflow="visible" id="glyph4-21">
<path style="stroke:none;" d="M 10.03125 0 L 10.03125 -5.1875 C 10.03125 -6.4375 9.34375 -7.109375 8.046875 -7.109375 C 7.125 -7.109375 6.578125 -6.84375 5.921875 -6.0625 C 5.515625 -6.796875 4.96875 -7.109375 4.0625 -7.109375 C 3.140625 -7.109375 2.53125 -6.765625 1.9375 -5.9375 L 1.9375 -6.921875 L 0.9375 -6.921875 L 0.9375 0 L 2.03125 0 L 2.03125 -4.34375 C 2.03125 -5.34375 2.765625 -6.15625 3.65625 -6.15625 C 4.46875 -6.15625 4.9375 -5.65625 4.9375 -4.765625 L 4.9375 0 L 6.03125 0 L 6.03125 -4.34375 C 6.03125 -5.34375 6.765625 -6.15625 7.671875 -6.15625 C 8.46875 -6.15625 8.9375 -5.640625 8.9375 -4.765625 L 8.9375 0 Z M 10.03125 0 "/>
</symbol>
<symbol overflow="visible" id="glyph4-22">
<path style="stroke:none;" d="M 6.453125 -1.140625 L 6.453125 -6.921875 L 5.4375 -6.921875 L 5.4375 -5.921875 C 4.890625 -6.734375 4.21875 -7.109375 3.328125 -7.109375 C 1.578125 -7.109375 0.390625 -5.640625 0.390625 -3.390625 C 0.390625 -1.21875 1.609375 0.203125 3.234375 0.203125 C 4.109375 0.203125 4.71875 -0.171875 5.4375 -1.046875 L 5.4375 -0.578125 C 5.4375 1.25 4.6875 1.953125 3.40625 1.953125 C 2.53125 1.953125 1.859375 1.640625 1.734375 0.796875 L 0.609375 0.796875 C 0.71875 2.09375 1.75 2.875 3.359375 2.875 C 5.53125 2.875 6.453125 1.921875 6.453125 -1.140625 Z M 5.328125 -3.421875 C 5.328125 -1.765625 4.625 -0.8125 3.453125 -0.8125 C 2.25 -0.8125 1.53125 -1.78125 1.53125 -3.453125 C 1.53125 -5.125 2.265625 -6.09375 3.453125 -6.09375 C 4.640625 -6.09375 5.328125 -5.09375 5.328125 -3.421875 Z M 5.328125 -3.421875 "/>
</symbol>
<symbol overflow="visible" id="glyph4-23">
<path style="stroke:none;" d="M 6.90625 -3.390625 C 6.90625 -5.71875 5.765625 -7.109375 3.9375 -7.109375 C 3 -7.109375 2.25 -6.6875 1.734375 -5.875 L 1.734375 -6.921875 L 0.71875 -6.921875 L 0.71875 2.875 L 1.828125 2.875 L 1.828125 -0.828125 C 2.40625 -0.125 3.046875 0.203125 3.953125 0.203125 C 5.734375 0.203125 6.90625 -1.1875 6.90625 -3.390625 Z M 5.75 -3.421875 C 5.75 -1.84375 4.953125 -0.828125 3.75 -0.828125 C 2.59375 -0.828125 1.828125 -1.78125 1.828125 -3.40625 C 1.828125 -5.03125 2.59375 -6.09375 3.75 -6.09375 C 4.96875 -6.09375 5.75 -5.0625 5.75 -3.421875 Z M 5.75 -3.421875 "/>
</symbol>
<symbol overflow="visible" id="glyph4-24">
<path style="stroke:none;" d="M 8.53125 0 L 8.53125 -9.625 L 7.375 -9.625 L 7.375 -1.75 L 2.34375 -9.625 L 1 -9.625 L 1 0 L 2.171875 0 L 2.171875 -7.796875 L 7.140625 0 Z M 8.53125 0 "/>
</symbol>
<symbol overflow="visible" id="glyph4-25">
<path style="stroke:none;" d="M 7.03125 0 L 7.03125 -1.078125 L 2.28125 -1.078125 L 2.28125 -9.625 L 1.0625 -9.625 L 1.0625 0 Z M 7.03125 0 "/>
</symbol>
<symbol overflow="visible" id="glyph4-26">
<path style="stroke:none;" d="M 6.359375 0 L 6.359375 -6.921875 L 5.265625 -6.921875 L 5.265625 -3.109375 C 5.265625 -1.6875 4.53125 -0.765625 3.375 -0.765625 C 2.515625 -0.765625 1.953125 -1.296875 1.953125 -2.125 L 1.953125 -6.921875 L 0.859375 -6.921875 L 0.859375 -1.6875 C 0.859375 -0.546875 1.71875 0.203125 3.0625 0.203125 C 4.078125 0.203125 4.734375 -0.15625 5.375 -1.0625 L 5.375 0 Z M 6.359375 0 "/>
</symbol>
<symbol overflow="visible" id="glyph4-27">
<path style="stroke:none;" d="M 6.90625 -3.53125 C 6.90625 -5.78125 5.765625 -7.109375 3.953125 -7.109375 C 3 -7.109375 2.328125 -6.765625 1.8125 -5.984375 L 1.8125 -9.625 L 0.71875 -9.625 L 0.71875 0 L 1.703125 0 L 1.703125 -0.984375 C 2.234375 -0.1875 2.9375 0.203125 3.890625 0.203125 C 5.71875 0.203125 6.90625 -1.296875 6.90625 -3.53125 Z M 5.75 -3.46875 C 5.75 -1.90625 4.9375 -0.828125 3.734375 -0.828125 C 2.578125 -0.828125 1.8125 -1.890625 1.8125 -3.453125 C 1.8125 -5.078125 2.578125 -6.140625 3.734375 -6.09375 C 4.96875 -6.09375 5.75 -5.015625 5.75 -3.46875 Z M 5.75 -3.46875 "/>
</symbol>
</g>
<clipPath id="clip1">
  <path d="M 45.789062 37.855469 L 520 37.855469 L 520 394 L 45.789062 394 Z M 45.789062 37.855469 "/>
</clipPath>
<clipPath id="clip2">
  <path d="M 45.789062 350 L 520 350 L 520 352 L 45.789062 352 Z M 45.789062 350 "/>
</clipPath>
<clipPath id="clip3">
  <path d="M 45.789062 257 L 520 257 L 520 258 L 45.789062 258 Z M 45.789062 257 "/>
</clipPath>
<clipPath id="clip4">
  <path d="M 45.789062 163 L 520 163 L 520 164 L 45.789062 164 Z M 45.789062 163 "/>
</clipPath>
<clipPath id="clip5">
  <path d="M 45.789062 69 L 520 69 L 520 71 L 45.789062 71 Z M 45.789062 69 "/>
</clipPath>
<clipPath id="clip6">
  <path d="M 45.789062 303 L 520 303 L 520 305 L 45.789062 305 Z M 45.789062 303 "/>
</clipPath>
<clipPath id="clip7">
  <path d="M 45.789062 209 L 520 209 L 520 212 L 45.789062 212 Z M 45.789062 209 "/>
</clipPath>
<clipPath id="clip8">
  <path d="M 45.789062 116 L 520 116 L 520 118 L 45.789062 118 Z M 45.789062 116 "/>
</clipPath>
<clipPath id="clip9">
  <path d="M 174 37.855469 L 176 37.855469 L 176 394 L 174 394 Z M 174 37.855469 "/>
</clipPath>
<clipPath id="clip10">
  <path d="M 389 37.855469 L 391 37.855469 L 391 394 L 389 394 Z M 389 37.855469 "/>
</clipPath>
</defs>
<g id="surface493">
<rect x="0" y="0" width="576" height="432" style="fill:rgb(100%,100%,100%);fill-opacity:1;stroke:none;"/>
<rect x="0" y="0" width="576" height="432" style="fill:rgb(100%,100%,100%);fill-opacity:1;stroke:none;"/>
<path style="fill:none;stroke-width:1.066978;stroke-linecap:round;stroke-linejoin:round;stroke:rgb(100%,100%,100%);stroke-opacity:1;stroke-miterlimit:10;" d="M 0 432 L 576 432 L 576 0 L 0 0 Z M 0 432 "/>
<g clip-path="url(#clip1)" clip-rule="nonzero">
<path style=" stroke:none;fill-rule:nonzero;fill:rgb(92.156863%,92.156863%,92.156863%);fill-opacity:1;" d="M 45.789062 393.210938 L 519.34375 393.210938 L 519.34375 37.855469 L 45.789062 37.855469 Z M 45.789062 393.210938 "/>
</g>
<g clip-path="url(#clip2)" clip-rule="nonzero">
<path style="fill:none;stroke-width:0.533489;stroke-linecap:butt;stroke-linejoin:round;stroke:rgb(100%,100%,100%);stroke-opacity:1;stroke-miterlimit:10;" d="M 45.789062 351.003906 L 519.34375 351.003906 "/>
</g>
<g clip-path="url(#clip3)" clip-rule="nonzero">
<path style="fill:none;stroke-width:0.533489;stroke-linecap:butt;stroke-linejoin:round;stroke:rgb(100%,100%,100%);stroke-opacity:1;stroke-miterlimit:10;" d="M 45.789062 257.332031 L 519.34375 257.332031 "/>
</g>
<g clip-path="url(#clip4)" clip-rule="nonzero">
<path style="fill:none;stroke-width:0.533489;stroke-linecap:butt;stroke-linejoin:round;stroke:rgb(100%,100%,100%);stroke-opacity:1;stroke-miterlimit:10;" d="M 45.789062 163.664062 L 519.34375 163.664062 "/>
</g>
<g clip-path="url(#clip5)" clip-rule="nonzero">
<path style="fill:none;stroke-width:0.533489;stroke-linecap:butt;stroke-linejoin:round;stroke:rgb(100%,100%,100%);stroke-opacity:1;stroke-miterlimit:10;" d="M 45.789062 69.992188 L 519.34375 69.992188 "/>
</g>
<g clip-path="url(#clip6)" clip-rule="nonzero">
<path style="fill:none;stroke-width:1.066978;stroke-linecap:butt;stroke-linejoin:round;stroke:rgb(100%,100%,100%);stroke-opacity:1;stroke-miterlimit:10;" d="M 45.789062 304.167969 L 519.34375 304.167969 "/>
</g>
<g clip-path="url(#clip7)" clip-rule="nonzero">
<path style="fill:none;stroke-width:1.066978;stroke-linecap:butt;stroke-linejoin:round;stroke:rgb(100%,100%,100%);stroke-opacity:1;stroke-miterlimit:10;" d="M 45.789062 210.496094 L 519.34375 210.496094 "/>
</g>
<g clip-path="url(#clip8)" clip-rule="nonzero">
<path style="fill:none;stroke-width:1.066978;stroke-linecap:butt;stroke-linejoin:round;stroke:rgb(100%,100%,100%);stroke-opacity:1;stroke-miterlimit:10;" d="M 45.789062 116.828125 L 519.34375 116.828125 "/>
</g>
<g clip-path="url(#clip9)" clip-rule="nonzero">
<path style="fill:none;stroke-width:1.066978;stroke-linecap:butt;stroke-linejoin:round;stroke:rgb(100%,100%,100%);stroke-opacity:1;stroke-miterlimit:10;" d="M 174.941406 393.210938 L 174.941406 37.855469 "/>
</g>
<g clip-path="url(#clip10)" clip-rule="nonzero">
<path style="fill:none;stroke-width:1.066978;stroke-linecap:butt;stroke-linejoin:round;stroke:rgb(100%,100%,100%);stroke-opacity:1;stroke-miterlimit:10;" d="M 390.195312 393.210938 L 390.195312 37.855469 "/>
</g>
<path style="fill:none;stroke-width:1.066978;stroke-linecap:butt;stroke-linejoin:round;stroke:rgb(0%,74.901961%,76.862745%);stroke-opacity:1;stroke-miterlimit:10;" d="M 191.085938 132.195312 L 212.609375 132.195312 "/>
<path style="fill:none;stroke-width:1.066978;stroke-linecap:butt;stroke-linejoin:round;stroke:rgb(0%,74.901961%,76.862745%);stroke-opacity:1;stroke-miterlimit:10;" d="M 201.847656 132.195312 L 201.847656 377.058594 "/>
<path style="fill:none;stroke-width:1.066978;stroke-linecap:butt;stroke-linejoin:round;stroke:rgb(0%,74.901961%,76.862745%);stroke-opacity:1;stroke-miterlimit:10;" d="M 191.085938 377.058594 L 212.609375 377.058594 "/>
<path style="fill:none;stroke-width:1.066978;stroke-linecap:butt;stroke-linejoin:round;stroke:rgb(97.254902%,46.27451%,42.745098%);stroke-opacity:1;stroke-miterlimit:10;" d="M 137.273438 54.007812 L 158.796875 54.007812 "/>
<path style="fill:none;stroke-width:1.066978;stroke-linecap:butt;stroke-linejoin:round;stroke:rgb(97.254902%,46.27451%,42.745098%);stroke-opacity:1;stroke-miterlimit:10;" d="M 148.035156 54.007812 L 148.035156 320.839844 "/>
<path style="fill:none;stroke-width:1.066978;stroke-linecap:butt;stroke-linejoin:round;stroke:rgb(97.254902%,46.27451%,42.745098%);stroke-opacity:1;stroke-miterlimit:10;" d="M 137.273438 320.839844 L 158.796875 320.839844 "/>
<path style="fill:none;stroke-width:1.066978;stroke-linecap:butt;stroke-linejoin:round;stroke:rgb(0%,74.901961%,76.862745%);stroke-opacity:1;stroke-miterlimit:10;" d="M 406.339844 76.867188 L 427.863281 76.867188 "/>
<path style="fill:none;stroke-width:1.066978;stroke-linecap:butt;stroke-linejoin:round;stroke:rgb(0%,74.901961%,76.862745%);stroke-opacity:1;stroke-miterlimit:10;" d="M 417.101562 76.867188 L 417.101562 332.097656 "/>
<path style="fill:none;stroke-width:1.066978;stroke-linecap:butt;stroke-linejoin:round;stroke:rgb(0%,74.901961%,76.862745%);stroke-opacity:1;stroke-miterlimit:10;" d="M 406.339844 332.097656 L 427.863281 332.097656 "/>
<path style="fill:none;stroke-width:1.066978;stroke-linecap:butt;stroke-linejoin:round;stroke:rgb(97.254902%,46.27451%,42.745098%);stroke-opacity:1;stroke-miterlimit:10;" d="M 352.523438 67.613281 L 374.050781 67.613281 "/>
<path style="fill:none;stroke-width:1.066978;stroke-linecap:butt;stroke-linejoin:round;stroke:rgb(97.254902%,46.27451%,42.745098%);stroke-opacity:1;stroke-miterlimit:10;" d="M 363.289062 67.613281 L 363.289062 329.871094 "/>
<path style="fill:none;stroke-width:1.066978;stroke-linecap:butt;stroke-linejoin:round;stroke:rgb(97.254902%,46.27451%,42.745098%);stroke-opacity:1;stroke-miterlimit:10;" d="M 352.523438 329.871094 L 374.050781 329.871094 "/>
<path style="fill-rule:nonzero;fill:rgb(0%,74.901961%,76.862745%);fill-opacity:1;stroke-width:0.708661;stroke-linecap:round;stroke-linejoin:round;stroke:rgb(0%,74.901961%,76.862745%);stroke-opacity:1;stroke-miterlimit:10;" d="M 204.335938 254.625 C 204.335938 257.941406 199.359375 257.941406 199.359375 254.625 C 199.359375 251.308594 204.335938 251.308594 204.335938 254.625 "/>
<path style="fill-rule:nonzero;fill:rgb(97.254902%,46.27451%,42.745098%);fill-opacity:1;stroke-width:0.708661;stroke-linecap:round;stroke-linejoin:round;stroke:rgb(97.254902%,46.27451%,42.745098%);stroke-opacity:1;stroke-miterlimit:10;" d="M 150.523438 187.425781 C 150.523438 190.742188 145.546875 190.742188 145.546875 187.425781 C 145.546875 184.105469 150.523438 184.105469 150.523438 187.425781 "/>
<path style="fill-rule:nonzero;fill:rgb(0%,74.901961%,76.862745%);fill-opacity:1;stroke-width:0.708661;stroke-linecap:round;stroke-linejoin:round;stroke:rgb(0%,74.901961%,76.862745%);stroke-opacity:1;stroke-miterlimit:10;" d="M 419.589844 204.484375 C 419.589844 207.800781 414.613281 207.800781 414.613281 204.484375 C 414.613281 201.164062 419.589844 201.164062 419.589844 204.484375 "/>
<path style="fill-rule:nonzero;fill:rgb(97.254902%,46.27451%,42.745098%);fill-opacity:1;stroke-width:0.708661;stroke-linecap:round;stroke-linejoin:round;stroke:rgb(97.254902%,46.27451%,42.745098%);stroke-opacity:1;stroke-miterlimit:10;" d="M 365.777344 198.742188 C 365.777344 202.058594 360.800781 202.058594 360.800781 198.742188 C 360.800781 195.425781 365.777344 195.425781 365.777344 198.742188 "/>
<g style="fill:rgb(30.196078%,30.196078%,30.196078%);fill-opacity:1;">
  <use xlink:href="#glyph0-1" x="19.859375" y="306.770508"/>
  <use xlink:href="#glyph0-2" x="22.790039" y="306.770508"/>
  <use xlink:href="#glyph0-3" x="27.682617" y="306.770508"/>
  <use xlink:href="#glyph0-4" x="30.128906" y="306.770508"/>
  <use xlink:href="#glyph0-5" x="35.021484" y="306.770508"/>
</g>
<g style="fill:rgb(30.196078%,30.196078%,30.196078%);fill-opacity:1;">
  <use xlink:href="#glyph0-2" x="22.859375" y="213.098633"/>
  <use xlink:href="#glyph0-3" x="27.751953" y="213.098633"/>
  <use xlink:href="#glyph0-2" x="30.198242" y="213.098633"/>
  <use xlink:href="#glyph0-2" x="35.09082" y="213.098633"/>
</g>
<g style="fill:rgb(30.196078%,30.196078%,30.196078%);fill-opacity:1;">
  <use xlink:href="#glyph0-2" x="22.859375" y="119.430664"/>
  <use xlink:href="#glyph0-3" x="27.751953" y="119.430664"/>
  <use xlink:href="#glyph0-4" x="30.198242" y="119.430664"/>
  <use xlink:href="#glyph0-5" x="35.09082" y="119.430664"/>
</g>
<path style="fill:none;stroke-width:1.066978;stroke-linecap:butt;stroke-linejoin:round;stroke:rgb(20%,20%,20%);stroke-opacity:1;stroke-miterlimit:10;" d="M 43.050781 304.167969 L 45.789062 304.167969 "/>
<path style="fill:none;stroke-width:1.066978;stroke-linecap:butt;stroke-linejoin:round;stroke:rgb(20%,20%,20%);stroke-opacity:1;stroke-miterlimit:10;" d="M 43.050781 210.496094 L 45.789062 210.496094 "/>
<path style="fill:none;stroke-width:1.066978;stroke-linecap:butt;stroke-linejoin:round;stroke:rgb(20%,20%,20%);stroke-opacity:1;stroke-miterlimit:10;" d="M 43.050781 116.828125 L 45.789062 116.828125 "/>
<path style="fill:none;stroke-width:1.066978;stroke-linecap:butt;stroke-linejoin:round;stroke:rgb(20%,20%,20%);stroke-opacity:1;stroke-miterlimit:10;" d="M 174.941406 395.949219 L 174.941406 393.210938 "/>
<path style="fill:none;stroke-width:1.066978;stroke-linecap:butt;stroke-linejoin:round;stroke:rgb(20%,20%,20%);stroke-opacity:1;stroke-miterlimit:10;" d="M 390.195312 395.949219 L 390.195312 393.210938 "/>
<g style="fill:rgb(30.196078%,30.196078%,30.196078%);fill-opacity:1;">
  <use xlink:href="#glyph1-1" x="177.125" y="410.640625"/>
  <use xlink:href="#glyph1-2" x="177.125" y="408.416992"/>
  <use xlink:href="#glyph1-3" x="177.125" y="402.640625"/>
</g>
<g style="fill:rgb(30.196078%,30.196078%,30.196078%);fill-opacity:1;">
  <use xlink:href="#glyph1-1" x="392.378906" y="412.140625"/>
  <use xlink:href="#glyph1-2" x="392.378906" y="409.916992"/>
  <use xlink:href="#glyph1-4" x="392.378906" y="404.140625"/>
</g>
<g style="fill:rgb(0%,0%,0%);fill-opacity:1;">
  <use xlink:href="#glyph2-1" x="265.066406" y="423.506836"/>
  <use xlink:href="#glyph2-2" x="273.008789" y="423.506836"/>
  <use xlink:href="#glyph2-3" x="279.125" y="423.506836"/>
  <use xlink:href="#glyph2-4" x="281.567383" y="423.506836"/>
  <use xlink:href="#glyph2-5" x="287.683594" y="423.506836"/>
  <use xlink:href="#glyph2-6" x="293.799805" y="423.506836"/>
</g>
<g style="fill:rgb(0%,0%,0%);fill-opacity:1;">
  <use xlink:href="#glyph3-1" x="14.108398" y="259.53125"/>
  <use xlink:href="#glyph3-2" x="14.108398" y="251.588867"/>
  <use xlink:href="#glyph3-3" x="14.108398" y="249.146484"/>
  <use xlink:href="#glyph3-4" x="14.108398" y="246.253906"/>
  <use xlink:href="#glyph3-5" x="14.108398" y="240.137695"/>
  <use xlink:href="#glyph3-4" x="14.108398" y="236.584961"/>
  <use xlink:href="#glyph3-6" x="14.108398" y="230.46875"/>
  <use xlink:href="#glyph3-7" x="14.108398" y="224.352539"/>
  <use xlink:href="#glyph3-2" x="14.108398" y="218.852539"/>
  <use xlink:href="#glyph3-8" x="14.108398" y="216.410156"/>
  <use xlink:href="#glyph3-9" x="14.108398" y="210.293945"/>
  <use xlink:href="#glyph3-10" x="14.108398" y="207.236328"/>
  <use xlink:href="#glyph3-4" x="14.108398" y="198.073242"/>
  <use xlink:href="#glyph3-11" x="14.108398" y="191.957031"/>
  <use xlink:href="#glyph3-2" x="14.108398" y="185.84082"/>
  <use xlink:href="#glyph3-8" x="14.108398" y="183.398438"/>
  <use xlink:href="#glyph3-12" x="14.108398" y="177.282227"/>
</g>
<path style=" stroke:none;fill-rule:nonzero;fill:rgb(100%,100%,100%);fill-opacity:1;" d="M 530.304688 246.300781 L 570.519531 246.300781 L 570.519531 184.765625 L 530.304688 184.765625 Z M 530.304688 246.300781 "/>
<g style="fill:rgb(0%,0%,0%);fill-opacity:1;">
  <use xlink:href="#glyph2-7" x="535.785156" y="199.639648"/>
  <use xlink:href="#glyph2-8" x="544.342773" y="199.639648"/>
  <use xlink:href="#glyph2-9" x="546.785156" y="199.639648"/>
</g>
<path style="fill-rule:nonzero;fill:rgb(94.901961%,94.901961%,94.901961%);fill-opacity:1;stroke-width:1.066978;stroke-linecap:round;stroke-linejoin:round;stroke:rgb(100%,100%,100%);stroke-opacity:1;stroke-miterlimit:10;" d="M 535.785156 223.539062 L 553.066406 223.539062 L 553.066406 206.257812 L 535.785156 206.257812 Z M 535.785156 223.539062 "/>
<path style="fill:none;stroke-width:1.066978;stroke-linecap:butt;stroke-linejoin:round;stroke:rgb(97.254902%,46.27451%,42.745098%);stroke-opacity:1;stroke-miterlimit:10;" d="M 537.511719 214.902344 L 551.335938 214.902344 "/>
<path style="fill-rule:nonzero;fill:rgb(97.254902%,46.27451%,42.745098%);fill-opacity:1;stroke-width:0.708661;stroke-linecap:round;stroke-linejoin:round;stroke:rgb(97.254902%,46.27451%,42.745098%);stroke-opacity:1;stroke-miterlimit:10;" d="M 546.910156 214.902344 C 546.910156 218.21875 541.933594 218.21875 541.933594 214.902344 C 541.933594 211.582031 546.910156 211.582031 546.910156 214.902344 "/>
<path style="fill-rule:nonzero;fill:rgb(94.901961%,94.901961%,94.901961%);fill-opacity:1;stroke-width:1.066978;stroke-linecap:round;stroke-linejoin:round;stroke:rgb(100%,100%,100%);stroke-opacity:1;stroke-miterlimit:10;" d="M 535.785156 240.820312 L 553.066406 240.820312 L 553.066406 223.539062 L 535.785156 223.539062 Z M 535.785156 240.820312 "/>
<path style="fill:none;stroke-width:1.066978;stroke-linecap:butt;stroke-linejoin:round;stroke:rgb(0%,74.901961%,76.862745%);stroke-opacity:1;stroke-miterlimit:10;" d="M 537.511719 232.179688 L 551.335938 232.179688 "/>
<path style="fill-rule:nonzero;fill:rgb(0%,74.901961%,76.862745%);fill-opacity:1;stroke-width:0.708661;stroke-linecap:round;stroke-linejoin:round;stroke:rgb(0%,74.901961%,76.862745%);stroke-opacity:1;stroke-miterlimit:10;" d="M 546.910156 232.179688 C 546.910156 235.5 541.933594 235.5 541.933594 232.179688 C 541.933594 228.863281 546.910156 228.863281 546.910156 232.179688 "/>
<g style="fill:rgb(0%,0%,0%);fill-opacity:1;">
  <use xlink:href="#glyph0-6" x="558.542969" y="217.504883"/>
</g>
<g style="fill:rgb(0%,0%,0%);fill-opacity:1;">
  <use xlink:href="#glyph0-7" x="558.542969" y="234.782227"/>
</g>
<g style="fill:rgb(0%,0%,0%);fill-opacity:1;">
  <use xlink:href="#glyph4-1" x="110.066406" y="14.632812"/>
  <use xlink:href="#glyph4-2" x="113.735352" y="14.632812"/>
  <use xlink:href="#glyph4-3" x="121.074219" y="14.632812"/>
  <use xlink:href="#glyph4-4" x="124.544922" y="14.632812"/>
  <use xlink:href="#glyph4-5" x="131.883789" y="14.632812"/>
  <use xlink:href="#glyph4-6" x="136.675781" y="14.632812"/>
  <use xlink:href="#glyph4-7" x="143.011719" y="14.632812"/>
  <use xlink:href="#glyph4-8" x="150.350586" y="14.632812"/>
  <use xlink:href="#glyph4-9" x="153.28125" y="14.632812"/>
  <use xlink:href="#glyph4-10" x="160.620117" y="14.632812"/>
  <use xlink:href="#glyph4-11" x="167.219727" y="14.632812"/>
  <use xlink:href="#glyph4-12" x="170.888672" y="14.632812"/>
  <use xlink:href="#glyph4-4" x="178.227539" y="14.632812"/>
  <use xlink:href="#glyph4-11" x="185.566406" y="14.632812"/>
  <use xlink:href="#glyph4-13" x="189.235352" y="14.632812"/>
  <use xlink:href="#glyph4-9" x="195.834961" y="14.632812"/>
  <use xlink:href="#glyph4-2" x="203.173828" y="14.632812"/>
  <use xlink:href="#glyph4-14" x="210.512695" y="14.632812"/>
  <use xlink:href="#glyph4-7" x="217.112305" y="14.632812"/>
  <use xlink:href="#glyph4-2" x="224.451172" y="14.632812"/>
  <use xlink:href="#glyph4-15" x="231.790039" y="14.632812"/>
  <use xlink:href="#glyph4-7" x="238.389648" y="14.632812"/>
  <use xlink:href="#glyph4-11" x="245.728516" y="14.632812"/>
  <use xlink:href="#glyph4-12" x="249.397461" y="14.632812"/>
  <use xlink:href="#glyph4-4" x="256.736328" y="14.632812"/>
  <use xlink:href="#glyph4-8" x="264.075195" y="14.632812"/>
  <use xlink:href="#glyph4-11" x="267.005859" y="14.632812"/>
  <use xlink:href="#glyph4-16" x="270.674805" y="14.632812"/>
  <use xlink:href="#glyph4-17" x="278.013672" y="14.632812"/>
  <use xlink:href="#glyph4-18" x="285.352539" y="14.632812"/>
  <use xlink:href="#glyph4-11" x="297.086914" y="14.632812"/>
  <use xlink:href="#glyph4-12" x="300.755859" y="14.632812"/>
  <use xlink:href="#glyph4-4" x="308.094727" y="14.632812"/>
  <use xlink:href="#glyph4-11" x="315.433594" y="14.632812"/>
  <use xlink:href="#glyph4-8" x="319.102539" y="14.632812"/>
  <use xlink:href="#glyph4-7" x="322.033203" y="14.632812"/>
  <use xlink:href="#glyph4-11" x="329.37207" y="14.632812"/>
  <use xlink:href="#glyph4-12" x="333.041016" y="14.632812"/>
  <use xlink:href="#glyph4-19" x="340.379883" y="14.632812"/>
  <use xlink:href="#glyph4-20" x="343.310547" y="14.632812"/>
  <use xlink:href="#glyph4-4" x="346.78125" y="14.632812"/>
  <use xlink:href="#glyph4-5" x="354.120117" y="14.632812"/>
  <use xlink:href="#glyph4-4" x="358.383789" y="14.632812"/>
  <use xlink:href="#glyph4-2" x="365.722656" y="14.632812"/>
  <use xlink:href="#glyph4-13" x="373.061523" y="14.632812"/>
  <use xlink:href="#glyph4-19" x="379.661133" y="14.632812"/>
  <use xlink:href="#glyph4-7" x="382.591797" y="14.632812"/>
  <use xlink:href="#glyph4-11" x="389.930664" y="14.632812"/>
  <use xlink:href="#glyph4-12" x="393.599609" y="14.632812"/>
  <use xlink:href="#glyph4-4" x="400.938477" y="14.632812"/>
  <use xlink:href="#glyph4-11" x="408.277344" y="14.632812"/>
  <use xlink:href="#glyph4-21" x="411.946289" y="14.632812"/>
  <use xlink:href="#glyph4-4" x="422.941406" y="14.632812"/>
  <use xlink:href="#glyph4-12" x="430.280273" y="14.632812"/>
  <use xlink:href="#glyph4-19" x="437.619141" y="14.632812"/>
  <use xlink:href="#glyph4-7" x="440.549805" y="14.632812"/>
  <use xlink:href="#glyph4-10" x="447.888672" y="14.632812"/>
</g>
<g style="fill:rgb(0%,0%,0%);fill-opacity:1;">
  <use xlink:href="#glyph4-11" x="154.566406" y="28.886719"/>
  <use xlink:href="#glyph4-12" x="158.235352" y="28.886719"/>
  <use xlink:href="#glyph4-4" x="165.574219" y="28.886719"/>
  <use xlink:href="#glyph4-8" x="172.913086" y="28.886719"/>
  <use xlink:href="#glyph4-11" x="175.84375" y="28.886719"/>
  <use xlink:href="#glyph4-22" x="179.512695" y="28.886719"/>
  <use xlink:href="#glyph4-5" x="186.851562" y="28.886719"/>
  <use xlink:href="#glyph4-9" x="191.180664" y="28.886719"/>
  <use xlink:href="#glyph4-10" x="198.519531" y="28.886719"/>
  <use xlink:href="#glyph4-9" x="205.119141" y="28.886719"/>
  <use xlink:href="#glyph4-5" x="212.458008" y="28.886719"/>
  <use xlink:href="#glyph4-11" x="216.853516" y="28.886719"/>
  <use xlink:href="#glyph4-12" x="220.522461" y="28.886719"/>
  <use xlink:href="#glyph4-4" x="227.861328" y="28.886719"/>
  <use xlink:href="#glyph4-11" x="235.200195" y="28.886719"/>
  <use xlink:href="#glyph4-8" x="238.869141" y="28.886719"/>
  <use xlink:href="#glyph4-7" x="241.799805" y="28.886719"/>
  <use xlink:href="#glyph4-11" x="249.138672" y="28.886719"/>
  <use xlink:href="#glyph4-13" x="252.807617" y="28.886719"/>
  <use xlink:href="#glyph4-7" x="259.407227" y="28.886719"/>
  <use xlink:href="#glyph4-23" x="266.746094" y="28.886719"/>
  <use xlink:href="#glyph4-7" x="274.084961" y="28.886719"/>
  <use xlink:href="#glyph4-11" x="281.423828" y="28.886719"/>
  <use xlink:href="#glyph4-1" x="285.092773" y="28.886719"/>
  <use xlink:href="#glyph4-24" x="288.761719" y="28.886719"/>
  <use xlink:href="#glyph4-25" x="298.291992" y="28.886719"/>
  <use xlink:href="#glyph4-11" x="305.630859" y="28.886719"/>
  <use xlink:href="#glyph4-12" x="309.299805" y="28.886719"/>
  <use xlink:href="#glyph4-4" x="316.638672" y="28.886719"/>
  <use xlink:href="#glyph4-8" x="323.977539" y="28.886719"/>
  <use xlink:href="#glyph4-11" x="326.908203" y="28.886719"/>
  <use xlink:href="#glyph4-13" x="330.577148" y="28.886719"/>
  <use xlink:href="#glyph4-26" x="337.176758" y="28.886719"/>
  <use xlink:href="#glyph4-27" x="344.515625" y="28.886719"/>
  <use xlink:href="#glyph4-9" x="351.854492" y="28.886719"/>
  <use xlink:href="#glyph4-11" x="359.193359" y="28.886719"/>
  <use xlink:href="#glyph4-21" x="362.862305" y="28.886719"/>
  <use xlink:href="#glyph4-7" x="373.857422" y="28.886719"/>
  <use xlink:href="#glyph4-13" x="381.196289" y="28.886719"/>
  <use xlink:href="#glyph4-26" x="387.795898" y="28.886719"/>
  <use xlink:href="#glyph4-8" x="395.134766" y="28.886719"/>
  <use xlink:href="#glyph4-7" x="398.06543" y="28.886719"/>
  <use xlink:href="#glyph4-5" x="405.404297" y="28.886719"/>
</g>
</g>
</svg>
