<?xml version="1.0" encoding="UTF-8"?>
<svg xmlns="http://www.w3.org/2000/svg" xmlns:xlink="http://www.w3.org/1999/xlink" width="576pt" height="432pt" viewBox="0 0 576 432" version="1.1">
<defs>
<g>
<symbol overflow="visible" id="glyph0-0">
<path style="stroke:none;" d=""/>
</symbol>
<symbol overflow="visible" id="glyph0-1">
<path style="stroke:none;" d="M 4.453125 -3 C 4.453125 -5.15625 3.78125 -6.234375 2.421875 -6.234375 C 1.078125 -6.234375 0.375 -5.140625 0.375 -3.046875 C 0.375 -0.953125 1.078125 0.125 2.421875 0.125 C 3.734375 0.125 4.453125 -0.953125 4.453125 -3 Z M 3.671875 -3.0625 C 3.671875 -1.296875 3.265625 -0.515625 2.40625 -0.515625 C 1.578125 -0.515625 1.171875 -1.34375 1.171875 -3.046875 C 1.171875 -4.75 1.578125 -5.546875 2.421875 -5.546875 C 3.25 -5.546875 3.671875 -4.734375 3.671875 -3.0625 Z M 3.671875 -3.0625 "/>
</symbol>
<symbol overflow="visible" id="glyph0-2">
<path style="stroke:none;" d="M 1.6875 0 L 1.6875 -0.921875 L 0.765625 -0.921875 L 0.765625 0 Z M 1.6875 0 "/>
</symbol>
<symbol overflow="visible" id="glyph0-3">
<path style="stroke:none;" d="M 4.515625 -2.0625 C 4.515625 -3.296875 3.6875 -4.109375 2.5 -4.109375 C 2.0625 -4.109375 1.703125 -4 1.34375 -3.734375 L 1.59375 -5.34375 L 4.1875 -5.34375 L 4.1875 -6.109375 L 0.96875 -6.109375 L 0.5 -2.84375 L 1.21875 -2.84375 C 1.578125 -3.265625 1.875 -3.421875 2.359375 -3.421875 C 3.1875 -3.421875 3.71875 -2.890625 3.71875 -1.96875 C 3.71875 -1.0625 3.203125 -0.546875 2.359375 -0.546875 C 1.6875 -0.546875 1.265625 -0.890625 1.078125 -1.59375 L 0.3125 -1.59375 C 0.5625 -0.359375 1.265625 0.125 2.375 0.125 C 3.640625 0.125 4.515625 -0.75 4.515625 -2.0625 Z M 4.515625 -2.0625 "/>
</symbol>
<symbol overflow="visible" id="glyph0-4">
<path style="stroke:none;" d="M 3.046875 0 L 3.046875 -6.234375 L 2.546875 -6.234375 C 2.265625 -5.28125 2.09375 -5.140625 0.890625 -5 L 0.890625 -4.4375 L 2.28125 -4.4375 L 2.28125 0 Z M 3.046875 0 "/>
</symbol>
<symbol overflow="visible" id="glyph0-5">
<path style="stroke:none;" d="M 2.5 -2.109375 L 2.5 -2.75 L 0.40625 -2.75 L 0.40625 -2.109375 Z M 2.5 -2.109375 "/>
</symbol>
<symbol overflow="visible" id="glyph0-6">
<path style="stroke:none;" d="M 4.453125 -1.8125 C 4.453125 -2.5625 4.140625 -3.015625 3.390625 -3.265625 C 3.96875 -3.5 4.265625 -3.890625 4.265625 -4.515625 C 4.265625 -5.59375 3.546875 -6.234375 2.359375 -6.234375 C 1.109375 -6.234375 0.4375 -5.546875 0.40625 -4.21875 L 1.1875 -4.21875 C 1.203125 -5.140625 1.578125 -5.5625 2.375 -5.5625 C 3.0625 -5.5625 3.46875 -5.15625 3.46875 -4.5 C 3.46875 -3.828125 3.1875 -3.546875 1.9375 -3.546875 L 1.9375 -2.90625 L 2.359375 -2.90625 C 3.21875 -2.90625 3.65625 -2.5 3.65625 -1.796875 C 3.65625 -1.015625 3.171875 -0.546875 2.359375 -0.546875 C 1.515625 -0.546875 1.109375 -0.96875 1.0625 -1.875 L 0.28125 -1.875 C 0.375 -0.5 1.0625 0.125 2.34375 0.125 C 3.625 0.125 4.453125 -0.640625 4.453125 -1.8125 Z M 4.453125 -1.8125 "/>
</symbol>
<symbol overflow="visible" id="glyph0-7">
<path style="stroke:none;" d="M 4.5 -4.40625 C 4.5 -5.46875 3.671875 -6.234375 2.5 -6.234375 C 1.21875 -6.234375 0.484375 -5.59375 0.4375 -4.078125 L 1.21875 -4.078125 C 1.28125 -5.125 1.703125 -5.5625 2.46875 -5.5625 C 3.171875 -5.5625 3.703125 -5.0625 3.703125 -4.390625 C 3.703125 -3.890625 3.40625 -3.46875 2.859375 -3.15625 L 2.046875 -2.703125 C 0.75 -1.96875 0.375 -1.375 0.296875 0 L 4.453125 0 L 4.453125 -0.765625 L 1.171875 -0.765625 C 1.25 -1.28125 1.53125 -1.59375 2.296875 -2.046875 L 3.171875 -2.53125 C 4.046875 -2.984375 4.5 -3.640625 4.5 -4.40625 Z M 4.5 -4.40625 "/>
</symbol>
<symbol overflow="visible" id="glyph0-8">
<path style="stroke:none;" d="M 5.46875 -1.765625 C 5.46875 -2.546875 4.96875 -3.125 4.09375 -3.375 L 2.484375 -3.796875 C 1.71875 -4 1.4375 -4.25 1.4375 -4.75 C 1.4375 -5.40625 2 -5.890625 2.875 -5.890625 C 3.890625 -5.890625 4.46875 -5.421875 4.46875 -4.578125 L 5.25 -4.578125 C 5.25 -5.84375 4.375 -6.578125 2.890625 -6.578125 C 1.484375 -6.578125 0.609375 -5.796875 0.609375 -4.640625 C 0.609375 -3.859375 1.03125 -3.359375 1.875 -3.140625 L 3.46875 -2.71875 C 4.28125 -2.5 4.640625 -2.1875 4.640625 -1.6875 C 4.640625 -0.96875 4.109375 -0.5625 3.015625 -0.5625 C 1.796875 -0.5625 1.203125 -1.171875 1.203125 -2.078125 L 0.421875 -2.078125 C 0.421875 -0.578125 1.4375 0.15625 2.953125 0.15625 C 4.578125 0.15625 5.46875 -0.609375 5.46875 -1.765625 Z M 5.46875 -1.765625 "/>
</symbol>
<symbol overflow="visible" id="glyph0-9">
<path style="stroke:none;" d="M 4.703125 -0.015625 L 4.703125 -0.578125 C 4.625 -0.546875 4.59375 -0.546875 4.546875 -0.546875 C 4.296875 -0.546875 4.15625 -0.6875 4.15625 -0.921875 L 4.15625 -3.484375 C 4.15625 -4.296875 3.546875 -4.734375 2.421875 -4.734375 C 1.296875 -4.734375 0.609375 -4.3125 0.578125 -3.25 L 1.3125 -3.25 C 1.375 -3.8125 1.703125 -4.0625 2.390625 -4.0625 C 3.046875 -4.0625 3.421875 -3.8125 3.421875 -3.375 L 3.421875 -3.1875 C 3.421875 -2.875 3.234375 -2.75 2.65625 -2.671875 C 1.625 -2.546875 1.453125 -2.5 1.171875 -2.390625 C 0.640625 -2.171875 0.375 -1.765625 0.375 -1.203125 C 0.375 -0.359375 0.953125 0.125 1.875 0.125 C 2.46875 0.125 3.046875 -0.109375 3.453125 -0.546875 C 3.53125 -0.1875 3.84375 0.0625 4.203125 0.0625 C 4.359375 0.0625 4.46875 0.046875 4.703125 -0.015625 Z M 3.421875 -1.59375 C 3.421875 -0.9375 2.75 -0.515625 2.046875 -0.515625 C 1.46875 -0.515625 1.140625 -0.71875 1.140625 -1.21875 C 1.140625 -1.703125 1.453125 -1.90625 2.25 -2.015625 C 3.015625 -2.125 3.171875 -2.15625 3.421875 -2.28125 Z M 3.421875 -1.59375 "/>
</symbol>
<symbol overflow="visible" id="glyph0-10">
<path style="stroke:none;" d="M 4.28125 0 L 4.28125 -3.484375 C 4.28125 -4.25 3.71875 -4.734375 2.828125 -4.734375 C 2.140625 -4.734375 1.703125 -4.484375 1.296875 -3.828125 L 1.296875 -4.609375 L 0.609375 -4.609375 L 0.609375 0 L 1.34375 0 L 1.34375 -2.546875 C 1.34375 -3.484375 1.859375 -4.09375 2.609375 -4.09375 C 3.1875 -4.09375 3.546875 -3.75 3.546875 -3.1875 L 3.546875 0 Z M 4.28125 0 "/>
</symbol>
<symbol overflow="visible" id="glyph0-11">
<path style="stroke:none;" d="M 4.484375 -2.265625 C 4.484375 -3.859375 3.71875 -4.734375 2.390625 -4.734375 C 1.09375 -4.734375 0.3125 -3.859375 0.3125 -2.3125 C 0.3125 -0.75 1.09375 0.125 2.40625 0.125 C 3.6875 0.125 4.484375 -0.75 4.484375 -2.265625 Z M 3.71875 -2.28125 C 3.71875 -1.203125 3.203125 -0.546875 2.40625 -0.546875 C 1.578125 -0.546875 1.078125 -1.1875 1.078125 -2.3125 C 1.078125 -3.40625 1.578125 -4.0625 2.40625 -4.0625 C 3.234375 -4.0625 3.71875 -3.421875 3.71875 -2.28125 Z M 3.71875 -2.28125 "/>
</symbol>
<symbol overflow="visible" id="glyph0-12">
<path style="stroke:none;" d="M 1.703125 0 L 1.703125 -6.40625 L 0.875 -6.40625 L 0.875 0 Z M 1.703125 0 "/>
</symbol>
<symbol overflow="visible" id="glyph0-13">
<path style="stroke:none;" d="M 5.671875 -6.40625 L 4.796875 -6.40625 L 3.03125 -0.984375 L 1.140625 -6.40625 L 0.265625 -6.40625 L 2.5625 0 L 3.453125 0 Z M 5.671875 -6.40625 "/>
</symbol>
<symbol overflow="visible" id="glyph1-0">
<path style="stroke:none;" d=""/>
</symbol>
<symbol overflow="visible" id="glyph1-1">
<path style="stroke:none;" d="M 7.34375 -4.015625 C 7.34375 -6.5 6.109375 -8.015625 4.0625 -8.015625 L 0.984375 -8.015625 L 0.984375 0 L 4.0625 0 C 6.09375 0 7.34375 -1.515625 7.34375 -4.015625 Z M 6.3125 -4 C 6.3125 -1.984375 5.484375 -0.90625 3.890625 -0.90625 L 2 -0.90625 L 2 -7.109375 L 3.890625 -7.109375 C 5.484375 -7.109375 6.3125 -6.046875 6.3125 -4 Z M 6.3125 -4 "/>
</symbol>
<symbol overflow="visible" id="glyph1-2">
<path style="stroke:none;" d="M 1.6875 0 L 1.6875 -5.765625 L 0.765625 -5.765625 L 0.765625 0 Z M 1.796875 -6.640625 L 1.796875 -7.78125 L 0.65625 -7.78125 L 0.65625 -6.640625 Z M 1.796875 -6.640625 "/>
</symbol>
<symbol overflow="visible" id="glyph1-3">
<path style="stroke:none;" d="M 8.359375 0 L 8.359375 -4.328125 C 8.359375 -5.359375 7.78125 -5.921875 6.703125 -5.921875 C 5.9375 -5.921875 5.484375 -5.703125 4.9375 -5.046875 C 4.59375 -5.671875 4.140625 -5.921875 3.390625 -5.921875 C 2.625 -5.921875 2.109375 -5.640625 1.609375 -4.953125 L 1.609375 -5.765625 L 0.78125 -5.765625 L 0.78125 0 L 1.6875 0 L 1.6875 -3.625 C 1.6875 -4.453125 2.296875 -5.125 3.046875 -5.125 C 3.734375 -5.125 4.109375 -4.703125 4.109375 -3.96875 L 4.109375 0 L 5.03125 0 L 5.03125 -3.625 C 5.03125 -4.453125 5.640625 -5.125 6.390625 -5.125 C 7.0625 -5.125 7.453125 -4.703125 7.453125 -3.96875 L 7.453125 0 Z M 8.359375 0 "/>
</symbol>
<symbol overflow="visible" id="glyph1-4">
<path style="stroke:none;" d="M 2.09375 0 L 2.09375 -1.140625 L 0.953125 -1.140625 L 0.953125 0 Z M 2.09375 0 "/>
</symbol>
<symbol overflow="visible" id="glyph1-5">
<path style="stroke:none;" d="M 3.8125 0 L 3.8125 -7.796875 L 3.171875 -7.796875 C 2.84375 -6.59375 2.625 -6.4375 1.125 -6.25 L 1.125 -5.5625 L 2.84375 -5.5625 L 2.84375 0 Z M 3.8125 0 "/>
</symbol>
<symbol overflow="visible" id="glyph1-6">
<path style="stroke:none;" d="M 6.75 0 L 6.75 -0.90625 L 2.015625 -0.90625 L 2.015625 -3.65625 L 6.375 -3.65625 L 6.375 -4.546875 L 2.015625 -4.546875 L 2.015625 -7.109375 L 6.546875 -7.109375 L 6.546875 -8.015625 L 0.984375 -8.015625 L 0.984375 0 Z M 6.75 0 "/>
</symbol>
<symbol overflow="visible" id="glyph1-7">
<path style="stroke:none;" d="M 5.046875 -1.609375 C 5.046875 -2.46875 4.5625 -2.90625 3.421875 -3.171875 L 2.546875 -3.390625 C 1.796875 -3.5625 1.46875 -3.8125 1.46875 -4.21875 C 1.46875 -4.734375 1.953125 -5.078125 2.6875 -5.078125 C 3.4375 -5.078125 3.828125 -4.765625 3.84375 -4.15625 L 4.8125 -4.15625 C 4.8125 -5.296875 4.0625 -5.921875 2.734375 -5.921875 C 1.390625 -5.921875 0.515625 -5.234375 0.515625 -4.171875 C 0.515625 -3.265625 0.984375 -2.84375 2.34375 -2.515625 L 3.203125 -2.296875 C 3.84375 -2.140625 4.09375 -1.953125 4.09375 -1.546875 C 4.09375 -1 3.546875 -0.6875 2.75 -0.6875 C 1.921875 -0.6875 1.46875 -0.875 1.34375 -1.765625 L 0.375 -1.765625 C 0.421875 -0.421875 1.171875 0.171875 2.671875 0.171875 C 4.125 0.171875 5.046875 -0.5 5.046875 -1.609375 Z M 5.046875 -1.609375 "/>
</symbol>
<symbol overflow="visible" id="glyph1-8">
<path style="stroke:none;" d="M 2.796875 0 L 2.796875 -0.765625 C 2.671875 -0.734375 2.53125 -0.71875 2.359375 -0.71875 C 1.953125 -0.71875 1.84375 -0.84375 1.84375 -1.25 L 1.84375 -5.015625 L 2.796875 -5.015625 L 2.796875 -5.765625 L 1.84375 -5.765625 L 1.84375 -7.34375 L 0.9375 -7.34375 L 0.9375 -5.765625 L 0.15625 -5.765625 L 0.15625 -5.015625 L 0.9375 -5.015625 L 0.9375 -0.84375 C 0.9375 -0.25 1.328125 0.078125 2.046875 0.078125 C 2.265625 0.078125 2.484375 0.0625 2.796875 0 Z M 2.796875 0 "/>
</symbol>
<symbol overflow="visible" id="glyph1-9">
<path style="stroke:none;" d="M 5.890625 -0.015625 L 5.890625 -0.71875 C 5.78125 -0.6875 5.734375 -0.6875 5.6875 -0.6875 C 5.375 -0.6875 5.1875 -0.859375 5.1875 -1.140625 L 5.1875 -4.359375 C 5.1875 -5.375 4.4375 -5.921875 3.03125 -5.921875 C 1.625 -5.921875 0.765625 -5.390625 0.71875 -4.0625 L 1.640625 -4.0625 C 1.71875 -4.765625 2.140625 -5.078125 2.984375 -5.078125 C 3.8125 -5.078125 4.28125 -4.78125 4.28125 -4.21875 L 4.28125 -3.984375 C 4.28125 -3.59375 4.046875 -3.4375 3.328125 -3.34375 C 2.03125 -3.171875 1.828125 -3.140625 1.46875 -2.984375 C 0.796875 -2.71875 0.46875 -2.203125 0.46875 -1.5 C 0.46875 -0.453125 1.1875 0.171875 2.359375 0.171875 C 3.09375 0.171875 3.8125 -0.140625 4.3125 -0.6875 C 4.40625 -0.234375 4.8125 0.078125 5.265625 0.078125 C 5.4375 0.078125 5.59375 0.0625 5.890625 -0.015625 Z M 4.28125 -1.984375 C 4.28125 -1.171875 3.4375 -0.640625 2.546875 -0.640625 C 1.84375 -0.640625 1.421875 -0.890625 1.421875 -1.515625 C 1.421875 -2.125 1.828125 -2.390625 2.8125 -2.53125 C 3.765625 -2.65625 3.96875 -2.703125 4.28125 -2.84375 Z M 4.28125 -1.984375 "/>
</symbol>
<symbol overflow="visible" id="glyph1-10">
<path style="stroke:none;" d="M 5.4375 0 L 5.4375 -8.015625 L 4.53125 -8.015625 L 4.53125 -5.03125 C 4.140625 -5.625 3.53125 -5.921875 2.765625 -5.921875 C 1.265625 -5.921875 0.28125 -4.78125 0.28125 -2.9375 C 0.28125 -0.984375 1.25 0.171875 2.796875 0.171875 C 3.59375 0.171875 4.140625 -0.125 4.625 -0.84375 L 4.625 0 Z M 4.53125 -2.859375 C 4.53125 -1.53125 3.890625 -0.6875 2.921875 -0.6875 C 1.90625 -0.6875 1.25 -1.546875 1.25 -2.875 C 1.25 -4.21875 1.90625 -5.078125 2.921875 -5.078125 C 3.90625 -5.078125 4.53125 -4.1875 4.53125 -2.859375 Z M 4.53125 -2.859375 "/>
</symbol>
<symbol overflow="visible" id="glyph1-11">
<path style="stroke:none;" d="M 5.609375 -2.84375 C 5.609375 -4.828125 4.65625 -5.921875 2.984375 -5.921875 C 1.375 -5.921875 0.390625 -4.8125 0.390625 -2.875 C 0.390625 -0.953125 1.359375 0.171875 3 0.171875 C 4.625 0.171875 5.609375 -0.953125 5.609375 -2.84375 Z M 4.65625 -2.84375 C 4.65625 -1.5 4.015625 -0.6875 3 -0.6875 C 1.984375 -0.6875 1.359375 -1.484375 1.359375 -2.875 C 1.359375 -4.265625 1.984375 -5.078125 3 -5.078125 C 4.03125 -5.078125 4.65625 -4.28125 4.65625 -2.84375 Z M 4.65625 -2.84375 "/>
</symbol>
<symbol overflow="visible" id="glyph2-0">
<path style="stroke:none;" d=""/>
</symbol>
<symbol overflow="visible" id="glyph2-1">
<path style="stroke:none;" d="M 0 -5.4375 L -8.015625 -5.4375 L -8.015625 -4.53125 L -5.03125 -4.53125 C -5.625 -4.140625 -5.921875 -3.53125 -5.921875 -2.765625 C -5.921875 -1.265625 -4.78125 -0.28125 -2.9375 -0.28125 C -0.984375 -0.28125 0.171875 -1.25 0.171875 -2.796875 C 0.171875 -3.59375 -0.125 -4.140625 -0.84375 -4.625 L 0 -4.625 Z M -2.859375 -4.53125 C -1.53125 -4.53125 -0.6875 -3.890625 -0.6875 -2.921875 C -0.6875 -1.90625 -1.546875 -1.25 -2.875 -1.25 C -4.21875 -1.25 -5.078125 -1.90625 -5.078125 -2.921875 C -5.078125 -3.90625 -4.1875 -4.53125 -2.859375 -4.53125 Z M -2.859375 -4.53125 "/>
</symbol>
<symbol overflow="visible" id="glyph2-2">
<path style="stroke:none;" d="M -2.625 -5.640625 C -3.453125 -5.640625 -3.984375 -5.578125 -4.40625 -5.40625 C -5.359375 -5.03125 -5.921875 -4.15625 -5.921875 -3.078125 C -5.921875 -1.46875 -4.734375 -0.4375 -2.84375 -0.4375 C -0.953125 -0.4375 0.171875 -1.4375 0.171875 -3.0625 C 0.171875 -4.375 -0.578125 -5.296875 -1.75 -5.515625 L -1.75 -4.59375 C -0.984375 -4.34375 -0.6875 -3.828125 -0.6875 -3.09375 C -0.6875 -2.140625 -1.296875 -1.421875 -2.625 -1.390625 Z M -3.4375 -4.65625 C -3.4375 -4.65625 -3.390625 -4.65625 -3.359375 -4.65625 L -3.359375 -1.421875 C -4.390625 -1.5 -5.078125 -2.140625 -5.078125 -3.0625 C -5.078125 -3.96875 -4.328125 -4.65625 -3.4375 -4.65625 Z M -3.4375 -4.65625 "/>
</symbol>
<symbol overflow="visible" id="glyph2-3">
<path style="stroke:none;" d="M 0 -5.359375 L -4.359375 -5.359375 C -5.3125 -5.359375 -5.921875 -4.640625 -5.921875 -3.53125 C -5.921875 -2.671875 -5.59375 -2.125 -4.796875 -1.609375 L -5.765625 -1.609375 L -5.765625 -0.765625 L 0 -0.765625 L 0 -1.6875 L -3.171875 -1.6875 C -4.359375 -1.6875 -5.125 -2.328125 -5.125 -3.25 C -5.125 -3.984375 -4.6875 -4.4375 -4 -4.4375 L 0 -4.4375 Z M 0 -5.359375 "/>
</symbol>
<symbol overflow="visible" id="glyph2-4">
<path style="stroke:none;" d="M -1.609375 -5.046875 C -2.46875 -5.046875 -2.90625 -4.5625 -3.171875 -3.421875 L -3.390625 -2.546875 C -3.5625 -1.796875 -3.8125 -1.46875 -4.21875 -1.46875 C -4.734375 -1.46875 -5.078125 -1.953125 -5.078125 -2.6875 C -5.078125 -3.4375 -4.765625 -3.828125 -4.15625 -3.84375 L -4.15625 -4.8125 C -5.296875 -4.8125 -5.921875 -4.0625 -5.921875 -2.734375 C -5.921875 -1.390625 -5.234375 -0.515625 -4.171875 -0.515625 C -3.265625 -0.515625 -2.84375 -0.984375 -2.515625 -2.34375 L -2.296875 -3.203125 C -2.140625 -3.84375 -1.953125 -4.09375 -1.546875 -4.09375 C -1 -4.09375 -0.6875 -3.546875 -0.6875 -2.75 C -0.6875 -1.921875 -0.875 -1.46875 -1.765625 -1.34375 L -1.765625 -0.375 C -0.421875 -0.421875 0.171875 -1.171875 0.171875 -2.671875 C 0.171875 -4.125 -0.5 -5.046875 -1.609375 -5.046875 Z M -1.609375 -5.046875 "/>
</symbol>
<symbol overflow="visible" id="glyph2-5">
<path style="stroke:none;" d="M 0 -1.6875 L -5.765625 -1.6875 L -5.765625 -0.765625 L 0 -0.765625 Z M -6.640625 -1.796875 L -7.78125 -1.796875 L -7.78125 -0.65625 L -6.640625 -0.65625 Z M -6.640625 -1.796875 "/>
</symbol>
<symbol overflow="visible" id="glyph2-6">
<path style="stroke:none;" d="M 0 -2.796875 L -0.765625 -2.796875 C -0.734375 -2.671875 -0.71875 -2.53125 -0.71875 -2.359375 C -0.71875 -1.953125 -0.84375 -1.84375 -1.25 -1.84375 L -5.015625 -1.84375 L -5.015625 -2.796875 L -5.765625 -2.796875 L -5.765625 -1.84375 L -7.34375 -1.84375 L -7.34375 -0.9375 L -5.765625 -0.9375 L -5.765625 -0.15625 L -5.015625 -0.15625 L -5.015625 -0.9375 L -0.84375 -0.9375 C -0.25 -0.9375 0.078125 -1.328125 0.078125 -2.046875 C 0.078125 -2.265625 0.0625 -2.484375 0 -2.796875 Z M 0 -2.796875 "/>
</symbol>
<symbol overflow="visible" id="glyph2-7">
<path style="stroke:none;" d="M -5.765625 -5.265625 L -5.765625 -4.265625 L -1.28125 -2.671875 L -5.765625 -1.203125 L -5.765625 -0.21875 L 0.015625 -2.171875 L 0.9375 -1.8125 C 1.34375 -1.65625 1.5 -1.46875 1.5 -1.078125 C 1.5 -0.953125 1.46875 -0.796875 1.4375 -0.59375 L 2.25 -0.59375 C 2.359375 -0.78125 2.390625 -0.96875 2.390625 -1.203125 C 2.390625 -1.859375 2.03125 -2.390625 1.203125 -2.6875 Z M -5.765625 -5.265625 "/>
</symbol>
<symbol overflow="visible" id="glyph3-0">
<path style="stroke:none;" d=""/>
</symbol>
<symbol overflow="visible" id="glyph3-1">
<path style="stroke:none;" d="M 8.8125 -4.8125 C 8.8125 -7.796875 7.328125 -9.625 4.890625 -9.625 L 1.171875 -9.625 L 1.171875 0 L 4.890625 0 C 7.3125 0 8.8125 -1.828125 8.8125 -4.8125 Z M 7.578125 -4.8125 C 7.578125 -2.375 6.578125 -1.078125 4.671875 -1.078125 L 2.40625 -1.078125 L 2.40625 -8.546875 L 4.671875 -8.546875 C 6.578125 -8.546875 7.578125 -7.265625 7.578125 -4.8125 Z M 7.578125 -4.8125 "/>
</symbol>
<symbol overflow="visible" id="glyph3-2">
<path style="stroke:none;" d="M 2.015625 0 L 2.015625 -6.921875 L 0.921875 -6.921875 L 0.921875 0 Z M 2.171875 -7.96875 L 2.171875 -9.328125 L 0.796875 -9.328125 L 0.796875 -7.96875 Z M 2.171875 -7.96875 "/>
</symbol>
<symbol overflow="visible" id="glyph3-3">
<path style="stroke:none;" d="M 6.0625 -1.9375 C 6.0625 -2.96875 5.484375 -3.484375 4.109375 -3.8125 L 3.046875 -4.0625 C 2.15625 -4.28125 1.765625 -4.5625 1.765625 -5.0625 C 1.765625 -5.6875 2.34375 -6.09375 3.234375 -6.09375 C 4.125 -6.09375 4.59375 -5.71875 4.625 -4.984375 L 5.78125 -4.984375 C 5.765625 -6.34375 4.875 -7.109375 3.28125 -7.109375 C 1.65625 -7.109375 0.625 -6.28125 0.625 -5 C 0.625 -3.921875 1.171875 -3.40625 2.8125 -3.015625 L 3.84375 -2.765625 C 4.609375 -2.578125 4.90625 -2.34375 4.90625 -1.84375 C 4.90625 -1.203125 4.265625 -0.8125 3.296875 -0.8125 C 2.3125 -0.8125 1.75 -1.0625 1.609375 -2.109375 L 0.453125 -2.109375 C 0.5 -0.515625 1.40625 0.203125 3.203125 0.203125 C 4.953125 0.203125 6.0625 -0.609375 6.0625 -1.9375 Z M 6.0625 -1.9375 "/>
</symbol>
<symbol overflow="visible" id="glyph3-4">
<path style="stroke:none;" d="M 3.359375 0 L 3.359375 -0.921875 C 3.203125 -0.890625 3.03125 -0.875 2.828125 -0.875 C 2.34375 -0.875 2.21875 -1 2.21875 -1.484375 L 2.21875 -6.015625 L 3.359375 -6.015625 L 3.359375 -6.921875 L 2.21875 -6.921875 L 2.21875 -8.8125 L 1.125 -8.8125 L 1.125 -6.921875 L 0.1875 -6.921875 L 0.1875 -6.015625 L 1.125 -6.015625 L 1.125 -1 C 1.125 -0.296875 1.59375 0.09375 2.453125 0.09375 C 2.71875 0.09375 2.984375 0.0625 3.359375 0 Z M 3.359375 0 "/>
</symbol>
<symbol overflow="visible" id="glyph3-5">
<path style="stroke:none;" d="M 4.234375 -5.953125 L 4.234375 -7.078125 C 4.046875 -7.109375 3.96875 -7.109375 3.8125 -7.109375 C 3.109375 -7.109375 2.5625 -6.6875 1.921875 -5.671875 L 1.921875 -6.921875 L 0.921875 -6.921875 L 0.921875 0 L 2.015625 0 L 2.015625 -3.59375 C 2.015625 -5.15625 2.53125 -5.921875 4.234375 -5.953125 Z M 4.234375 -5.953125 "/>
</symbol>
<symbol overflow="visible" id="glyph3-6">
<path style="stroke:none;" d="M 6.90625 -3.53125 C 6.90625 -5.78125 5.765625 -7.109375 3.953125 -7.109375 C 3 -7.109375 2.328125 -6.765625 1.8125 -5.984375 L 1.8125 -9.625 L 0.71875 -9.625 L 0.71875 0 L 1.703125 0 L 1.703125 -0.984375 C 2.234375 -0.1875 2.9375 0.203125 3.890625 0.203125 C 5.71875 0.203125 6.90625 -1.296875 6.90625 -3.53125 Z M 5.75 -3.46875 C 5.75 -1.90625 4.9375 -0.828125 3.734375 -0.828125 C 2.578125 -0.828125 1.8125 -1.890625 1.8125 -3.453125 C 1.8125 -5.078125 2.578125 -6.140625 3.734375 -6.09375 C 4.96875 -6.09375 5.75 -5.015625 5.75 -3.46875 Z M 5.75 -3.46875 "/>
</symbol>
<symbol overflow="visible" id="glyph3-7">
<path style="stroke:none;" d="M 6.359375 0 L 6.359375 -6.921875 L 5.265625 -6.921875 L 5.265625 -3.109375 C 5.265625 -1.6875 4.53125 -0.765625 3.375 -0.765625 C 2.515625 -0.765625 1.953125 -1.296875 1.953125 -2.125 L 1.953125 -6.921875 L 0.859375 -6.921875 L 0.859375 -1.6875 C 0.859375 -0.546875 1.71875 0.203125 3.0625 0.203125 C 4.078125 0.203125 4.734375 -0.15625 5.375 -1.0625 L 5.375 0 Z M 6.359375 0 "/>
</symbol>
<symbol overflow="visible" id="glyph3-8">
<path style="stroke:none;" d="M 6.296875 -2.375 L 5.1875 -2.375 C 5 -1.265625 4.4375 -0.8125 3.5 -0.8125 C 2.28125 -0.8125 1.5625 -1.75 1.5625 -3.390625 C 1.5625 -5.125 2.265625 -6.09375 3.46875 -6.09375 C 4.390625 -6.09375 4.984375 -5.5625 5.109375 -4.59375 L 6.21875 -4.59375 C 6.09375 -6.28125 5.03125 -7.109375 3.484375 -7.109375 C 1.625 -7.109375 0.40625 -5.6875 0.40625 -3.390625 C 0.40625 -1.15625 1.59375 0.203125 3.46875 0.203125 C 5.125 0.203125 6.171875 -0.796875 6.296875 -2.375 Z M 6.296875 -2.375 "/>
</symbol>
<symbol overflow="visible" id="glyph3-9">
<path style="stroke:none;" d="M 6.734375 -3.40625 C 6.734375 -5.796875 5.578125 -7.109375 3.59375 -7.109375 C 1.65625 -7.109375 0.46875 -5.78125 0.46875 -3.453125 C 0.46875 -1.140625 1.640625 0.203125 3.609375 0.203125 C 5.546875 0.203125 6.734375 -1.140625 6.734375 -3.40625 Z M 5.578125 -3.421875 C 5.578125 -1.796875 4.8125 -0.8125 3.609375 -0.8125 C 2.375 -0.8125 1.625 -1.78125 1.625 -3.453125 C 1.625 -5.125 2.375 -6.09375 3.609375 -6.09375 C 4.84375 -6.09375 5.578125 -5.140625 5.578125 -3.421875 Z M 5.578125 -3.421875 "/>
</symbol>
<symbol overflow="visible" id="glyph3-10">
<path style="stroke:none;" d="M 6.4375 0 L 6.4375 -5.234375 C 6.4375 -6.375 5.578125 -7.109375 4.234375 -7.109375 C 3.203125 -7.109375 2.546875 -6.71875 1.9375 -5.75 L 1.9375 -6.921875 L 0.921875 -6.921875 L 0.921875 0 L 2.015625 0 L 2.015625 -3.8125 C 2.015625 -5.234375 2.78125 -6.15625 3.90625 -6.15625 C 4.78125 -6.15625 5.328125 -5.625 5.328125 -4.796875 L 5.328125 0 Z M 6.4375 0 "/>
</symbol>
<symbol overflow="visible" id="glyph3-11">
<path style="stroke:none;" d="M 6.765625 -3.140625 C 6.765625 -4.140625 6.6875 -4.78125 6.5 -5.296875 C 6.046875 -6.4375 4.984375 -7.109375 3.703125 -7.109375 C 1.765625 -7.109375 0.53125 -5.6875 0.53125 -3.421875 C 0.53125 -1.15625 1.734375 0.203125 3.671875 0.203125 C 5.25 0.203125 6.34375 -0.703125 6.625 -2.09375 L 5.515625 -2.09375 C 5.21875 -1.1875 4.59375 -0.8125 3.703125 -0.8125 C 2.5625 -0.8125 1.703125 -1.5625 1.671875 -3.140625 Z M 5.59375 -4.125 C 5.59375 -4.125 5.59375 -4.0625 5.578125 -4.046875 L 1.703125 -4.046875 C 1.796875 -5.265625 2.578125 -6.09375 3.6875 -6.09375 C 4.765625 -6.09375 5.59375 -5.203125 5.59375 -4.125 Z M 5.59375 -4.125 "/>
</symbol>
<symbol overflow="visible" id="glyph3-12">
<path style="stroke:none;" d=""/>
</symbol>
<symbol overflow="visible" id="glyph3-13">
<path style="stroke:none;" d="M 6.53125 0 L 6.53125 -9.625 L 5.4375 -9.625 L 5.4375 -6.046875 C 4.984375 -6.75 4.234375 -7.109375 3.3125 -7.109375 C 1.515625 -7.109375 0.34375 -5.734375 0.34375 -3.53125 C 0.34375 -1.1875 1.484375 0.203125 3.359375 0.203125 C 4.296875 0.203125 4.96875 -0.15625 5.5625 -1.015625 L 5.5625 0 Z M 5.4375 -3.4375 C 5.4375 -1.828125 4.671875 -0.828125 3.515625 -0.828125 C 2.296875 -0.828125 1.484375 -1.84375 1.484375 -3.453125 C 1.484375 -5.0625 2.296875 -6.09375 3.5 -6.09375 C 4.6875 -6.09375 5.4375 -5.03125 5.4375 -3.4375 Z M 5.4375 -3.4375 "/>
</symbol>
<symbol overflow="visible" id="glyph3-14">
<path style="stroke:none;" d="M 2 0 L 2 -9.625 L 0.890625 -9.625 L 0.890625 0 Z M 2 0 "/>
</symbol>
<symbol overflow="visible" id="glyph3-15">
<path style="stroke:none;" d="M 6.90625 -3.390625 C 6.90625 -5.71875 5.765625 -7.109375 3.9375 -7.109375 C 3 -7.109375 2.25 -6.6875 1.734375 -5.875 L 1.734375 -6.921875 L 0.71875 -6.921875 L 0.71875 2.875 L 1.828125 2.875 L 1.828125 -0.828125 C 2.40625 -0.125 3.046875 0.203125 3.953125 0.203125 C 5.734375 0.203125 6.90625 -1.1875 6.90625 -3.390625 Z M 5.75 -3.421875 C 5.75 -1.84375 4.953125 -0.828125 3.75 -0.828125 C 2.59375 -0.828125 1.828125 -1.78125 1.828125 -3.40625 C 1.828125 -5.03125 2.59375 -6.09375 3.75 -6.09375 C 4.96875 -6.09375 5.75 -5.0625 5.75 -3.421875 Z M 5.75 -3.421875 "/>
</symbol>
<symbol overflow="visible" id="glyph3-16">
<path style="stroke:none;" d="M 10.03125 0 L 10.03125 -5.1875 C 10.03125 -6.4375 9.34375 -7.109375 8.046875 -7.109375 C 7.125 -7.109375 6.578125 -6.84375 5.921875 -6.0625 C 5.515625 -6.796875 4.96875 -7.109375 4.0625 -7.109375 C 3.140625 -7.109375 2.53125 -6.765625 1.9375 -5.9375 L 1.9375 -6.921875 L 0.9375 -6.921875 L 0.9375 0 L 2.03125 0 L 2.03125 -4.34375 C 2.03125 -5.34375 2.765625 -6.15625 3.65625 -6.15625 C 4.46875 -6.15625 4.9375 -5.65625 4.9375 -4.765625 L 4.9375 0 L 6.03125 0 L 6.03125 -4.34375 C 6.03125 -5.34375 6.765625 -6.15625 7.671875 -6.15625 C 8.46875 -6.15625 8.9375 -5.640625 8.9375 -4.765625 L 8.9375 0 Z M 10.03125 0 "/>
</symbol>
<symbol overflow="visible" id="glyph3-17">
<path style="stroke:none;" d="M 7.0625 -0.03125 L 7.0625 -0.859375 C 6.9375 -0.828125 6.890625 -0.828125 6.828125 -0.828125 C 6.4375 -0.828125 6.234375 -1.03125 6.234375 -1.375 L 6.234375 -5.234375 C 6.234375 -6.453125 5.328125 -7.109375 3.625 -7.109375 C 1.953125 -7.109375 0.921875 -6.46875 0.859375 -4.875 L 1.96875 -4.875 C 2.0625 -5.71875 2.5625 -6.09375 3.59375 -6.09375 C 4.578125 -6.09375 5.140625 -5.734375 5.140625 -5.0625 L 5.140625 -4.78125 C 5.140625 -4.3125 4.859375 -4.125 3.984375 -4.015625 C 2.421875 -3.8125 2.1875 -3.765625 1.765625 -3.59375 C 0.96875 -3.265625 0.546875 -2.640625 0.546875 -1.796875 C 0.546875 -0.546875 1.421875 0.203125 2.828125 0.203125 C 3.703125 0.203125 4.5625 -0.171875 5.171875 -0.8125 C 5.296875 -0.296875 5.765625 0.09375 6.3125 0.09375 C 6.53125 0.09375 6.703125 0.0625 7.0625 -0.03125 Z M 5.140625 -2.390625 C 5.140625 -1.40625 4.125 -0.765625 3.0625 -0.765625 C 2.203125 -0.765625 1.703125 -1.0625 1.703125 -1.828125 C 1.703125 -2.546875 2.1875 -2.859375 3.359375 -3.03125 C 4.53125 -3.1875 4.765625 -3.25 5.140625 -3.421875 Z M 5.140625 -2.390625 "/>
</symbol>
<symbol overflow="visible" id="glyph3-18">
<path style="stroke:none;" d="M 6.453125 -1.140625 L 6.453125 -6.921875 L 5.4375 -6.921875 L 5.4375 -5.921875 C 4.890625 -6.734375 4.21875 -7.109375 3.328125 -7.109375 C 1.578125 -7.109375 0.390625 -5.640625 0.390625 -3.390625 C 0.390625 -1.21875 1.609375 0.203125 3.234375 0.203125 C 4.109375 0.203125 4.71875 -0.171875 5.4375 -1.046875 L 5.4375 -0.578125 C 5.4375 1.25 4.6875 1.953125 3.40625 1.953125 C 2.53125 1.953125 1.859375 1.640625 1.734375 0.796875 L 0.609375 0.796875 C 0.71875 2.09375 1.75 2.875 3.359375 2.875 C 5.53125 2.875 6.453125 1.921875 6.453125 -1.140625 Z M 5.328125 -3.421875 C 5.328125 -1.765625 4.625 -0.8125 3.453125 -0.8125 C 2.25 -0.8125 1.53125 -1.78125 1.53125 -3.453125 C 1.53125 -5.125 2.265625 -6.09375 3.453125 -6.09375 C 4.640625 -6.09375 5.328125 -5.09375 5.328125 -3.421875 Z M 5.328125 -3.421875 "/>
</symbol>
<symbol overflow="visible" id="glyph3-19">
<path style="stroke:none;" d="M 6.359375 0 L 6.359375 -6.921875 L 5.265625 -6.921875 L 5.265625 -3.109375 C 5.265625 -1.6875 4.53125 -0.765625 3.375 -0.765625 C 2.515625 -0.765625 1.953125 -1.296875 1.953125 -2.125 L 1.953125 -6.921875 L 0.859375 -6.921875 L 0.859375 -1.6875 C 0.859375 -0.546875 1.71875 0.203125 3.0625 0.203125 C 4.078125 0.203125 4.734375 -0.15625 5.375 -1.0625 L 5.375 0 Z M 6.03125 -9.625 L 4.546875 -9.625 L 3.28125 -7.671875 L 4.0625 -7.671875 Z M 6.03125 -9.625 "/>
</symbol>
<symbol overflow="visible" id="glyph3-20">
<path style="stroke:none;" d="M 9.359375 0 L 9.359375 -5.078125 L 5.34375 -5.078125 L 5.34375 -4 L 8.28125 -4 L 8.28125 -3.734375 C 8.28125 -2.015625 7.015625 -0.84375 5.25 -0.84375 C 3.078125 -0.84375 1.8125 -2.421875 1.8125 -4.78125 C 1.8125 -7.140625 3.15625 -8.78125 5.1875 -8.78125 C 6.65625 -8.78125 7.703125 -7.953125 7.96875 -6.703125 L 9.234375 -6.703125 C 8.890625 -8.65625 7.40625 -9.859375 5.203125 -9.859375 C 2.25 -9.859375 0.578125 -7.59375 0.578125 -4.71875 C 0.578125 -1.75 2.390625 0.234375 4.984375 0.234375 C 6.296875 0.234375 7.34375 -0.21875 8.28125 -1.265625 L 8.578125 0 Z M 9.359375 0 "/>
</symbol>
</g>
<clipPath id="clip1">
  <path d="M 42.789062 23.597656 L 505 23.597656 L 505 398 L 42.789062 398 Z M 42.789062 23.597656 "/>
</clipPath>
<clipPath id="clip2">
  <path d="M 42.789062 313 L 505.828125 313 L 505.828125 315 L 42.789062 315 Z M 42.789062 313 "/>
</clipPath>
<clipPath id="clip3">
  <path d="M 42.789062 179 L 505.828125 179 L 505.828125 181 L 42.789062 181 Z M 42.789062 179 "/>
</clipPath>
<clipPath id="clip4">
  <path d="M 42.789062 46 L 505.828125 46 L 505.828125 47 L 42.789062 47 Z M 42.789062 46 "/>
</clipPath>
<clipPath id="clip5">
  <path d="M 118 23.597656 L 119 23.597656 L 119 398 L 118 398 Z M 118 23.597656 "/>
</clipPath>
<clipPath id="clip6">
  <path d="M 197 23.597656 L 198 23.597656 L 198 398 L 197 398 Z M 197 23.597656 "/>
</clipPath>
<clipPath id="clip7">
  <path d="M 276 23.597656 L 278 23.597656 L 278 398 L 276 398 Z M 276 23.597656 "/>
</clipPath>
<clipPath id="clip8">
  <path d="M 356 23.597656 L 357 23.597656 L 357 398 L 356 398 Z M 356 23.597656 "/>
</clipPath>
<clipPath id="clip9">
  <path d="M 435 23.597656 L 437 23.597656 L 437 398 L 435 398 Z M 435 23.597656 "/>
</clipPath>
<clipPath id="clip10">
  <path d="M 42.789062 380 L 505.828125 380 L 505.828125 382 L 42.789062 382 Z M 42.789062 380 "/>
</clipPath>
<clipPath id="clip11">
  <path d="M 42.789062 246 L 505.828125 246 L 505.828125 248 L 42.789062 248 Z M 42.789062 246 "/>
</clipPath>
<clipPath id="clip12">
  <path d="M 42.789062 112 L 505.828125 112 L 505.828125 114 L 42.789062 114 Z M 42.789062 112 "/>
</clipPath>
<clipPath id="clip13">
  <path d="M 78 23.597656 L 80 23.597656 L 80 398.566406 L 78 398.566406 Z M 78 23.597656 "/>
</clipPath>
<clipPath id="clip14">
  <path d="M 157 23.597656 L 159 23.597656 L 159 398.566406 L 157 398.566406 Z M 157 23.597656 "/>
</clipPath>
<clipPath id="clip15">
  <path d="M 236 23.597656 L 238 23.597656 L 238 398.566406 L 236 398.566406 Z M 236 23.597656 "/>
</clipPath>
<clipPath id="clip16">
  <path d="M 316 23.597656 L 318 23.597656 L 318 398.566406 L 316 398.566406 Z M 316 23.597656 "/>
</clipPath>
<clipPath id="clip17">
  <path d="M 395 23.597656 L 397 23.597656 L 397 398.566406 L 395 398.566406 Z M 395 23.597656 "/>
</clipPath>
<clipPath id="clip18">
  <path d="M 475 23.597656 L 477 23.597656 L 477 398.566406 L 475 398.566406 Z M 475 23.597656 "/>
</clipPath>
</defs>
<g id="surface4761">
<rect x="0" y="0" width="576" height="432" style="fill:rgb(100%,100%,100%);fill-opacity:1;stroke:none;"/>
<rect x="0" y="0" width="576" height="432" style="fill:rgb(100%,100%,100%);fill-opacity:1;stroke:none;"/>
<path style="fill:none;stroke-width:1.066978;stroke-linecap:round;stroke-linejoin:round;stroke:rgb(100%,100%,100%);stroke-opacity:1;stroke-miterlimit:10;" d="M 0 432 L 576 432 L 576 0 L 0 0 Z M 0 432 "/>
<g clip-path="url(#clip1)" clip-rule="nonzero">
<path style=" stroke:none;fill-rule:nonzero;fill:rgb(92.156863%,92.156863%,92.156863%);fill-opacity:1;" d="M 42.789062 397.570312 L 504.828125 397.570312 L 504.828125 23.601562 L 42.789062 23.601562 Z M 42.789062 397.570312 "/>
</g>
<g clip-path="url(#clip2)" clip-rule="nonzero">
<path style="fill:none;stroke-width:0.533489;stroke-linecap:butt;stroke-linejoin:round;stroke:rgb(100%,100%,100%);stroke-opacity:1;stroke-miterlimit:10;" d="M 42.789062 313.746094 L 504.828125 313.746094 "/>
</g>
<g clip-path="url(#clip3)" clip-rule="nonzero">
<path style="fill:none;stroke-width:0.533489;stroke-linecap:butt;stroke-linejoin:round;stroke:rgb(100%,100%,100%);stroke-opacity:1;stroke-miterlimit:10;" d="M 42.789062 180.101562 L 504.828125 180.101562 "/>
</g>
<g clip-path="url(#clip4)" clip-rule="nonzero">
<path style="fill:none;stroke-width:0.533489;stroke-linecap:butt;stroke-linejoin:round;stroke:rgb(100%,100%,100%);stroke-opacity:1;stroke-miterlimit:10;" d="M 42.789062 46.453125 L 504.828125 46.453125 "/>
</g>
<g clip-path="url(#clip5)" clip-rule="nonzero">
<path style="fill:none;stroke-width:0.533489;stroke-linecap:butt;stroke-linejoin:round;stroke:rgb(100%,100%,100%);stroke-opacity:1;stroke-miterlimit:10;" d="M 118.300781 397.570312 L 118.300781 23.597656 "/>
</g>
<g clip-path="url(#clip6)" clip-rule="nonzero">
<path style="fill:none;stroke-width:0.533489;stroke-linecap:butt;stroke-linejoin:round;stroke:rgb(100%,100%,100%);stroke-opacity:1;stroke-miterlimit:10;" d="M 197.714844 397.570312 L 197.714844 23.597656 "/>
</g>
<g clip-path="url(#clip7)" clip-rule="nonzero">
<path style="fill:none;stroke-width:0.533489;stroke-linecap:butt;stroke-linejoin:round;stroke:rgb(100%,100%,100%);stroke-opacity:1;stroke-miterlimit:10;" d="M 277.132812 397.570312 L 277.132812 23.597656 "/>
</g>
<g clip-path="url(#clip8)" clip-rule="nonzero">
<path style="fill:none;stroke-width:0.533489;stroke-linecap:butt;stroke-linejoin:round;stroke:rgb(100%,100%,100%);stroke-opacity:1;stroke-miterlimit:10;" d="M 356.546875 397.570312 L 356.546875 23.597656 "/>
</g>
<g clip-path="url(#clip9)" clip-rule="nonzero">
<path style="fill:none;stroke-width:0.533489;stroke-linecap:butt;stroke-linejoin:round;stroke:rgb(100%,100%,100%);stroke-opacity:1;stroke-miterlimit:10;" d="M 435.964844 397.570312 L 435.964844 23.597656 "/>
</g>
<g clip-path="url(#clip10)" clip-rule="nonzero">
<path style="fill:none;stroke-width:1.066978;stroke-linecap:butt;stroke-linejoin:round;stroke:rgb(100%,100%,100%);stroke-opacity:1;stroke-miterlimit:10;" d="M 42.789062 380.570312 L 504.828125 380.570312 "/>
</g>
<g clip-path="url(#clip11)" clip-rule="nonzero">
<path style="fill:none;stroke-width:1.066978;stroke-linecap:butt;stroke-linejoin:round;stroke:rgb(100%,100%,100%);stroke-opacity:1;stroke-miterlimit:10;" d="M 42.789062 246.921875 L 504.828125 246.921875 "/>
</g>
<g clip-path="url(#clip12)" clip-rule="nonzero">
<path style="fill:none;stroke-width:1.066978;stroke-linecap:butt;stroke-linejoin:round;stroke:rgb(100%,100%,100%);stroke-opacity:1;stroke-miterlimit:10;" d="M 42.789062 113.277344 L 504.828125 113.277344 "/>
</g>
<g clip-path="url(#clip13)" clip-rule="nonzero">
<path style="fill:none;stroke-width:1.066978;stroke-linecap:butt;stroke-linejoin:round;stroke:rgb(100%,100%,100%);stroke-opacity:1;stroke-miterlimit:10;" d="M 78.589844 397.570312 L 78.589844 23.597656 "/>
</g>
<g clip-path="url(#clip14)" clip-rule="nonzero">
<path style="fill:none;stroke-width:1.066978;stroke-linecap:butt;stroke-linejoin:round;stroke:rgb(100%,100%,100%);stroke-opacity:1;stroke-miterlimit:10;" d="M 158.007812 397.570312 L 158.007812 23.597656 "/>
</g>
<g clip-path="url(#clip15)" clip-rule="nonzero">
<path style="fill:none;stroke-width:1.066978;stroke-linecap:butt;stroke-linejoin:round;stroke:rgb(100%,100%,100%);stroke-opacity:1;stroke-miterlimit:10;" d="M 237.425781 397.570312 L 237.425781 23.597656 "/>
</g>
<g clip-path="url(#clip16)" clip-rule="nonzero">
<path style="fill:none;stroke-width:1.066978;stroke-linecap:butt;stroke-linejoin:round;stroke:rgb(100%,100%,100%);stroke-opacity:1;stroke-miterlimit:10;" d="M 316.839844 397.570312 L 316.839844 23.597656 "/>
</g>
<g clip-path="url(#clip17)" clip-rule="nonzero">
<path style="fill:none;stroke-width:1.066978;stroke-linecap:butt;stroke-linejoin:round;stroke:rgb(100%,100%,100%);stroke-opacity:1;stroke-miterlimit:10;" d="M 396.257812 397.570312 L 396.257812 23.597656 "/>
</g>
<g clip-path="url(#clip18)" clip-rule="nonzero">
<path style="fill:none;stroke-width:1.066978;stroke-linecap:butt;stroke-linejoin:round;stroke:rgb(100%,100%,100%);stroke-opacity:1;stroke-miterlimit:10;" d="M 475.671875 397.570312 L 475.671875 23.597656 "/>
</g>
<path style="fill-rule:nonzero;fill:rgb(97.254902%,46.27451%,42.745098%);fill-opacity:0.501961;stroke-width:1.066978;stroke-linecap:round;stroke-linejoin:round;stroke:rgb(100%,100%,100%);stroke-opacity:1;stroke-miterlimit:10;" d="M 63.792969 380.570312 L 214.214844 380.570312 L 215.039062 380.566406 L 216.679688 380.566406 L 217.503906 380.5625 L 218.324219 380.5625 L 219.148438 380.558594 L 219.96875 380.550781 L 220.792969 380.546875 L 221.613281 380.539062 L 222.433594 380.527344 L 223.257812 380.515625 L 224.078125 380.496094 L 224.902344 380.476562 L 225.722656 380.449219 L 226.546875 380.417969 L 227.367188 380.375 L 228.1875 380.328125 L 229.011719 380.269531 L 229.832031 380.199219 L 230.65625 380.117188 L 231.476562 380.015625 L 232.300781 379.898438 L 233.121094 379.765625 L 233.941406 379.609375 L 234.765625 379.433594 L 235.585938 379.230469 L 236.410156 379 L 237.230469 378.738281 L 238.054688 378.449219 L 238.875 378.128906 L 239.695312 377.777344 L 240.519531 377.394531 L 241.339844 376.96875 L 242.164062 376.511719 L 242.984375 376.019531 L 243.808594 375.492188 L 244.628906 374.925781 L 245.449219 374.332031 L 246.273438 373.699219 L 247.09375 373.023438 L 247.917969 372.320312 L 248.738281 371.578125 L 249.5625 370.808594 L 250.382812 370 L 251.203125 369.160156 L 252.027344 368.28125 L 252.847656 367.363281 L 253.671875 366.402344 L 254.492188 365.402344 L 255.316406 364.359375 L 256.136719 363.269531 L 256.957031 362.128906 L 257.78125 360.921875 L 258.601562 359.648438 L 259.425781 358.304688 L 260.246094 356.890625 L 261.070312 355.398438 L 261.890625 353.820312 L 262.710938 352.152344 L 263.535156 350.371094 L 264.355469 348.488281 L 265.179688 346.5 L 266 344.40625 L 266.824219 342.203125 L 267.644531 339.890625 L 268.464844 337.46875 L 269.289062 334.925781 L 270.109375 332.285156 L 270.933594 329.550781 L 271.753906 326.726562 L 272.578125 323.824219 L 273.398438 320.851562 L 274.21875 317.808594 L 275.042969 314.710938 L 275.863281 311.574219 L 276.6875 308.40625 L 277.507812 305.222656 L 278.332031 302.023438 L 279.152344 298.820312 L 279.972656 295.625 L 280.796875 292.445312 L 281.617188 289.28125 L 282.441406 286.144531 L 283.261719 283.03125 L 284.085938 279.949219 L 284.90625 276.894531 L 285.726562 273.875 L 286.550781 270.886719 L 287.371094 267.925781 L 288.195312 264.984375 L 289.015625 262.0625 L 289.839844 259.15625 L 290.660156 256.257812 L 291.480469 253.363281 L 292.304688 250.46875 L 293.125 247.5625 L 293.949219 244.648438 L 294.769531 241.714844 L 295.59375 238.765625 L 296.414062 235.796875 L 297.234375 232.808594 L 298.058594 229.808594 L 298.878906 226.804688 L 299.703125 223.800781 L 300.523438 220.8125 L 301.347656 217.847656 L 302.167969 214.929688 L 302.988281 212.078125 L 303.8125 209.304688 L 304.632812 206.628906 L 305.457031 204.0625 L 306.277344 201.625 L 307.101562 199.324219 L 307.921875 197.210938 L 308.742188 195.257812 L 309.566406 193.46875 L 310.386719 191.847656 L 311.210938 190.382812 L 312.03125 189.074219 L 312.855469 187.914062 L 313.675781 186.894531 L 314.496094 185.976562 L 315.320312 185.144531 L 316.140625 184.375 L 316.964844 183.644531 L 317.785156 182.9375 L 318.609375 182.234375 L 319.429688 181.507812 L 320.25 180.742188 L 321.074219 179.933594 L 321.894531 179.066406 L 322.71875 178.140625 L 323.539062 177.152344 L 324.363281 176.09375 L 325.183594 174.972656 L 326.003906 173.804688 L 326.828125 172.59375 L 327.648438 171.351562 L 328.472656 170.09375 L 329.292969 168.824219 L 330.117188 167.5625 L 330.9375 166.324219 L 331.757812 165.128906 L 332.582031 163.980469 L 333.402344 162.894531 L 334.226562 161.890625 L 335.046875 160.980469 L 335.871094 160.199219 L 336.691406 159.550781 L 337.511719 159.042969 L 338.335938 158.699219 L 339.15625 158.527344 L 339.980469 158.550781 L 340.800781 158.800781 L 341.625 159.300781 L 342.445312 160.046875 L 343.265625 161.042969 L 344.089844 162.296875 L 344.910156 163.8125 L 345.734375 165.597656 L 346.554688 167.683594 L 347.378906 170.042969 L 348.199219 172.644531 L 349.019531 175.46875 L 349.84375 178.5 L 350.664062 181.714844 L 351.488281 185.078125 L 352.308594 188.585938 L 353.132812 192.167969 L 353.953125 195.792969 L 354.773438 199.421875 L 355.597656 203.027344 L 356.417969 206.574219 L 357.242188 210.03125 L 358.0625 213.34375 L 358.886719 216.511719 L 359.707031 219.515625 L 360.527344 222.351562 L 361.351562 225.007812 L 362.171875 227.484375 L 362.996094 229.769531 L 363.816406 231.875 L 364.640625 233.839844 L 365.460938 235.679688 L 366.28125 237.421875 L 367.105469 239.085938 L 367.925781 240.703125 L 368.75 242.300781 L 369.570312 243.917969 L 370.394531 245.578125 L 371.214844 247.308594 L 372.035156 249.128906 L 372.859375 251.050781 L 373.679688 253.097656 L 374.503906 255.296875 L 375.324219 257.632812 L 376.148438 260.101562 L 376.96875 262.699219 L 377.789062 265.410156 L 378.613281 268.226562 L 379.433594 271.132812 L 380.257812 274.117188 L 381.078125 277.140625 L 381.902344 280.183594 L 382.722656 283.222656 L 383.542969 286.238281 L 384.367188 289.207031 L 385.1875 292.109375 L 386.011719 294.914062 L 386.832031 297.617188 L 387.65625 300.207031 L 388.476562 302.679688 L 389.296875 305.023438 L 390.121094 307.238281 L 390.941406 309.304688 L 391.765625 311.234375 L 392.585938 313.039062 L 393.410156 314.722656 L 394.230469 316.296875 L 395.050781 317.765625 L 395.875 319.140625 L 396.695312 320.417969 L 397.519531 321.621094 L 398.339844 322.765625 L 399.164062 323.851562 L 399.984375 324.898438 L 400.804688 325.90625 L 401.628906 326.882812 L 402.449219 327.832031 L 403.273438 328.769531 L 404.09375 329.691406 L 404.917969 330.609375 L 405.738281 331.523438 L 406.558594 332.433594 L 407.382812 333.347656 L 408.203125 334.265625 L 409.027344 335.1875 L 409.847656 336.121094 L 410.671875 337.0625 L 411.492188 338.015625 L 412.3125 338.980469 L 413.136719 339.960938 L 413.957031 340.957031 L 414.78125 341.972656 L 415.601562 343 L 416.425781 344.046875 L 417.246094 345.109375 L 418.066406 346.1875 L 418.890625 347.28125 L 419.710938 348.390625 L 420.535156 349.507812 L 421.355469 350.632812 L 422.175781 351.765625 L 423 352.898438 L 423.820312 354.035156 L 424.644531 355.164062 L 425.464844 356.285156 L 426.289062 357.398438 L 427.109375 358.496094 L 427.929688 359.578125 L 428.753906 360.640625 L 429.574219 361.675781 L 430.398438 362.683594 L 431.21875 363.664062 L 432.042969 364.613281 L 432.863281 365.527344 L 433.683594 366.40625 L 434.507812 367.246094 L 435.328125 368.042969 L 436.152344 368.792969 L 436.972656 369.503906 L 437.796875 370.167969 L 438.617188 370.792969 L 439.4375 371.371094 L 440.261719 371.902344 L 441.082031 372.382812 L 441.90625 372.816406 L 442.726562 373.210938 L 443.550781 373.5625 L 444.371094 373.871094 L 445.191406 374.144531 L 446.015625 374.382812 L 446.835938 374.578125 L 447.660156 374.75 L 448.480469 374.890625 L 449.304688 375.007812 L 450.125 375.109375 L 450.945312 375.191406 L 451.769531 375.261719 L 452.589844 375.320312 L 453.414062 375.375 L 454.234375 375.425781 L 455.058594 375.480469 L 455.878906 375.539062 L 456.699219 375.601562 L 457.523438 375.675781 L 458.34375 375.757812 L 459.167969 375.855469 L 459.988281 375.960938 L 460.8125 376.082031 L 461.632812 376.210938 L 462.453125 376.355469 L 463.277344 376.507812 L 464.097656 376.671875 L 464.921875 376.839844 L 465.742188 377.015625 L 466.566406 377.191406 L 467.386719 377.367188 L 468.207031 377.539062 L 469.03125 377.710938 L 469.851562 377.871094 L 470.675781 378.027344 L 471.496094 378.171875 L 472.320312 378.304688 L 473.140625 378.425781 L 473.960938 378.535156 L 474.785156 378.628906 L 475.605469 378.714844 L 476.429688 378.785156 L 477.25 378.847656 L 478.074219 378.902344 L 478.894531 378.953125 L 479.714844 378.992188 L 480.539062 379.03125 L 481.359375 379.066406 L 482.183594 379.101562 L 483.003906 379.136719 L 483.828125 379.171875 L 483.828125 380.570312 Z M 63.792969 380.570312 "/>
<path style="fill-rule:nonzero;fill:rgb(72.941176%,53.333333%,50.980392%);fill-opacity:0.501961;stroke-width:1.066978;stroke-linecap:round;stroke-linejoin:round;stroke:rgb(100%,100%,100%);stroke-opacity:1;stroke-miterlimit:10;" d="M 63.792969 380.570312 L 242.984375 380.570312 L 243.808594 380.566406 L 245.449219 380.566406 L 246.273438 380.5625 L 247.09375 380.558594 L 247.917969 380.554688 L 248.738281 380.550781 L 249.5625 380.542969 L 250.382812 380.535156 L 251.203125 380.519531 L 252.027344 380.503906 L 252.847656 380.480469 L 253.671875 380.453125 L 254.492188 380.414062 L 255.316406 380.363281 L 256.136719 380.300781 L 256.957031 380.21875 L 257.78125 380.117188 L 258.601562 379.992188 L 259.425781 379.828125 L 260.246094 379.625 L 261.070312 379.371094 L 261.890625 379.058594 L 262.710938 378.679688 L 263.535156 378.222656 L 264.355469 377.664062 L 265.179688 376.972656 L 266 376.148438 L 266.824219 375.175781 L 267.644531 374.03125 L 268.464844 372.691406 L 269.289062 371.105469 L 270.109375 369.226562 L 270.933594 367.0625 L 271.753906 364.585938 L 272.578125 361.761719 L 273.398438 358.570312 L 274.21875 354.917969 L 275.042969 350.765625 L 275.863281 346.140625 L 276.6875 341.015625 L 277.507812 335.375 L 278.332031 329.195312 L 279.152344 322.382812 L 279.972656 314.9375 L 280.796875 306.929688 L 281.617188 298.355469 L 282.441406 289.234375 L 283.261719 279.574219 L 284.085938 269.332031 L 284.90625 258.585938 L 285.726562 247.429688 L 286.550781 235.914062 L 287.371094 224.09375 L 288.195312 212.027344 L 289.015625 199.773438 L 289.839844 187.453125 L 290.660156 175.148438 L 291.480469 162.949219 L 292.304688 150.925781 L 293.125 139.160156 L 293.949219 127.8125 L 294.769531 116.949219 L 295.59375 106.613281 L 296.414062 96.863281 L 297.234375 87.757812 L 298.058594 79.339844 L 298.878906 71.816406 L 299.703125 65.117188 L 300.523438 59.21875 L 301.347656 54.125 L 302.167969 49.84375 L 302.988281 46.363281 L 303.8125 43.820312 L 304.632812 42.058594 L 305.457031 40.996094 L 306.277344 40.597656 L 307.101562 40.816406 L 307.921875 41.605469 L 308.742188 43.007812 L 309.566406 44.851562 L 310.386719 47.074219 L 311.210938 49.621094 L 312.03125 52.441406 L 312.855469 55.492188 L 313.675781 58.757812 L 314.496094 62.148438 L 315.320312 65.640625 L 316.140625 69.203125 L 316.964844 72.820312 L 317.785156 76.472656 L 318.609375 80.167969 L 319.429688 83.886719 L 320.25 87.640625 L 321.074219 91.433594 L 321.894531 95.277344 L 322.71875 99.183594 L 323.539062 103.183594 L 324.363281 107.285156 L 325.183594 111.492188 L 326.003906 115.824219 L 326.828125 120.28125 L 327.648438 124.886719 L 328.472656 129.664062 L 329.292969 134.589844 L 330.117188 139.652344 L 330.9375 144.851562 L 331.757812 150.167969 L 332.582031 155.601562 L 333.402344 161.140625 L 334.226562 166.746094 L 335.046875 172.398438 L 335.871094 178.074219 L 336.691406 183.75 L 337.511719 189.40625 L 338.335938 195.007812 L 339.15625 200.535156 L 339.980469 205.972656 L 340.800781 211.304688 L 341.625 216.519531 L 342.445312 221.59375 L 343.265625 226.5 L 344.089844 231.25 L 344.910156 235.84375 L 345.734375 240.277344 L 346.554688 244.554688 L 347.378906 248.65625 L 348.199219 252.574219 L 349.019531 256.339844 L 349.84375 259.957031 L 350.664062 263.425781 L 351.488281 266.757812 L 352.308594 269.945312 L 353.132812 272.984375 L 353.953125 275.898438 L 354.773438 278.695312 L 355.597656 281.378906 L 356.417969 283.949219 L 357.242188 286.402344 L 358.0625 288.738281 L 358.886719 290.972656 L 359.707031 293.105469 L 360.527344 295.140625 L 361.351562 297.078125 L 362.171875 298.90625 L 362.996094 300.621094 L 363.816406 302.242188 L 364.640625 303.761719 L 365.460938 305.179688 L 366.28125 306.5 L 367.105469 307.699219 L 367.925781 308.78125 L 368.75 309.753906 L 369.570312 310.613281 L 370.394531 311.363281 L 371.214844 312 L 372.035156 312.503906 L 372.859375 312.882812 L 373.679688 313.148438 L 374.503906 313.300781 L 375.324219 313.351562 L 376.148438 313.300781 L 376.96875 313.140625 L 377.789062 312.894531 L 378.613281 312.582031 L 379.433594 312.210938 L 380.257812 311.796875 L 381.078125 311.359375 L 381.902344 310.914062 L 382.722656 310.488281 L 383.542969 310.101562 L 384.367188 309.769531 L 385.1875 309.515625 L 386.011719 309.351562 L 386.832031 309.324219 L 387.65625 309.441406 L 388.476562 309.707031 L 389.296875 310.132812 L 390.121094 310.726562 L 390.941406 311.496094 L 391.765625 312.484375 L 392.585938 313.664062 L 393.410156 315.023438 L 394.230469 316.554688 L 395.050781 318.257812 L 395.875 320.117188 L 396.695312 322.148438 L 397.519531 324.316406 L 398.339844 326.589844 L 399.164062 328.957031 L 399.984375 331.398438 L 400.804688 333.902344 L 401.628906 336.453125 L 402.449219 339.015625 L 403.273438 341.578125 L 404.09375 344.125 L 404.917969 346.636719 L 405.738281 349.101562 L 406.558594 351.488281 L 407.382812 353.800781 L 408.203125 356.027344 L 409.027344 358.164062 L 409.847656 360.199219 L 410.671875 362.128906 L 411.492188 363.925781 L 412.3125 365.609375 L 413.136719 367.179688 L 413.957031 368.644531 L 414.78125 369.996094 L 415.601562 371.238281 L 416.425781 372.351562 L 417.246094 373.367188 L 418.066406 374.289062 L 418.890625 375.121094 L 419.710938 375.867188 L 420.535156 376.53125 L 421.355469 377.109375 L 422.175781 377.617188 L 423 378.066406 L 423.820312 378.457031 L 424.644531 378.800781 L 425.464844 379.09375 L 426.289062 379.339844 L 427.109375 379.550781 L 427.929688 379.730469 L 428.753906 379.882812 L 429.574219 380.011719 L 430.398438 380.121094 L 431.21875 380.207031 L 432.042969 380.277344 L 432.863281 380.335938 L 433.683594 380.386719 L 434.507812 380.425781 L 435.328125 380.457031 L 436.152344 380.480469 L 436.972656 380.5 L 437.796875 380.515625 L 438.617188 380.53125 L 439.4375 380.539062 L 440.261719 380.546875 L 441.082031 380.554688 L 441.90625 380.558594 L 442.726562 380.5625 L 443.550781 380.5625 L 444.371094 380.566406 L 446.015625 380.566406 L 446.835938 380.570312 L 483.828125 380.570312 Z M 63.792969 380.570312 "/>
<path style="fill-rule:nonzero;fill:rgb(48.627451%,60.392157%,59.607843%);fill-opacity:0.501961;stroke-width:1.066978;stroke-linecap:round;stroke-linejoin:round;stroke:rgb(100%,100%,100%);stroke-opacity:1;stroke-miterlimit:10;" d="M 63.792969 380.394531 L 64.613281 380.382812 L 65.4375 380.367188 L 66.257812 380.351562 L 67.082031 380.335938 L 68.722656 380.296875 L 69.546875 380.277344 L 70.367188 380.253906 L 71.191406 380.230469 L 72.011719 380.207031 L 72.835938 380.179688 L 73.65625 380.152344 L 74.476562 380.121094 L 75.300781 380.085938 L 76.121094 380.054688 L 76.945312 380.015625 L 77.765625 379.976562 L 78.589844 379.9375 L 80.230469 379.84375 L 81.054688 379.792969 L 81.875 379.742188 L 82.699219 379.6875 L 83.519531 379.628906 L 84.34375 379.566406 L 85.164062 379.496094 L 85.984375 379.429688 L 86.808594 379.355469 L 87.628906 379.273438 L 88.453125 379.191406 L 89.273438 379.105469 L 90.097656 379.015625 L 91.738281 378.8125 L 92.5625 378.707031 L 93.382812 378.589844 L 94.207031 378.472656 L 95.027344 378.347656 L 95.851562 378.214844 L 96.671875 378.078125 L 97.492188 377.929688 L 98.316406 377.777344 L 99.136719 377.617188 L 99.960938 377.449219 L 100.78125 377.273438 L 101.605469 377.089844 L 102.425781 376.898438 L 103.246094 376.695312 L 104.070312 376.484375 L 104.890625 376.261719 L 105.714844 376.03125 L 106.535156 375.792969 L 107.359375 375.539062 L 108.179688 375.285156 L 109 375.007812 L 109.824219 374.726562 L 110.644531 374.429688 L 111.46875 374.121094 L 112.289062 373.804688 L 113.113281 373.46875 L 113.933594 373.128906 L 114.753906 372.769531 L 115.578125 372.398438 L 116.398438 372.015625 L 117.222656 371.613281 L 118.042969 371.203125 L 118.867188 370.769531 L 119.6875 370.328125 L 120.507812 369.871094 L 121.332031 369.398438 L 122.152344 368.914062 L 122.976562 368.402344 L 123.796875 367.886719 L 124.621094 367.347656 L 125.441406 366.792969 L 126.261719 366.226562 L 127.085938 365.636719 L 127.90625 365.035156 L 128.730469 364.410156 L 129.550781 363.773438 L 130.375 363.121094 L 131.195312 362.445312 L 132.015625 361.757812 L 132.839844 361.046875 L 133.660156 360.320312 L 134.484375 359.578125 L 135.304688 358.8125 L 136.128906 358.039062 L 136.949219 357.238281 L 137.769531 356.425781 L 138.59375 355.59375 L 139.414062 354.742188 L 140.238281 353.882812 L 141.058594 352.992188 L 141.882812 352.097656 L 142.703125 351.175781 L 143.523438 350.246094 L 144.347656 349.296875 L 145.167969 348.328125 L 145.992188 347.351562 L 146.8125 346.351562 L 147.636719 345.339844 L 148.457031 344.316406 L 149.277344 343.273438 L 150.101562 342.226562 L 150.921875 341.152344 L 151.746094 340.074219 L 152.566406 338.980469 L 153.390625 337.878906 L 154.210938 336.765625 L 155.03125 335.636719 L 155.855469 334.5 L 156.675781 333.351562 L 157.5 332.199219 L 158.320312 331.035156 L 159.144531 329.863281 L 159.964844 328.6875 L 160.785156 327.5 L 161.609375 326.3125 L 162.429688 325.117188 L 163.253906 323.914062 L 164.074219 322.714844 L 164.898438 321.503906 L 165.71875 320.296875 L 166.539062 319.085938 L 167.363281 317.875 L 168.183594 316.667969 L 169.007812 315.457031 L 169.828125 314.246094 L 170.652344 313.042969 L 171.472656 311.839844 L 172.292969 310.640625 L 173.117188 309.445312 L 173.9375 308.253906 L 174.761719 307.070312 L 175.582031 305.894531 L 176.40625 304.722656 L 177.226562 303.5625 L 178.046875 302.40625 L 178.871094 301.265625 L 179.691406 300.128906 L 180.515625 299.007812 L 181.335938 297.894531 L 182.15625 296.792969 L 182.980469 295.707031 L 183.800781 294.628906 L 184.625 293.570312 L 185.445312 292.523438 L 186.269531 291.488281 L 187.089844 290.472656 L 187.910156 289.464844 L 188.734375 288.484375 L 189.554688 287.511719 L 190.378906 286.554688 L 191.199219 285.621094 L 192.023438 284.695312 L 192.84375 283.800781 L 193.664062 282.910156 L 194.488281 282.046875 L 195.308594 281.199219 L 196.132812 280.367188 L 196.953125 279.5625 L 197.777344 278.765625 L 198.597656 277.996094 L 199.417969 277.242188 L 200.242188 276.507812 L 201.0625 275.796875 L 201.886719 275.09375 L 202.707031 274.425781 L 203.53125 273.765625 L 204.351562 273.128906 L 205.171875 272.515625 L 205.996094 271.910156 L 206.816406 271.339844 L 207.640625 270.777344 L 208.460938 270.238281 L 209.285156 269.722656 L 210.105469 269.214844 L 210.925781 268.738281 L 211.75 268.269531 L 212.570312 267.828125 L 213.394531 267.402344 L 214.214844 266.992188 L 215.039062 266.609375 L 215.859375 266.230469 L 216.679688 265.882812 L 217.503906 265.546875 L 218.324219 265.226562 L 219.148438 264.929688 L 219.96875 264.640625 L 220.792969 264.378906 L 221.613281 264.128906 L 222.433594 263.898438 L 223.257812 263.679688 L 224.078125 263.476562 L 224.902344 263.296875 L 225.722656 263.125 L 226.546875 262.976562 L 227.367188 262.839844 L 228.1875 262.71875 L 229.011719 262.613281 L 229.832031 262.515625 L 230.65625 262.445312 L 231.476562 262.382812 L 232.300781 262.332031 L 233.121094 262.300781 L 233.941406 262.277344 L 234.765625 262.277344 L 235.585938 262.28125 L 236.410156 262.304688 L 237.230469 262.339844 L 238.054688 262.386719 L 238.875 262.449219 L 239.695312 262.523438 L 240.519531 262.609375 L 241.339844 262.710938 L 242.164062 262.820312 L 242.984375 262.945312 L 243.808594 263.078125 L 244.628906 263.226562 L 245.449219 263.386719 L 246.273438 263.554688 L 247.09375 263.738281 L 247.917969 263.929688 L 248.738281 264.136719 L 249.5625 264.347656 L 250.382812 264.574219 L 251.203125 264.808594 L 252.027344 265.050781 L 252.847656 265.308594 L 253.671875 265.570312 L 254.492188 265.84375 L 255.316406 266.128906 L 256.136719 266.417969 L 256.957031 266.71875 L 257.78125 267.027344 L 258.601562 267.347656 L 259.425781 267.671875 L 260.246094 268.003906 L 261.070312 268.34375 L 261.890625 268.691406 L 262.710938 269.046875 L 263.535156 269.40625 L 264.355469 269.773438 L 265.179688 270.148438 L 266 270.527344 L 266.824219 270.910156 L 267.644531 271.300781 L 268.464844 271.695312 L 269.289062 272.097656 L 270.109375 272.5 L 270.933594 272.910156 L 271.753906 273.320312 L 272.578125 273.738281 L 274.21875 274.582031 L 275.042969 275.007812 L 275.863281 275.433594 L 276.6875 275.867188 L 277.507812 276.300781 L 278.332031 276.734375 L 279.972656 277.609375 L 280.796875 278.046875 L 281.617188 278.488281 L 282.441406 278.929688 L 283.261719 279.371094 L 284.085938 279.816406 L 284.90625 280.257812 L 285.726562 280.703125 L 286.550781 281.144531 L 287.371094 281.589844 L 288.195312 282.035156 L 289.015625 282.476562 L 289.839844 282.921875 L 290.660156 283.363281 L 291.480469 283.808594 L 292.304688 284.25 L 293.125 284.691406 L 293.949219 285.132812 L 294.769531 285.574219 L 295.59375 286.015625 L 297.234375 286.898438 L 298.058594 287.339844 L 298.878906 287.78125 L 299.703125 288.222656 L 300.523438 288.664062 L 301.347656 289.101562 L 302.167969 289.546875 L 302.988281 289.988281 L 303.8125 290.429688 L 304.632812 290.875 L 305.457031 291.320312 L 306.277344 291.765625 L 307.101562 292.214844 L 307.921875 292.664062 L 308.742188 293.117188 L 309.566406 293.570312 L 310.386719 294.027344 L 311.210938 294.484375 L 312.03125 294.945312 L 312.855469 295.414062 L 313.675781 295.878906 L 314.496094 296.351562 L 315.320312 296.828125 L 316.140625 297.308594 L 316.964844 297.792969 L 317.785156 298.28125 L 318.609375 298.777344 L 319.429688 299.273438 L 320.25 299.78125 L 321.074219 300.289062 L 321.894531 300.804688 L 322.71875 301.328125 L 323.539062 301.855469 L 324.363281 302.390625 L 325.183594 302.933594 L 326.003906 303.480469 L 326.828125 304.039062 L 327.648438 304.601562 L 328.472656 305.171875 L 329.292969 305.75 L 330.117188 306.335938 L 330.9375 306.929688 L 331.757812 307.53125 L 332.582031 308.144531 L 333.402344 308.761719 L 334.226562 309.386719 L 335.046875 310.023438 L 335.871094 310.664062 L 336.691406 311.316406 L 337.511719 311.972656 L 338.335938 312.644531 L 339.15625 313.320312 L 339.980469 314.003906 L 340.800781 314.699219 L 341.625 315.394531 L 342.445312 316.105469 L 343.265625 316.820312 L 344.089844 317.546875 L 344.910156 318.277344 L 345.734375 319.015625 L 346.554688 319.765625 L 347.378906 320.515625 L 348.199219 321.277344 L 349.019531 322.042969 L 349.84375 322.816406 L 350.664062 323.59375 L 351.488281 324.378906 L 352.308594 325.167969 L 353.132812 325.964844 L 353.953125 326.761719 L 354.773438 327.566406 L 355.597656 328.375 L 356.417969 329.1875 L 357.242188 330.003906 L 358.0625 330.820312 L 358.886719 331.640625 L 360.527344 333.289062 L 361.351562 334.117188 L 362.171875 334.941406 L 362.996094 335.769531 L 363.816406 336.597656 L 364.640625 337.425781 L 365.460938 338.253906 L 366.28125 339.078125 L 367.925781 340.722656 L 368.75 341.542969 L 369.570312 342.359375 L 370.394531 343.171875 L 372.035156 344.789062 L 372.859375 345.589844 L 373.679688 346.386719 L 374.503906 347.175781 L 375.324219 347.960938 L 376.148438 348.738281 L 377.789062 350.277344 L 378.613281 351.03125 L 379.433594 351.785156 L 380.257812 352.523438 L 381.078125 353.261719 L 381.902344 353.988281 L 382.722656 354.703125 L 383.542969 355.414062 L 384.367188 356.109375 L 385.1875 356.796875 L 386.011719 357.476562 L 386.832031 358.144531 L 387.65625 358.804688 L 388.476562 359.453125 L 389.296875 360.089844 L 390.121094 360.714844 L 390.941406 361.332031 L 391.765625 361.9375 L 392.585938 362.527344 L 393.410156 363.113281 L 394.230469 363.679688 L 395.050781 364.238281 L 395.875 364.789062 L 396.695312 365.320312 L 397.519531 365.847656 L 398.339844 366.355469 L 399.164062 366.859375 L 399.984375 367.347656 L 400.804688 367.820312 L 401.628906 368.289062 L 402.449219 368.738281 L 403.273438 369.183594 L 404.09375 369.609375 L 404.917969 370.03125 L 405.738281 370.4375 L 406.558594 370.832031 L 407.382812 371.21875 L 408.203125 371.589844 L 409.027344 371.953125 L 409.847656 372.304688 L 410.671875 372.644531 L 411.492188 372.976562 L 412.3125 373.292969 L 413.136719 373.605469 L 413.957031 373.902344 L 414.78125 374.191406 L 415.601562 374.472656 L 416.425781 374.742188 L 417.246094 375.003906 L 418.066406 375.253906 L 418.890625 375.496094 L 419.710938 375.730469 L 420.535156 375.953125 L 421.355469 376.175781 L 422.175781 376.378906 L 423 376.582031 L 423.820312 376.773438 L 424.644531 376.957031 L 425.464844 377.136719 L 426.289062 377.304688 L 427.109375 377.472656 L 427.929688 377.628906 L 428.753906 377.777344 L 429.574219 377.921875 L 430.398438 378.058594 L 431.21875 378.191406 L 432.042969 378.316406 L 433.683594 378.550781 L 434.507812 378.660156 L 435.328125 378.765625 L 436.152344 378.863281 L 436.972656 378.957031 L 437.796875 379.046875 L 438.617188 379.132812 L 439.4375 379.214844 L 440.261719 379.292969 L 441.082031 379.367188 L 441.90625 379.4375 L 442.726562 379.503906 L 443.550781 379.566406 L 445.191406 379.683594 L 446.015625 379.738281 L 446.835938 379.789062 L 447.660156 379.835938 L 448.480469 379.878906 L 449.304688 379.925781 L 450.945312 380.003906 L 451.769531 380.039062 L 452.589844 380.074219 L 453.414062 380.105469 L 454.234375 380.136719 L 455.058594 380.164062 L 455.878906 380.191406 L 456.699219 380.214844 L 457.523438 380.238281 L 458.34375 380.261719 L 459.167969 380.28125 L 459.988281 380.300781 L 460.8125 380.320312 L 461.632812 380.339844 L 462.453125 380.355469 L 463.277344 380.371094 L 464.097656 380.382812 L 464.921875 380.398438 L 465.742188 380.410156 L 466.566406 380.421875 L 467.386719 380.433594 L 468.207031 380.441406 L 469.03125 380.453125 L 469.851562 380.460938 L 470.675781 380.46875 L 471.496094 380.476562 L 472.320312 380.484375 L 473.140625 380.488281 L 473.960938 380.496094 L 474.785156 380.5 L 475.605469 380.507812 L 476.429688 380.511719 L 477.25 380.515625 L 478.074219 380.519531 L 479.714844 380.527344 L 480.539062 380.53125 L 481.359375 380.535156 L 482.183594 380.539062 L 483.003906 380.539062 L 483.828125 380.542969 L 483.828125 380.570312 L 63.792969 380.570312 Z M 63.792969 380.394531 "/>
<path style="fill-rule:nonzero;fill:rgb(24.313725%,67.45098%,68.235294%);fill-opacity:0.501961;stroke-width:1.066978;stroke-linecap:round;stroke-linejoin:round;stroke:rgb(100%,100%,100%);stroke-opacity:1;stroke-miterlimit:10;" d="M 63.792969 380.570312 L 164.074219 380.570312 L 164.898438 380.566406 L 165.71875 380.566406 L 166.539062 380.5625 L 167.363281 380.558594 L 168.183594 380.554688 L 169.007812 380.546875 L 169.828125 380.539062 L 170.652344 380.523438 L 171.472656 380.507812 L 172.292969 380.480469 L 173.117188 380.449219 L 173.9375 380.402344 L 174.761719 380.34375 L 175.582031 380.261719 L 176.40625 380.160156 L 177.226562 380.027344 L 178.046875 379.863281 L 178.871094 379.652344 L 179.691406 379.394531 L 180.515625 379.066406 L 181.335938 378.660156 L 182.15625 378.164062 L 182.980469 377.574219 L 183.800781 376.871094 L 184.625 376.042969 L 185.445312 375.078125 L 186.269531 373.9375 L 187.089844 372.617188 L 187.910156 371.117188 L 188.734375 369.425781 L 189.554688 367.535156 L 190.378906 365.445312 L 191.199219 363.148438 L 192.023438 360.625 L 192.84375 357.886719 L 193.664062 354.957031 L 194.488281 351.847656 L 195.308594 348.578125 L 196.132812 345.164062 L 196.953125 341.625 L 197.777344 337.972656 L 198.597656 334.242188 L 199.417969 330.464844 L 200.242188 326.664062 L 201.0625 322.863281 L 201.886719 319.082031 L 202.707031 315.34375 L 203.53125 311.664062 L 204.351562 308.066406 L 205.171875 304.550781 L 205.996094 301.128906 L 206.816406 297.796875 L 207.640625 294.554688 L 208.460938 291.398438 L 209.285156 288.328125 L 210.105469 285.335938 L 210.925781 282.40625 L 211.75 279.515625 L 212.570312 276.660156 L 213.394531 273.816406 L 214.214844 270.980469 L 215.039062 268.132812 L 215.859375 265.253906 L 216.679688 262.328125 L 217.503906 259.34375 L 218.324219 256.292969 L 219.148438 253.15625 L 219.96875 249.921875 L 220.792969 246.578125 L 221.613281 243.089844 L 222.433594 239.449219 L 223.257812 235.644531 L 224.078125 231.664062 L 224.902344 227.488281 L 225.722656 223.101562 L 226.546875 218.492188 L 227.367188 213.605469 L 228.1875 208.449219 L 229.011719 203.03125 L 229.832031 197.347656 L 230.65625 191.40625 L 231.476562 185.214844 L 232.300781 178.785156 L 233.121094 172.128906 L 233.941406 165.289062 L 234.765625 158.328125 L 235.585938 151.296875 L 236.410156 144.246094 L 237.230469 137.234375 L 238.054688 130.324219 L 238.875 123.601562 L 239.695312 117.164062 L 240.519531 111.050781 L 241.339844 105.328125 L 242.164062 100.039062 L 242.984375 95.238281 L 243.808594 90.964844 L 244.628906 87.265625 L 245.449219 84.226562 L 246.273438 81.761719 L 247.09375 79.855469 L 247.917969 78.480469 L 248.738281 77.601562 L 249.5625 77.171875 L 250.382812 77.148438 L 251.203125 77.503906 L 252.027344 78.09375 L 252.847656 78.859375 L 253.671875 79.730469 L 254.492188 80.652344 L 255.316406 81.566406 L 256.136719 82.425781 L 256.957031 83.171875 L 257.78125 83.796875 L 258.601562 84.285156 L 259.425781 84.644531 L 260.246094 84.882812 L 261.070312 85.015625 L 261.890625 85.0625 L 262.710938 85.054688 L 263.535156 85.023438 L 264.355469 85.007812 L 265.179688 85.03125 L 266 85.109375 L 266.824219 85.269531 L 267.644531 85.519531 L 268.464844 85.886719 L 269.289062 86.375 L 270.109375 86.984375 L 270.933594 87.726562 L 271.753906 88.609375 L 272.578125 89.648438 L 273.398438 90.859375 L 274.21875 92.300781 L 275.042969 94.011719 L 275.863281 96.023438 L 276.6875 98.378906 L 277.507812 101.136719 L 278.332031 104.347656 L 279.152344 108.070312 L 279.972656 112.390625 L 280.796875 117.410156 L 281.617188 123.085938 L 282.441406 129.441406 L 283.261719 136.480469 L 284.085938 144.195312 L 284.90625 152.566406 L 285.726562 161.582031 L 286.550781 171.234375 L 287.371094 181.363281 L 288.195312 191.878906 L 289.015625 202.699219 L 289.839844 213.726562 L 290.660156 224.871094 L 291.480469 236.03125 L 292.304688 247.070312 L 293.125 257.90625 L 293.949219 268.457031 L 294.769531 278.648438 L 295.59375 288.425781 L 296.414062 297.734375 L 297.234375 306.53125 L 298.058594 314.683594 L 298.878906 322.257812 L 299.703125 329.257812 L 300.523438 335.683594 L 301.347656 341.542969 L 302.167969 346.847656 L 302.988281 351.621094 L 303.8125 355.8125 L 304.632812 359.515625 L 305.457031 362.785156 L 306.277344 365.644531 L 307.101562 368.136719 L 307.921875 370.285156 L 308.742188 372.128906 L 309.566406 373.667969 L 310.386719 374.957031 L 311.210938 376.039062 L 312.03125 376.941406 L 312.855469 377.6875 L 313.675781 378.300781 L 314.496094 378.800781 L 315.320312 379.195312 L 316.140625 379.507812 L 316.964844 379.753906 L 317.785156 379.949219 L 318.609375 380.101562 L 319.429688 380.222656 L 320.25 380.3125 L 321.074219 380.382812 L 321.894531 380.433594 L 322.71875 380.46875 L 323.539062 380.5 L 324.363281 380.519531 L 325.183594 380.535156 L 326.003906 380.546875 L 326.828125 380.554688 L 327.648438 380.558594 L 328.472656 380.5625 L 329.292969 380.566406 L 330.9375 380.566406 L 331.757812 380.570312 L 483.828125 380.570312 Z M 63.792969 380.570312 "/>
<path style="fill-rule:nonzero;fill:rgb(0%,74.901961%,76.862745%);fill-opacity:0.501961;stroke-width:1.066978;stroke-linecap:round;stroke-linejoin:round;stroke:rgb(100%,100%,100%);stroke-opacity:1;stroke-miterlimit:10;" d="M 63.792969 354.707031 L 64.613281 354.292969 L 65.4375 353.929688 L 66.257812 353.617188 L 67.082031 353.347656 L 67.902344 353.121094 L 68.722656 352.925781 L 69.546875 352.75 L 70.367188 352.585938 L 71.191406 352.429688 L 72.011719 352.269531 L 72.835938 352.09375 L 73.65625 351.890625 L 74.476562 351.660156 L 75.300781 351.390625 L 76.121094 351.078125 L 76.945312 350.695312 L 77.765625 350.253906 L 78.589844 349.75 L 79.410156 349.175781 L 80.230469 348.53125 L 81.054688 347.789062 L 81.875 346.96875 L 82.699219 346.0625 L 83.519531 345.078125 L 84.34375 344.007812 L 85.164062 342.839844 L 85.984375 341.574219 L 86.808594 340.226562 L 87.628906 338.792969 L 88.453125 337.273438 L 89.273438 335.667969 L 90.097656 333.960938 L 90.917969 332.175781 L 91.738281 330.308594 L 92.5625 328.371094 L 93.382812 326.359375 L 94.207031 324.261719 L 95.027344 322.101562 L 95.851562 319.882812 L 96.671875 317.609375 L 97.492188 315.292969 L 98.316406 312.929688 L 99.136719 310.535156 L 99.960938 308.117188 L 100.78125 305.683594 L 101.605469 303.242188 L 102.425781 300.800781 L 103.246094 298.375 L 104.070312 295.964844 L 104.890625 293.574219 L 105.714844 291.214844 L 106.535156 288.886719 L 107.359375 286.597656 L 108.179688 284.351562 L 109 282.140625 L 109.824219 279.96875 L 110.644531 277.824219 L 111.46875 275.710938 L 112.289062 273.621094 L 113.113281 271.542969 L 113.933594 269.46875 L 114.753906 267.386719 L 115.578125 265.285156 L 116.398438 263.148438 L 117.222656 260.96875 L 118.042969 258.734375 L 118.867188 256.433594 L 119.6875 254.058594 L 120.507812 251.585938 L 121.332031 249.011719 L 122.152344 246.339844 L 122.976562 243.566406 L 123.796875 240.691406 L 124.621094 237.707031 L 125.441406 234.605469 L 126.261719 231.417969 L 127.085938 228.148438 L 127.90625 224.8125 L 128.730469 221.417969 L 129.550781 217.980469 L 130.375 214.527344 L 131.195312 211.078125 L 132.015625 207.652344 L 132.839844 204.273438 L 133.660156 200.972656 L 134.484375 197.777344 L 135.304688 194.699219 L 136.128906 191.753906 L 136.949219 188.957031 L 137.769531 186.339844 L 138.59375 183.945312 L 139.414062 181.738281 L 140.238281 179.726562 L 141.058594 177.910156 L 141.882812 176.292969 L 142.703125 174.921875 L 143.523438 173.726562 L 144.347656 172.695312 L 145.167969 171.8125 L 145.992188 171.0625 L 146.8125 170.433594 L 147.636719 169.886719 L 148.457031 169.378906 L 149.277344 168.890625 L 150.101562 168.390625 L 150.921875 167.847656 L 151.746094 167.210938 L 152.566406 166.464844 L 153.390625 165.59375 L 154.210938 164.570312 L 155.03125 163.378906 L 155.855469 161.957031 L 156.675781 160.332031 L 157.5 158.515625 L 158.320312 156.503906 L 159.144531 154.300781 L 159.964844 151.898438 L 160.785156 149.324219 L 161.609375 146.632812 L 162.429688 143.84375 L 163.253906 140.992188 L 164.074219 138.109375 L 164.898438 135.261719 L 165.71875 132.496094 L 166.539062 129.847656 L 167.363281 127.359375 L 168.183594 125.074219 L 169.007812 123.117188 L 169.828125 121.476562 L 170.652344 120.179688 L 171.472656 119.257812 L 172.292969 118.738281 L 173.117188 118.710938 L 173.9375 119.195312 L 174.761719 120.140625 L 175.582031 121.550781 L 176.40625 123.417969 L 177.226562 125.765625 L 178.046875 128.65625 L 178.871094 131.960938 L 179.691406 135.652344 L 180.515625 139.707031 L 181.335938 144.101562 L 182.15625 148.863281 L 182.980469 153.886719 L 183.800781 159.125 L 184.625 164.542969 L 185.445312 170.113281 L 186.269531 175.808594 L 187.089844 181.589844 L 187.910156 187.410156 L 188.734375 193.25 L 189.554688 199.089844 L 190.378906 204.90625 L 191.199219 210.671875 L 192.023438 216.382812 L 192.84375 222.027344 L 193.664062 227.609375 L 194.488281 233.117188 L 195.308594 238.535156 L 196.132812 243.878906 L 196.953125 249.152344 L 197.777344 254.355469 L 198.597656 259.5 L 199.417969 264.570312 L 200.242188 269.574219 L 201.0625 274.523438 L 201.886719 279.414062 L 202.707031 284.253906 L 203.53125 289.035156 L 204.351562 293.738281 L 205.171875 298.378906 L 205.996094 302.945312 L 206.816406 307.441406 L 207.640625 311.855469 L 208.460938 316.15625 L 209.285156 320.347656 L 210.105469 324.429688 L 210.925781 328.394531 L 211.75 332.230469 L 212.570312 335.921875 L 213.394531 339.445312 L 214.214844 342.816406 L 215.039062 346.035156 L 215.859375 349.09375 L 216.679688 351.992188 L 217.503906 354.679688 L 218.324219 357.203125 L 219.148438 359.5625 L 219.96875 361.761719 L 220.792969 363.804688 L 221.613281 365.660156 L 222.433594 367.355469 L 223.257812 368.90625 L 224.078125 370.320312 L 224.902344 371.609375 L 225.722656 372.757812 L 226.546875 373.773438 L 227.367188 374.683594 L 228.1875 375.5 L 229.011719 376.222656 L 229.832031 376.863281 L 230.65625 377.40625 L 231.476562 377.882812 L 232.300781 378.300781 L 233.121094 378.660156 L 233.941406 378.976562 L 234.765625 379.238281 L 235.585938 379.460938 L 236.410156 379.652344 L 237.230469 379.8125 L 238.054688 379.953125 L 238.875 380.066406 L 239.695312 380.15625 L 240.519531 380.234375 L 241.339844 380.300781 L 242.164062 380.355469 L 242.984375 380.398438 L 243.808594 380.433594 L 244.628906 380.460938 L 245.449219 380.484375 L 246.273438 380.503906 L 247.09375 380.515625 L 247.917969 380.527344 L 248.738281 380.539062 L 249.5625 380.546875 L 251.203125 380.554688 L 252.027344 380.558594 L 252.847656 380.5625 L 253.671875 380.5625 L 254.492188 380.566406 L 256.136719 380.566406 L 256.957031 380.570312 L 483.828125 380.570312 L 63.792969 380.570312 Z M 63.792969 354.707031 "/>
<g style="fill:rgb(30.196078%,30.196078%,30.196078%);fill-opacity:1;">
  <use xlink:href="#glyph0-1" x="19.859375" y="383.172852"/>
  <use xlink:href="#glyph0-2" x="24.751953" y="383.172852"/>
  <use xlink:href="#glyph0-1" x="27.198242" y="383.172852"/>
  <use xlink:href="#glyph0-1" x="32.09082" y="383.172852"/>
</g>
<g style="fill:rgb(30.196078%,30.196078%,30.196078%);fill-opacity:1;">
  <use xlink:href="#glyph0-1" x="19.859375" y="249.524414"/>
  <use xlink:href="#glyph0-2" x="24.751953" y="249.524414"/>
  <use xlink:href="#glyph0-1" x="27.198242" y="249.524414"/>
  <use xlink:href="#glyph0-3" x="32.09082" y="249.524414"/>
</g>
<g style="fill:rgb(30.196078%,30.196078%,30.196078%);fill-opacity:1;">
  <use xlink:href="#glyph0-1" x="19.859375" y="115.879883"/>
  <use xlink:href="#glyph0-2" x="24.751953" y="115.879883"/>
  <use xlink:href="#glyph0-4" x="27.198242" y="115.879883"/>
  <use xlink:href="#glyph0-1" x="32.09082" y="115.879883"/>
</g>
<path style="fill:none;stroke-width:1.066978;stroke-linecap:butt;stroke-linejoin:round;stroke:rgb(20%,20%,20%);stroke-opacity:1;stroke-miterlimit:10;" d="M 40.050781 380.570312 L 42.789062 380.570312 "/>
<path style="fill:none;stroke-width:1.066978;stroke-linecap:butt;stroke-linejoin:round;stroke:rgb(20%,20%,20%);stroke-opacity:1;stroke-miterlimit:10;" d="M 40.050781 246.921875 L 42.789062 246.921875 "/>
<path style="fill:none;stroke-width:1.066978;stroke-linecap:butt;stroke-linejoin:round;stroke:rgb(20%,20%,20%);stroke-opacity:1;stroke-miterlimit:10;" d="M 40.050781 113.277344 L 42.789062 113.277344 "/>
<path style="fill:none;stroke-width:1.066978;stroke-linecap:butt;stroke-linejoin:round;stroke:rgb(20%,20%,20%);stroke-opacity:1;stroke-miterlimit:10;" d="M 78.589844 400.308594 L 78.589844 397.570312 "/>
<path style="fill:none;stroke-width:1.066978;stroke-linecap:butt;stroke-linejoin:round;stroke:rgb(20%,20%,20%);stroke-opacity:1;stroke-miterlimit:10;" d="M 158.007812 400.308594 L 158.007812 397.570312 "/>
<path style="fill:none;stroke-width:1.066978;stroke-linecap:butt;stroke-linejoin:round;stroke:rgb(20%,20%,20%);stroke-opacity:1;stroke-miterlimit:10;" d="M 237.425781 400.308594 L 237.425781 397.570312 "/>
<path style="fill:none;stroke-width:1.066978;stroke-linecap:butt;stroke-linejoin:round;stroke:rgb(20%,20%,20%);stroke-opacity:1;stroke-miterlimit:10;" d="M 316.839844 400.308594 L 316.839844 397.570312 "/>
<path style="fill:none;stroke-width:1.066978;stroke-linecap:butt;stroke-linejoin:round;stroke:rgb(20%,20%,20%);stroke-opacity:1;stroke-miterlimit:10;" d="M 396.257812 400.308594 L 396.257812 397.570312 "/>
<path style="fill:none;stroke-width:1.066978;stroke-linecap:butt;stroke-linejoin:round;stroke:rgb(20%,20%,20%);stroke-opacity:1;stroke-miterlimit:10;" d="M 475.671875 400.308594 L 475.671875 397.570312 "/>
<g style="fill:rgb(30.196078%,30.196078%,30.196078%);fill-opacity:1;">
  <use xlink:href="#glyph0-5" x="72.089844" y="408.602539"/>
  <use xlink:href="#glyph0-6" x="75.020508" y="408.602539"/>
  <use xlink:href="#glyph0-1" x="79.913086" y="408.602539"/>
</g>
<g style="fill:rgb(30.196078%,30.196078%,30.196078%);fill-opacity:1;">
  <use xlink:href="#glyph0-5" x="151.507812" y="408.602539"/>
  <use xlink:href="#glyph0-7" x="154.438477" y="408.602539"/>
  <use xlink:href="#glyph0-1" x="159.331055" y="408.602539"/>
</g>
<g style="fill:rgb(30.196078%,30.196078%,30.196078%);fill-opacity:1;">
  <use xlink:href="#glyph0-5" x="230.925781" y="408.602539"/>
  <use xlink:href="#glyph0-4" x="233.856445" y="408.602539"/>
  <use xlink:href="#glyph0-1" x="238.749023" y="408.602539"/>
</g>
<g style="fill:rgb(30.196078%,30.196078%,30.196078%);fill-opacity:1;">
  <use xlink:href="#glyph0-1" x="314.339844" y="408.602539"/>
</g>
<g style="fill:rgb(30.196078%,30.196078%,30.196078%);fill-opacity:1;">
  <use xlink:href="#glyph0-4" x="391.257812" y="408.602539"/>
  <use xlink:href="#glyph0-1" x="396.150391" y="408.602539"/>
</g>
<g style="fill:rgb(30.196078%,30.196078%,30.196078%);fill-opacity:1;">
  <use xlink:href="#glyph0-7" x="470.671875" y="408.602539"/>
  <use xlink:href="#glyph0-1" x="475.564453" y="408.602539"/>
</g>
<g style="fill:rgb(0%,0%,0%);fill-opacity:1;">
  <use xlink:href="#glyph1-1" x="259.308594" y="423.506836"/>
  <use xlink:href="#glyph1-2" x="267.250977" y="423.506836"/>
  <use xlink:href="#glyph1-3" x="269.693359" y="423.506836"/>
  <use xlink:href="#glyph1-4" x="278.856445" y="423.506836"/>
  <use xlink:href="#glyph1-5" x="281.914062" y="423.506836"/>
</g>
<g style="fill:rgb(0%,0%,0%);fill-opacity:1;">
  <use xlink:href="#glyph2-1" x="14.108398" y="228.085938"/>
  <use xlink:href="#glyph2-2" x="14.108398" y="221.969727"/>
  <use xlink:href="#glyph2-3" x="14.108398" y="215.853516"/>
  <use xlink:href="#glyph2-4" x="14.108398" y="209.737305"/>
  <use xlink:href="#glyph2-5" x="14.108398" y="204.237305"/>
  <use xlink:href="#glyph2-6" x="14.108398" y="201.794922"/>
  <use xlink:href="#glyph2-7" x="14.108398" y="198.737305"/>
</g>
<path style=" stroke:none;fill-rule:nonzero;fill:rgb(100%,100%,100%);fill-opacity:1;" d="M 515.789062 267.273438 L 570.523438 267.273438 L 570.523438 153.898438 L 515.789062 153.898438 Z M 515.789062 267.273438 "/>
<g style="fill:rgb(0%,0%,0%);fill-opacity:1;">
  <use xlink:href="#glyph1-6" x="521.265625" y="168.772461"/>
  <use xlink:href="#glyph1-7" x="528.602539" y="168.772461"/>
  <use xlink:href="#glyph1-8" x="534.047852" y="168.772461"/>
  <use xlink:href="#glyph1-9" x="537.105469" y="168.772461"/>
  <use xlink:href="#glyph1-10" x="543.22168" y="168.772461"/>
  <use xlink:href="#glyph1-2" x="549.337891" y="168.772461"/>
  <use xlink:href="#glyph1-11" x="551.780273" y="168.772461"/>
</g>
<path style="fill-rule:nonzero;fill:rgb(94.901961%,94.901961%,94.901961%);fill-opacity:1;stroke-width:1.066978;stroke-linecap:round;stroke-linejoin:round;stroke:rgb(100%,100%,100%);stroke-opacity:1;stroke-miterlimit:10;" d="M 521.265625 192.671875 L 538.546875 192.671875 L 538.546875 175.390625 L 521.265625 175.390625 Z M 521.265625 192.671875 "/>
<path style="fill-rule:nonzero;fill:rgb(97.254902%,46.27451%,42.745098%);fill-opacity:0.501961;stroke-width:1.066978;stroke-linecap:round;stroke-linejoin:miter;stroke:rgb(100%,100%,100%);stroke-opacity:1;stroke-miterlimit:10;" d="M 521.976562 191.964844 L 537.839844 191.964844 L 537.839844 176.101562 L 521.976562 176.101562 Z M 521.976562 191.964844 "/>
<path style="fill-rule:nonzero;fill:rgb(94.901961%,94.901961%,94.901961%);fill-opacity:1;stroke-width:1.066978;stroke-linecap:round;stroke-linejoin:round;stroke:rgb(100%,100%,100%);stroke-opacity:1;stroke-miterlimit:10;" d="M 521.265625 209.953125 L 538.546875 209.953125 L 538.546875 192.671875 L 521.265625 192.671875 Z M 521.265625 209.953125 "/>
<path style="fill-rule:nonzero;fill:rgb(72.941176%,53.333333%,50.980392%);fill-opacity:0.501961;stroke-width:1.066978;stroke-linecap:round;stroke-linejoin:miter;stroke:rgb(100%,100%,100%);stroke-opacity:1;stroke-miterlimit:10;" d="M 521.976562 209.246094 L 537.839844 209.246094 L 537.839844 193.382812 L 521.976562 193.382812 Z M 521.976562 209.246094 "/>
<path style="fill-rule:nonzero;fill:rgb(94.901961%,94.901961%,94.901961%);fill-opacity:1;stroke-width:1.066978;stroke-linecap:round;stroke-linejoin:round;stroke:rgb(100%,100%,100%);stroke-opacity:1;stroke-miterlimit:10;" d="M 521.265625 227.234375 L 538.546875 227.234375 L 538.546875 209.953125 L 521.265625 209.953125 Z M 521.265625 227.234375 "/>
<path style="fill-rule:nonzero;fill:rgb(48.627451%,60.392157%,59.607843%);fill-opacity:0.501961;stroke-width:1.066978;stroke-linecap:round;stroke-linejoin:miter;stroke:rgb(100%,100%,100%);stroke-opacity:1;stroke-miterlimit:10;" d="M 521.976562 226.523438 L 537.839844 226.523438 L 537.839844 210.660156 L 521.976562 210.660156 Z M 521.976562 226.523438 "/>
<path style="fill-rule:nonzero;fill:rgb(94.901961%,94.901961%,94.901961%);fill-opacity:1;stroke-width:1.066978;stroke-linecap:round;stroke-linejoin:round;stroke:rgb(100%,100%,100%);stroke-opacity:1;stroke-miterlimit:10;" d="M 521.265625 244.511719 L 538.546875 244.511719 L 538.546875 227.230469 L 521.265625 227.230469 Z M 521.265625 244.511719 "/>
<path style="fill-rule:nonzero;fill:rgb(24.313725%,67.45098%,68.235294%);fill-opacity:0.501961;stroke-width:1.066978;stroke-linecap:round;stroke-linejoin:miter;stroke:rgb(100%,100%,100%);stroke-opacity:1;stroke-miterlimit:10;" d="M 521.976562 243.804688 L 537.839844 243.804688 L 537.839844 227.941406 L 521.976562 227.941406 Z M 521.976562 243.804688 "/>
<path style="fill-rule:nonzero;fill:rgb(94.901961%,94.901961%,94.901961%);fill-opacity:1;stroke-width:1.066978;stroke-linecap:round;stroke-linejoin:round;stroke:rgb(100%,100%,100%);stroke-opacity:1;stroke-miterlimit:10;" d="M 521.265625 261.792969 L 538.546875 261.792969 L 538.546875 244.511719 L 521.265625 244.511719 Z M 521.265625 261.792969 "/>
<path style="fill-rule:nonzero;fill:rgb(0%,74.901961%,76.862745%);fill-opacity:0.501961;stroke-width:1.066978;stroke-linecap:round;stroke-linejoin:miter;stroke:rgb(100%,100%,100%);stroke-opacity:1;stroke-miterlimit:10;" d="M 521.976562 261.085938 L 537.839844 261.085938 L 537.839844 245.222656 L 521.976562 245.222656 Z M 521.976562 261.085938 "/>
<g style="fill:rgb(0%,0%,0%);fill-opacity:1;">
  <use xlink:href="#glyph0-8" x="544.027344" y="186.633789"/>
  <use xlink:href="#glyph0-9" x="549.896484" y="186.633789"/>
  <use xlink:href="#glyph0-10" x="554.789062" y="186.633789"/>
  <use xlink:href="#glyph0-11" x="559.681641" y="186.633789"/>
</g>
<g style="fill:rgb(0%,0%,0%);fill-opacity:1;">
  <use xlink:href="#glyph0-12" x="544.027344" y="203.915039"/>
</g>
<g style="fill:rgb(0%,0%,0%);fill-opacity:1;">
  <use xlink:href="#glyph0-12" x="544.027344" y="221.196289"/>
  <use xlink:href="#glyph0-12" x="546.473633" y="221.196289"/>
</g>
<g style="fill:rgb(0%,0%,0%);fill-opacity:1;">
  <use xlink:href="#glyph0-12" x="544.027344" y="238.473633"/>
  <use xlink:href="#glyph0-12" x="546.473633" y="238.473633"/>
  <use xlink:href="#glyph0-12" x="548.919922" y="238.473633"/>
</g>
<g style="fill:rgb(0%,0%,0%);fill-opacity:1;">
  <use xlink:href="#glyph0-12" x="544.027344" y="255.754883"/>
  <use xlink:href="#glyph0-13" x="546.473633" y="255.754883"/>
</g>
<g style="fill:rgb(0%,0%,0%);fill-opacity:1;">
  <use xlink:href="#glyph3-1" x="42.789062" y="14.632812"/>
  <use xlink:href="#glyph3-2" x="52.319336" y="14.632812"/>
  <use xlink:href="#glyph3-3" x="55.25" y="14.632812"/>
  <use xlink:href="#glyph3-4" x="61.783203" y="14.632812"/>
  <use xlink:href="#glyph3-5" x="65.452148" y="14.632812"/>
  <use xlink:href="#glyph3-2" x="69.847656" y="14.632812"/>
  <use xlink:href="#glyph3-6" x="72.77832" y="14.632812"/>
  <use xlink:href="#glyph3-7" x="80.117188" y="14.632812"/>
  <use xlink:href="#glyph3-8" x="87.456055" y="14.632812"/>
  <use xlink:href="#glyph3-2" x="94.055664" y="14.632812"/>
  <use xlink:href="#glyph3-9" x="96.986328" y="14.632812"/>
  <use xlink:href="#glyph3-10" x="104.325195" y="14.632812"/>
  <use xlink:href="#glyph3-11" x="111.664062" y="14.632812"/>
  <use xlink:href="#glyph3-3" x="119.00293" y="14.632812"/>
  <use xlink:href="#glyph3-12" x="125.602539" y="14.632812"/>
  <use xlink:href="#glyph3-13" x="129.271484" y="14.632812"/>
  <use xlink:href="#glyph3-11" x="136.610352" y="14.632812"/>
  <use xlink:href="#glyph3-14" x="143.949219" y="14.632812"/>
  <use xlink:href="#glyph3-12" x="146.879883" y="14.632812"/>
  <use xlink:href="#glyph3-15" x="150.548828" y="14.632812"/>
  <use xlink:href="#glyph3-5" x="157.887695" y="14.632812"/>
  <use xlink:href="#glyph3-2" x="162.283203" y="14.632812"/>
  <use xlink:href="#glyph3-16" x="165.213867" y="14.632812"/>
  <use xlink:href="#glyph3-11" x="176.208984" y="14.632812"/>
  <use xlink:href="#glyph3-5" x="183.547852" y="14.632812"/>
  <use xlink:href="#glyph3-12" x="187.943359" y="14.632812"/>
  <use xlink:href="#glyph3-8" x="191.612305" y="14.632812"/>
  <use xlink:href="#glyph3-9" x="198.211914" y="14.632812"/>
  <use xlink:href="#glyph3-16" x="205.550781" y="14.632812"/>
  <use xlink:href="#glyph3-15" x="216.612305" y="14.632812"/>
  <use xlink:href="#glyph3-9" x="223.951172" y="14.632812"/>
  <use xlink:href="#glyph3-10" x="231.290039" y="14.632812"/>
  <use xlink:href="#glyph3-11" x="238.628906" y="14.632812"/>
  <use xlink:href="#glyph3-10" x="245.967773" y="14.632812"/>
  <use xlink:href="#glyph3-4" x="253.306641" y="14.632812"/>
  <use xlink:href="#glyph3-11" x="256.777344" y="14.632812"/>
  <use xlink:href="#glyph3-12" x="264.116211" y="14.632812"/>
  <use xlink:href="#glyph3-15" x="267.785156" y="14.632812"/>
  <use xlink:href="#glyph3-5" x="275.124023" y="14.632812"/>
  <use xlink:href="#glyph3-2" x="279.519531" y="14.632812"/>
  <use xlink:href="#glyph3-10" x="282.450195" y="14.632812"/>
  <use xlink:href="#glyph3-8" x="289.789062" y="14.632812"/>
  <use xlink:href="#glyph3-2" x="296.388672" y="14.632812"/>
  <use xlink:href="#glyph3-15" x="299.319336" y="14.632812"/>
  <use xlink:href="#glyph3-17" x="306.658203" y="14.632812"/>
  <use xlink:href="#glyph3-14" x="313.99707" y="14.632812"/>
  <use xlink:href="#glyph3-12" x="316.927734" y="14.632812"/>
  <use xlink:href="#glyph3-3" x="320.59668" y="14.632812"/>
  <use xlink:href="#glyph3-11" x="327.196289" y="14.632812"/>
  <use xlink:href="#glyph3-18" x="334.535156" y="14.632812"/>
  <use xlink:href="#glyph3-19" x="341.874023" y="14.632812"/>
  <use xlink:href="#glyph3-10" x="349.212891" y="14.632812"/>
  <use xlink:href="#glyph3-12" x="356.551758" y="14.632812"/>
  <use xlink:href="#glyph3-11" x="360.220703" y="14.632812"/>
  <use xlink:href="#glyph3-3" x="367.55957" y="14.632812"/>
  <use xlink:href="#glyph3-4" x="374.092773" y="14.632812"/>
  <use xlink:href="#glyph3-17" x="377.761719" y="14.632812"/>
  <use xlink:href="#glyph3-13" x="385.100586" y="14.632812"/>
  <use xlink:href="#glyph3-2" x="392.439453" y="14.632812"/>
  <use xlink:href="#glyph3-9" x="395.370117" y="14.632812"/>
  <use xlink:href="#glyph3-3" x="402.708984" y="14.632812"/>
  <use xlink:href="#glyph3-12" x="409.308594" y="14.632812"/>
  <use xlink:href="#glyph3-13" x="412.977539" y="14.632812"/>
  <use xlink:href="#glyph3-11" x="420.316406" y="14.632812"/>
  <use xlink:href="#glyph3-12" x="427.655273" y="14.632812"/>
  <use xlink:href="#glyph3-20" x="431.324219" y="14.632812"/>
  <use xlink:href="#glyph3-17" x="441.592773" y="14.632812"/>
  <use xlink:href="#glyph3-14" x="448.931641" y="14.632812"/>
  <use xlink:href="#glyph3-7" x="451.862305" y="14.632812"/>
  <use xlink:href="#glyph3-8" x="459.201172" y="14.632812"/>
  <use xlink:href="#glyph3-9" x="465.800781" y="14.632812"/>
  <use xlink:href="#glyph3-16" x="473.139648" y="14.632812"/>
  <use xlink:href="#glyph3-17" x="484.134766" y="14.632812"/>
</g>
</g>
</svg>
