<?xml version="1.0" encoding="UTF-8"?>
<svg xmlns="http://www.w3.org/2000/svg" xmlns:xlink="http://www.w3.org/1999/xlink" width="576pt" height="432pt" viewBox="0 0 576 432" version="1.1">
<defs>
<g>
<symbol overflow="visible" id="glyph0-0">
<path style="stroke:none;" d=""/>
</symbol>
<symbol overflow="visible" id="glyph0-1">
<path style="stroke:none;" d="M 4.453125 -3 C 4.453125 -5.15625 3.78125 -6.234375 2.421875 -6.234375 C 1.078125 -6.234375 0.375 -5.140625 0.375 -3.046875 C 0.375 -0.953125 1.078125 0.125 2.421875 0.125 C 3.734375 0.125 4.453125 -0.953125 4.453125 -3 Z M 3.671875 -3.0625 C 3.671875 -1.296875 3.265625 -0.515625 2.40625 -0.515625 C 1.578125 -0.515625 1.171875 -1.34375 1.171875 -3.046875 C 1.171875 -4.75 1.578125 -5.546875 2.421875 -5.546875 C 3.25 -5.546875 3.671875 -4.734375 3.671875 -3.0625 Z M 3.671875 -3.0625 "/>
</symbol>
<symbol overflow="visible" id="glyph0-2">
<path style="stroke:none;" d="M 1.6875 0 L 1.6875 -0.921875 L 0.765625 -0.921875 L 0.765625 0 Z M 1.6875 0 "/>
</symbol>
<symbol overflow="visible" id="glyph0-3">
<path style="stroke:none;" d="M 4.453125 -1.8125 C 4.453125 -2.5625 4.140625 -3.015625 3.390625 -3.265625 C 3.96875 -3.5 4.265625 -3.890625 4.265625 -4.515625 C 4.265625 -5.59375 3.546875 -6.234375 2.359375 -6.234375 C 1.109375 -6.234375 0.4375 -5.546875 0.40625 -4.21875 L 1.1875 -4.21875 C 1.203125 -5.140625 1.578125 -5.5625 2.375 -5.5625 C 3.0625 -5.5625 3.46875 -5.15625 3.46875 -4.5 C 3.46875 -3.828125 3.1875 -3.546875 1.9375 -3.546875 L 1.9375 -2.90625 L 2.359375 -2.90625 C 3.21875 -2.90625 3.65625 -2.5 3.65625 -1.796875 C 3.65625 -1.015625 3.171875 -0.546875 2.359375 -0.546875 C 1.515625 -0.546875 1.109375 -0.96875 1.0625 -1.875 L 0.28125 -1.875 C 0.375 -0.5 1.0625 0.125 2.34375 0.125 C 3.625 0.125 4.453125 -0.640625 4.453125 -1.8125 Z M 4.453125 -1.8125 "/>
</symbol>
<symbol overflow="visible" id="glyph0-4">
<path style="stroke:none;" d="M 4.515625 -1.9375 C 4.515625 -3.09375 3.71875 -3.875 2.609375 -3.875 C 1.984375 -3.875 1.5 -3.640625 1.171875 -3.1875 C 1.171875 -4.703125 1.671875 -5.546875 2.5625 -5.546875 C 3.109375 -5.546875 3.484375 -5.203125 3.609375 -4.609375 L 4.375 -4.609375 C 4.234375 -5.625 3.5625 -6.234375 2.609375 -6.234375 C 1.15625 -6.234375 0.375 -5.015625 0.375 -2.84375 C 0.375 -0.890625 1.046875 0.125 2.46875 0.125 C 3.65625 0.125 4.515625 -0.71875 4.515625 -1.9375 Z M 3.71875 -1.875 C 3.71875 -1.09375 3.1875 -0.546875 2.484375 -0.546875 C 1.765625 -0.546875 1.21875 -1.125 1.21875 -1.921875 C 1.21875 -2.6875 1.734375 -3.1875 2.5 -3.1875 C 3.25 -3.1875 3.71875 -2.703125 3.71875 -1.875 Z M 3.71875 -1.875 "/>
</symbol>
<symbol overflow="visible" id="glyph0-5">
<path style="stroke:none;" d="M 4.484375 -3.265625 C 4.484375 -5.21875 3.796875 -6.234375 2.375 -6.234375 C 1.1875 -6.234375 0.328125 -5.390625 0.328125 -4.171875 C 0.328125 -3.015625 1.125 -2.21875 2.25 -2.21875 C 2.84375 -2.21875 3.265625 -2.4375 3.671875 -2.921875 C 3.671875 -1.40625 3.171875 -0.546875 2.28125 -0.546875 C 1.734375 -0.546875 1.359375 -0.890625 1.234375 -1.5 L 0.46875 -1.5 C 0.609375 -0.46875 1.28125 0.125 2.234375 0.125 C 3.6875 0.125 4.484375 -1.109375 4.484375 -3.265625 Z M 3.640625 -4.1875 C 3.640625 -3.421875 3.09375 -2.90625 2.34375 -2.90625 C 1.59375 -2.90625 1.125 -3.390625 1.125 -4.234375 C 1.125 -5.015625 1.65625 -5.5625 2.359375 -5.5625 C 3.09375 -5.5625 3.640625 -5 3.640625 -4.1875 Z M 3.640625 -4.1875 "/>
</symbol>
<symbol overflow="visible" id="glyph0-6">
<path style="stroke:none;" d="M 3.046875 0 L 3.046875 -6.234375 L 2.546875 -6.234375 C 2.265625 -5.28125 2.09375 -5.140625 0.890625 -5 L 0.890625 -4.4375 L 2.28125 -4.4375 L 2.28125 0 Z M 3.046875 0 "/>
</symbol>
<symbol overflow="visible" id="glyph0-7">
<path style="stroke:none;" d="M 4.5 -4.40625 C 4.5 -5.46875 3.671875 -6.234375 2.5 -6.234375 C 1.21875 -6.234375 0.484375 -5.59375 0.4375 -4.078125 L 1.21875 -4.078125 C 1.28125 -5.125 1.703125 -5.5625 2.46875 -5.5625 C 3.171875 -5.5625 3.703125 -5.0625 3.703125 -4.390625 C 3.703125 -3.890625 3.40625 -3.46875 2.859375 -3.15625 L 2.046875 -2.703125 C 0.75 -1.96875 0.375 -1.375 0.296875 0 L 4.453125 0 L 4.453125 -0.765625 L 1.171875 -0.765625 C 1.25 -1.28125 1.53125 -1.59375 2.296875 -2.046875 L 3.171875 -2.53125 C 4.046875 -2.984375 4.5 -3.640625 4.5 -4.40625 Z M 4.5 -4.40625 "/>
</symbol>
<symbol overflow="visible" id="glyph0-8">
<path style="stroke:none;" d="M 2.5 -2.109375 L 2.5 -2.75 L 0.40625 -2.75 L 0.40625 -2.109375 Z M 2.5 -2.109375 "/>
</symbol>
<symbol overflow="visible" id="glyph0-9">
<path style="stroke:none;" d="M 5.46875 -1.765625 C 5.46875 -2.546875 4.96875 -3.125 4.09375 -3.375 L 2.484375 -3.796875 C 1.71875 -4 1.4375 -4.25 1.4375 -4.75 C 1.4375 -5.40625 2 -5.890625 2.875 -5.890625 C 3.890625 -5.890625 4.46875 -5.421875 4.46875 -4.578125 L 5.25 -4.578125 C 5.25 -5.84375 4.375 -6.578125 2.890625 -6.578125 C 1.484375 -6.578125 0.609375 -5.796875 0.609375 -4.640625 C 0.609375 -3.859375 1.03125 -3.359375 1.875 -3.140625 L 3.46875 -2.71875 C 4.28125 -2.5 4.640625 -2.1875 4.640625 -1.6875 C 4.640625 -0.96875 4.109375 -0.5625 3.015625 -0.5625 C 1.796875 -0.5625 1.203125 -1.171875 1.203125 -2.078125 L 0.421875 -2.078125 C 0.421875 -0.578125 1.4375 0.15625 2.953125 0.15625 C 4.578125 0.15625 5.46875 -0.609375 5.46875 -1.765625 Z M 5.46875 -1.765625 "/>
</symbol>
<symbol overflow="visible" id="glyph0-10">
<path style="stroke:none;" d="M 4.703125 -0.015625 L 4.703125 -0.578125 C 4.625 -0.546875 4.59375 -0.546875 4.546875 -0.546875 C 4.296875 -0.546875 4.15625 -0.6875 4.15625 -0.921875 L 4.15625 -3.484375 C 4.15625 -4.296875 3.546875 -4.734375 2.421875 -4.734375 C 1.296875 -4.734375 0.609375 -4.3125 0.578125 -3.25 L 1.3125 -3.25 C 1.375 -3.8125 1.703125 -4.0625 2.390625 -4.0625 C 3.046875 -4.0625 3.421875 -3.8125 3.421875 -3.375 L 3.421875 -3.1875 C 3.421875 -2.875 3.234375 -2.75 2.65625 -2.671875 C 1.625 -2.546875 1.453125 -2.5 1.171875 -2.390625 C 0.640625 -2.171875 0.375 -1.765625 0.375 -1.203125 C 0.375 -0.359375 0.953125 0.125 1.875 0.125 C 2.46875 0.125 3.046875 -0.109375 3.453125 -0.546875 C 3.53125 -0.1875 3.84375 0.0625 4.203125 0.0625 C 4.359375 0.0625 4.46875 0.046875 4.703125 -0.015625 Z M 3.421875 -1.59375 C 3.421875 -0.9375 2.75 -0.515625 2.046875 -0.515625 C 1.46875 -0.515625 1.140625 -0.71875 1.140625 -1.21875 C 1.140625 -1.703125 1.453125 -1.90625 2.25 -2.015625 C 3.015625 -2.125 3.171875 -2.15625 3.421875 -2.28125 Z M 3.421875 -1.59375 "/>
</symbol>
<symbol overflow="visible" id="glyph0-11">
<path style="stroke:none;" d="M 4.28125 0 L 4.28125 -3.484375 C 4.28125 -4.25 3.71875 -4.734375 2.828125 -4.734375 C 2.140625 -4.734375 1.703125 -4.484375 1.296875 -3.828125 L 1.296875 -4.609375 L 0.609375 -4.609375 L 0.609375 0 L 1.34375 0 L 1.34375 -2.546875 C 1.34375 -3.484375 1.859375 -4.09375 2.609375 -4.09375 C 3.1875 -4.09375 3.546875 -3.75 3.546875 -3.1875 L 3.546875 0 Z M 4.28125 0 "/>
</symbol>
<symbol overflow="visible" id="glyph0-12">
<path style="stroke:none;" d="M 4.484375 -2.265625 C 4.484375 -3.859375 3.71875 -4.734375 2.390625 -4.734375 C 1.09375 -4.734375 0.3125 -3.859375 0.3125 -2.3125 C 0.3125 -0.75 1.09375 0.125 2.40625 0.125 C 3.6875 0.125 4.484375 -0.75 4.484375 -2.265625 Z M 3.71875 -2.28125 C 3.71875 -1.203125 3.203125 -0.546875 2.40625 -0.546875 C 1.578125 -0.546875 1.078125 -1.1875 1.078125 -2.3125 C 1.078125 -3.40625 1.578125 -4.0625 2.40625 -4.0625 C 3.234375 -4.0625 3.71875 -3.421875 3.71875 -2.28125 Z M 3.71875 -2.28125 "/>
</symbol>
<symbol overflow="visible" id="glyph0-13">
<path style="stroke:none;" d="M 1.703125 0 L 1.703125 -6.40625 L 0.875 -6.40625 L 0.875 0 Z M 1.703125 0 "/>
</symbol>
<symbol overflow="visible" id="glyph0-14">
<path style="stroke:none;" d="M 5.671875 -6.40625 L 4.796875 -6.40625 L 3.03125 -0.984375 L 1.140625 -6.40625 L 0.265625 -6.40625 L 2.5625 0 L 3.453125 0 Z M 5.671875 -6.40625 "/>
</symbol>
<symbol overflow="visible" id="glyph1-0">
<path style="stroke:none;" d=""/>
</symbol>
<symbol overflow="visible" id="glyph1-1">
<path style="stroke:none;" d="M 7.34375 -4.015625 C 7.34375 -6.5 6.109375 -8.015625 4.0625 -8.015625 L 0.984375 -8.015625 L 0.984375 0 L 4.0625 0 C 6.09375 0 7.34375 -1.515625 7.34375 -4.015625 Z M 6.3125 -4 C 6.3125 -1.984375 5.484375 -0.90625 3.890625 -0.90625 L 2 -0.90625 L 2 -7.109375 L 3.890625 -7.109375 C 5.484375 -7.109375 6.3125 -6.046875 6.3125 -4 Z M 6.3125 -4 "/>
</symbol>
<symbol overflow="visible" id="glyph1-2">
<path style="stroke:none;" d="M 1.6875 0 L 1.6875 -5.765625 L 0.765625 -5.765625 L 0.765625 0 Z M 1.796875 -6.640625 L 1.796875 -7.78125 L 0.65625 -7.78125 L 0.65625 -6.640625 Z M 1.796875 -6.640625 "/>
</symbol>
<symbol overflow="visible" id="glyph1-3">
<path style="stroke:none;" d="M 8.359375 0 L 8.359375 -4.328125 C 8.359375 -5.359375 7.78125 -5.921875 6.703125 -5.921875 C 5.9375 -5.921875 5.484375 -5.703125 4.9375 -5.046875 C 4.59375 -5.671875 4.140625 -5.921875 3.390625 -5.921875 C 2.625 -5.921875 2.109375 -5.640625 1.609375 -4.953125 L 1.609375 -5.765625 L 0.78125 -5.765625 L 0.78125 0 L 1.6875 0 L 1.6875 -3.625 C 1.6875 -4.453125 2.296875 -5.125 3.046875 -5.125 C 3.734375 -5.125 4.109375 -4.703125 4.109375 -3.96875 L 4.109375 0 L 5.03125 0 L 5.03125 -3.625 C 5.03125 -4.453125 5.640625 -5.125 6.390625 -5.125 C 7.0625 -5.125 7.453125 -4.703125 7.453125 -3.96875 L 7.453125 0 Z M 8.359375 0 "/>
</symbol>
<symbol overflow="visible" id="glyph1-4">
<path style="stroke:none;" d="M 2.09375 0 L 2.09375 -1.140625 L 0.953125 -1.140625 L 0.953125 0 Z M 2.09375 0 "/>
</symbol>
<symbol overflow="visible" id="glyph1-5">
<path style="stroke:none;" d="M 3.8125 0 L 3.8125 -7.796875 L 3.171875 -7.796875 C 2.84375 -6.59375 2.625 -6.4375 1.125 -6.25 L 1.125 -5.5625 L 2.84375 -5.5625 L 2.84375 0 Z M 3.8125 0 "/>
</symbol>
<symbol overflow="visible" id="glyph1-6">
<path style="stroke:none;" d="M 6.75 0 L 6.75 -0.90625 L 2.015625 -0.90625 L 2.015625 -3.65625 L 6.375 -3.65625 L 6.375 -4.546875 L 2.015625 -4.546875 L 2.015625 -7.109375 L 6.546875 -7.109375 L 6.546875 -8.015625 L 0.984375 -8.015625 L 0.984375 0 Z M 6.75 0 "/>
</symbol>
<symbol overflow="visible" id="glyph1-7">
<path style="stroke:none;" d="M 5.046875 -1.609375 C 5.046875 -2.46875 4.5625 -2.90625 3.421875 -3.171875 L 2.546875 -3.390625 C 1.796875 -3.5625 1.46875 -3.8125 1.46875 -4.21875 C 1.46875 -4.734375 1.953125 -5.078125 2.6875 -5.078125 C 3.4375 -5.078125 3.828125 -4.765625 3.84375 -4.15625 L 4.8125 -4.15625 C 4.8125 -5.296875 4.0625 -5.921875 2.734375 -5.921875 C 1.390625 -5.921875 0.515625 -5.234375 0.515625 -4.171875 C 0.515625 -3.265625 0.984375 -2.84375 2.34375 -2.515625 L 3.203125 -2.296875 C 3.84375 -2.140625 4.09375 -1.953125 4.09375 -1.546875 C 4.09375 -1 3.546875 -0.6875 2.75 -0.6875 C 1.921875 -0.6875 1.46875 -0.875 1.34375 -1.765625 L 0.375 -1.765625 C 0.421875 -0.421875 1.171875 0.171875 2.671875 0.171875 C 4.125 0.171875 5.046875 -0.5 5.046875 -1.609375 Z M 5.046875 -1.609375 "/>
</symbol>
<symbol overflow="visible" id="glyph1-8">
<path style="stroke:none;" d="M 2.796875 0 L 2.796875 -0.765625 C 2.671875 -0.734375 2.53125 -0.71875 2.359375 -0.71875 C 1.953125 -0.71875 1.84375 -0.84375 1.84375 -1.25 L 1.84375 -5.015625 L 2.796875 -5.015625 L 2.796875 -5.765625 L 1.84375 -5.765625 L 1.84375 -7.34375 L 0.9375 -7.34375 L 0.9375 -5.765625 L 0.15625 -5.765625 L 0.15625 -5.015625 L 0.9375 -5.015625 L 0.9375 -0.84375 C 0.9375 -0.25 1.328125 0.078125 2.046875 0.078125 C 2.265625 0.078125 2.484375 0.0625 2.796875 0 Z M 2.796875 0 "/>
</symbol>
<symbol overflow="visible" id="glyph1-9">
<path style="stroke:none;" d="M 5.890625 -0.015625 L 5.890625 -0.71875 C 5.78125 -0.6875 5.734375 -0.6875 5.6875 -0.6875 C 5.375 -0.6875 5.1875 -0.859375 5.1875 -1.140625 L 5.1875 -4.359375 C 5.1875 -5.375 4.4375 -5.921875 3.03125 -5.921875 C 1.625 -5.921875 0.765625 -5.390625 0.71875 -4.0625 L 1.640625 -4.0625 C 1.71875 -4.765625 2.140625 -5.078125 2.984375 -5.078125 C 3.8125 -5.078125 4.28125 -4.78125 4.28125 -4.21875 L 4.28125 -3.984375 C 4.28125 -3.59375 4.046875 -3.4375 3.328125 -3.34375 C 2.03125 -3.171875 1.828125 -3.140625 1.46875 -2.984375 C 0.796875 -2.71875 0.46875 -2.203125 0.46875 -1.5 C 0.46875 -0.453125 1.1875 0.171875 2.359375 0.171875 C 3.09375 0.171875 3.8125 -0.140625 4.3125 -0.6875 C 4.40625 -0.234375 4.8125 0.078125 5.265625 0.078125 C 5.4375 0.078125 5.59375 0.0625 5.890625 -0.015625 Z M 4.28125 -1.984375 C 4.28125 -1.171875 3.4375 -0.640625 2.546875 -0.640625 C 1.84375 -0.640625 1.421875 -0.890625 1.421875 -1.515625 C 1.421875 -2.125 1.828125 -2.390625 2.8125 -2.53125 C 3.765625 -2.65625 3.96875 -2.703125 4.28125 -2.84375 Z M 4.28125 -1.984375 "/>
</symbol>
<symbol overflow="visible" id="glyph1-10">
<path style="stroke:none;" d="M 5.4375 0 L 5.4375 -8.015625 L 4.53125 -8.015625 L 4.53125 -5.03125 C 4.140625 -5.625 3.53125 -5.921875 2.765625 -5.921875 C 1.265625 -5.921875 0.28125 -4.78125 0.28125 -2.9375 C 0.28125 -0.984375 1.25 0.171875 2.796875 0.171875 C 3.59375 0.171875 4.140625 -0.125 4.625 -0.84375 L 4.625 0 Z M 4.53125 -2.859375 C 4.53125 -1.53125 3.890625 -0.6875 2.921875 -0.6875 C 1.90625 -0.6875 1.25 -1.546875 1.25 -2.875 C 1.25 -4.21875 1.90625 -5.078125 2.921875 -5.078125 C 3.90625 -5.078125 4.53125 -4.1875 4.53125 -2.859375 Z M 4.53125 -2.859375 "/>
</symbol>
<symbol overflow="visible" id="glyph1-11">
<path style="stroke:none;" d="M 5.609375 -2.84375 C 5.609375 -4.828125 4.65625 -5.921875 2.984375 -5.921875 C 1.375 -5.921875 0.390625 -4.8125 0.390625 -2.875 C 0.390625 -0.953125 1.359375 0.171875 3 0.171875 C 4.625 0.171875 5.609375 -0.953125 5.609375 -2.84375 Z M 4.65625 -2.84375 C 4.65625 -1.5 4.015625 -0.6875 3 -0.6875 C 1.984375 -0.6875 1.359375 -1.484375 1.359375 -2.875 C 1.359375 -4.265625 1.984375 -5.078125 3 -5.078125 C 4.03125 -5.078125 4.65625 -4.28125 4.65625 -2.84375 Z M 4.65625 -2.84375 "/>
</symbol>
<symbol overflow="visible" id="glyph2-0">
<path style="stroke:none;" d=""/>
</symbol>
<symbol overflow="visible" id="glyph2-1">
<path style="stroke:none;" d="M 0 -5.4375 L -8.015625 -5.4375 L -8.015625 -4.53125 L -5.03125 -4.53125 C -5.625 -4.140625 -5.921875 -3.53125 -5.921875 -2.765625 C -5.921875 -1.265625 -4.78125 -0.28125 -2.9375 -0.28125 C -0.984375 -0.28125 0.171875 -1.25 0.171875 -2.796875 C 0.171875 -3.59375 -0.125 -4.140625 -0.84375 -4.625 L 0 -4.625 Z M -2.859375 -4.53125 C -1.53125 -4.53125 -0.6875 -3.890625 -0.6875 -2.921875 C -0.6875 -1.90625 -1.546875 -1.25 -2.875 -1.25 C -4.21875 -1.25 -5.078125 -1.90625 -5.078125 -2.921875 C -5.078125 -3.90625 -4.1875 -4.53125 -2.859375 -4.53125 Z M -2.859375 -4.53125 "/>
</symbol>
<symbol overflow="visible" id="glyph2-2">
<path style="stroke:none;" d="M -2.625 -5.640625 C -3.453125 -5.640625 -3.984375 -5.578125 -4.40625 -5.40625 C -5.359375 -5.03125 -5.921875 -4.15625 -5.921875 -3.078125 C -5.921875 -1.46875 -4.734375 -0.4375 -2.84375 -0.4375 C -0.953125 -0.4375 0.171875 -1.4375 0.171875 -3.0625 C 0.171875 -4.375 -0.578125 -5.296875 -1.75 -5.515625 L -1.75 -4.59375 C -0.984375 -4.34375 -0.6875 -3.828125 -0.6875 -3.09375 C -0.6875 -2.140625 -1.296875 -1.421875 -2.625 -1.390625 Z M -3.4375 -4.65625 C -3.4375 -4.65625 -3.390625 -4.65625 -3.359375 -4.65625 L -3.359375 -1.421875 C -4.390625 -1.5 -5.078125 -2.140625 -5.078125 -3.0625 C -5.078125 -3.96875 -4.328125 -4.65625 -3.4375 -4.65625 Z M -3.4375 -4.65625 "/>
</symbol>
<symbol overflow="visible" id="glyph2-3">
<path style="stroke:none;" d="M 0 -5.359375 L -4.359375 -5.359375 C -5.3125 -5.359375 -5.921875 -4.640625 -5.921875 -3.53125 C -5.921875 -2.671875 -5.59375 -2.125 -4.796875 -1.609375 L -5.765625 -1.609375 L -5.765625 -0.765625 L 0 -0.765625 L 0 -1.6875 L -3.171875 -1.6875 C -4.359375 -1.6875 -5.125 -2.328125 -5.125 -3.25 C -5.125 -3.984375 -4.6875 -4.4375 -4 -4.4375 L 0 -4.4375 Z M 0 -5.359375 "/>
</symbol>
<symbol overflow="visible" id="glyph2-4">
<path style="stroke:none;" d="M -1.609375 -5.046875 C -2.46875 -5.046875 -2.90625 -4.5625 -3.171875 -3.421875 L -3.390625 -2.546875 C -3.5625 -1.796875 -3.8125 -1.46875 -4.21875 -1.46875 C -4.734375 -1.46875 -5.078125 -1.953125 -5.078125 -2.6875 C -5.078125 -3.4375 -4.765625 -3.828125 -4.15625 -3.84375 L -4.15625 -4.8125 C -5.296875 -4.8125 -5.921875 -4.0625 -5.921875 -2.734375 C -5.921875 -1.390625 -5.234375 -0.515625 -4.171875 -0.515625 C -3.265625 -0.515625 -2.84375 -0.984375 -2.515625 -2.34375 L -2.296875 -3.203125 C -2.140625 -3.84375 -1.953125 -4.09375 -1.546875 -4.09375 C -1 -4.09375 -0.6875 -3.546875 -0.6875 -2.75 C -0.6875 -1.921875 -0.875 -1.46875 -1.765625 -1.34375 L -1.765625 -0.375 C -0.421875 -0.421875 0.171875 -1.171875 0.171875 -2.671875 C 0.171875 -4.125 -0.5 -5.046875 -1.609375 -5.046875 Z M -1.609375 -5.046875 "/>
</symbol>
<symbol overflow="visible" id="glyph2-5">
<path style="stroke:none;" d="M 0 -1.6875 L -5.765625 -1.6875 L -5.765625 -0.765625 L 0 -0.765625 Z M -6.640625 -1.796875 L -7.78125 -1.796875 L -7.78125 -0.65625 L -6.640625 -0.65625 Z M -6.640625 -1.796875 "/>
</symbol>
<symbol overflow="visible" id="glyph2-6">
<path style="stroke:none;" d="M 0 -2.796875 L -0.765625 -2.796875 C -0.734375 -2.671875 -0.71875 -2.53125 -0.71875 -2.359375 C -0.71875 -1.953125 -0.84375 -1.84375 -1.25 -1.84375 L -5.015625 -1.84375 L -5.015625 -2.796875 L -5.765625 -2.796875 L -5.765625 -1.84375 L -7.34375 -1.84375 L -7.34375 -0.9375 L -5.765625 -0.9375 L -5.765625 -0.15625 L -5.015625 -0.15625 L -5.015625 -0.9375 L -0.84375 -0.9375 C -0.25 -0.9375 0.078125 -1.328125 0.078125 -2.046875 C 0.078125 -2.265625 0.0625 -2.484375 0 -2.796875 Z M 0 -2.796875 "/>
</symbol>
<symbol overflow="visible" id="glyph2-7">
<path style="stroke:none;" d="M -5.765625 -5.265625 L -5.765625 -4.265625 L -1.28125 -2.671875 L -5.765625 -1.203125 L -5.765625 -0.21875 L 0.015625 -2.171875 L 0.9375 -1.8125 C 1.34375 -1.65625 1.5 -1.46875 1.5 -1.078125 C 1.5 -0.953125 1.46875 -0.796875 1.4375 -0.59375 L 2.25 -0.59375 C 2.359375 -0.78125 2.390625 -0.96875 2.390625 -1.203125 C 2.390625 -1.859375 2.03125 -2.390625 1.203125 -2.6875 Z M -5.765625 -5.265625 "/>
</symbol>
<symbol overflow="visible" id="glyph3-0">
<path style="stroke:none;" d=""/>
</symbol>
<symbol overflow="visible" id="glyph3-1">
<path style="stroke:none;" d="M 8.8125 -4.8125 C 8.8125 -7.796875 7.328125 -9.625 4.890625 -9.625 L 1.171875 -9.625 L 1.171875 0 L 4.890625 0 C 7.3125 0 8.8125 -1.828125 8.8125 -4.8125 Z M 7.578125 -4.8125 C 7.578125 -2.375 6.578125 -1.078125 4.671875 -1.078125 L 2.40625 -1.078125 L 2.40625 -8.546875 L 4.671875 -8.546875 C 6.578125 -8.546875 7.578125 -7.265625 7.578125 -4.8125 Z M 7.578125 -4.8125 "/>
</symbol>
<symbol overflow="visible" id="glyph3-2">
<path style="stroke:none;" d="M 2.015625 0 L 2.015625 -6.921875 L 0.921875 -6.921875 L 0.921875 0 Z M 2.171875 -7.96875 L 2.171875 -9.328125 L 0.796875 -9.328125 L 0.796875 -7.96875 Z M 2.171875 -7.96875 "/>
</symbol>
<symbol overflow="visible" id="glyph3-3">
<path style="stroke:none;" d="M 6.0625 -1.9375 C 6.0625 -2.96875 5.484375 -3.484375 4.109375 -3.8125 L 3.046875 -4.0625 C 2.15625 -4.28125 1.765625 -4.5625 1.765625 -5.0625 C 1.765625 -5.6875 2.34375 -6.09375 3.234375 -6.09375 C 4.125 -6.09375 4.59375 -5.71875 4.625 -4.984375 L 5.78125 -4.984375 C 5.765625 -6.34375 4.875 -7.109375 3.28125 -7.109375 C 1.65625 -7.109375 0.625 -6.28125 0.625 -5 C 0.625 -3.921875 1.171875 -3.40625 2.8125 -3.015625 L 3.84375 -2.765625 C 4.609375 -2.578125 4.90625 -2.34375 4.90625 -1.84375 C 4.90625 -1.203125 4.265625 -0.8125 3.296875 -0.8125 C 2.3125 -0.8125 1.75 -1.0625 1.609375 -2.109375 L 0.453125 -2.109375 C 0.5 -0.515625 1.40625 0.203125 3.203125 0.203125 C 4.953125 0.203125 6.0625 -0.609375 6.0625 -1.9375 Z M 6.0625 -1.9375 "/>
</symbol>
<symbol overflow="visible" id="glyph3-4">
<path style="stroke:none;" d="M 3.359375 0 L 3.359375 -0.921875 C 3.203125 -0.890625 3.03125 -0.875 2.828125 -0.875 C 2.34375 -0.875 2.21875 -1 2.21875 -1.484375 L 2.21875 -6.015625 L 3.359375 -6.015625 L 3.359375 -6.921875 L 2.21875 -6.921875 L 2.21875 -8.8125 L 1.125 -8.8125 L 1.125 -6.921875 L 0.1875 -6.921875 L 0.1875 -6.015625 L 1.125 -6.015625 L 1.125 -1 C 1.125 -0.296875 1.59375 0.09375 2.453125 0.09375 C 2.71875 0.09375 2.984375 0.0625 3.359375 0 Z M 3.359375 0 "/>
</symbol>
<symbol overflow="visible" id="glyph3-5">
<path style="stroke:none;" d="M 4.234375 -5.953125 L 4.234375 -7.078125 C 4.046875 -7.109375 3.96875 -7.109375 3.8125 -7.109375 C 3.109375 -7.109375 2.5625 -6.6875 1.921875 -5.671875 L 1.921875 -6.921875 L 0.921875 -6.921875 L 0.921875 0 L 2.015625 0 L 2.015625 -3.59375 C 2.015625 -5.15625 2.53125 -5.921875 4.234375 -5.953125 Z M 4.234375 -5.953125 "/>
</symbol>
<symbol overflow="visible" id="glyph3-6">
<path style="stroke:none;" d="M 6.90625 -3.53125 C 6.90625 -5.78125 5.765625 -7.109375 3.953125 -7.109375 C 3 -7.109375 2.328125 -6.765625 1.8125 -5.984375 L 1.8125 -9.625 L 0.71875 -9.625 L 0.71875 0 L 1.703125 0 L 1.703125 -0.984375 C 2.234375 -0.1875 2.9375 0.203125 3.890625 0.203125 C 5.71875 0.203125 6.90625 -1.296875 6.90625 -3.53125 Z M 5.75 -3.46875 C 5.75 -1.90625 4.9375 -0.828125 3.734375 -0.828125 C 2.578125 -0.828125 1.8125 -1.890625 1.8125 -3.453125 C 1.8125 -5.078125 2.578125 -6.140625 3.734375 -6.09375 C 4.96875 -6.09375 5.75 -5.015625 5.75 -3.46875 Z M 5.75 -3.46875 "/>
</symbol>
<symbol overflow="visible" id="glyph3-7">
<path style="stroke:none;" d="M 6.359375 0 L 6.359375 -6.921875 L 5.265625 -6.921875 L 5.265625 -3.109375 C 5.265625 -1.6875 4.53125 -0.765625 3.375 -0.765625 C 2.515625 -0.765625 1.953125 -1.296875 1.953125 -2.125 L 1.953125 -6.921875 L 0.859375 -6.921875 L 0.859375 -1.6875 C 0.859375 -0.546875 1.71875 0.203125 3.0625 0.203125 C 4.078125 0.203125 4.734375 -0.15625 5.375 -1.0625 L 5.375 0 Z M 6.359375 0 "/>
</symbol>
<symbol overflow="visible" id="glyph3-8">
<path style="stroke:none;" d="M 6.296875 -2.375 L 5.1875 -2.375 C 5 -1.265625 4.4375 -0.8125 3.5 -0.8125 C 2.28125 -0.8125 1.5625 -1.75 1.5625 -3.390625 C 1.5625 -5.125 2.265625 -6.09375 3.46875 -6.09375 C 4.390625 -6.09375 4.984375 -5.5625 5.109375 -4.59375 L 6.21875 -4.59375 C 6.09375 -6.28125 5.03125 -7.109375 3.484375 -7.109375 C 1.625 -7.109375 0.40625 -5.6875 0.40625 -3.390625 C 0.40625 -1.15625 1.59375 0.203125 3.46875 0.203125 C 5.125 0.203125 6.171875 -0.796875 6.296875 -2.375 Z M 6.296875 -2.375 "/>
</symbol>
<symbol overflow="visible" id="glyph3-9">
<path style="stroke:none;" d="M 6.734375 -3.40625 C 6.734375 -5.796875 5.578125 -7.109375 3.59375 -7.109375 C 1.65625 -7.109375 0.46875 -5.78125 0.46875 -3.453125 C 0.46875 -1.140625 1.640625 0.203125 3.609375 0.203125 C 5.546875 0.203125 6.734375 -1.140625 6.734375 -3.40625 Z M 5.578125 -3.421875 C 5.578125 -1.796875 4.8125 -0.8125 3.609375 -0.8125 C 2.375 -0.8125 1.625 -1.78125 1.625 -3.453125 C 1.625 -5.125 2.375 -6.09375 3.609375 -6.09375 C 4.84375 -6.09375 5.578125 -5.140625 5.578125 -3.421875 Z M 5.578125 -3.421875 "/>
</symbol>
<symbol overflow="visible" id="glyph3-10">
<path style="stroke:none;" d="M 6.4375 0 L 6.4375 -5.234375 C 6.4375 -6.375 5.578125 -7.109375 4.234375 -7.109375 C 3.203125 -7.109375 2.546875 -6.71875 1.9375 -5.75 L 1.9375 -6.921875 L 0.921875 -6.921875 L 0.921875 0 L 2.015625 0 L 2.015625 -3.8125 C 2.015625 -5.234375 2.78125 -6.15625 3.90625 -6.15625 C 4.78125 -6.15625 5.328125 -5.625 5.328125 -4.796875 L 5.328125 0 Z M 6.4375 0 "/>
</symbol>
<symbol overflow="visible" id="glyph3-11">
<path style="stroke:none;" d="M 6.765625 -3.140625 C 6.765625 -4.140625 6.6875 -4.78125 6.5 -5.296875 C 6.046875 -6.4375 4.984375 -7.109375 3.703125 -7.109375 C 1.765625 -7.109375 0.53125 -5.6875 0.53125 -3.421875 C 0.53125 -1.15625 1.734375 0.203125 3.671875 0.203125 C 5.25 0.203125 6.34375 -0.703125 6.625 -2.09375 L 5.515625 -2.09375 C 5.21875 -1.1875 4.59375 -0.8125 3.703125 -0.8125 C 2.5625 -0.8125 1.703125 -1.5625 1.671875 -3.140625 Z M 5.59375 -4.125 C 5.59375 -4.125 5.59375 -4.0625 5.578125 -4.046875 L 1.703125 -4.046875 C 1.796875 -5.265625 2.578125 -6.09375 3.6875 -6.09375 C 4.765625 -6.09375 5.59375 -5.203125 5.59375 -4.125 Z M 5.59375 -4.125 "/>
</symbol>
<symbol overflow="visible" id="glyph3-12">
<path style="stroke:none;" d=""/>
</symbol>
<symbol overflow="visible" id="glyph3-13">
<path style="stroke:none;" d="M 6.53125 0 L 6.53125 -9.625 L 5.4375 -9.625 L 5.4375 -6.046875 C 4.984375 -6.75 4.234375 -7.109375 3.3125 -7.109375 C 1.515625 -7.109375 0.34375 -5.734375 0.34375 -3.53125 C 0.34375 -1.1875 1.484375 0.203125 3.359375 0.203125 C 4.296875 0.203125 4.96875 -0.15625 5.5625 -1.015625 L 5.5625 0 Z M 5.4375 -3.4375 C 5.4375 -1.828125 4.671875 -0.828125 3.515625 -0.828125 C 2.296875 -0.828125 1.484375 -1.84375 1.484375 -3.453125 C 1.484375 -5.0625 2.296875 -6.09375 3.5 -6.09375 C 4.6875 -6.09375 5.4375 -5.03125 5.4375 -3.4375 Z M 5.4375 -3.4375 "/>
</symbol>
<symbol overflow="visible" id="glyph3-14">
<path style="stroke:none;" d="M 2 0 L 2 -9.625 L 0.890625 -9.625 L 0.890625 0 Z M 2 0 "/>
</symbol>
<symbol overflow="visible" id="glyph3-15">
<path style="stroke:none;" d="M 6.90625 -3.390625 C 6.90625 -5.71875 5.765625 -7.109375 3.9375 -7.109375 C 3 -7.109375 2.25 -6.6875 1.734375 -5.875 L 1.734375 -6.921875 L 0.71875 -6.921875 L 0.71875 2.875 L 1.828125 2.875 L 1.828125 -0.828125 C 2.40625 -0.125 3.046875 0.203125 3.953125 0.203125 C 5.734375 0.203125 6.90625 -1.1875 6.90625 -3.390625 Z M 5.75 -3.421875 C 5.75 -1.84375 4.953125 -0.828125 3.75 -0.828125 C 2.59375 -0.828125 1.828125 -1.78125 1.828125 -3.40625 C 1.828125 -5.03125 2.59375 -6.09375 3.75 -6.09375 C 4.96875 -6.09375 5.75 -5.0625 5.75 -3.421875 Z M 5.75 -3.421875 "/>
</symbol>
<symbol overflow="visible" id="glyph3-16">
<path style="stroke:none;" d="M 10.03125 0 L 10.03125 -5.1875 C 10.03125 -6.4375 9.34375 -7.109375 8.046875 -7.109375 C 7.125 -7.109375 6.578125 -6.84375 5.921875 -6.0625 C 5.515625 -6.796875 4.96875 -7.109375 4.0625 -7.109375 C 3.140625 -7.109375 2.53125 -6.765625 1.9375 -5.9375 L 1.9375 -6.921875 L 0.9375 -6.921875 L 0.9375 0 L 2.03125 0 L 2.03125 -4.34375 C 2.03125 -5.34375 2.765625 -6.15625 3.65625 -6.15625 C 4.46875 -6.15625 4.9375 -5.65625 4.9375 -4.765625 L 4.9375 0 L 6.03125 0 L 6.03125 -4.34375 C 6.03125 -5.34375 6.765625 -6.15625 7.671875 -6.15625 C 8.46875 -6.15625 8.9375 -5.640625 8.9375 -4.765625 L 8.9375 0 Z M 10.03125 0 "/>
</symbol>
<symbol overflow="visible" id="glyph3-17">
<path style="stroke:none;" d="M 7.0625 -0.03125 L 7.0625 -0.859375 C 6.9375 -0.828125 6.890625 -0.828125 6.828125 -0.828125 C 6.4375 -0.828125 6.234375 -1.03125 6.234375 -1.375 L 6.234375 -5.234375 C 6.234375 -6.453125 5.328125 -7.109375 3.625 -7.109375 C 1.953125 -7.109375 0.921875 -6.46875 0.859375 -4.875 L 1.96875 -4.875 C 2.0625 -5.71875 2.5625 -6.09375 3.59375 -6.09375 C 4.578125 -6.09375 5.140625 -5.734375 5.140625 -5.0625 L 5.140625 -4.78125 C 5.140625 -4.3125 4.859375 -4.125 3.984375 -4.015625 C 2.421875 -3.8125 2.1875 -3.765625 1.765625 -3.59375 C 0.96875 -3.265625 0.546875 -2.640625 0.546875 -1.796875 C 0.546875 -0.546875 1.421875 0.203125 2.828125 0.203125 C 3.703125 0.203125 4.5625 -0.171875 5.171875 -0.8125 C 5.296875 -0.296875 5.765625 0.09375 6.3125 0.09375 C 6.53125 0.09375 6.703125 0.0625 7.0625 -0.03125 Z M 5.140625 -2.390625 C 5.140625 -1.40625 4.125 -0.765625 3.0625 -0.765625 C 2.203125 -0.765625 1.703125 -1.0625 1.703125 -1.828125 C 1.703125 -2.546875 2.1875 -2.859375 3.359375 -3.03125 C 4.53125 -3.1875 4.765625 -3.25 5.140625 -3.421875 Z M 5.140625 -2.390625 "/>
</symbol>
<symbol overflow="visible" id="glyph3-18">
<path style="stroke:none;" d="M 6.453125 -1.140625 L 6.453125 -6.921875 L 5.4375 -6.921875 L 5.4375 -5.921875 C 4.890625 -6.734375 4.21875 -7.109375 3.328125 -7.109375 C 1.578125 -7.109375 0.390625 -5.640625 0.390625 -3.390625 C 0.390625 -1.21875 1.609375 0.203125 3.234375 0.203125 C 4.109375 0.203125 4.71875 -0.171875 5.4375 -1.046875 L 5.4375 -0.578125 C 5.4375 1.25 4.6875 1.953125 3.40625 1.953125 C 2.53125 1.953125 1.859375 1.640625 1.734375 0.796875 L 0.609375 0.796875 C 0.71875 2.09375 1.75 2.875 3.359375 2.875 C 5.53125 2.875 6.453125 1.921875 6.453125 -1.140625 Z M 5.328125 -3.421875 C 5.328125 -1.765625 4.625 -0.8125 3.453125 -0.8125 C 2.25 -0.8125 1.53125 -1.78125 1.53125 -3.453125 C 1.53125 -5.125 2.265625 -6.09375 3.453125 -6.09375 C 4.640625 -6.09375 5.328125 -5.09375 5.328125 -3.421875 Z M 5.328125 -3.421875 "/>
</symbol>
<symbol overflow="visible" id="glyph3-19">
<path style="stroke:none;" d="M 6.359375 0 L 6.359375 -6.921875 L 5.265625 -6.921875 L 5.265625 -3.109375 C 5.265625 -1.6875 4.53125 -0.765625 3.375 -0.765625 C 2.515625 -0.765625 1.953125 -1.296875 1.953125 -2.125 L 1.953125 -6.921875 L 0.859375 -6.921875 L 0.859375 -1.6875 C 0.859375 -0.546875 1.71875 0.203125 3.0625 0.203125 C 4.078125 0.203125 4.734375 -0.15625 5.375 -1.0625 L 5.375 0 Z M 6.03125 -9.625 L 4.546875 -9.625 L 3.28125 -7.671875 L 4.0625 -7.671875 Z M 6.03125 -9.625 "/>
</symbol>
<symbol overflow="visible" id="glyph3-20">
<path style="stroke:none;" d="M 9.359375 0 L 9.359375 -5.078125 L 5.34375 -5.078125 L 5.34375 -4 L 8.28125 -4 L 8.28125 -3.734375 C 8.28125 -2.015625 7.015625 -0.84375 5.25 -0.84375 C 3.078125 -0.84375 1.8125 -2.421875 1.8125 -4.78125 C 1.8125 -7.140625 3.15625 -8.78125 5.1875 -8.78125 C 6.65625 -8.78125 7.703125 -7.953125 7.96875 -6.703125 L 9.234375 -6.703125 C 8.890625 -8.65625 7.40625 -9.859375 5.203125 -9.859375 C 2.25 -9.859375 0.578125 -7.59375 0.578125 -4.71875 C 0.578125 -1.75 2.390625 0.234375 4.984375 0.234375 C 6.296875 0.234375 7.34375 -0.21875 8.28125 -1.265625 L 8.578125 0 Z M 9.359375 0 "/>
</symbol>
</g>
<clipPath id="clip1">
  <path d="M 42.789062 23.597656 L 505 23.597656 L 505 398 L 42.789062 398 Z M 42.789062 23.597656 "/>
</clipPath>
<clipPath id="clip2">
  <path d="M 42.789062 336 L 505.828125 336 L 505.828125 338 L 42.789062 338 Z M 42.789062 336 "/>
</clipPath>
<clipPath id="clip3">
  <path d="M 42.789062 249 L 505.828125 249 L 505.828125 250 L 42.789062 250 Z M 42.789062 249 "/>
</clipPath>
<clipPath id="clip4">
  <path d="M 42.789062 161 L 505.828125 161 L 505.828125 163 L 42.789062 163 Z M 42.789062 161 "/>
</clipPath>
<clipPath id="clip5">
  <path d="M 42.789062 74 L 505.828125 74 L 505.828125 75 L 42.789062 75 Z M 42.789062 74 "/>
</clipPath>
<clipPath id="clip6">
  <path d="M 118 23.597656 L 119 23.597656 L 119 398 L 118 398 Z M 118 23.597656 "/>
</clipPath>
<clipPath id="clip7">
  <path d="M 197 23.597656 L 198 23.597656 L 198 398 L 197 398 Z M 197 23.597656 "/>
</clipPath>
<clipPath id="clip8">
  <path d="M 276 23.597656 L 278 23.597656 L 278 398 L 276 398 Z M 276 23.597656 "/>
</clipPath>
<clipPath id="clip9">
  <path d="M 356 23.597656 L 357 23.597656 L 357 398 L 356 398 Z M 356 23.597656 "/>
</clipPath>
<clipPath id="clip10">
  <path d="M 435 23.597656 L 437 23.597656 L 437 398 L 435 398 Z M 435 23.597656 "/>
</clipPath>
<clipPath id="clip11">
  <path d="M 42.789062 380 L 505.828125 380 L 505.828125 382 L 42.789062 382 Z M 42.789062 380 "/>
</clipPath>
<clipPath id="clip12">
  <path d="M 42.789062 292 L 505.828125 292 L 505.828125 294 L 42.789062 294 Z M 42.789062 292 "/>
</clipPath>
<clipPath id="clip13">
  <path d="M 42.789062 205 L 505.828125 205 L 505.828125 207 L 42.789062 207 Z M 42.789062 205 "/>
</clipPath>
<clipPath id="clip14">
  <path d="M 42.789062 117 L 505.828125 117 L 505.828125 119 L 42.789062 119 Z M 42.789062 117 "/>
</clipPath>
<clipPath id="clip15">
  <path d="M 42.789062 30 L 505.828125 30 L 505.828125 32 L 42.789062 32 Z M 42.789062 30 "/>
</clipPath>
<clipPath id="clip16">
  <path d="M 78 23.597656 L 80 23.597656 L 80 398.566406 L 78 398.566406 Z M 78 23.597656 "/>
</clipPath>
<clipPath id="clip17">
  <path d="M 157 23.597656 L 159 23.597656 L 159 398.566406 L 157 398.566406 Z M 157 23.597656 "/>
</clipPath>
<clipPath id="clip18">
  <path d="M 236 23.597656 L 238 23.597656 L 238 398.566406 L 236 398.566406 Z M 236 23.597656 "/>
</clipPath>
<clipPath id="clip19">
  <path d="M 316 23.597656 L 318 23.597656 L 318 398.566406 L 316 398.566406 Z M 316 23.597656 "/>
</clipPath>
<clipPath id="clip20">
  <path d="M 395 23.597656 L 397 23.597656 L 397 398.566406 L 395 398.566406 Z M 395 23.597656 "/>
</clipPath>
<clipPath id="clip21">
  <path d="M 475 23.597656 L 477 23.597656 L 477 398.566406 L 475 398.566406 Z M 475 23.597656 "/>
</clipPath>
</defs>
<g id="surface4891">
<rect x="0" y="0" width="576" height="432" style="fill:rgb(100%,100%,100%);fill-opacity:1;stroke:none;"/>
<rect x="0" y="0" width="576" height="432" style="fill:rgb(100%,100%,100%);fill-opacity:1;stroke:none;"/>
<path style="fill:none;stroke-width:1.066978;stroke-linecap:round;stroke-linejoin:round;stroke:rgb(100%,100%,100%);stroke-opacity:1;stroke-miterlimit:10;" d="M 0 432 L 576 432 L 576 0 L 0 0 Z M 0 432 "/>
<g clip-path="url(#clip1)" clip-rule="nonzero">
<path style=" stroke:none;fill-rule:nonzero;fill:rgb(92.156863%,92.156863%,92.156863%);fill-opacity:1;" d="M 42.789062 397.570312 L 504.828125 397.570312 L 504.828125 23.601562 L 42.789062 23.601562 Z M 42.789062 397.570312 "/>
</g>
<g clip-path="url(#clip2)" clip-rule="nonzero">
<path style="fill:none;stroke-width:0.533489;stroke-linecap:butt;stroke-linejoin:round;stroke:rgb(100%,100%,100%);stroke-opacity:1;stroke-miterlimit:10;" d="M 42.789062 336.859375 L 504.828125 336.859375 "/>
</g>
<g clip-path="url(#clip3)" clip-rule="nonzero">
<path style="fill:none;stroke-width:0.533489;stroke-linecap:butt;stroke-linejoin:round;stroke:rgb(100%,100%,100%);stroke-opacity:1;stroke-miterlimit:10;" d="M 42.789062 249.4375 L 504.828125 249.4375 "/>
</g>
<g clip-path="url(#clip4)" clip-rule="nonzero">
<path style="fill:none;stroke-width:0.533489;stroke-linecap:butt;stroke-linejoin:round;stroke:rgb(100%,100%,100%);stroke-opacity:1;stroke-miterlimit:10;" d="M 42.789062 162.015625 L 504.828125 162.015625 "/>
</g>
<g clip-path="url(#clip5)" clip-rule="nonzero">
<path style="fill:none;stroke-width:0.533489;stroke-linecap:butt;stroke-linejoin:round;stroke:rgb(100%,100%,100%);stroke-opacity:1;stroke-miterlimit:10;" d="M 42.789062 74.59375 L 504.828125 74.59375 "/>
</g>
<g clip-path="url(#clip6)" clip-rule="nonzero">
<path style="fill:none;stroke-width:0.533489;stroke-linecap:butt;stroke-linejoin:round;stroke:rgb(100%,100%,100%);stroke-opacity:1;stroke-miterlimit:10;" d="M 118.300781 397.570312 L 118.300781 23.597656 "/>
</g>
<g clip-path="url(#clip7)" clip-rule="nonzero">
<path style="fill:none;stroke-width:0.533489;stroke-linecap:butt;stroke-linejoin:round;stroke:rgb(100%,100%,100%);stroke-opacity:1;stroke-miterlimit:10;" d="M 197.714844 397.570312 L 197.714844 23.597656 "/>
</g>
<g clip-path="url(#clip8)" clip-rule="nonzero">
<path style="fill:none;stroke-width:0.533489;stroke-linecap:butt;stroke-linejoin:round;stroke:rgb(100%,100%,100%);stroke-opacity:1;stroke-miterlimit:10;" d="M 277.132812 397.570312 L 277.132812 23.597656 "/>
</g>
<g clip-path="url(#clip9)" clip-rule="nonzero">
<path style="fill:none;stroke-width:0.533489;stroke-linecap:butt;stroke-linejoin:round;stroke:rgb(100%,100%,100%);stroke-opacity:1;stroke-miterlimit:10;" d="M 356.546875 397.570312 L 356.546875 23.597656 "/>
</g>
<g clip-path="url(#clip10)" clip-rule="nonzero">
<path style="fill:none;stroke-width:0.533489;stroke-linecap:butt;stroke-linejoin:round;stroke:rgb(100%,100%,100%);stroke-opacity:1;stroke-miterlimit:10;" d="M 435.964844 397.570312 L 435.964844 23.597656 "/>
</g>
<g clip-path="url(#clip11)" clip-rule="nonzero">
<path style="fill:none;stroke-width:1.066978;stroke-linecap:butt;stroke-linejoin:round;stroke:rgb(100%,100%,100%);stroke-opacity:1;stroke-miterlimit:10;" d="M 42.789062 380.570312 L 504.828125 380.570312 "/>
</g>
<g clip-path="url(#clip12)" clip-rule="nonzero">
<path style="fill:none;stroke-width:1.066978;stroke-linecap:butt;stroke-linejoin:round;stroke:rgb(100%,100%,100%);stroke-opacity:1;stroke-miterlimit:10;" d="M 42.789062 293.148438 L 504.828125 293.148438 "/>
</g>
<g clip-path="url(#clip13)" clip-rule="nonzero">
<path style="fill:none;stroke-width:1.066978;stroke-linecap:butt;stroke-linejoin:round;stroke:rgb(100%,100%,100%);stroke-opacity:1;stroke-miterlimit:10;" d="M 42.789062 205.726562 L 504.828125 205.726562 "/>
</g>
<g clip-path="url(#clip14)" clip-rule="nonzero">
<path style="fill:none;stroke-width:1.066978;stroke-linecap:butt;stroke-linejoin:round;stroke:rgb(100%,100%,100%);stroke-opacity:1;stroke-miterlimit:10;" d="M 42.789062 118.304688 L 504.828125 118.304688 "/>
</g>
<g clip-path="url(#clip15)" clip-rule="nonzero">
<path style="fill:none;stroke-width:1.066978;stroke-linecap:butt;stroke-linejoin:round;stroke:rgb(100%,100%,100%);stroke-opacity:1;stroke-miterlimit:10;" d="M 42.789062 30.882812 L 504.828125 30.882812 "/>
</g>
<g clip-path="url(#clip16)" clip-rule="nonzero">
<path style="fill:none;stroke-width:1.066978;stroke-linecap:butt;stroke-linejoin:round;stroke:rgb(100%,100%,100%);stroke-opacity:1;stroke-miterlimit:10;" d="M 78.589844 397.570312 L 78.589844 23.597656 "/>
</g>
<g clip-path="url(#clip17)" clip-rule="nonzero">
<path style="fill:none;stroke-width:1.066978;stroke-linecap:butt;stroke-linejoin:round;stroke:rgb(100%,100%,100%);stroke-opacity:1;stroke-miterlimit:10;" d="M 158.007812 397.570312 L 158.007812 23.597656 "/>
</g>
<g clip-path="url(#clip18)" clip-rule="nonzero">
<path style="fill:none;stroke-width:1.066978;stroke-linecap:butt;stroke-linejoin:round;stroke:rgb(100%,100%,100%);stroke-opacity:1;stroke-miterlimit:10;" d="M 237.425781 397.570312 L 237.425781 23.597656 "/>
</g>
<g clip-path="url(#clip19)" clip-rule="nonzero">
<path style="fill:none;stroke-width:1.066978;stroke-linecap:butt;stroke-linejoin:round;stroke:rgb(100%,100%,100%);stroke-opacity:1;stroke-miterlimit:10;" d="M 316.839844 397.570312 L 316.839844 23.597656 "/>
</g>
<g clip-path="url(#clip20)" clip-rule="nonzero">
<path style="fill:none;stroke-width:1.066978;stroke-linecap:butt;stroke-linejoin:round;stroke:rgb(100%,100%,100%);stroke-opacity:1;stroke-miterlimit:10;" d="M 396.257812 397.570312 L 396.257812 23.597656 "/>
</g>
<g clip-path="url(#clip21)" clip-rule="nonzero">
<path style="fill:none;stroke-width:1.066978;stroke-linecap:butt;stroke-linejoin:round;stroke:rgb(100%,100%,100%);stroke-opacity:1;stroke-miterlimit:10;" d="M 475.671875 397.570312 L 475.671875 23.597656 "/>
</g>
<path style="fill-rule:nonzero;fill:rgb(97.254902%,46.27451%,42.745098%);fill-opacity:0.501961;stroke-width:1.066978;stroke-linecap:round;stroke-linejoin:round;stroke:rgb(100%,100%,100%);stroke-opacity:1;stroke-miterlimit:10;" d="M 63.792969 380.570312 L 214.214844 380.570312 L 215.039062 380.566406 L 216.679688 380.566406 L 217.503906 380.5625 L 218.324219 380.558594 L 219.148438 380.554688 L 219.96875 380.550781 L 220.792969 380.542969 L 221.613281 380.535156 L 222.433594 380.523438 L 223.257812 380.507812 L 224.078125 380.492188 L 224.902344 380.46875 L 225.722656 380.4375 L 226.546875 380.402344 L 227.367188 380.359375 L 228.1875 380.308594 L 229.011719 380.242188 L 229.832031 380.167969 L 230.65625 380.074219 L 231.476562 379.964844 L 232.300781 379.839844 L 233.121094 379.691406 L 233.941406 379.523438 L 234.765625 379.332031 L 235.585938 379.109375 L 236.410156 378.855469 L 237.230469 378.574219 L 238.054688 378.257812 L 238.875 377.910156 L 239.695312 377.527344 L 240.519531 377.109375 L 241.339844 376.644531 L 242.164062 376.144531 L 242.984375 375.609375 L 243.808594 375.03125 L 244.628906 374.417969 L 245.449219 373.769531 L 246.273438 373.078125 L 247.09375 372.34375 L 247.917969 371.574219 L 248.738281 370.769531 L 249.5625 369.925781 L 250.382812 369.046875 L 251.203125 368.132812 L 252.027344 367.171875 L 252.847656 366.171875 L 253.671875 365.125 L 254.492188 364.035156 L 255.316406 362.898438 L 256.136719 361.707031 L 256.957031 360.464844 L 257.78125 359.148438 L 258.601562 357.757812 L 259.425781 356.296875 L 260.246094 354.757812 L 261.070312 353.128906 L 261.890625 351.410156 L 262.710938 349.589844 L 263.535156 347.648438 L 264.355469 345.59375 L 265.179688 343.425781 L 266 341.140625 L 266.824219 338.742188 L 267.644531 336.222656 L 268.464844 333.582031 L 269.289062 330.808594 L 270.109375 327.929688 L 270.933594 324.945312 L 271.753906 321.871094 L 272.578125 318.703125 L 273.398438 315.460938 L 274.21875 312.144531 L 275.042969 308.769531 L 275.863281 305.351562 L 276.6875 301.898438 L 277.507812 298.425781 L 278.332031 294.9375 L 279.152344 291.445312 L 279.972656 287.964844 L 280.796875 284.496094 L 281.617188 281.046875 L 282.441406 277.625 L 283.261719 274.234375 L 284.085938 270.871094 L 284.90625 267.542969 L 285.726562 264.25 L 286.550781 260.992188 L 287.371094 257.761719 L 288.195312 254.554688 L 289.015625 251.371094 L 289.839844 248.203125 L 290.660156 245.042969 L 291.480469 241.890625 L 292.304688 238.730469 L 293.125 235.566406 L 293.949219 232.386719 L 294.769531 229.191406 L 295.59375 225.976562 L 296.414062 222.738281 L 297.234375 219.480469 L 298.058594 216.210938 L 298.878906 212.933594 L 299.703125 209.660156 L 300.523438 206.398438 L 301.347656 203.167969 L 302.167969 199.988281 L 302.988281 196.878906 L 303.8125 193.855469 L 304.632812 190.9375 L 305.457031 188.140625 L 306.277344 185.480469 L 307.101562 182.972656 L 307.921875 180.667969 L 308.742188 178.539062 L 309.566406 176.59375 L 310.386719 174.824219 L 311.210938 173.226562 L 312.03125 171.800781 L 312.855469 170.53125 L 313.675781 169.421875 L 314.496094 168.421875 L 315.320312 167.515625 L 316.140625 166.675781 L 316.964844 165.878906 L 317.785156 165.109375 L 318.609375 164.339844 L 319.429688 163.546875 L 320.25 162.714844 L 321.074219 161.832031 L 321.894531 160.890625 L 322.71875 159.878906 L 323.539062 158.804688 L 324.363281 157.648438 L 325.183594 156.425781 L 326.003906 155.152344 L 326.828125 153.832031 L 327.648438 152.480469 L 328.472656 151.105469 L 329.292969 149.722656 L 330.117188 148.347656 L 330.9375 147 L 331.757812 145.691406 L 332.582031 144.441406 L 333.402344 143.257812 L 334.226562 142.164062 L 335.046875 141.171875 L 335.871094 140.320312 L 336.691406 139.613281 L 337.511719 139.058594 L 338.335938 138.683594 L 339.15625 138.5 L 339.980469 138.523438 L 340.800781 138.792969 L 341.625 139.34375 L 342.445312 140.152344 L 343.265625 141.238281 L 344.089844 142.605469 L 344.910156 144.257812 L 345.734375 146.207031 L 346.554688 148.480469 L 347.378906 151.050781 L 348.199219 153.886719 L 349.019531 156.96875 L 349.84375 160.273438 L 350.664062 163.773438 L 351.488281 167.445312 L 352.308594 171.265625 L 353.132812 175.171875 L 353.953125 179.121094 L 354.773438 183.082031 L 355.597656 187.011719 L 356.417969 190.878906 L 357.242188 194.644531 L 358.0625 198.257812 L 358.886719 201.710938 L 359.707031 204.988281 L 360.527344 208.078125 L 361.351562 210.972656 L 362.171875 213.671875 L 362.996094 216.167969 L 363.816406 218.460938 L 364.640625 220.601562 L 365.460938 222.609375 L 366.28125 224.507812 L 367.105469 226.320312 L 367.925781 228.085938 L 368.75 229.824219 L 369.570312 231.589844 L 370.394531 233.402344 L 371.214844 235.289062 L 372.035156 237.269531 L 372.859375 239.367188 L 373.679688 241.597656 L 374.503906 243.996094 L 375.324219 246.542969 L 376.148438 249.234375 L 376.96875 252.066406 L 377.789062 255.023438 L 378.613281 258.09375 L 379.433594 261.261719 L 380.257812 264.515625 L 381.078125 267.8125 L 381.902344 271.128906 L 382.722656 274.441406 L 383.542969 277.726562 L 384.367188 280.964844 L 385.1875 284.128906 L 386.011719 287.1875 L 386.832031 290.132812 L 387.65625 292.957031 L 388.476562 295.652344 L 389.296875 298.210938 L 390.121094 300.625 L 390.941406 302.878906 L 391.765625 304.980469 L 392.585938 306.945312 L 393.410156 308.78125 L 394.230469 310.496094 L 395.050781 312.101562 L 395.875 313.601562 L 396.695312 314.992188 L 397.519531 316.304688 L 398.339844 317.550781 L 399.164062 318.738281 L 399.984375 319.875 L 400.804688 320.972656 L 401.628906 322.039062 L 402.449219 323.074219 L 403.273438 324.09375 L 404.09375 325.101562 L 404.917969 326.101562 L 405.738281 327.097656 L 406.558594 328.089844 L 407.382812 329.085938 L 408.203125 330.085938 L 409.027344 331.09375 L 409.847656 332.109375 L 410.671875 333.136719 L 411.492188 334.175781 L 412.3125 335.230469 L 413.136719 336.296875 L 413.957031 337.386719 L 414.78125 338.492188 L 415.601562 339.613281 L 416.425781 340.753906 L 417.246094 341.910156 L 418.066406 343.085938 L 418.890625 344.28125 L 419.710938 345.488281 L 420.535156 346.707031 L 421.355469 347.933594 L 422.175781 349.167969 L 423 350.402344 L 423.820312 351.640625 L 424.644531 352.871094 L 425.464844 354.097656 L 426.289062 355.308594 L 427.109375 356.503906 L 427.929688 357.683594 L 428.753906 358.84375 L 429.574219 359.972656 L 430.398438 361.070312 L 431.21875 362.140625 L 432.042969 363.171875 L 432.863281 364.167969 L 433.683594 365.125 L 434.507812 366.042969 L 435.328125 366.914062 L 436.152344 367.730469 L 436.972656 368.503906 L 437.796875 369.230469 L 438.617188 369.910156 L 439.4375 370.539062 L 440.261719 371.121094 L 441.082031 371.644531 L 441.90625 372.117188 L 442.726562 372.546875 L 443.550781 372.929688 L 444.371094 373.269531 L 445.191406 373.566406 L 446.015625 373.824219 L 446.835938 374.039062 L 447.660156 374.222656 L 448.480469 374.378906 L 449.304688 374.507812 L 450.125 374.617188 L 450.945312 374.707031 L 451.769531 374.78125 L 452.589844 374.847656 L 453.414062 374.90625 L 454.234375 374.960938 L 455.058594 375.019531 L 455.878906 375.082031 L 456.699219 375.152344 L 457.523438 375.234375 L 458.34375 375.324219 L 459.167969 375.429688 L 459.988281 375.546875 L 460.8125 375.675781 L 461.632812 375.820312 L 462.453125 375.972656 L 463.277344 376.140625 L 464.097656 376.320312 L 464.921875 376.503906 L 465.742188 376.691406 L 466.566406 376.886719 L 467.386719 377.078125 L 468.207031 377.265625 L 469.03125 377.453125 L 469.851562 377.628906 L 470.675781 377.796875 L 471.496094 377.953125 L 472.320312 378.097656 L 473.140625 378.230469 L 473.960938 378.351562 L 474.785156 378.453125 L 475.605469 378.546875 L 476.429688 378.625 L 477.25 378.695312 L 478.074219 378.753906 L 478.894531 378.804688 L 479.714844 378.851562 L 480.539062 378.890625 L 481.359375 378.929688 L 482.183594 378.96875 L 483.003906 379.007812 L 483.828125 379.046875 L 483.828125 380.570312 Z M 63.792969 380.570312 "/>
<path style="fill-rule:nonzero;fill:rgb(72.941176%,53.333333%,50.980392%);fill-opacity:0.501961;stroke-width:1.066978;stroke-linecap:round;stroke-linejoin:round;stroke:rgb(100%,100%,100%);stroke-opacity:1;stroke-miterlimit:10;" d="M 63.792969 380.570312 L 196.953125 380.570312 L 197.777344 380.566406 L 199.417969 380.566406 L 200.242188 380.5625 L 201.0625 380.5625 L 201.886719 380.558594 L 202.707031 380.554688 L 203.53125 380.550781 L 205.171875 380.535156 L 205.996094 380.527344 L 206.816406 380.515625 L 207.640625 380.5 L 208.460938 380.484375 L 209.285156 380.460938 L 210.105469 380.433594 L 210.925781 380.398438 L 211.75 380.355469 L 212.570312 380.304688 L 213.394531 380.246094 L 214.214844 380.171875 L 215.039062 380.085938 L 215.859375 379.984375 L 216.679688 379.863281 L 217.503906 379.71875 L 218.324219 379.550781 L 219.148438 379.359375 L 219.96875 379.140625 L 220.792969 378.882812 L 221.613281 378.585938 L 222.433594 378.25 L 223.257812 377.871094 L 224.078125 377.449219 L 224.902344 376.976562 L 225.722656 376.441406 L 226.546875 375.847656 L 227.367188 375.195312 L 228.1875 374.488281 L 229.011719 373.71875 L 229.832031 372.875 L 230.65625 371.960938 L 231.476562 370.984375 L 232.300781 369.949219 L 233.121094 368.851562 L 233.941406 367.695312 L 234.765625 366.472656 L 235.585938 365.199219 L 236.410156 363.882812 L 237.230469 362.523438 L 238.054688 361.132812 L 238.875 359.707031 L 239.695312 358.261719 L 240.519531 356.808594 L 241.339844 355.347656 L 242.164062 353.886719 L 242.984375 352.433594 L 243.808594 351 L 244.628906 349.585938 L 245.449219 348.195312 L 246.273438 346.835938 L 247.09375 345.503906 L 247.917969 344.21875 L 248.738281 342.960938 L 249.5625 341.734375 L 250.382812 340.539062 L 251.203125 339.367188 L 252.027344 338.21875 L 252.847656 337.082031 L 253.671875 335.949219 L 254.492188 334.808594 L 255.316406 333.660156 L 256.136719 332.488281 L 256.957031 331.277344 L 257.78125 330.019531 L 258.601562 328.707031 L 259.425781 327.332031 L 260.246094 325.890625 L 261.070312 324.347656 L 261.890625 322.710938 L 262.710938 320.976562 L 263.535156 319.144531 L 264.355469 317.207031 L 265.179688 315.148438 L 266 312.960938 L 266.824219 310.660156 L 267.644531 308.246094 L 268.464844 305.71875 L 269.289062 303.082031 L 270.109375 300.308594 L 270.933594 297.429688 L 271.753906 294.445312 L 272.578125 291.359375 L 273.398438 288.175781 L 274.21875 284.886719 L 275.042969 281.488281 L 275.863281 278.003906 L 276.6875 274.429688 L 277.507812 270.773438 L 278.332031 267.027344 L 279.152344 263.171875 L 279.972656 259.238281 L 280.796875 255.222656 L 281.617188 251.121094 L 282.441406 246.945312 L 283.261719 242.671875 L 284.085938 238.3125 L 284.90625 233.882812 L 285.726562 229.378906 L 286.550781 224.804688 L 287.371094 220.164062 L 288.195312 215.453125 L 289.015625 210.695312 L 289.839844 205.894531 L 290.660156 201.058594 L 291.480469 196.195312 L 292.304688 191.316406 L 293.125 186.4375 L 293.949219 181.570312 L 294.769531 176.722656 L 295.59375 171.90625 L 296.414062 167.144531 L 297.234375 162.449219 L 298.058594 157.828125 L 298.878906 153.292969 L 299.703125 148.847656 L 300.523438 144.503906 L 301.347656 140.308594 L 302.167969 136.238281 L 302.988281 132.300781 L 303.8125 128.503906 L 304.632812 124.851562 L 305.457031 121.375 L 306.277344 118.074219 L 307.101562 114.941406 L 307.921875 111.976562 L 308.742188 109.1875 L 309.566406 106.578125 L 310.386719 104.203125 L 311.210938 102.015625 L 312.03125 100.023438 L 312.855469 98.234375 L 313.675781 96.652344 L 314.496094 95.335938 L 315.320312 94.257812 L 316.140625 93.417969 L 316.964844 92.824219 L 317.785156 92.476562 L 318.609375 92.414062 L 319.429688 92.675781 L 320.25 93.214844 L 321.074219 94.042969 L 321.894531 95.160156 L 322.71875 96.570312 L 323.539062 98.359375 L 324.363281 100.457031 L 325.183594 102.855469 L 326.003906 105.546875 L 326.828125 108.527344 L 327.648438 111.824219 L 328.472656 115.429688 L 329.292969 119.289062 L 330.117188 123.382812 L 330.9375 127.699219 L 331.757812 132.21875 L 332.582031 136.964844 L 333.402344 141.859375 L 334.226562 146.882812 L 335.046875 152.011719 L 335.871094 157.226562 L 336.691406 162.507812 L 337.511719 167.820312 L 338.335938 173.144531 L 339.15625 178.457031 L 339.980469 183.738281 L 340.800781 188.972656 L 341.625 194.128906 L 342.445312 199.203125 L 343.265625 204.1875 L 344.089844 209.074219 L 344.910156 213.851562 L 345.734375 218.492188 L 346.554688 223 L 347.378906 227.390625 L 348.199219 231.65625 L 349.019531 235.792969 L 349.84375 239.796875 L 350.664062 243.652344 L 351.488281 247.382812 L 352.308594 250.992188 L 353.132812 254.484375 L 353.953125 257.855469 L 354.773438 261.078125 L 355.597656 264.183594 L 356.417969 267.175781 L 357.242188 270.050781 L 358.0625 272.816406 L 358.886719 275.453125 L 359.707031 277.960938 L 360.527344 280.355469 L 361.351562 282.636719 L 362.171875 284.800781 L 362.996094 286.851562 L 363.816406 288.753906 L 364.640625 290.535156 L 365.460938 292.203125 L 366.28125 293.75 L 367.105469 295.175781 L 367.925781 296.460938 L 368.75 297.613281 L 369.570312 298.648438 L 370.394531 299.566406 L 371.214844 300.367188 L 372.035156 301.046875 L 372.859375 301.59375 L 373.679688 302.039062 L 374.503906 302.390625 L 375.324219 302.648438 L 376.148438 302.824219 L 376.96875 302.910156 L 377.789062 302.933594 L 378.613281 302.910156 L 379.433594 302.851562 L 380.257812 302.769531 L 381.078125 302.675781 L 381.902344 302.59375 L 382.722656 302.535156 L 383.542969 302.519531 L 384.367188 302.554688 L 385.1875 302.65625 L 386.011719 302.867188 L 386.832031 303.175781 L 387.65625 303.597656 L 388.476562 304.136719 L 389.296875 304.804688 L 390.121094 305.628906 L 390.941406 306.613281 L 391.765625 307.742188 L 392.585938 309.015625 L 393.410156 310.433594 L 394.230469 312 L 395.050781 313.738281 L 395.875 315.601562 L 396.695312 317.582031 L 397.519531 319.675781 L 398.339844 321.871094 L 399.164062 324.167969 L 399.984375 326.539062 L 400.804688 328.96875 L 401.628906 331.4375 L 402.449219 333.9375 L 403.273438 336.453125 L 404.09375 338.964844 L 404.917969 341.460938 L 405.738281 343.925781 L 406.558594 346.351562 L 407.382812 348.726562 L 408.203125 351.027344 L 409.027344 353.25 L 409.847656 355.394531 L 410.671875 357.453125 L 411.492188 359.417969 L 412.3125 361.28125 L 413.136719 363.027344 L 413.957031 364.675781 L 414.78125 366.226562 L 415.601562 367.675781 L 416.425781 369.023438 L 417.246094 370.246094 L 418.066406 371.378906 L 418.890625 372.421875 L 419.710938 373.375 L 420.535156 374.246094 L 421.355469 375.019531 L 422.175781 375.71875 L 423 376.34375 L 423.820312 376.90625 L 424.644531 377.410156 L 425.464844 377.855469 L 426.289062 378.238281 L 427.109375 378.578125 L 427.929688 378.875 L 428.753906 379.136719 L 429.574219 379.363281 L 430.398438 379.554688 L 431.21875 379.71875 L 432.042969 379.863281 L 432.863281 379.984375 L 433.683594 380.085938 L 434.507812 380.171875 L 435.328125 380.242188 L 436.152344 380.304688 L 436.972656 380.351562 L 437.796875 380.394531 L 438.617188 380.429688 L 439.4375 380.457031 L 440.261719 380.480469 L 441.082031 380.5 L 441.90625 380.511719 L 442.726562 380.527344 L 443.550781 380.535156 L 445.191406 380.550781 L 446.015625 380.554688 L 446.835938 380.558594 L 447.660156 380.5625 L 448.480469 380.5625 L 449.304688 380.566406 L 451.769531 380.566406 L 452.589844 380.570312 L 483.828125 380.570312 Z M 63.792969 380.570312 "/>
<path style="fill-rule:nonzero;fill:rgb(48.627451%,60.392157%,59.607843%);fill-opacity:0.501961;stroke-width:1.066978;stroke-linecap:round;stroke-linejoin:round;stroke:rgb(100%,100%,100%);stroke-opacity:1;stroke-miterlimit:10;" d="M 63.792969 380.570312 L 148.457031 380.570312 L 149.277344 380.566406 L 150.921875 380.566406 L 151.746094 380.5625 L 152.566406 380.5625 L 153.390625 380.558594 L 154.210938 380.550781 L 155.03125 380.546875 L 155.855469 380.535156 L 156.675781 380.523438 L 157.5 380.507812 L 158.320312 380.488281 L 159.144531 380.460938 L 159.964844 380.425781 L 160.785156 380.382812 L 161.609375 380.328125 L 162.429688 380.257812 L 163.253906 380.167969 L 164.074219 380.0625 L 164.898438 379.925781 L 165.71875 379.757812 L 166.539062 379.554688 L 167.363281 379.3125 L 168.183594 379.027344 L 169.007812 378.6875 L 169.828125 378.28125 L 170.652344 377.804688 L 171.472656 377.25 L 172.292969 376.617188 L 173.117188 375.898438 L 173.9375 375.085938 L 174.761719 374.171875 L 175.582031 373.136719 L 176.40625 371.992188 L 177.226562 370.746094 L 178.046875 369.394531 L 178.871094 367.9375 L 179.691406 366.382812 L 180.515625 364.722656 L 181.335938 362.980469 L 182.15625 361.175781 L 182.980469 359.320312 L 183.800781 357.433594 L 184.625 355.527344 L 185.445312 353.628906 L 186.269531 351.765625 L 187.089844 349.960938 L 187.910156 348.226562 L 188.734375 346.59375 L 189.554688 345.070312 L 190.378906 343.691406 L 191.199219 342.488281 L 192.023438 341.453125 L 192.84375 340.59375 L 193.664062 339.910156 L 194.488281 339.402344 L 195.308594 339.074219 L 196.132812 338.941406 L 196.953125 338.96875 L 197.777344 339.132812 L 198.597656 339.410156 L 199.417969 339.785156 L 200.242188 340.238281 L 201.0625 340.738281 L 201.886719 341.257812 L 202.707031 341.765625 L 203.53125 342.234375 L 204.351562 342.644531 L 205.171875 342.976562 L 205.996094 343.203125 L 206.816406 343.289062 L 207.640625 343.242188 L 208.460938 343.054688 L 209.285156 342.71875 L 210.105469 342.234375 L 210.925781 341.601562 L 211.75 340.792969 L 212.570312 339.835938 L 213.394531 338.738281 L 214.214844 337.507812 L 215.039062 336.152344 L 215.859375 334.667969 L 216.679688 333.046875 L 217.503906 331.289062 L 218.324219 329.398438 L 219.148438 327.375 L 219.96875 325.203125 L 220.792969 322.871094 L 221.613281 320.359375 L 222.433594 317.605469 L 223.257812 314.628906 L 224.078125 311.402344 L 224.902344 307.902344 L 225.722656 304.109375 L 226.546875 300 L 227.367188 295.496094 L 228.1875 290.609375 L 229.011719 285.351562 L 229.832031 279.714844 L 230.65625 273.703125 L 231.476562 267.316406 L 232.300781 260.535156 L 233.121094 253.359375 L 233.941406 245.867188 L 234.765625 238.085938 L 235.585938 230.054688 L 236.410156 221.804688 L 237.230469 213.375 L 238.054688 204.796875 L 238.875 196.152344 L 239.695312 187.484375 L 240.519531 178.839844 L 241.339844 170.253906 L 242.164062 161.773438 L 242.984375 153.453125 L 243.808594 145.339844 L 244.628906 137.4375 L 245.449219 129.773438 L 246.273438 122.363281 L 247.09375 115.222656 L 247.917969 108.386719 L 248.738281 101.886719 L 249.5625 95.6875 L 250.382812 89.785156 L 251.203125 84.183594 L 252.027344 78.886719 L 252.847656 73.890625 L 253.671875 69.269531 L 254.492188 64.960938 L 255.316406 60.964844 L 256.136719 57.292969 L 256.957031 53.949219 L 257.78125 50.941406 L 258.601562 48.324219 L 259.425781 46.101562 L 260.246094 44.246094 L 261.070312 42.761719 L 261.890625 41.65625 L 262.710938 40.929688 L 263.535156 40.597656 L 264.355469 40.703125 L 265.179688 41.160156 L 266 41.960938 L 266.824219 43.085938 L 267.644531 44.507812 L 268.464844 46.210938 L 269.289062 48.207031 L 270.109375 50.421875 L 270.933594 52.824219 L 271.753906 55.382812 L 272.578125 58.078125 L 273.398438 60.894531 L 274.21875 63.816406 L 275.042969 66.832031 L 275.863281 69.921875 L 276.6875 73.082031 L 277.507812 76.3125 L 278.332031 79.613281 L 279.152344 82.996094 L 279.972656 86.480469 L 280.796875 90.0625 L 281.617188 93.746094 L 282.441406 97.539062 L 283.261719 101.445312 L 284.085938 105.472656 L 284.90625 109.636719 L 285.726562 113.929688 L 286.550781 118.335938 L 287.371094 122.847656 L 288.195312 127.46875 L 289.015625 132.1875 L 289.839844 137.003906 L 290.660156 141.917969 L 291.480469 146.910156 L 292.304688 151.980469 L 293.125 157.128906 L 293.949219 162.351562 L 294.769531 167.660156 L 295.59375 173.074219 L 296.414062 178.585938 L 297.234375 184.199219 L 298.058594 189.929688 L 298.878906 195.773438 L 299.703125 201.746094 L 300.523438 207.867188 L 301.347656 214.132812 L 302.167969 220.527344 L 302.988281 227.046875 L 303.8125 233.679688 L 304.632812 240.414062 L 305.457031 247.242188 L 306.277344 254.136719 L 307.101562 261.0625 L 307.921875 267.996094 L 308.742188 274.902344 L 309.566406 281.753906 L 310.386719 288.523438 L 311.210938 295.136719 L 312.03125 301.589844 L 312.855469 307.847656 L 313.675781 313.886719 L 314.496094 319.679688 L 315.320312 325.207031 L 316.140625 330.394531 L 316.964844 335.246094 L 317.785156 339.769531 L 318.609375 343.957031 L 319.429688 347.804688 L 320.25 351.308594 L 321.074219 354.445312 L 321.894531 357.191406 L 322.71875 359.609375 L 323.539062 361.710938 L 324.363281 363.507812 L 325.183594 365.015625 L 326.003906 366.25 L 326.828125 367.179688 L 327.648438 367.878906 L 328.472656 368.375 L 329.292969 368.691406 L 330.117188 368.84375 L 330.9375 368.863281 L 331.757812 368.75 L 332.582031 368.546875 L 333.402344 368.285156 L 334.226562 367.984375 L 335.046875 367.664062 L 335.871094 367.339844 L 336.691406 367.035156 L 337.511719 366.773438 L 338.335938 366.566406 L 339.15625 366.417969 L 339.980469 366.34375 L 340.800781 366.347656 L 341.625 366.429688 L 342.445312 366.613281 L 343.265625 366.882812 L 344.089844 367.230469 L 344.910156 367.652344 L 345.734375 368.144531 L 346.554688 368.699219 L 347.378906 369.308594 L 348.199219 369.964844 L 349.019531 370.648438 L 349.84375 371.347656 L 350.664062 372.058594 L 351.488281 372.773438 L 352.308594 373.476562 L 353.132812 374.160156 L 353.953125 374.816406 L 354.773438 375.441406 L 355.597656 376.03125 L 356.417969 376.582031 L 357.242188 377.09375 L 358.0625 377.558594 L 358.886719 377.972656 L 359.707031 378.351562 L 360.527344 378.6875 L 361.351562 378.984375 L 362.171875 379.246094 L 362.996094 379.46875 L 363.816406 379.660156 L 364.640625 379.824219 L 365.460938 379.960938 L 366.28125 380.078125 L 367.105469 380.179688 L 367.925781 380.257812 L 368.75 380.324219 L 369.570312 380.375 L 370.394531 380.417969 L 371.214844 380.453125 L 372.035156 380.480469 L 372.859375 380.5 L 373.679688 380.519531 L 374.503906 380.53125 L 375.324219 380.539062 L 376.148438 380.546875 L 376.96875 380.554688 L 377.789062 380.558594 L 378.613281 380.5625 L 379.433594 380.5625 L 380.257812 380.566406 L 381.078125 380.566406 L 381.902344 380.570312 L 483.828125 380.570312 Z M 63.792969 380.570312 "/>
<path style="fill-rule:nonzero;fill:rgb(24.313725%,67.45098%,68.235294%);fill-opacity:0.501961;stroke-width:1.066978;stroke-linecap:round;stroke-linejoin:round;stroke:rgb(100%,100%,100%);stroke-opacity:1;stroke-miterlimit:10;" d="M 63.792969 380.160156 L 64.613281 380.109375 L 65.4375 380.054688 L 66.257812 379.996094 L 67.082031 379.929688 L 68.722656 379.78125 L 69.546875 379.695312 L 70.367188 379.601562 L 71.191406 379.5 L 72.011719 379.390625 L 72.835938 379.273438 L 73.65625 379.148438 L 74.476562 379.011719 L 75.300781 378.867188 L 76.121094 378.710938 L 76.945312 378.542969 L 77.765625 378.367188 L 78.589844 378.179688 L 79.410156 377.976562 L 80.230469 377.765625 L 81.054688 377.539062 L 81.875 377.304688 L 82.699219 377.054688 L 83.519531 376.792969 L 84.34375 376.515625 L 85.164062 376.230469 L 85.984375 375.925781 L 86.808594 375.609375 L 87.628906 375.285156 L 88.453125 374.941406 L 89.273438 374.585938 L 90.097656 374.214844 L 90.917969 373.835938 L 91.738281 373.4375 L 92.5625 373.027344 L 93.382812 372.605469 L 94.207031 372.167969 L 95.027344 371.71875 L 95.851562 371.25 L 96.671875 370.773438 L 97.492188 370.28125 L 98.316406 369.773438 L 99.136719 369.25 L 99.960938 368.714844 L 100.78125 368.167969 L 101.605469 367.601562 L 102.425781 367.015625 L 103.246094 366.417969 L 104.070312 365.808594 L 104.890625 365.175781 L 105.714844 364.523438 L 106.535156 363.859375 L 107.359375 363.175781 L 108.179688 362.46875 L 109 361.742188 L 109.824219 361 L 110.644531 360.234375 L 111.46875 359.445312 L 112.289062 358.632812 L 113.113281 357.800781 L 113.933594 356.945312 L 114.753906 356.0625 L 115.578125 355.15625 L 116.398438 354.230469 L 117.222656 353.277344 L 118.042969 352.292969 L 118.867188 351.289062 L 119.6875 350.261719 L 120.507812 349.207031 L 121.332031 348.121094 L 122.152344 347.015625 L 122.976562 345.890625 L 123.796875 344.734375 L 124.621094 343.550781 L 125.441406 342.347656 L 126.261719 341.125 L 127.085938 339.875 L 127.90625 338.601562 L 128.730469 337.308594 L 129.550781 335.996094 L 130.375 334.65625 L 131.195312 333.296875 L 132.015625 331.921875 L 132.839844 330.523438 L 133.660156 329.101562 L 134.484375 327.664062 L 135.304688 326.203125 L 136.128906 324.726562 L 136.949219 323.222656 L 137.769531 321.699219 L 138.59375 320.15625 L 139.414062 318.59375 L 140.238281 317.003906 L 141.058594 315.386719 L 141.882812 313.753906 L 142.703125 312.09375 L 143.523438 310.402344 L 144.347656 308.6875 L 145.167969 306.945312 L 145.992188 305.175781 L 146.8125 303.371094 L 147.636719 301.539062 L 148.457031 299.679688 L 149.277344 297.792969 L 150.101562 295.867188 L 150.921875 293.914062 L 151.746094 291.933594 L 152.566406 289.921875 L 153.390625 287.875 L 154.210938 285.808594 L 155.03125 283.714844 L 155.855469 281.597656 L 156.675781 279.453125 L 157.5 277.292969 L 158.320312 275.117188 L 159.144531 272.921875 L 159.964844 270.722656 L 160.785156 268.511719 L 161.609375 266.300781 L 162.429688 264.089844 L 163.253906 261.882812 L 164.074219 259.683594 L 164.898438 257.5 L 165.71875 255.335938 L 166.539062 253.195312 L 167.363281 251.082031 L 168.183594 248.992188 L 169.007812 246.949219 L 169.828125 244.945312 L 170.652344 242.980469 L 171.472656 241.0625 L 172.292969 239.207031 L 173.117188 237.402344 L 173.9375 235.652344 L 174.761719 233.953125 L 175.582031 232.339844 L 176.40625 230.78125 L 177.226562 229.28125 L 178.046875 227.847656 L 178.871094 226.5 L 179.691406 225.210938 L 180.515625 223.980469 L 181.335938 222.824219 L 182.15625 221.746094 L 182.980469 220.722656 L 183.800781 219.757812 L 184.625 218.863281 L 185.445312 218.03125 L 186.269531 217.253906 L 187.089844 216.523438 L 187.910156 215.855469 L 188.734375 215.238281 L 189.554688 214.660156 L 190.378906 214.117188 L 191.199219 213.625 L 192.023438 213.167969 L 192.84375 212.738281 L 193.664062 212.335938 L 194.488281 211.960938 L 195.308594 211.605469 L 196.132812 211.265625 L 196.953125 210.941406 L 197.777344 210.628906 L 198.597656 210.320312 L 199.417969 210.015625 L 200.242188 209.714844 L 201.0625 209.410156 L 201.886719 209.097656 L 202.707031 208.78125 L 203.53125 208.457031 L 204.351562 208.113281 L 205.171875 207.761719 L 205.996094 207.394531 L 206.816406 207.011719 L 207.640625 206.609375 L 208.460938 206.1875 L 209.285156 205.753906 L 210.105469 205.296875 L 210.925781 204.824219 L 211.75 204.332031 L 212.570312 203.828125 L 213.394531 203.308594 L 214.214844 202.777344 L 215.039062 202.238281 L 215.859375 201.691406 L 216.679688 201.140625 L 217.503906 200.59375 L 218.324219 200.050781 L 219.148438 199.515625 L 219.96875 198.996094 L 220.792969 198.496094 L 221.613281 198.023438 L 222.433594 197.574219 L 223.257812 197.167969 L 224.078125 196.808594 L 224.902344 196.492188 L 225.722656 196.226562 L 226.546875 196.035156 L 227.367188 195.914062 L 228.1875 195.855469 L 229.011719 195.867188 L 229.832031 195.996094 L 230.65625 196.210938 L 231.476562 196.507812 L 232.300781 196.898438 L 233.121094 197.429688 L 233.941406 198.054688 L 234.765625 198.78125 L 235.585938 199.625 L 236.410156 200.613281 L 237.230469 201.703125 L 238.054688 202.902344 L 238.875 204.226562 L 239.695312 205.691406 L 240.519531 207.257812 L 241.339844 208.925781 L 242.164062 210.71875 L 242.984375 212.632812 L 243.808594 214.636719 L 244.628906 216.726562 L 245.449219 218.921875 L 246.273438 221.214844 L 247.09375 223.574219 L 247.917969 226 L 248.738281 228.5 L 249.5625 231.0625 L 250.382812 233.664062 L 251.203125 236.304688 L 252.027344 238.984375 L 252.847656 241.6875 L 253.671875 244.398438 L 254.492188 247.121094 L 255.316406 249.839844 L 256.136719 252.550781 L 256.957031 255.242188 L 257.78125 257.917969 L 258.601562 260.546875 L 259.425781 263.144531 L 260.246094 265.699219 L 261.070312 268.210938 L 261.890625 270.648438 L 262.710938 273.035156 L 263.535156 275.367188 L 264.355469 277.632812 L 265.179688 279.8125 L 266 281.929688 L 266.824219 283.980469 L 267.644531 285.957031 L 268.464844 287.847656 L 269.289062 289.667969 L 270.109375 291.425781 L 270.933594 293.105469 L 271.753906 294.707031 L 272.578125 296.246094 L 273.398438 297.726562 L 274.21875 299.136719 L 275.042969 300.480469 L 275.863281 301.777344 L 276.6875 303.027344 L 277.507812 304.21875 L 278.332031 305.363281 L 279.152344 306.476562 L 279.972656 307.554688 L 280.796875 308.59375 L 281.617188 309.605469 L 282.441406 310.597656 L 283.261719 311.574219 L 284.085938 312.53125 L 284.90625 313.480469 L 285.726562 314.421875 L 286.550781 315.359375 L 287.371094 316.300781 L 288.195312 317.246094 L 289.015625 318.199219 L 289.839844 319.15625 L 290.660156 320.132812 L 291.480469 321.125 L 292.304688 322.128906 L 293.125 323.152344 L 293.949219 324.199219 L 294.769531 325.265625 L 295.59375 326.351562 L 296.414062 327.457031 L 297.234375 328.59375 L 298.058594 329.746094 L 298.878906 330.917969 L 299.703125 332.113281 L 300.523438 333.328125 L 301.347656 334.5625 L 302.167969 335.8125 L 302.988281 337.078125 L 303.8125 338.359375 L 304.632812 339.652344 L 305.457031 340.949219 L 306.277344 342.257812 L 307.101562 343.570312 L 307.921875 344.882812 L 308.742188 346.199219 L 309.566406 347.507812 L 310.386719 348.8125 L 311.210938 350.105469 L 312.03125 351.394531 L 312.855469 352.664062 L 313.675781 353.917969 L 314.496094 355.152344 L 315.320312 356.371094 L 316.140625 357.5625 L 316.964844 358.726562 L 317.785156 359.871094 L 318.609375 360.988281 L 319.429688 362.0625 L 320.25 363.113281 L 321.074219 364.128906 L 321.894531 365.117188 L 322.71875 366.0625 L 323.539062 366.972656 L 324.363281 367.851562 L 325.183594 368.695312 L 326.003906 369.492188 L 326.828125 370.257812 L 327.648438 370.992188 L 328.472656 371.6875 L 329.292969 372.339844 L 330.117188 372.960938 L 330.9375 373.554688 L 331.757812 374.105469 L 332.582031 374.625 L 333.402344 375.113281 L 334.226562 375.574219 L 335.046875 376 L 335.871094 376.394531 L 336.691406 376.765625 L 337.511719 377.113281 L 338.335938 377.429688 L 339.15625 377.722656 L 339.980469 377.992188 L 340.800781 378.246094 L 341.625 378.472656 L 342.445312 378.683594 L 343.265625 378.875 L 344.089844 379.054688 L 344.910156 379.210938 L 345.734375 379.355469 L 346.554688 379.488281 L 347.378906 379.609375 L 348.199219 379.714844 L 349.019531 379.8125 L 349.84375 379.902344 L 350.664062 379.980469 L 351.488281 380.050781 L 352.308594 380.113281 L 353.132812 380.167969 L 353.953125 380.21875 L 354.773438 380.261719 L 355.597656 380.300781 L 356.417969 380.335938 L 357.242188 380.367188 L 358.0625 380.394531 L 358.886719 380.417969 L 360.527344 380.457031 L 361.351562 380.472656 L 362.171875 380.484375 L 362.996094 380.5 L 363.816406 380.507812 L 364.640625 380.515625 L 366.28125 380.53125 L 367.105469 380.539062 L 367.925781 380.542969 L 368.75 380.546875 L 369.570312 380.550781 L 370.394531 380.554688 L 371.214844 380.554688 L 372.035156 380.558594 L 372.859375 380.5625 L 374.503906 380.5625 L 375.324219 380.566406 L 378.613281 380.566406 L 379.433594 380.570312 L 483.828125 380.570312 L 63.792969 380.570312 Z M 63.792969 380.160156 "/>
<path style="fill-rule:nonzero;fill:rgb(0%,74.901961%,76.862745%);fill-opacity:0.501961;stroke-width:1.066978;stroke-linecap:round;stroke-linejoin:round;stroke:rgb(100%,100%,100%);stroke-opacity:1;stroke-miterlimit:10;" d="M 63.792969 344.425781 L 64.613281 343.566406 L 65.4375 342.722656 L 66.257812 341.886719 L 67.082031 341.058594 L 67.902344 340.234375 L 68.722656 339.417969 L 69.546875 338.597656 L 70.367188 337.773438 L 71.191406 336.941406 L 72.011719 336.097656 L 72.835938 335.238281 L 73.65625 334.363281 L 74.476562 333.457031 L 75.300781 332.523438 L 76.121094 331.558594 L 76.945312 330.5625 L 77.765625 329.523438 L 78.589844 328.433594 L 79.410156 327.296875 L 80.230469 326.117188 L 81.054688 324.890625 L 81.875 323.589844 L 82.699219 322.234375 L 83.519531 320.824219 L 84.34375 319.355469 L 85.164062 317.816406 L 85.984375 316.207031 L 86.808594 314.539062 L 87.628906 312.816406 L 88.453125 311.019531 L 89.273438 309.152344 L 90.097656 307.222656 L 90.917969 305.242188 L 91.738281 303.199219 L 92.5625 301.085938 L 93.382812 298.917969 L 94.207031 296.703125 L 95.027344 294.4375 L 95.851562 292.109375 L 96.671875 289.738281 L 97.492188 287.328125 L 98.316406 284.882812 L 99.136719 282.390625 L 99.960938 279.863281 L 100.78125 277.304688 L 101.605469 274.722656 L 102.425781 272.113281 L 103.246094 269.476562 L 104.070312 266.824219 L 104.890625 264.152344 L 105.714844 261.46875 L 106.535156 258.765625 L 107.359375 256.058594 L 108.179688 253.339844 L 109 250.617188 L 109.824219 247.886719 L 110.644531 245.15625 L 111.46875 242.421875 L 112.289062 239.6875 L 113.113281 236.953125 L 114.753906 231.492188 L 115.578125 228.765625 L 116.398438 226.046875 L 117.222656 223.335938 L 118.042969 220.628906 L 118.867188 217.933594 L 119.6875 215.246094 L 120.507812 212.578125 L 121.332031 209.921875 L 122.152344 207.28125 L 122.976562 204.660156 L 123.796875 202.0625 L 124.621094 199.496094 L 125.441406 196.953125 L 126.261719 194.441406 L 127.085938 191.96875 L 127.90625 189.542969 L 128.730469 187.160156 L 129.550781 184.820312 L 130.375 182.535156 L 131.195312 180.320312 L 132.015625 178.164062 L 132.839844 176.070312 L 133.660156 174.039062 L 134.484375 172.109375 L 135.304688 170.25 L 136.128906 168.46875 L 136.949219 166.765625 L 137.769531 165.171875 L 138.59375 163.671875 L 139.414062 162.257812 L 140.238281 160.929688 L 141.058594 159.707031 L 141.882812 158.597656 L 142.703125 157.574219 L 143.523438 156.636719 L 144.347656 155.800781 L 145.167969 155.078125 L 145.992188 154.441406 L 146.8125 153.886719 L 147.636719 153.417969 L 148.457031 153.066406 L 149.277344 152.792969 L 150.101562 152.597656 L 150.921875 152.480469 L 151.746094 152.460938 L 152.566406 152.527344 L 153.390625 152.667969 L 154.210938 152.882812 L 155.03125 153.1875 L 155.855469 153.589844 L 156.675781 154.066406 L 157.5 154.628906 L 158.320312 155.273438 L 159.144531 156.039062 L 159.964844 156.898438 L 160.785156 157.847656 L 161.609375 158.894531 L 162.429688 160.085938 L 163.253906 161.390625 L 164.074219 162.808594 L 164.898438 164.34375 L 165.71875 166.035156 L 166.539062 167.871094 L 167.363281 169.839844 L 168.183594 171.941406 L 169.007812 174.203125 L 169.828125 176.636719 L 170.652344 179.214844 L 171.472656 181.929688 L 172.292969 184.789062 L 173.117188 187.839844 L 173.9375 191.019531 L 174.761719 194.328125 L 175.582031 197.761719 L 176.40625 201.351562 L 177.226562 205.058594 L 178.046875 208.859375 L 178.871094 212.753906 L 179.691406 216.746094 L 180.515625 220.8125 L 181.335938 224.929688 L 182.15625 229.089844 L 182.980469 233.285156 L 183.800781 237.496094 L 184.625 241.707031 L 185.445312 245.902344 L 186.269531 250.074219 L 187.089844 254.1875 L 187.910156 258.246094 L 188.734375 262.242188 L 189.554688 266.164062 L 190.378906 269.972656 L 191.199219 273.671875 L 192.023438 277.273438 L 192.84375 280.761719 L 193.664062 284.109375 L 194.488281 287.3125 L 195.308594 290.386719 L 196.132812 293.335938 L 196.953125 296.144531 L 197.777344 298.78125 L 198.597656 301.289062 L 199.417969 303.671875 L 200.242188 305.929688 L 201.0625 308.011719 L 201.886719 309.980469 L 202.707031 311.839844 L 203.53125 313.59375 L 204.351562 315.207031 L 205.171875 316.722656 L 205.996094 318.148438 L 206.816406 319.488281 L 207.640625 320.738281 L 208.460938 321.902344 L 209.285156 323.003906 L 210.105469 324.050781 L 210.925781 325.035156 L 211.75 325.960938 L 212.570312 326.847656 L 213.394531 327.695312 L 214.214844 328.507812 L 215.039062 329.28125 L 215.859375 330.03125 L 216.679688 330.757812 L 217.503906 331.46875 L 218.324219 332.152344 L 219.148438 332.816406 L 219.96875 333.46875 L 220.792969 334.105469 L 221.613281 334.730469 L 222.433594 335.335938 L 223.257812 335.929688 L 224.078125 336.511719 L 224.902344 337.082031 L 225.722656 337.632812 L 226.546875 338.167969 L 227.367188 338.691406 L 228.1875 339.203125 L 229.011719 339.691406 L 229.832031 340.160156 L 230.65625 340.617188 L 231.476562 341.058594 L 232.300781 341.480469 L 233.121094 341.882812 L 233.941406 342.273438 L 234.765625 342.644531 L 235.585938 343.003906 L 236.410156 343.34375 L 237.230469 343.675781 L 238.054688 343.992188 L 238.875 344.304688 L 239.695312 344.605469 L 240.519531 344.902344 L 241.339844 345.195312 L 242.164062 345.488281 L 242.984375 345.78125 L 243.808594 346.082031 L 244.628906 346.386719 L 245.449219 346.699219 L 246.273438 347.027344 L 247.09375 347.371094 L 247.917969 347.726562 L 248.738281 348.101562 L 249.5625 348.5 L 250.382812 348.925781 L 251.203125 349.371094 L 252.027344 349.839844 L 252.847656 350.332031 L 253.671875 350.863281 L 254.492188 351.417969 L 255.316406 351.996094 L 256.136719 352.601562 L 256.957031 353.242188 L 257.78125 353.90625 L 258.601562 354.59375 L 259.425781 355.304688 L 260.246094 356.039062 L 261.070312 356.796875 L 261.890625 357.566406 L 262.710938 358.355469 L 263.535156 359.15625 L 264.355469 359.96875 L 265.179688 360.789062 L 266 361.617188 L 266.824219 362.445312 L 268.464844 364.09375 L 269.289062 364.910156 L 270.109375 365.71875 L 270.933594 366.515625 L 271.753906 367.296875 L 272.578125 368.066406 L 273.398438 368.816406 L 274.21875 369.542969 L 275.042969 370.246094 L 275.863281 370.929688 L 276.6875 371.589844 L 277.507812 372.226562 L 278.332031 372.828125 L 279.152344 373.402344 L 279.972656 373.957031 L 280.796875 374.480469 L 281.617188 374.972656 L 282.441406 375.4375 L 283.261719 375.875 L 284.085938 376.289062 L 284.90625 376.671875 L 285.726562 377.03125 L 286.550781 377.363281 L 287.371094 377.671875 L 288.195312 377.960938 L 289.015625 378.21875 L 289.839844 378.460938 L 290.660156 378.683594 L 291.480469 378.886719 L 292.304688 379.070312 L 293.125 379.234375 L 293.949219 379.386719 L 294.769531 379.527344 L 295.59375 379.648438 L 296.414062 379.757812 L 297.234375 379.859375 L 298.058594 379.949219 L 298.878906 380.027344 L 299.703125 380.09375 L 300.523438 380.15625 L 301.347656 380.214844 L 302.167969 380.261719 L 302.988281 380.304688 L 303.8125 380.339844 L 304.632812 380.375 L 305.457031 380.402344 L 306.277344 380.425781 L 307.101562 380.449219 L 307.921875 380.464844 L 308.742188 380.484375 L 309.566406 380.496094 L 310.386719 380.507812 L 311.210938 380.515625 L 312.03125 380.527344 L 312.855469 380.535156 L 314.496094 380.542969 L 315.320312 380.550781 L 316.140625 380.554688 L 316.964844 380.554688 L 317.785156 380.558594 L 318.609375 380.5625 L 320.25 380.5625 L 321.074219 380.566406 L 324.363281 380.566406 L 325.183594 380.570312 L 483.828125 380.570312 L 63.792969 380.570312 Z M 63.792969 344.425781 "/>
<g style="fill:rgb(30.196078%,30.196078%,30.196078%);fill-opacity:1;">
  <use xlink:href="#glyph0-1" x="19.859375" y="383.172852"/>
  <use xlink:href="#glyph0-2" x="24.751953" y="383.172852"/>
  <use xlink:href="#glyph0-1" x="27.198242" y="383.172852"/>
  <use xlink:href="#glyph0-1" x="32.09082" y="383.172852"/>
</g>
<g style="fill:rgb(30.196078%,30.196078%,30.196078%);fill-opacity:1;">
  <use xlink:href="#glyph0-1" x="19.859375" y="295.750977"/>
  <use xlink:href="#glyph0-2" x="24.751953" y="295.750977"/>
  <use xlink:href="#glyph0-1" x="27.198242" y="295.750977"/>
  <use xlink:href="#glyph0-3" x="32.09082" y="295.750977"/>
</g>
<g style="fill:rgb(30.196078%,30.196078%,30.196078%);fill-opacity:1;">
  <use xlink:href="#glyph0-1" x="19.859375" y="208.329102"/>
  <use xlink:href="#glyph0-2" x="24.751953" y="208.329102"/>
  <use xlink:href="#glyph0-1" x="27.198242" y="208.329102"/>
  <use xlink:href="#glyph0-4" x="32.09082" y="208.329102"/>
</g>
<g style="fill:rgb(30.196078%,30.196078%,30.196078%);fill-opacity:1;">
  <use xlink:href="#glyph0-1" x="19.859375" y="120.907227"/>
  <use xlink:href="#glyph0-2" x="24.751953" y="120.907227"/>
  <use xlink:href="#glyph0-1" x="27.198242" y="120.907227"/>
  <use xlink:href="#glyph0-5" x="32.09082" y="120.907227"/>
</g>
<g style="fill:rgb(30.196078%,30.196078%,30.196078%);fill-opacity:1;">
  <use xlink:href="#glyph0-1" x="19.859375" y="33.485352"/>
  <use xlink:href="#glyph0-2" x="24.751953" y="33.485352"/>
  <use xlink:href="#glyph0-6" x="27.198242" y="33.485352"/>
  <use xlink:href="#glyph0-7" x="32.09082" y="33.485352"/>
</g>
<path style="fill:none;stroke-width:1.066978;stroke-linecap:butt;stroke-linejoin:round;stroke:rgb(20%,20%,20%);stroke-opacity:1;stroke-miterlimit:10;" d="M 40.050781 380.570312 L 42.789062 380.570312 "/>
<path style="fill:none;stroke-width:1.066978;stroke-linecap:butt;stroke-linejoin:round;stroke:rgb(20%,20%,20%);stroke-opacity:1;stroke-miterlimit:10;" d="M 40.050781 293.148438 L 42.789062 293.148438 "/>
<path style="fill:none;stroke-width:1.066978;stroke-linecap:butt;stroke-linejoin:round;stroke:rgb(20%,20%,20%);stroke-opacity:1;stroke-miterlimit:10;" d="M 40.050781 205.726562 L 42.789062 205.726562 "/>
<path style="fill:none;stroke-width:1.066978;stroke-linecap:butt;stroke-linejoin:round;stroke:rgb(20%,20%,20%);stroke-opacity:1;stroke-miterlimit:10;" d="M 40.050781 118.304688 L 42.789062 118.304688 "/>
<path style="fill:none;stroke-width:1.066978;stroke-linecap:butt;stroke-linejoin:round;stroke:rgb(20%,20%,20%);stroke-opacity:1;stroke-miterlimit:10;" d="M 40.050781 30.882812 L 42.789062 30.882812 "/>
<path style="fill:none;stroke-width:1.066978;stroke-linecap:butt;stroke-linejoin:round;stroke:rgb(20%,20%,20%);stroke-opacity:1;stroke-miterlimit:10;" d="M 78.589844 400.308594 L 78.589844 397.570312 "/>
<path style="fill:none;stroke-width:1.066978;stroke-linecap:butt;stroke-linejoin:round;stroke:rgb(20%,20%,20%);stroke-opacity:1;stroke-miterlimit:10;" d="M 158.007812 400.308594 L 158.007812 397.570312 "/>
<path style="fill:none;stroke-width:1.066978;stroke-linecap:butt;stroke-linejoin:round;stroke:rgb(20%,20%,20%);stroke-opacity:1;stroke-miterlimit:10;" d="M 237.425781 400.308594 L 237.425781 397.570312 "/>
<path style="fill:none;stroke-width:1.066978;stroke-linecap:butt;stroke-linejoin:round;stroke:rgb(20%,20%,20%);stroke-opacity:1;stroke-miterlimit:10;" d="M 316.839844 400.308594 L 316.839844 397.570312 "/>
<path style="fill:none;stroke-width:1.066978;stroke-linecap:butt;stroke-linejoin:round;stroke:rgb(20%,20%,20%);stroke-opacity:1;stroke-miterlimit:10;" d="M 396.257812 400.308594 L 396.257812 397.570312 "/>
<path style="fill:none;stroke-width:1.066978;stroke-linecap:butt;stroke-linejoin:round;stroke:rgb(20%,20%,20%);stroke-opacity:1;stroke-miterlimit:10;" d="M 475.671875 400.308594 L 475.671875 397.570312 "/>
<g style="fill:rgb(30.196078%,30.196078%,30.196078%);fill-opacity:1;">
  <use xlink:href="#glyph0-8" x="72.089844" y="408.602539"/>
  <use xlink:href="#glyph0-3" x="75.020508" y="408.602539"/>
  <use xlink:href="#glyph0-1" x="79.913086" y="408.602539"/>
</g>
<g style="fill:rgb(30.196078%,30.196078%,30.196078%);fill-opacity:1;">
  <use xlink:href="#glyph0-8" x="151.507812" y="408.602539"/>
  <use xlink:href="#glyph0-7" x="154.438477" y="408.602539"/>
  <use xlink:href="#glyph0-1" x="159.331055" y="408.602539"/>
</g>
<g style="fill:rgb(30.196078%,30.196078%,30.196078%);fill-opacity:1;">
  <use xlink:href="#glyph0-8" x="230.925781" y="408.602539"/>
  <use xlink:href="#glyph0-6" x="233.856445" y="408.602539"/>
  <use xlink:href="#glyph0-1" x="238.749023" y="408.602539"/>
</g>
<g style="fill:rgb(30.196078%,30.196078%,30.196078%);fill-opacity:1;">
  <use xlink:href="#glyph0-1" x="314.339844" y="408.602539"/>
</g>
<g style="fill:rgb(30.196078%,30.196078%,30.196078%);fill-opacity:1;">
  <use xlink:href="#glyph0-6" x="391.257812" y="408.602539"/>
  <use xlink:href="#glyph0-1" x="396.150391" y="408.602539"/>
</g>
<g style="fill:rgb(30.196078%,30.196078%,30.196078%);fill-opacity:1;">
  <use xlink:href="#glyph0-7" x="470.671875" y="408.602539"/>
  <use xlink:href="#glyph0-1" x="475.564453" y="408.602539"/>
</g>
<g style="fill:rgb(0%,0%,0%);fill-opacity:1;">
  <use xlink:href="#glyph1-1" x="259.308594" y="423.506836"/>
  <use xlink:href="#glyph1-2" x="267.250977" y="423.506836"/>
  <use xlink:href="#glyph1-3" x="269.693359" y="423.506836"/>
  <use xlink:href="#glyph1-4" x="278.856445" y="423.506836"/>
  <use xlink:href="#glyph1-5" x="281.914062" y="423.506836"/>
</g>
<g style="fill:rgb(0%,0%,0%);fill-opacity:1;">
  <use xlink:href="#glyph2-1" x="14.108398" y="228.085938"/>
  <use xlink:href="#glyph2-2" x="14.108398" y="221.969727"/>
  <use xlink:href="#glyph2-3" x="14.108398" y="215.853516"/>
  <use xlink:href="#glyph2-4" x="14.108398" y="209.737305"/>
  <use xlink:href="#glyph2-5" x="14.108398" y="204.237305"/>
  <use xlink:href="#glyph2-6" x="14.108398" y="201.794922"/>
  <use xlink:href="#glyph2-7" x="14.108398" y="198.737305"/>
</g>
<path style=" stroke:none;fill-rule:nonzero;fill:rgb(100%,100%,100%);fill-opacity:1;" d="M 515.789062 267.273438 L 570.523438 267.273438 L 570.523438 153.898438 L 515.789062 153.898438 Z M 515.789062 267.273438 "/>
<g style="fill:rgb(0%,0%,0%);fill-opacity:1;">
  <use xlink:href="#glyph1-6" x="521.265625" y="168.772461"/>
  <use xlink:href="#glyph1-7" x="528.602539" y="168.772461"/>
  <use xlink:href="#glyph1-8" x="534.047852" y="168.772461"/>
  <use xlink:href="#glyph1-9" x="537.105469" y="168.772461"/>
  <use xlink:href="#glyph1-10" x="543.22168" y="168.772461"/>
  <use xlink:href="#glyph1-2" x="549.337891" y="168.772461"/>
  <use xlink:href="#glyph1-11" x="551.780273" y="168.772461"/>
</g>
<path style="fill-rule:nonzero;fill:rgb(94.901961%,94.901961%,94.901961%);fill-opacity:1;stroke-width:1.066978;stroke-linecap:round;stroke-linejoin:round;stroke:rgb(100%,100%,100%);stroke-opacity:1;stroke-miterlimit:10;" d="M 521.265625 192.671875 L 538.546875 192.671875 L 538.546875 175.390625 L 521.265625 175.390625 Z M 521.265625 192.671875 "/>
<path style="fill-rule:nonzero;fill:rgb(97.254902%,46.27451%,42.745098%);fill-opacity:0.501961;stroke-width:1.066978;stroke-linecap:round;stroke-linejoin:miter;stroke:rgb(100%,100%,100%);stroke-opacity:1;stroke-miterlimit:10;" d="M 521.976562 191.964844 L 537.839844 191.964844 L 537.839844 176.101562 L 521.976562 176.101562 Z M 521.976562 191.964844 "/>
<path style="fill-rule:nonzero;fill:rgb(94.901961%,94.901961%,94.901961%);fill-opacity:1;stroke-width:1.066978;stroke-linecap:round;stroke-linejoin:round;stroke:rgb(100%,100%,100%);stroke-opacity:1;stroke-miterlimit:10;" d="M 521.265625 209.953125 L 538.546875 209.953125 L 538.546875 192.671875 L 521.265625 192.671875 Z M 521.265625 209.953125 "/>
<path style="fill-rule:nonzero;fill:rgb(72.941176%,53.333333%,50.980392%);fill-opacity:0.501961;stroke-width:1.066978;stroke-linecap:round;stroke-linejoin:miter;stroke:rgb(100%,100%,100%);stroke-opacity:1;stroke-miterlimit:10;" d="M 521.976562 209.246094 L 537.839844 209.246094 L 537.839844 193.382812 L 521.976562 193.382812 Z M 521.976562 209.246094 "/>
<path style="fill-rule:nonzero;fill:rgb(94.901961%,94.901961%,94.901961%);fill-opacity:1;stroke-width:1.066978;stroke-linecap:round;stroke-linejoin:round;stroke:rgb(100%,100%,100%);stroke-opacity:1;stroke-miterlimit:10;" d="M 521.265625 227.234375 L 538.546875 227.234375 L 538.546875 209.953125 L 521.265625 209.953125 Z M 521.265625 227.234375 "/>
<path style="fill-rule:nonzero;fill:rgb(48.627451%,60.392157%,59.607843%);fill-opacity:0.501961;stroke-width:1.066978;stroke-linecap:round;stroke-linejoin:miter;stroke:rgb(100%,100%,100%);stroke-opacity:1;stroke-miterlimit:10;" d="M 521.976562 226.523438 L 537.839844 226.523438 L 537.839844 210.660156 L 521.976562 210.660156 Z M 521.976562 226.523438 "/>
<path style="fill-rule:nonzero;fill:rgb(94.901961%,94.901961%,94.901961%);fill-opacity:1;stroke-width:1.066978;stroke-linecap:round;stroke-linejoin:round;stroke:rgb(100%,100%,100%);stroke-opacity:1;stroke-miterlimit:10;" d="M 521.265625 244.511719 L 538.546875 244.511719 L 538.546875 227.230469 L 521.265625 227.230469 Z M 521.265625 244.511719 "/>
<path style="fill-rule:nonzero;fill:rgb(24.313725%,67.45098%,68.235294%);fill-opacity:0.501961;stroke-width:1.066978;stroke-linecap:round;stroke-linejoin:miter;stroke:rgb(100%,100%,100%);stroke-opacity:1;stroke-miterlimit:10;" d="M 521.976562 243.804688 L 537.839844 243.804688 L 537.839844 227.941406 L 521.976562 227.941406 Z M 521.976562 243.804688 "/>
<path style="fill-rule:nonzero;fill:rgb(94.901961%,94.901961%,94.901961%);fill-opacity:1;stroke-width:1.066978;stroke-linecap:round;stroke-linejoin:round;stroke:rgb(100%,100%,100%);stroke-opacity:1;stroke-miterlimit:10;" d="M 521.265625 261.792969 L 538.546875 261.792969 L 538.546875 244.511719 L 521.265625 244.511719 Z M 521.265625 261.792969 "/>
<path style="fill-rule:nonzero;fill:rgb(0%,74.901961%,76.862745%);fill-opacity:0.501961;stroke-width:1.066978;stroke-linecap:round;stroke-linejoin:miter;stroke:rgb(100%,100%,100%);stroke-opacity:1;stroke-miterlimit:10;" d="M 521.976562 261.085938 L 537.839844 261.085938 L 537.839844 245.222656 L 521.976562 245.222656 Z M 521.976562 261.085938 "/>
<g style="fill:rgb(0%,0%,0%);fill-opacity:1;">
  <use xlink:href="#glyph0-9" x="544.027344" y="186.633789"/>
  <use xlink:href="#glyph0-10" x="549.896484" y="186.633789"/>
  <use xlink:href="#glyph0-11" x="554.789062" y="186.633789"/>
  <use xlink:href="#glyph0-12" x="559.681641" y="186.633789"/>
</g>
<g style="fill:rgb(0%,0%,0%);fill-opacity:1;">
  <use xlink:href="#glyph0-13" x="544.027344" y="203.915039"/>
</g>
<g style="fill:rgb(0%,0%,0%);fill-opacity:1;">
  <use xlink:href="#glyph0-13" x="544.027344" y="221.196289"/>
  <use xlink:href="#glyph0-13" x="546.473633" y="221.196289"/>
</g>
<g style="fill:rgb(0%,0%,0%);fill-opacity:1;">
  <use xlink:href="#glyph0-13" x="544.027344" y="238.473633"/>
  <use xlink:href="#glyph0-13" x="546.473633" y="238.473633"/>
  <use xlink:href="#glyph0-13" x="548.919922" y="238.473633"/>
</g>
<g style="fill:rgb(0%,0%,0%);fill-opacity:1;">
  <use xlink:href="#glyph0-13" x="544.027344" y="255.754883"/>
  <use xlink:href="#glyph0-14" x="546.473633" y="255.754883"/>
</g>
<g style="fill:rgb(0%,0%,0%);fill-opacity:1;">
  <use xlink:href="#glyph3-1" x="42.789062" y="14.632812"/>
  <use xlink:href="#glyph3-2" x="52.319336" y="14.632812"/>
  <use xlink:href="#glyph3-3" x="55.25" y="14.632812"/>
  <use xlink:href="#glyph3-4" x="61.783203" y="14.632812"/>
  <use xlink:href="#glyph3-5" x="65.452148" y="14.632812"/>
  <use xlink:href="#glyph3-2" x="69.847656" y="14.632812"/>
  <use xlink:href="#glyph3-6" x="72.77832" y="14.632812"/>
  <use xlink:href="#glyph3-7" x="80.117188" y="14.632812"/>
  <use xlink:href="#glyph3-8" x="87.456055" y="14.632812"/>
  <use xlink:href="#glyph3-2" x="94.055664" y="14.632812"/>
  <use xlink:href="#glyph3-9" x="96.986328" y="14.632812"/>
  <use xlink:href="#glyph3-10" x="104.325195" y="14.632812"/>
  <use xlink:href="#glyph3-11" x="111.664062" y="14.632812"/>
  <use xlink:href="#glyph3-3" x="119.00293" y="14.632812"/>
  <use xlink:href="#glyph3-12" x="125.602539" y="14.632812"/>
  <use xlink:href="#glyph3-13" x="129.271484" y="14.632812"/>
  <use xlink:href="#glyph3-11" x="136.610352" y="14.632812"/>
  <use xlink:href="#glyph3-14" x="143.949219" y="14.632812"/>
  <use xlink:href="#glyph3-12" x="146.879883" y="14.632812"/>
  <use xlink:href="#glyph3-15" x="150.548828" y="14.632812"/>
  <use xlink:href="#glyph3-5" x="157.887695" y="14.632812"/>
  <use xlink:href="#glyph3-2" x="162.283203" y="14.632812"/>
  <use xlink:href="#glyph3-16" x="165.213867" y="14.632812"/>
  <use xlink:href="#glyph3-11" x="176.208984" y="14.632812"/>
  <use xlink:href="#glyph3-5" x="183.547852" y="14.632812"/>
  <use xlink:href="#glyph3-12" x="187.943359" y="14.632812"/>
  <use xlink:href="#glyph3-8" x="191.612305" y="14.632812"/>
  <use xlink:href="#glyph3-9" x="198.211914" y="14.632812"/>
  <use xlink:href="#glyph3-16" x="205.550781" y="14.632812"/>
  <use xlink:href="#glyph3-15" x="216.612305" y="14.632812"/>
  <use xlink:href="#glyph3-9" x="223.951172" y="14.632812"/>
  <use xlink:href="#glyph3-10" x="231.290039" y="14.632812"/>
  <use xlink:href="#glyph3-11" x="238.628906" y="14.632812"/>
  <use xlink:href="#glyph3-10" x="245.967773" y="14.632812"/>
  <use xlink:href="#glyph3-4" x="253.306641" y="14.632812"/>
  <use xlink:href="#glyph3-11" x="256.777344" y="14.632812"/>
  <use xlink:href="#glyph3-12" x="264.116211" y="14.632812"/>
  <use xlink:href="#glyph3-15" x="267.785156" y="14.632812"/>
  <use xlink:href="#glyph3-5" x="275.124023" y="14.632812"/>
  <use xlink:href="#glyph3-2" x="279.519531" y="14.632812"/>
  <use xlink:href="#glyph3-10" x="282.450195" y="14.632812"/>
  <use xlink:href="#glyph3-8" x="289.789062" y="14.632812"/>
  <use xlink:href="#glyph3-2" x="296.388672" y="14.632812"/>
  <use xlink:href="#glyph3-15" x="299.319336" y="14.632812"/>
  <use xlink:href="#glyph3-17" x="306.658203" y="14.632812"/>
  <use xlink:href="#glyph3-14" x="313.99707" y="14.632812"/>
  <use xlink:href="#glyph3-12" x="316.927734" y="14.632812"/>
  <use xlink:href="#glyph3-3" x="320.59668" y="14.632812"/>
  <use xlink:href="#glyph3-11" x="327.196289" y="14.632812"/>
  <use xlink:href="#glyph3-18" x="334.535156" y="14.632812"/>
  <use xlink:href="#glyph3-19" x="341.874023" y="14.632812"/>
  <use xlink:href="#glyph3-10" x="349.212891" y="14.632812"/>
  <use xlink:href="#glyph3-12" x="356.551758" y="14.632812"/>
  <use xlink:href="#glyph3-11" x="360.220703" y="14.632812"/>
  <use xlink:href="#glyph3-3" x="367.55957" y="14.632812"/>
  <use xlink:href="#glyph3-4" x="374.092773" y="14.632812"/>
  <use xlink:href="#glyph3-17" x="377.761719" y="14.632812"/>
  <use xlink:href="#glyph3-13" x="385.100586" y="14.632812"/>
  <use xlink:href="#glyph3-2" x="392.439453" y="14.632812"/>
  <use xlink:href="#glyph3-9" x="395.370117" y="14.632812"/>
  <use xlink:href="#glyph3-3" x="402.708984" y="14.632812"/>
  <use xlink:href="#glyph3-12" x="409.308594" y="14.632812"/>
  <use xlink:href="#glyph3-13" x="412.977539" y="14.632812"/>
  <use xlink:href="#glyph3-11" x="420.316406" y="14.632812"/>
  <use xlink:href="#glyph3-12" x="427.655273" y="14.632812"/>
  <use xlink:href="#glyph3-20" x="431.324219" y="14.632812"/>
  <use xlink:href="#glyph3-17" x="441.592773" y="14.632812"/>
  <use xlink:href="#glyph3-14" x="448.931641" y="14.632812"/>
  <use xlink:href="#glyph3-7" x="451.862305" y="14.632812"/>
  <use xlink:href="#glyph3-8" x="459.201172" y="14.632812"/>
  <use xlink:href="#glyph3-9" x="465.800781" y="14.632812"/>
  <use xlink:href="#glyph3-16" x="473.139648" y="14.632812"/>
  <use xlink:href="#glyph3-17" x="484.134766" y="14.632812"/>
</g>
</g>
</svg>
