<?xml version="1.0" encoding="UTF-8"?>
<svg xmlns="http://www.w3.org/2000/svg" xmlns:xlink="http://www.w3.org/1999/xlink" width="576pt" height="432pt" viewBox="0 0 576 432" version="1.1">
<defs>
<g>
<symbol overflow="visible" id="glyph0-0">
<path style="stroke:none;" d=""/>
</symbol>
<symbol overflow="visible" id="glyph0-1">
<path style="stroke:none;" d="M 6.125 -6.015625 C 6.125 -7.453125 5.015625 -8.515625 3.40625 -8.515625 C 1.671875 -8.515625 0.65625 -7.625 0.59375 -5.5625 L 1.65625 -5.5625 C 1.734375 -6.984375 2.328125 -7.578125 3.375 -7.578125 C 4.328125 -7.578125 5.046875 -6.90625 5.046875 -5.984375 C 5.046875 -5.3125 4.65625 -4.734375 3.90625 -4.3125 L 2.796875 -3.6875 C 1.015625 -2.671875 0.5 -1.875 0.40625 0 L 6.078125 0 L 6.078125 -1.046875 L 1.59375 -1.046875 C 1.703125 -1.734375 2.09375 -2.1875 3.125 -2.796875 L 4.328125 -3.4375 C 5.515625 -4.078125 6.125 -4.96875 6.125 -6.015625 Z M 6.125 -6.015625 "/>
</symbol>
<symbol overflow="visible" id="glyph0-2">
<path style="stroke:none;" d="M 6.078125 -4.09375 C 6.078125 -7.046875 5.140625 -8.515625 3.296875 -8.515625 C 1.46875 -8.515625 0.515625 -7.015625 0.515625 -4.15625 C 0.515625 -1.296875 1.46875 0.1875 3.296875 0.1875 C 5.09375 0.1875 6.078125 -1.296875 6.078125 -4.09375 Z M 5 -4.1875 C 5 -1.78125 4.453125 -0.703125 3.28125 -0.703125 C 2.15625 -0.703125 1.59375 -1.828125 1.59375 -4.15625 C 1.59375 -6.484375 2.15625 -7.578125 3.296875 -7.578125 C 4.4375 -7.578125 5 -6.46875 5 -4.1875 Z M 5 -4.1875 "/>
</symbol>
<symbol overflow="visible" id="glyph0-3">
<path style="stroke:none;" d="M 6.078125 -2.46875 C 6.078125 -3.5 5.65625 -4.109375 4.625 -4.453125 C 5.421875 -4.765625 5.8125 -5.3125 5.8125 -6.171875 C 5.8125 -7.625 4.84375 -8.515625 3.234375 -8.515625 C 1.515625 -8.515625 0.59375 -7.578125 0.5625 -5.765625 L 1.625 -5.765625 C 1.640625 -7.015625 2.15625 -7.578125 3.234375 -7.578125 C 4.171875 -7.578125 4.734375 -7.03125 4.734375 -6.125 C 4.734375 -5.21875 4.34375 -4.84375 2.65625 -4.84375 L 2.65625 -3.953125 L 3.234375 -3.953125 C 4.390625 -3.953125 4.984375 -3.40625 4.984375 -2.453125 C 4.984375 -1.390625 4.328125 -0.75 3.234375 -0.75 C 2.078125 -0.75 1.515625 -1.328125 1.4375 -2.5625 L 0.390625 -2.5625 C 0.515625 -0.671875 1.453125 0.1875 3.1875 0.1875 C 4.9375 0.1875 6.078125 -0.859375 6.078125 -2.46875 Z M 6.078125 -2.46875 "/>
</symbol>
<symbol overflow="visible" id="glyph0-4">
<path style="stroke:none;" d="M 6.234375 -2.046875 L 6.234375 -2.984375 L 4.984375 -2.984375 L 4.984375 -8.515625 L 4.203125 -8.515625 L 0.34375 -3.15625 L 0.34375 -2.046875 L 3.921875 -2.046875 L 3.921875 0 L 4.984375 0 L 4.984375 -2.046875 Z M 3.921875 -2.984375 L 1.265625 -2.984375 L 3.921875 -6.703125 Z M 3.921875 -2.984375 "/>
</symbol>
<symbol overflow="visible" id="glyph0-5">
<path style="stroke:none;" d="M 6.15625 -2.8125 C 6.15625 -4.5 5.046875 -5.609375 3.40625 -5.609375 C 2.8125 -5.609375 2.328125 -5.453125 1.84375 -5.09375 L 2.171875 -7.28125 L 5.71875 -7.28125 L 5.71875 -8.328125 L 1.3125 -8.328125 L 0.6875 -3.875 L 1.65625 -3.875 C 2.140625 -4.46875 2.5625 -4.671875 3.21875 -4.671875 C 4.359375 -4.671875 5.078125 -3.9375 5.078125 -2.671875 C 5.078125 -1.453125 4.375 -0.75 3.21875 -0.75 C 2.296875 -0.75 1.734375 -1.21875 1.46875 -2.1875 L 0.421875 -2.1875 C 0.765625 -0.484375 1.734375 0.1875 3.234375 0.1875 C 4.953125 0.1875 6.15625 -1.015625 6.15625 -2.8125 Z M 6.15625 -2.8125 "/>
</symbol>
<symbol overflow="visible" id="glyph0-6">
<path style="stroke:none;" d="M 6.15625 -2.640625 C 6.15625 -4.21875 5.078125 -5.296875 3.546875 -5.296875 C 2.71875 -5.296875 2.046875 -4.96875 1.59375 -4.34375 C 1.609375 -6.421875 2.28125 -7.578125 3.484375 -7.578125 C 4.234375 -7.578125 4.75 -7.109375 4.921875 -6.28125 L 5.96875 -6.28125 C 5.765625 -7.6875 4.859375 -8.515625 3.5625 -8.515625 C 1.578125 -8.515625 0.515625 -6.84375 0.515625 -3.875 C 0.515625 -1.21875 1.421875 0.1875 3.375 0.1875 C 4.984375 0.1875 6.15625 -0.96875 6.15625 -2.640625 Z M 5.078125 -2.5625 C 5.078125 -1.484375 4.359375 -0.75 3.390625 -0.75 C 2.40625 -0.75 1.65625 -1.53125 1.65625 -2.609375 C 1.65625 -3.671875 2.375 -4.359375 3.421875 -4.359375 C 4.4375 -4.359375 5.078125 -3.703125 5.078125 -2.5625 Z M 5.078125 -2.5625 "/>
</symbol>
<symbol overflow="visible" id="glyph0-7">
<path style="stroke:none;" d="M 4.15625 0 L 4.15625 -8.515625 L 3.46875 -8.515625 C 3.09375 -7.203125 2.859375 -7.015625 1.21875 -6.8125 L 1.21875 -6.0625 L 3.109375 -6.0625 L 3.109375 0 Z M 4.15625 0 "/>
</symbol>
<symbol overflow="visible" id="glyph0-8">
<path style="stroke:none;" d="M 6.234375 -7.4375 L 6.234375 -8.328125 L 0.546875 -8.328125 L 0.546875 -7.28125 L 5.140625 -7.28125 C 3.453125 -5.140625 2.25 -2.65625 1.65625 0 L 2.78125 0 C 3.25 -2.75 4.453125 -5.3125 6.234375 -7.4375 Z M 6.234375 -7.4375 "/>
</symbol>
<symbol overflow="visible" id="glyph0-9">
<path style="stroke:none;" d="M 6.15625 -2.40625 C 6.15625 -3.34375 5.671875 -4.015625 4.6875 -4.46875 C 5.5625 -5 5.859375 -5.4375 5.859375 -6.234375 C 5.859375 -7.578125 4.8125 -8.515625 3.296875 -8.515625 C 1.796875 -8.515625 0.75 -7.578125 0.75 -6.234375 C 0.75 -5.453125 1.03125 -5.015625 1.890625 -4.46875 C 0.921875 -4.015625 0.4375 -3.34375 0.4375 -2.40625 C 0.4375 -0.859375 1.625 0.1875 3.296875 0.1875 C 4.984375 0.1875 6.15625 -0.859375 6.15625 -2.40625 Z M 4.78125 -6.21875 C 4.78125 -5.421875 4.1875 -4.890625 3.296875 -4.890625 C 2.40625 -4.890625 1.828125 -5.421875 1.828125 -6.234375 C 1.828125 -7.046875 2.40625 -7.578125 3.296875 -7.578125 C 4.203125 -7.578125 4.78125 -7.046875 4.78125 -6.21875 Z M 5.078125 -2.390625 C 5.078125 -1.375 4.359375 -0.75 3.28125 -0.75 C 2.25 -0.75 1.53125 -1.390625 1.53125 -2.390625 C 1.53125 -3.390625 2.25 -4.015625 3.296875 -4.015625 C 4.359375 -4.015625 5.078125 -3.390625 5.078125 -2.390625 Z M 5.078125 -2.390625 "/>
</symbol>
<symbol overflow="visible" id="glyph0-10">
<path style="stroke:none;" d="M 6.109375 -4.453125 C 6.109375 -7.109375 5.1875 -8.515625 3.234375 -8.515625 C 1.625 -8.515625 0.453125 -7.359375 0.453125 -5.6875 C 0.453125 -4.109375 1.53125 -3.03125 3.078125 -3.03125 C 3.875 -3.03125 4.46875 -3.328125 5.015625 -3.984375 C 5 -1.90625 4.328125 -0.75 3.125 -0.75 C 2.375 -0.75 1.859375 -1.21875 1.6875 -2.046875 L 0.640625 -2.046875 C 0.84375 -0.640625 1.75 0.1875 3.046875 0.1875 C 5.046875 0.1875 6.109375 -1.515625 6.109375 -4.453125 Z M 4.953125 -5.71875 C 4.953125 -4.671875 4.21875 -3.96875 3.1875 -3.96875 C 2.171875 -3.96875 1.53125 -4.625 1.53125 -5.765625 C 1.53125 -6.859375 2.25 -7.578125 3.234375 -7.578125 C 4.21875 -7.578125 4.953125 -6.8125 4.953125 -5.71875 Z M 4.953125 -5.71875 "/>
</symbol>
<symbol overflow="visible" id="glyph0-11">
<path style="stroke:none;" d="M 7.75 0 L 7.75 -8.75 L 6.703125 -8.75 L 6.703125 -1.59375 L 2.125 -8.75 L 0.90625 -8.75 L 0.90625 0 L 1.96875 0 L 1.96875 -7.09375 L 6.484375 0 Z M 7.75 0 "/>
</symbol>
<symbol overflow="visible" id="glyph0-12">
<path style="stroke:none;" d="M 5.78125 0 L 5.78125 -6.28125 L 4.78125 -6.28125 L 4.78125 -2.8125 C 4.78125 -1.53125 4.109375 -0.703125 3.078125 -0.703125 C 2.28125 -0.703125 1.78125 -1.171875 1.78125 -1.9375 L 1.78125 -6.28125 L 0.78125 -6.28125 L 0.78125 -1.53125 C 0.78125 -0.484375 1.5625 0.1875 2.78125 0.1875 C 3.703125 0.1875 4.296875 -0.140625 4.890625 -0.96875 L 4.890625 0 Z M 5.78125 0 "/>
</symbol>
<symbol overflow="visible" id="glyph0-13">
<path style="stroke:none;" d="M 9.125 0 L 9.125 -4.71875 C 9.125 -5.84375 8.5 -6.46875 7.3125 -6.46875 C 6.484375 -6.46875 5.96875 -6.21875 5.390625 -5.515625 C 5.015625 -6.1875 4.515625 -6.46875 3.703125 -6.46875 C 2.859375 -6.46875 2.296875 -6.15625 1.765625 -5.40625 L 1.765625 -6.28125 L 0.859375 -6.28125 L 0.859375 0 L 1.84375 0 L 1.84375 -3.953125 C 1.84375 -4.859375 2.515625 -5.59375 3.328125 -5.59375 C 4.0625 -5.59375 4.484375 -5.140625 4.484375 -4.328125 L 4.484375 0 L 5.484375 0 L 5.484375 -3.953125 C 5.484375 -4.859375 6.15625 -5.59375 6.96875 -5.59375 C 7.703125 -5.59375 8.125 -5.125 8.125 -4.328125 L 8.125 0 Z M 9.125 0 "/>
</symbol>
<symbol overflow="visible" id="glyph0-14">
<path style="stroke:none;" d="M 6.15625 -2.859375 C 6.15625 -3.765625 6.078125 -4.34375 5.90625 -4.8125 C 5.5 -5.84375 4.53125 -6.46875 3.359375 -6.46875 C 1.609375 -6.46875 0.484375 -5.171875 0.484375 -3.109375 C 0.484375 -1.046875 1.578125 0.1875 3.34375 0.1875 C 4.78125 0.1875 5.765625 -0.640625 6.03125 -1.90625 L 5.015625 -1.90625 C 4.734375 -1.078125 4.171875 -0.75 3.375 -0.75 C 2.328125 -0.75 1.546875 -1.421875 1.53125 -2.859375 Z M 5.09375 -3.75 C 5.09375 -3.75 5.09375 -3.703125 5.078125 -3.671875 L 1.546875 -3.671875 C 1.625 -4.78125 2.34375 -5.546875 3.34375 -5.546875 C 4.328125 -5.546875 5.09375 -4.734375 5.09375 -3.75 Z M 5.09375 -3.75 "/>
</symbol>
<symbol overflow="visible" id="glyph0-15">
<path style="stroke:none;" d="M 3.859375 -5.40625 L 3.859375 -6.4375 C 3.6875 -6.453125 3.59375 -6.46875 3.46875 -6.46875 C 2.8125 -6.46875 2.328125 -6.078125 1.75 -5.140625 L 1.75 -6.28125 L 0.84375 -6.28125 L 0.84375 0 L 1.84375 0 L 1.84375 -3.265625 C 1.84375 -4.6875 2.296875 -5.390625 3.859375 -5.40625 Z M 3.859375 -5.40625 "/>
</symbol>
<symbol overflow="visible" id="glyph0-16">
<path style="stroke:none;" d="M 6.125 -3.09375 C 6.125 -5.265625 5.078125 -6.46875 3.265625 -6.46875 C 1.5 -6.46875 0.4375 -5.25 0.4375 -3.140625 C 0.4375 -1.03125 1.484375 0.1875 3.28125 0.1875 C 5.046875 0.1875 6.125 -1.03125 6.125 -3.09375 Z M 5.078125 -3.109375 C 5.078125 -1.625 4.375 -0.75 3.28125 -0.75 C 2.15625 -0.75 1.46875 -1.625 1.46875 -3.140625 C 1.46875 -4.65625 2.15625 -5.546875 3.28125 -5.546875 C 4.40625 -5.546875 5.078125 -4.671875 5.078125 -3.109375 Z M 5.078125 -3.109375 "/>
</symbol>
<symbol overflow="visible" id="glyph0-17">
<path style="stroke:none;" d=""/>
</symbol>
<symbol overflow="visible" id="glyph0-18">
<path style="stroke:none;" d="M 5.9375 0 L 5.9375 -8.75 L 4.9375 -8.75 L 4.9375 -5.5 C 4.53125 -6.125 3.859375 -6.46875 3.015625 -6.46875 C 1.375 -6.46875 0.3125 -5.203125 0.3125 -3.203125 C 0.3125 -1.078125 1.359375 0.1875 3.046875 0.1875 C 3.90625 0.1875 4.515625 -0.140625 5.046875 -0.921875 L 5.046875 0 Z M 4.9375 -3.125 C 4.9375 -1.671875 4.25 -0.75 3.1875 -0.75 C 2.09375 -0.75 1.359375 -1.6875 1.359375 -3.140625 C 1.359375 -4.609375 2.09375 -5.53125 3.1875 -5.53125 C 4.265625 -5.53125 4.9375 -4.578125 4.9375 -3.125 Z M 4.9375 -3.125 "/>
</symbol>
<symbol overflow="visible" id="glyph0-19">
<path style="stroke:none;" d="M 5.875 -1.03125 L 5.875 -6.28125 L 4.9375 -6.28125 L 4.9375 -5.375 C 4.4375 -6.125 3.828125 -6.46875 3.03125 -6.46875 C 1.421875 -6.46875 0.34375 -5.125 0.34375 -3.078125 C 0.34375 -1.109375 1.46875 0.1875 2.9375 0.1875 C 3.734375 0.1875 4.28125 -0.15625 4.9375 -0.953125 L 4.9375 -0.53125 C 4.9375 1.140625 4.265625 1.78125 3.09375 1.78125 C 2.296875 1.78125 1.6875 1.484375 1.578125 0.71875 L 0.546875 0.71875 C 0.65625 1.90625 1.578125 2.609375 3.0625 2.609375 C 5.03125 2.609375 5.875 1.734375 5.875 -1.03125 Z M 4.84375 -3.109375 C 4.84375 -1.609375 4.203125 -0.75 3.140625 -0.75 C 2.046875 -0.75 1.390625 -1.625 1.390625 -3.140625 C 1.390625 -4.65625 2.0625 -5.546875 3.125 -5.546875 C 4.21875 -5.546875 4.84375 -4.625 4.84375 -3.109375 Z M 4.84375 -3.109375 "/>
</symbol>
<symbol overflow="visible" id="glyph0-20">
<path style="stroke:none;" d="M 6.28125 -3.078125 C 6.28125 -5.203125 5.25 -6.46875 3.578125 -6.46875 C 2.71875 -6.46875 2.046875 -6.078125 1.578125 -5.34375 L 1.578125 -6.28125 L 0.65625 -6.28125 L 0.65625 2.609375 L 1.65625 2.609375 L 1.65625 -0.75 C 2.1875 -0.109375 2.765625 0.1875 3.59375 0.1875 C 5.203125 0.1875 6.28125 -1.078125 6.28125 -3.078125 Z M 5.234375 -3.109375 C 5.234375 -1.6875 4.5 -0.75 3.40625 -0.75 C 2.359375 -0.75 1.65625 -1.625 1.65625 -3.09375 C 1.65625 -4.578125 2.359375 -5.53125 3.40625 -5.53125 C 4.515625 -5.53125 5.234375 -4.609375 5.234375 -3.109375 Z M 5.234375 -3.109375 "/>
</symbol>
<symbol overflow="visible" id="glyph0-21">
<path style="stroke:none;" d="M 5.515625 -1.765625 C 5.515625 -2.703125 4.984375 -3.171875 3.734375 -3.46875 L 2.765625 -3.703125 C 1.953125 -3.890625 1.609375 -4.15625 1.609375 -4.59375 C 1.609375 -5.171875 2.125 -5.546875 2.9375 -5.546875 C 3.75 -5.546875 4.171875 -5.203125 4.203125 -4.53125 L 5.25 -4.53125 C 5.25 -5.765625 4.421875 -6.46875 2.96875 -6.46875 C 1.515625 -6.46875 0.5625 -5.71875 0.5625 -4.546875 C 0.5625 -3.5625 1.0625 -3.09375 2.5625 -2.734375 L 3.484375 -2.515625 C 4.1875 -2.34375 4.46875 -2.140625 4.46875 -1.6875 C 4.46875 -1.09375 3.875 -0.75 3 -0.75 C 2.09375 -0.75 1.59375 -0.953125 1.46875 -1.921875 L 0.40625 -1.921875 C 0.453125 -0.46875 1.265625 0.1875 2.921875 0.1875 C 4.5 0.1875 5.515625 -0.546875 5.515625 -1.765625 Z M 5.515625 -1.765625 "/>
</symbol>
<symbol overflow="visible" id="glyph1-0">
<path style="stroke:none;" d=""/>
</symbol>
<symbol overflow="visible" id="glyph1-1">
<path style="stroke:none;" d="M -2.40625 -7.453125 C -3.484375 -7.453125 -4.265625 -6.78125 -4.59375 -5.59375 L -5.1875 -3.390625 C -5.453125 -2.34375 -5.8125 -1.953125 -6.484375 -1.953125 C -7.375 -1.953125 -8.03125 -2.734375 -8.03125 -3.90625 C -8.03125 -5.296875 -7.390625 -6.09375 -6.25 -6.09375 L -6.25 -7.15625 C -7.96875 -7.15625 -8.96875 -5.96875 -8.96875 -3.953125 C -8.96875 -2.03125 -7.90625 -0.84375 -6.328125 -0.84375 C -5.25 -0.84375 -4.578125 -1.40625 -4.28125 -2.5625 L -3.703125 -4.734375 C -3.421875 -5.828125 -2.96875 -6.34375 -2.296875 -6.34375 C -1.328125 -6.34375 -0.765625 -5.609375 -0.765625 -4.109375 C -0.765625 -2.453125 -1.59375 -1.625 -2.84375 -1.625 L -2.84375 -0.578125 C -0.78125 -0.578125 0.21875 -1.96875 0.21875 -4.03125 C 0.21875 -6.25 -0.84375 -7.453125 -2.40625 -7.453125 Z M -2.40625 -7.453125 "/>
</symbol>
<symbol overflow="visible" id="glyph1-2">
<path style="stroke:none;" d="M 0 -5.78125 L -6.28125 -5.78125 L -6.28125 -4.78125 L -2.8125 -4.78125 C -1.53125 -4.78125 -0.703125 -4.109375 -0.703125 -3.078125 C -0.703125 -2.28125 -1.171875 -1.78125 -1.9375 -1.78125 L -6.28125 -1.78125 L -6.28125 -0.78125 L -1.53125 -0.78125 C -0.484375 -0.78125 0.1875 -1.5625 0.1875 -2.78125 C 0.1875 -3.703125 -0.140625 -4.296875 -0.96875 -4.890625 L 0 -4.890625 Z M 0 -5.78125 "/>
</symbol>
<symbol overflow="visible" id="glyph1-3">
<path style="stroke:none;" d="M 0 -9.125 L -4.71875 -9.125 C -5.84375 -9.125 -6.46875 -8.5 -6.46875 -7.3125 C -6.46875 -6.484375 -6.21875 -5.96875 -5.515625 -5.390625 C -6.1875 -5.015625 -6.46875 -4.515625 -6.46875 -3.703125 C -6.46875 -2.859375 -6.15625 -2.296875 -5.40625 -1.765625 L -6.28125 -1.765625 L -6.28125 -0.859375 L 0 -0.859375 L 0 -1.84375 L -3.953125 -1.84375 C -4.859375 -1.84375 -5.59375 -2.515625 -5.59375 -3.328125 C -5.59375 -4.0625 -5.140625 -4.484375 -4.328125 -4.484375 L 0 -4.484375 L 0 -5.484375 L -3.953125 -5.484375 C -4.859375 -5.484375 -5.59375 -6.15625 -5.59375 -6.96875 C -5.59375 -7.703125 -5.125 -8.125 -4.328125 -8.125 L 0 -8.125 Z M 0 -9.125 "/>
</symbol>
<symbol overflow="visible" id="glyph1-4">
<path style="stroke:none;" d="M -0.03125 -6.421875 L -0.78125 -6.421875 C -0.75 -6.3125 -0.75 -6.265625 -0.75 -6.203125 C -0.75 -5.859375 -0.9375 -5.65625 -1.25 -5.65625 L -4.75 -5.65625 C -5.875 -5.65625 -6.46875 -4.84375 -6.46875 -3.296875 C -6.46875 -1.78125 -5.875 -0.84375 -4.421875 -0.78125 L -4.421875 -1.78125 C -5.203125 -1.875 -5.546875 -2.328125 -5.546875 -3.265625 C -5.546875 -4.15625 -5.203125 -4.671875 -4.609375 -4.671875 L -4.34375 -4.671875 C -3.921875 -4.671875 -3.75 -4.421875 -3.640625 -3.625 C -3.46875 -2.203125 -3.421875 -1.984375 -3.265625 -1.609375 C -2.96875 -0.875 -2.40625 -0.5 -1.625 -0.5 C -0.484375 -0.5 0.1875 -1.296875 0.1875 -2.5625 C 0.1875 -3.375 -0.15625 -4.15625 -0.75 -4.703125 C -0.265625 -4.8125 0.078125 -5.25 0.078125 -5.734375 C 0.078125 -5.9375 0.0625 -6.09375 -0.03125 -6.421875 Z M -2.171875 -4.671875 C -1.265625 -4.671875 -0.703125 -3.75 -0.703125 -2.78125 C -0.703125 -2 -0.96875 -1.546875 -1.65625 -1.546875 C -2.3125 -1.546875 -2.609375 -1.984375 -2.765625 -3.0625 C -2.90625 -4.109375 -2.953125 -4.328125 -3.109375 -4.671875 Z M -2.171875 -4.671875 "/>
</symbol>
<symbol overflow="visible" id="glyph1-5">
<path style="stroke:none;" d=""/>
</symbol>
<symbol overflow="visible" id="glyph1-6">
<path style="stroke:none;" d="M 0 -5.9375 L -8.75 -5.9375 L -8.75 -4.9375 L -5.5 -4.9375 C -6.125 -4.53125 -6.46875 -3.859375 -6.46875 -3.015625 C -6.46875 -1.375 -5.203125 -0.3125 -3.203125 -0.3125 C -1.078125 -0.3125 0.1875 -1.359375 0.1875 -3.046875 C 0.1875 -3.90625 -0.140625 -4.515625 -0.921875 -5.046875 L 0 -5.046875 Z M -3.125 -4.9375 C -1.671875 -4.9375 -0.75 -4.25 -0.75 -3.1875 C -0.75 -2.09375 -1.6875 -1.359375 -3.140625 -1.359375 C -4.609375 -1.359375 -5.53125 -2.09375 -5.53125 -3.1875 C -5.53125 -4.265625 -4.578125 -4.9375 -3.125 -4.9375 Z M -3.125 -4.9375 "/>
</symbol>
<symbol overflow="visible" id="glyph1-7">
<path style="stroke:none;" d="M -2.859375 -6.15625 C -3.765625 -6.15625 -4.34375 -6.078125 -4.8125 -5.90625 C -5.84375 -5.5 -6.46875 -4.53125 -6.46875 -3.359375 C -6.46875 -1.609375 -5.171875 -0.484375 -3.109375 -0.484375 C -1.046875 -0.484375 0.1875 -1.578125 0.1875 -3.34375 C 0.1875 -4.78125 -0.640625 -5.765625 -1.90625 -6.03125 L -1.90625 -5.015625 C -1.078125 -4.734375 -0.75 -4.171875 -0.75 -3.375 C -0.75 -2.328125 -1.421875 -1.546875 -2.859375 -1.53125 Z M -3.75 -5.09375 C -3.75 -5.09375 -3.703125 -5.09375 -3.671875 -5.078125 L -3.671875 -1.546875 C -4.78125 -1.625 -5.546875 -2.34375 -5.546875 -3.34375 C -5.546875 -4.328125 -4.734375 -5.09375 -3.75 -5.09375 Z M -3.75 -5.09375 "/>
</symbol>
<symbol overflow="visible" id="glyph1-8">
<path style="stroke:none;" d="M -2.15625 -5.71875 L -2.15625 -4.71875 C -1.15625 -4.546875 -0.75 -4.03125 -0.75 -3.1875 C -0.75 -2.078125 -1.59375 -1.421875 -3.078125 -1.421875 C -4.65625 -1.421875 -5.546875 -2.0625 -5.546875 -3.15625 C -5.546875 -4 -5.046875 -4.53125 -4.171875 -4.640625 L -4.171875 -5.65625 C -5.71875 -5.53125 -6.46875 -4.578125 -6.46875 -3.171875 C -6.46875 -1.46875 -5.171875 -0.375 -3.078125 -0.375 C -1.0625 -0.375 0.1875 -1.453125 0.1875 -3.15625 C 0.1875 -4.65625 -0.71875 -5.609375 -2.15625 -5.71875 Z M -2.15625 -5.71875 "/>
</symbol>
<symbol overflow="visible" id="glyph1-9">
<path style="stroke:none;" d="M -5.40625 -3.859375 L -6.4375 -3.859375 C -6.453125 -3.6875 -6.46875 -3.59375 -6.46875 -3.46875 C -6.46875 -2.8125 -6.078125 -2.328125 -5.140625 -1.75 L -6.28125 -1.75 L -6.28125 -0.84375 L 0 -0.84375 L 0 -1.84375 L -3.265625 -1.84375 C -4.6875 -1.84375 -5.390625 -2.296875 -5.40625 -3.859375 Z M -5.40625 -3.859375 "/>
</symbol>
<symbol overflow="visible" id="glyph1-10">
<path style="stroke:none;" d="M -3.09375 -6.125 C -5.265625 -6.125 -6.46875 -5.078125 -6.46875 -3.265625 C -6.46875 -1.5 -5.25 -0.4375 -3.140625 -0.4375 C -1.03125 -0.4375 0.1875 -1.484375 0.1875 -3.28125 C 0.1875 -5.046875 -1.03125 -6.125 -3.09375 -6.125 Z M -3.109375 -5.078125 C -1.625 -5.078125 -0.75 -4.375 -0.75 -3.28125 C -0.75 -2.15625 -1.625 -1.46875 -3.140625 -1.46875 C -4.65625 -1.46875 -5.546875 -2.15625 -5.546875 -3.28125 C -5.546875 -4.40625 -4.671875 -5.078125 -3.109375 -5.078125 Z M -3.109375 -5.078125 "/>
</symbol>
<symbol overflow="visible" id="glyph1-11">
<path style="stroke:none;" d="M -1.765625 -5.515625 C -2.703125 -5.515625 -3.171875 -4.984375 -3.46875 -3.734375 L -3.703125 -2.765625 C -3.890625 -1.953125 -4.15625 -1.609375 -4.59375 -1.609375 C -5.171875 -1.609375 -5.546875 -2.125 -5.546875 -2.9375 C -5.546875 -3.75 -5.203125 -4.171875 -4.53125 -4.203125 L -4.53125 -5.25 C -5.765625 -5.25 -6.46875 -4.421875 -6.46875 -2.96875 C -6.46875 -1.515625 -5.71875 -0.5625 -4.546875 -0.5625 C -3.5625 -0.5625 -3.09375 -1.0625 -2.734375 -2.5625 L -2.515625 -3.484375 C -2.34375 -4.1875 -2.140625 -4.46875 -1.6875 -4.46875 C -1.09375 -4.46875 -0.75 -3.875 -0.75 -3 C -0.75 -2.09375 -0.953125 -1.59375 -1.921875 -1.46875 L -1.921875 -0.40625 C -0.46875 -0.453125 0.1875 -1.265625 0.1875 -2.921875 C 0.1875 -4.5 -0.546875 -5.515625 -1.765625 -5.515625 Z M -1.765625 -5.515625 "/>
</symbol>
<symbol overflow="visible" id="glyph1-12">
<path style="stroke:none;" d="M 0 -1.84375 L -6.28125 -1.84375 L -6.28125 -0.84375 L 0 -0.84375 Z M -7.234375 -1.96875 L -8.484375 -1.96875 L -8.484375 -0.71875 L -7.234375 -0.71875 Z M -7.234375 -1.96875 "/>
</symbol>
<symbol overflow="visible" id="glyph1-13">
<path style="stroke:none;" d="M 0 -5.84375 L -4.75 -5.84375 C -5.796875 -5.84375 -6.46875 -5.0625 -6.46875 -3.859375 C -6.46875 -2.921875 -6.109375 -2.3125 -5.234375 -1.765625 L -6.28125 -1.765625 L -6.28125 -0.84375 L 0 -0.84375 L 0 -1.84375 L -3.46875 -1.84375 C -4.75 -1.84375 -5.59375 -2.53125 -5.59375 -3.546875 C -5.59375 -4.34375 -5.109375 -4.84375 -4.359375 -4.84375 L 0 -4.84375 Z M 0 -5.84375 "/>
</symbol>
<symbol overflow="visible" id="glyph1-14">
<path style="stroke:none;" d="M 0 -3.046875 L -0.84375 -3.046875 C -0.796875 -2.921875 -0.796875 -2.765625 -0.796875 -2.5625 C -0.796875 -2.140625 -0.90625 -2.015625 -1.359375 -2.015625 L -5.46875 -2.015625 L -5.46875 -3.046875 L -6.28125 -3.046875 L -6.28125 -2.015625 L -8.015625 -2.015625 L -8.015625 -1.015625 L -6.28125 -1.015625 L -6.28125 -0.171875 L -5.46875 -0.171875 L -5.46875 -1.015625 L -0.90625 -1.015625 C -0.28125 -1.015625 0.078125 -1.453125 0.078125 -2.234375 C 0.078125 -2.46875 0.0625 -2.71875 0 -3.046875 Z M 0 -3.046875 "/>
</symbol>
<symbol overflow="visible" id="glyph1-15">
<path style="stroke:none;" d="M -1.03125 -5.875 L -6.28125 -5.875 L -6.28125 -4.9375 L -5.375 -4.9375 C -6.125 -4.4375 -6.46875 -3.828125 -6.46875 -3.03125 C -6.46875 -1.421875 -5.125 -0.34375 -3.078125 -0.34375 C -1.109375 -0.34375 0.1875 -1.46875 0.1875 -2.9375 C 0.1875 -3.734375 -0.15625 -4.28125 -0.953125 -4.9375 L -0.53125 -4.9375 C 1.140625 -4.9375 1.78125 -4.265625 1.78125 -3.09375 C 1.78125 -2.296875 1.484375 -1.6875 0.71875 -1.578125 L 0.71875 -0.546875 C 1.90625 -0.65625 2.609375 -1.578125 2.609375 -3.0625 C 2.609375 -5.03125 1.734375 -5.875 -1.03125 -5.875 Z M -3.109375 -4.84375 C -1.609375 -4.84375 -0.75 -4.203125 -0.75 -3.140625 C -0.75 -2.046875 -1.625 -1.390625 -3.140625 -1.390625 C -4.65625 -1.390625 -5.546875 -2.0625 -5.546875 -3.125 C -5.546875 -4.21875 -4.625 -4.84375 -3.109375 -4.84375 Z M -3.109375 -4.84375 "/>
</symbol>
<symbol overflow="visible" id="glyph1-16">
<path style="stroke:none;" d="M -3.078125 -6.28125 C -5.203125 -6.28125 -6.46875 -5.25 -6.46875 -3.578125 C -6.46875 -2.71875 -6.078125 -2.046875 -5.34375 -1.578125 L -6.28125 -1.578125 L -6.28125 -0.65625 L 2.609375 -0.65625 L 2.609375 -1.65625 L -0.75 -1.65625 C -0.109375 -2.1875 0.1875 -2.765625 0.1875 -3.59375 C 0.1875 -5.203125 -1.078125 -6.28125 -3.078125 -6.28125 Z M -3.109375 -5.234375 C -1.6875 -5.234375 -0.75 -4.5 -0.75 -3.40625 C -0.75 -2.359375 -1.625 -1.65625 -3.09375 -1.65625 C -4.578125 -1.65625 -5.53125 -2.359375 -5.53125 -3.40625 C -5.53125 -4.515625 -4.609375 -5.234375 -3.109375 -5.234375 Z M -3.109375 -5.234375 "/>
</symbol>
<symbol overflow="visible" id="glyph2-0">
<path style="stroke:none;" d=""/>
</symbol>
<symbol overflow="visible" id="glyph2-1">
<path style="stroke:none;" d="M 9.3125 0 L 9.3125 -10.5 L 8.03125 -10.5 L 8.03125 -1.921875 L 2.546875 -10.5 L 1.09375 -10.5 L 1.09375 0 L 2.359375 0 L 2.359375 -8.515625 L 7.796875 0 Z M 9.3125 0 "/>
</symbol>
<symbol overflow="visible" id="glyph2-2">
<path style="stroke:none;" d="M 6.9375 0 L 6.9375 -7.546875 L 5.75 -7.546875 L 5.75 -3.390625 C 5.75 -1.84375 4.9375 -0.828125 3.6875 -0.828125 C 2.734375 -0.828125 2.125 -1.40625 2.125 -2.3125 L 2.125 -7.546875 L 0.9375 -7.546875 L 0.9375 -1.84375 C 0.9375 -0.59375 1.875 0.21875 3.34375 0.21875 C 4.453125 0.21875 5.15625 -0.171875 5.859375 -1.171875 L 5.859375 0 Z M 6.578125 -10.5 L 4.953125 -10.5 L 3.578125 -8.375 L 4.4375 -8.375 Z M 6.578125 -10.5 "/>
</symbol>
<symbol overflow="visible" id="glyph2-3">
<path style="stroke:none;" d="M 10.953125 0 L 10.953125 -5.65625 C 10.953125 -7.015625 10.203125 -7.765625 8.78125 -7.765625 C 7.78125 -7.765625 7.171875 -7.46875 6.46875 -6.609375 C 6.015625 -7.421875 5.421875 -7.765625 4.4375 -7.765625 C 3.421875 -7.765625 2.765625 -7.390625 2.125 -6.484375 L 2.125 -7.546875 L 1.015625 -7.546875 L 1.015625 0 L 2.21875 0 L 2.21875 -4.734375 C 2.21875 -5.828125 3.015625 -6.71875 3.984375 -6.71875 C 4.890625 -6.71875 5.390625 -6.171875 5.390625 -5.203125 L 5.390625 0 L 6.578125 0 L 6.578125 -4.734375 C 6.578125 -5.828125 7.390625 -6.71875 8.375 -6.71875 C 9.25 -6.71875 9.75 -6.15625 9.75 -5.203125 L 9.75 0 Z M 10.953125 0 "/>
</symbol>
<symbol overflow="visible" id="glyph2-4">
<path style="stroke:none;" d="M 7.390625 -3.421875 C 7.390625 -4.53125 7.296875 -5.21875 7.09375 -5.78125 C 6.59375 -7.015625 5.453125 -7.765625 4.03125 -7.765625 C 1.9375 -7.765625 0.578125 -6.203125 0.578125 -3.734375 C 0.578125 -1.25 1.890625 0.21875 4 0.21875 C 5.734375 0.21875 6.921875 -0.765625 7.234375 -2.296875 L 6.015625 -2.296875 C 5.6875 -1.296875 5.015625 -0.890625 4.046875 -0.890625 C 2.796875 -0.890625 1.859375 -1.703125 1.828125 -3.421875 Z M 6.109375 -4.5 C 6.109375 -4.5 6.109375 -4.4375 6.09375 -4.40625 L 1.859375 -4.40625 C 1.953125 -5.75 2.8125 -6.65625 4.015625 -6.65625 C 5.203125 -6.65625 6.109375 -5.671875 6.109375 -4.5 Z M 6.109375 -4.5 "/>
</symbol>
<symbol overflow="visible" id="glyph2-5">
<path style="stroke:none;" d="M 4.625 -6.5 L 4.625 -7.71875 C 4.421875 -7.75 4.328125 -7.765625 4.15625 -7.765625 C 3.390625 -7.765625 2.796875 -7.296875 2.109375 -6.1875 L 2.109375 -7.546875 L 1.015625 -7.546875 L 1.015625 0 L 2.203125 0 L 2.203125 -3.921875 C 2.203125 -5.625 2.765625 -6.46875 4.625 -6.5 Z M 4.625 -6.5 "/>
</symbol>
<symbol overflow="visible" id="glyph2-6">
<path style="stroke:none;" d="M 7.34375 -3.71875 C 7.34375 -6.328125 6.09375 -7.765625 3.921875 -7.765625 C 1.796875 -7.765625 0.515625 -6.3125 0.515625 -3.78125 C 0.515625 -1.234375 1.78125 0.21875 3.9375 0.21875 C 6.046875 0.21875 7.34375 -1.234375 7.34375 -3.71875 Z M 6.09375 -3.734375 C 6.09375 -1.953125 5.265625 -0.890625 3.9375 -0.890625 C 2.59375 -0.890625 1.765625 -1.9375 1.765625 -3.78125 C 1.765625 -5.59375 2.59375 -6.65625 3.9375 -6.65625 C 5.28125 -6.65625 6.09375 -5.609375 6.09375 -3.734375 Z M 6.09375 -3.734375 "/>
</symbol>
<symbol overflow="visible" id="glyph2-7">
<path style="stroke:none;" d=""/>
</symbol>
<symbol overflow="visible" id="glyph2-8">
<path style="stroke:none;" d="M 7.34375 -3.71875 C 7.34375 -6.328125 6.09375 -7.765625 3.921875 -7.765625 C 1.796875 -7.765625 0.515625 -6.3125 0.515625 -3.78125 C 0.515625 -1.234375 1.78125 0.21875 3.9375 0.21875 C 6.046875 0.21875 7.34375 -1.234375 7.34375 -3.71875 Z M 6.09375 -3.734375 C 6.09375 -1.953125 5.265625 -0.890625 3.9375 -0.890625 C 2.59375 -0.890625 1.765625 -1.9375 1.765625 -3.78125 C 1.765625 -5.59375 2.59375 -6.65625 3.9375 -6.65625 C 5.28125 -6.65625 6.09375 -5.609375 6.09375 -3.734375 Z M 6.578125 -10.5 L 4.953125 -10.5 L 3.578125 -8.375 L 4.4375 -8.375 Z M 6.578125 -10.5 "/>
</symbol>
<symbol overflow="visible" id="glyph2-9">
<path style="stroke:none;" d="M 7.53125 -3.703125 C 7.53125 -6.234375 6.296875 -7.765625 4.296875 -7.765625 C 3.265625 -7.765625 2.453125 -7.296875 1.890625 -6.40625 L 1.890625 -7.546875 L 0.796875 -7.546875 L 0.796875 3.140625 L 1.984375 3.140625 L 1.984375 -0.90625 C 2.625 -0.125 3.328125 0.21875 4.3125 0.21875 C 6.25 0.21875 7.53125 -1.296875 7.53125 -3.703125 Z M 6.28125 -3.734375 C 6.28125 -2.015625 5.40625 -0.90625 4.09375 -0.90625 C 2.828125 -0.90625 1.984375 -1.9375 1.984375 -3.71875 C 1.984375 -5.484375 2.828125 -6.640625 4.09375 -6.640625 C 5.421875 -6.640625 6.28125 -5.53125 6.28125 -3.734375 Z M 6.28125 -3.734375 "/>
</symbol>
<symbol overflow="visible" id="glyph2-10">
<path style="stroke:none;" d="M 3.65625 0 L 3.65625 -1.015625 C 3.5 -0.96875 3.3125 -0.953125 3.078125 -0.953125 C 2.5625 -0.953125 2.421875 -1.09375 2.421875 -1.625 L 2.421875 -6.5625 L 3.65625 -6.5625 L 3.65625 -7.546875 L 2.421875 -7.546875 L 2.421875 -9.625 L 1.21875 -9.625 L 1.21875 -7.546875 L 0.203125 -7.546875 L 0.203125 -6.5625 L 1.21875 -6.5625 L 1.21875 -1.09375 C 1.21875 -0.328125 1.75 0.09375 2.671875 0.09375 C 2.96875 0.09375 3.25 0.078125 3.65625 0 Z M 3.65625 0 "/>
</symbol>
<symbol overflow="visible" id="glyph2-11">
<path style="stroke:none;" d="M 2.203125 0 L 2.203125 -7.546875 L 1.015625 -7.546875 L 1.015625 0 Z M 2.359375 -8.6875 L 2.359375 -10.1875 L 0.859375 -10.1875 L 0.859375 -8.6875 Z M 2.359375 -8.6875 "/>
</symbol>
<symbol overflow="visible" id="glyph2-12">
<path style="stroke:none;" d="M 7.125 0 L 7.125 -10.5 L 5.9375 -10.5 L 5.9375 -6.59375 C 5.4375 -7.359375 4.625 -7.765625 3.609375 -7.765625 C 1.65625 -7.765625 0.375 -6.25 0.375 -3.84375 C 0.375 -1.296875 1.625 0.21875 3.65625 0.21875 C 4.703125 0.21875 5.421875 -0.171875 6.0625 -1.109375 L 6.0625 0 Z M 5.9375 -3.75 C 5.9375 -2 5.09375 -0.90625 3.828125 -0.90625 C 2.5 -0.90625 1.625 -2.015625 1.625 -3.78125 C 1.625 -5.53125 2.5 -6.640625 3.8125 -6.640625 C 5.109375 -6.640625 5.9375 -5.484375 5.9375 -3.75 Z M 5.9375 -3.75 "/>
</symbol>
<symbol overflow="visible" id="glyph2-13">
<path style="stroke:none;" d="M 7.046875 -1.234375 L 7.046875 -7.546875 L 5.9375 -7.546875 L 5.9375 -6.453125 C 5.328125 -7.34375 4.59375 -7.765625 3.625 -7.765625 C 1.71875 -7.765625 0.421875 -6.15625 0.421875 -3.703125 C 0.421875 -1.328125 1.75 0.21875 3.53125 0.21875 C 4.484375 0.21875 5.140625 -0.1875 5.9375 -1.140625 L 5.9375 -0.640625 C 5.9375 1.375 5.109375 2.125 3.71875 2.125 C 2.765625 2.125 2.03125 1.78125 1.890625 0.859375 L 0.65625 0.859375 C 0.796875 2.296875 1.90625 3.140625 3.671875 3.140625 C 6.03125 3.140625 7.046875 2.09375 7.046875 -1.234375 Z M 5.8125 -3.734375 C 5.8125 -1.9375 5.046875 -0.890625 3.78125 -0.890625 C 2.46875 -0.890625 1.671875 -1.9375 1.671875 -3.78125 C 1.671875 -5.59375 2.484375 -6.65625 3.765625 -6.65625 C 5.0625 -6.65625 5.8125 -5.5625 5.8125 -3.734375 Z M 5.8125 -3.734375 "/>
</symbol>
<symbol overflow="visible" id="glyph2-14">
<path style="stroke:none;" d="M 6.9375 0 L 6.9375 -7.546875 L 5.75 -7.546875 L 5.75 -3.390625 C 5.75 -1.84375 4.9375 -0.828125 3.6875 -0.828125 C 2.734375 -0.828125 2.125 -1.40625 2.125 -2.3125 L 2.125 -7.546875 L 0.9375 -7.546875 L 0.9375 -1.84375 C 0.9375 -0.59375 1.875 0.21875 3.34375 0.21875 C 4.453125 0.21875 5.15625 -0.171875 5.859375 -1.171875 L 5.859375 0 Z M 6.9375 0 "/>
</symbol>
<symbol overflow="visible" id="glyph2-15">
<path style="stroke:none;" d="M 6.609375 -2.125 C 6.609375 -3.234375 5.984375 -3.796875 4.484375 -4.15625 L 3.328125 -4.4375 C 2.34375 -4.671875 1.9375 -4.984375 1.9375 -5.515625 C 1.9375 -6.203125 2.546875 -6.65625 3.53125 -6.65625 C 4.5 -6.65625 5.015625 -6.234375 5.046875 -5.453125 L 6.3125 -5.453125 C 6.296875 -6.921875 5.3125 -7.765625 3.578125 -7.765625 C 1.8125 -7.765625 0.671875 -6.859375 0.671875 -5.453125 C 0.671875 -4.28125 1.28125 -3.71875 3.0625 -3.28125 L 4.1875 -3.015625 C 5.03125 -2.8125 5.359375 -2.5625 5.359375 -2.015625 C 5.359375 -1.3125 4.65625 -0.890625 3.59375 -0.890625 C 2.515625 -0.890625 1.921875 -1.15625 1.75 -2.3125 L 0.484375 -2.3125 C 0.546875 -0.5625 1.53125 0.21875 3.5 0.21875 C 5.40625 0.21875 6.609375 -0.65625 6.609375 -2.125 Z M 6.609375 -2.125 "/>
</symbol>
</g>
<clipPath id="clip1">
  <path d="M 52.984375 25.59375 L 571 25.59375 L 571 395 L 52.984375 395 Z M 52.984375 25.59375 "/>
</clipPath>
</defs>
<g id="surface4701">
<rect x="0" y="0" width="576" height="432" style="fill:rgb(100%,100%,100%);fill-opacity:1;stroke:none;"/>
<rect x="0" y="0" width="576" height="432" style="fill:rgb(100%,100%,100%);fill-opacity:1;stroke:none;"/>
<path style="fill:none;stroke-width:1.163976;stroke-linecap:round;stroke-linejoin:round;stroke:rgb(100%,100%,100%);stroke-opacity:1;stroke-miterlimit:10;" d="M 0 432 L 576 432 L 576 0 L 0 0 Z M 0 432 "/>
<g clip-path="url(#clip1)" clip-rule="nonzero">
<path style=" stroke:none;fill-rule:nonzero;fill:rgb(100%,100%,100%);fill-opacity:1;" d="M 52.984375 394.375 L 570.019531 394.375 L 570.019531 25.597656 L 52.984375 25.597656 Z M 52.984375 394.375 "/>
</g>
<path style="fill:none;stroke-width:1.066978;stroke-linecap:butt;stroke-linejoin:round;stroke:rgb(27.45098%,50.980392%,70.588235%);stroke-opacity:1;stroke-miterlimit:10;" d="M 83.398438 42.359375 L 134.089844 248.023438 L 184.78125 305.238281 L 235.46875 322.445312 L 286.160156 336.40625 L 336.847656 348.472656 L 387.539062 358.945312 L 438.230469 368.617188 L 488.917969 377.609375 L 539.609375 377.605469 "/>
<path style="fill-rule:nonzero;fill:rgb(27.45098%,50.980392%,70.588235%);fill-opacity:1;stroke-width:0.708661;stroke-linecap:round;stroke-linejoin:round;stroke:rgb(27.45098%,50.980392%,70.588235%);stroke-opacity:1;stroke-miterlimit:10;" d="M 85.566406 42.359375 C 85.566406 45.25 81.230469 45.25 81.230469 42.359375 C 81.230469 39.46875 85.566406 39.46875 85.566406 42.359375 "/>
<path style="fill-rule:nonzero;fill:rgb(27.45098%,50.980392%,70.588235%);fill-opacity:1;stroke-width:0.708661;stroke-linecap:round;stroke-linejoin:round;stroke:rgb(27.45098%,50.980392%,70.588235%);stroke-opacity:1;stroke-miterlimit:10;" d="M 136.257812 248.023438 C 136.257812 250.914062 131.921875 250.914062 131.921875 248.023438 C 131.921875 245.132812 136.257812 245.132812 136.257812 248.023438 "/>
<path style="fill-rule:nonzero;fill:rgb(27.45098%,50.980392%,70.588235%);fill-opacity:1;stroke-width:0.708661;stroke-linecap:round;stroke-linejoin:round;stroke:rgb(27.45098%,50.980392%,70.588235%);stroke-opacity:1;stroke-miterlimit:10;" d="M 186.949219 305.238281 C 186.949219 308.128906 182.613281 308.128906 182.613281 305.238281 C 182.613281 302.34375 186.949219 302.34375 186.949219 305.238281 "/>
<path style="fill-rule:nonzero;fill:rgb(27.45098%,50.980392%,70.588235%);fill-opacity:1;stroke-width:0.708661;stroke-linecap:round;stroke-linejoin:round;stroke:rgb(27.45098%,50.980392%,70.588235%);stroke-opacity:1;stroke-miterlimit:10;" d="M 237.636719 322.445312 C 237.636719 325.335938 233.300781 325.335938 233.300781 322.445312 C 233.300781 319.554688 237.636719 319.554688 237.636719 322.445312 "/>
<path style="fill-rule:nonzero;fill:rgb(27.45098%,50.980392%,70.588235%);fill-opacity:1;stroke-width:0.708661;stroke-linecap:round;stroke-linejoin:round;stroke:rgb(27.45098%,50.980392%,70.588235%);stroke-opacity:1;stroke-miterlimit:10;" d="M 288.328125 336.40625 C 288.328125 339.296875 283.992188 339.296875 283.992188 336.40625 C 283.992188 333.515625 288.328125 333.515625 288.328125 336.40625 "/>
<path style="fill-rule:nonzero;fill:rgb(27.45098%,50.980392%,70.588235%);fill-opacity:1;stroke-width:0.708661;stroke-linecap:round;stroke-linejoin:round;stroke:rgb(27.45098%,50.980392%,70.588235%);stroke-opacity:1;stroke-miterlimit:10;" d="M 339.015625 348.472656 C 339.015625 351.363281 334.679688 351.363281 334.679688 348.472656 C 334.679688 345.582031 339.015625 345.582031 339.015625 348.472656 "/>
<path style="fill-rule:nonzero;fill:rgb(27.45098%,50.980392%,70.588235%);fill-opacity:1;stroke-width:0.708661;stroke-linecap:round;stroke-linejoin:round;stroke:rgb(27.45098%,50.980392%,70.588235%);stroke-opacity:1;stroke-miterlimit:10;" d="M 389.707031 358.945312 C 389.707031 361.835938 385.371094 361.835938 385.371094 358.945312 C 385.371094 356.054688 389.707031 356.054688 389.707031 358.945312 "/>
<path style="fill-rule:nonzero;fill:rgb(27.45098%,50.980392%,70.588235%);fill-opacity:1;stroke-width:0.708661;stroke-linecap:round;stroke-linejoin:round;stroke:rgb(27.45098%,50.980392%,70.588235%);stroke-opacity:1;stroke-miterlimit:10;" d="M 440.398438 368.617188 C 440.398438 371.507812 436.0625 371.507812 436.0625 368.617188 C 436.0625 365.726562 440.398438 365.726562 440.398438 368.617188 "/>
<path style="fill-rule:nonzero;fill:rgb(27.45098%,50.980392%,70.588235%);fill-opacity:1;stroke-width:0.708661;stroke-linecap:round;stroke-linejoin:round;stroke:rgb(27.45098%,50.980392%,70.588235%);stroke-opacity:1;stroke-miterlimit:10;" d="M 491.085938 377.609375 C 491.085938 380.503906 486.75 380.503906 486.75 377.609375 C 486.75 374.71875 491.085938 374.71875 491.085938 377.609375 "/>
<path style="fill-rule:nonzero;fill:rgb(27.45098%,50.980392%,70.588235%);fill-opacity:1;stroke-width:0.708661;stroke-linecap:round;stroke-linejoin:round;stroke:rgb(27.45098%,50.980392%,70.588235%);stroke-opacity:1;stroke-miterlimit:10;" d="M 541.777344 377.605469 C 541.777344 380.496094 537.441406 380.496094 537.441406 377.605469 C 537.441406 374.714844 541.777344 374.714844 541.777344 377.605469 "/>
<path style="fill:none;stroke-width:1.066978;stroke-linecap:butt;stroke-linejoin:round;stroke:rgb(0%,0%,0%);stroke-opacity:1;stroke-miterlimit:10;" d="M 52.984375 394.375 L 52.984375 25.59375 "/>
<g style="fill:rgb(0%,0%,0%);fill-opacity:1;">
  <use xlink:href="#glyph0-1" x="20.605469" y="388.444336"/>
  <use xlink:href="#glyph0-2" x="27.277344" y="388.444336"/>
  <use xlink:href="#glyph0-2" x="33.949219" y="388.444336"/>
  <use xlink:href="#glyph0-2" x="40.621094" y="388.444336"/>
</g>
<g style="fill:rgb(0%,0%,0%);fill-opacity:1;">
  <use xlink:href="#glyph0-3" x="20.605469" y="315.530273"/>
  <use xlink:href="#glyph0-2" x="27.277344" y="315.530273"/>
  <use xlink:href="#glyph0-2" x="33.949219" y="315.530273"/>
  <use xlink:href="#glyph0-2" x="40.621094" y="315.530273"/>
</g>
<g style="fill:rgb(0%,0%,0%);fill-opacity:1;">
  <use xlink:href="#glyph0-4" x="20.605469" y="242.612305"/>
  <use xlink:href="#glyph0-2" x="27.277344" y="242.612305"/>
  <use xlink:href="#glyph0-2" x="33.949219" y="242.612305"/>
  <use xlink:href="#glyph0-2" x="40.621094" y="242.612305"/>
</g>
<g style="fill:rgb(0%,0%,0%);fill-opacity:1;">
  <use xlink:href="#glyph0-5" x="20.605469" y="169.694336"/>
  <use xlink:href="#glyph0-2" x="27.277344" y="169.694336"/>
  <use xlink:href="#glyph0-2" x="33.949219" y="169.694336"/>
  <use xlink:href="#glyph0-2" x="40.621094" y="169.694336"/>
</g>
<g style="fill:rgb(0%,0%,0%);fill-opacity:1;">
  <use xlink:href="#glyph0-6" x="20.605469" y="96.780273"/>
  <use xlink:href="#glyph0-2" x="27.277344" y="96.780273"/>
  <use xlink:href="#glyph0-2" x="33.949219" y="96.780273"/>
  <use xlink:href="#glyph0-2" x="40.621094" y="96.780273"/>
</g>
<path style="fill:none;stroke-width:1.163976;stroke-linecap:butt;stroke-linejoin:round;stroke:rgb(0%,0%,0%);stroke-opacity:1;stroke-miterlimit:10;" d="M 49.996094 384.167969 L 52.984375 384.167969 "/>
<path style="fill:none;stroke-width:1.163976;stroke-linecap:butt;stroke-linejoin:round;stroke:rgb(0%,0%,0%);stroke-opacity:1;stroke-miterlimit:10;" d="M 49.996094 311.253906 L 52.984375 311.253906 "/>
<path style="fill:none;stroke-width:1.163976;stroke-linecap:butt;stroke-linejoin:round;stroke:rgb(0%,0%,0%);stroke-opacity:1;stroke-miterlimit:10;" d="M 49.996094 238.335938 L 52.984375 238.335938 "/>
<path style="fill:none;stroke-width:1.163976;stroke-linecap:butt;stroke-linejoin:round;stroke:rgb(0%,0%,0%);stroke-opacity:1;stroke-miterlimit:10;" d="M 49.996094 165.417969 L 52.984375 165.417969 "/>
<path style="fill:none;stroke-width:1.163976;stroke-linecap:butt;stroke-linejoin:round;stroke:rgb(0%,0%,0%);stroke-opacity:1;stroke-miterlimit:10;" d="M 49.996094 92.503906 L 52.984375 92.503906 "/>
<path style="fill:none;stroke-width:1.066978;stroke-linecap:butt;stroke-linejoin:round;stroke:rgb(0%,0%,0%);stroke-opacity:1;stroke-miterlimit:10;" d="M 52.984375 394.375 L 570.023438 394.375 "/>
<path style="fill:none;stroke-width:1.163976;stroke-linecap:butt;stroke-linejoin:round;stroke:rgb(0%,0%,0%);stroke-opacity:1;stroke-miterlimit:10;" d="M 83.398438 397.363281 L 83.398438 394.375 "/>
<path style="fill:none;stroke-width:1.163976;stroke-linecap:butt;stroke-linejoin:round;stroke:rgb(0%,0%,0%);stroke-opacity:1;stroke-miterlimit:10;" d="M 134.089844 397.363281 L 134.089844 394.375 "/>
<path style="fill:none;stroke-width:1.163976;stroke-linecap:butt;stroke-linejoin:round;stroke:rgb(0%,0%,0%);stroke-opacity:1;stroke-miterlimit:10;" d="M 184.78125 397.363281 L 184.78125 394.375 "/>
<path style="fill:none;stroke-width:1.163976;stroke-linecap:butt;stroke-linejoin:round;stroke:rgb(0%,0%,0%);stroke-opacity:1;stroke-miterlimit:10;" d="M 235.46875 397.363281 L 235.46875 394.375 "/>
<path style="fill:none;stroke-width:1.163976;stroke-linecap:butt;stroke-linejoin:round;stroke:rgb(0%,0%,0%);stroke-opacity:1;stroke-miterlimit:10;" d="M 286.160156 397.363281 L 286.160156 394.375 "/>
<path style="fill:none;stroke-width:1.163976;stroke-linecap:butt;stroke-linejoin:round;stroke:rgb(0%,0%,0%);stroke-opacity:1;stroke-miterlimit:10;" d="M 336.847656 397.363281 L 336.847656 394.375 "/>
<path style="fill:none;stroke-width:1.163976;stroke-linecap:butt;stroke-linejoin:round;stroke:rgb(0%,0%,0%);stroke-opacity:1;stroke-miterlimit:10;" d="M 387.539062 397.363281 L 387.539062 394.375 "/>
<path style="fill:none;stroke-width:1.163976;stroke-linecap:butt;stroke-linejoin:round;stroke:rgb(0%,0%,0%);stroke-opacity:1;stroke-miterlimit:10;" d="M 438.230469 397.363281 L 438.230469 394.375 "/>
<path style="fill:none;stroke-width:1.163976;stroke-linecap:butt;stroke-linejoin:round;stroke:rgb(0%,0%,0%);stroke-opacity:1;stroke-miterlimit:10;" d="M 488.917969 397.363281 L 488.917969 394.375 "/>
<path style="fill:none;stroke-width:1.163976;stroke-linecap:butt;stroke-linejoin:round;stroke:rgb(0%,0%,0%);stroke-opacity:1;stroke-miterlimit:10;" d="M 539.609375 397.363281 L 539.609375 394.375 "/>
<g style="fill:rgb(0%,0%,0%);fill-opacity:1;">
  <use xlink:href="#glyph0-7" x="79.898438" y="408.530273"/>
</g>
<g style="fill:rgb(0%,0%,0%);fill-opacity:1;">
  <use xlink:href="#glyph0-1" x="130.589844" y="408.530273"/>
</g>
<g style="fill:rgb(0%,0%,0%);fill-opacity:1;">
  <use xlink:href="#glyph0-3" x="181.28125" y="408.530273"/>
</g>
<g style="fill:rgb(0%,0%,0%);fill-opacity:1;">
  <use xlink:href="#glyph0-4" x="231.96875" y="408.530273"/>
</g>
<g style="fill:rgb(0%,0%,0%);fill-opacity:1;">
  <use xlink:href="#glyph0-5" x="282.660156" y="408.530273"/>
</g>
<g style="fill:rgb(0%,0%,0%);fill-opacity:1;">
  <use xlink:href="#glyph0-6" x="333.347656" y="408.530273"/>
</g>
<g style="fill:rgb(0%,0%,0%);fill-opacity:1;">
  <use xlink:href="#glyph0-8" x="384.039062" y="408.530273"/>
</g>
<g style="fill:rgb(0%,0%,0%);fill-opacity:1;">
  <use xlink:href="#glyph0-9" x="434.730469" y="408.530273"/>
</g>
<g style="fill:rgb(0%,0%,0%);fill-opacity:1;">
  <use xlink:href="#glyph0-10" x="485.417969" y="408.530273"/>
</g>
<g style="fill:rgb(0%,0%,0%);fill-opacity:1;">
  <use xlink:href="#glyph0-7" x="532.609375" y="408.530273"/>
  <use xlink:href="#glyph0-2" x="539.28125" y="408.530273"/>
</g>
<g style="fill:rgb(0%,0%,0%);fill-opacity:1;">
  <use xlink:href="#glyph0-11" x="261.503906" y="423.15918"/>
  <use xlink:href="#glyph0-12" x="270.167969" y="423.15918"/>
  <use xlink:href="#glyph0-13" x="276.839844" y="423.15918"/>
  <use xlink:href="#glyph0-14" x="286.835938" y="423.15918"/>
  <use xlink:href="#glyph0-15" x="293.507812" y="423.15918"/>
  <use xlink:href="#glyph0-16" x="297.444336" y="423.15918"/>
  <use xlink:href="#glyph0-17" x="304.116211" y="423.15918"/>
  <use xlink:href="#glyph0-18" x="307.452148" y="423.15918"/>
  <use xlink:href="#glyph0-14" x="314.124023" y="423.15918"/>
  <use xlink:href="#glyph0-17" x="320.795898" y="423.15918"/>
  <use xlink:href="#glyph0-19" x="324.131836" y="423.15918"/>
  <use xlink:href="#glyph0-15" x="330.803711" y="423.15918"/>
  <use xlink:href="#glyph0-12" x="334.799805" y="423.15918"/>
  <use xlink:href="#glyph0-20" x="341.47168" y="423.15918"/>
  <use xlink:href="#glyph0-16" x="348.143555" y="423.15918"/>
  <use xlink:href="#glyph0-21" x="354.81543" y="423.15918"/>
</g>
<g style="fill:rgb(0%,0%,0%);fill-opacity:1;">
  <use xlink:href="#glyph1-1" x="14.75293" y="296.984375"/>
  <use xlink:href="#glyph1-2" x="14.75293" y="288.980469"/>
  <use xlink:href="#glyph1-3" x="14.75293" y="282.308594"/>
  <use xlink:href="#glyph1-4" x="14.75293" y="272.3125"/>
  <use xlink:href="#glyph1-5" x="14.75293" y="265.640625"/>
  <use xlink:href="#glyph1-6" x="14.75293" y="262.304688"/>
  <use xlink:href="#glyph1-7" x="14.75293" y="255.632812"/>
  <use xlink:href="#glyph1-5" x="14.75293" y="248.960938"/>
  <use xlink:href="#glyph1-8" x="14.75293" y="245.625"/>
  <use xlink:href="#glyph1-2" x="14.75293" y="239.625"/>
  <use xlink:href="#glyph1-4" x="14.75293" y="232.953125"/>
  <use xlink:href="#glyph1-6" x="14.75293" y="226.28125"/>
  <use xlink:href="#glyph1-9" x="14.75293" y="219.609375"/>
  <use xlink:href="#glyph1-4" x="14.75293" y="215.672852"/>
  <use xlink:href="#glyph1-6" x="14.75293" y="209.000977"/>
  <use xlink:href="#glyph1-10" x="14.75293" y="202.329102"/>
  <use xlink:href="#glyph1-11" x="14.75293" y="195.657227"/>
  <use xlink:href="#glyph1-5" x="14.75293" y="189.657227"/>
  <use xlink:href="#glyph1-12" x="14.75293" y="186.321289"/>
  <use xlink:href="#glyph1-13" x="14.75293" y="183.657227"/>
  <use xlink:href="#glyph1-14" x="14.75293" y="176.985352"/>
  <use xlink:href="#glyph1-9" x="14.75293" y="173.649414"/>
  <use xlink:href="#glyph1-4" x="14.75293" y="169.712891"/>
  <use xlink:href="#glyph1-5" x="14.75293" y="163.041016"/>
  <use xlink:href="#glyph1-15" x="14.75293" y="159.705078"/>
  <use xlink:href="#glyph1-9" x="14.75293" y="153.033203"/>
  <use xlink:href="#glyph1-2" x="14.75293" y="149.037109"/>
  <use xlink:href="#glyph1-16" x="14.75293" y="142.365234"/>
  <use xlink:href="#glyph1-10" x="14.75293" y="135.693359"/>
  <use xlink:href="#glyph1-11" x="14.75293" y="129.021484"/>
</g>
<g style="fill:rgb(0%,0%,0%);fill-opacity:1;">
  <use xlink:href="#glyph2-1" x="52.984375" y="16.506836"/>
  <use xlink:href="#glyph2-2" x="63.380859" y="16.506836"/>
  <use xlink:href="#glyph2-3" x="71.386719" y="16.506836"/>
  <use xlink:href="#glyph2-4" x="83.381836" y="16.506836"/>
  <use xlink:href="#glyph2-5" x="91.387695" y="16.506836"/>
  <use xlink:href="#glyph2-6" x="96.110352" y="16.506836"/>
  <use xlink:href="#glyph2-7" x="104.116211" y="16.506836"/>
  <use xlink:href="#glyph2-8" x="108.119141" y="16.506836"/>
  <use xlink:href="#glyph2-9" x="116.125" y="16.506836"/>
  <use xlink:href="#glyph2-10" x="124.058594" y="16.506836"/>
  <use xlink:href="#glyph2-11" x="128.061523" y="16.506836"/>
  <use xlink:href="#glyph2-3" x="131.257812" y="16.506836"/>
  <use xlink:href="#glyph2-6" x="143.25293" y="16.506836"/>
  <use xlink:href="#glyph2-7" x="151.258789" y="16.506836"/>
  <use xlink:href="#glyph2-12" x="155.261719" y="16.506836"/>
  <use xlink:href="#glyph2-4" x="163.267578" y="16.506836"/>
  <use xlink:href="#glyph2-7" x="171.273438" y="16.506836"/>
  <use xlink:href="#glyph2-13" x="175.276367" y="16.506836"/>
  <use xlink:href="#glyph2-5" x="183.282227" y="16.506836"/>
  <use xlink:href="#glyph2-14" x="188.077148" y="16.506836"/>
  <use xlink:href="#glyph2-9" x="196.083008" y="16.506836"/>
  <use xlink:href="#glyph2-6" x="204.088867" y="16.506836"/>
  <use xlink:href="#glyph2-15" x="212.094727" y="16.506836"/>
</g>
</g>
</svg>
